7
5
3
234327
667880
4
668569
159
3
39
22
205
667607
5
655260
5
3
88884
275346
14382
4
46438
1212
367747
640385
223
3
4
3
172076
662882
317078
254770
5373
609111
4
166657
5729
3
10101
102
3
661996
456248
4
570
652871
5
671497
10637
664988
44
6
3
317728
41
6
877
452581
84
140
672252
485666
440
662853
7
502533
5
664556
664589
4
6
28
674659
666289
8
99566
452055
4
4
249
93
83
189
242598
678223
668806
639810
59767
4
28735
676192
33496
662543
5
6
674997
39
34472
4
2408
3
12
665760
688261
240448
654366
42
3
29394
207644
12226
647756
619
7
354986
657753
8
667218
669084
5
1218
341
13
5
665473
32774
389293
631
10521
655573
577364
76
12
678877
4820
460798
5
5
488240
5
3
4
25415
657900
10
212202
664124
665688
5
666482
636404
4
961
479028
41
600356
8
4
600661
63
12
641235
7
55
35
15742
26552
7
438988
77715
129223
664407
24
8
653295
660649
624030
4
586377
3
660509
43
91475
4
4
10008
571517
5
575532
316599
319555
5
661160
103793
457
661555
9
13
117
8
657013
7
543914
36
76
656019
644737
669134
59974
4
3
4
23
22796
63852
7
254435
59
31932
314441
283
662203
5
6755
8828
669003
4
2371
177088
9
3
310424
30937
238
640989
43
1185
663889
4
669886
186804
589
49269
6
614347
10012
87385
1263
3
530142
8
3743
387090
262112
3389
163
33
3
51509
663706
686
335
658817
22742
90127
441070
222
672685
671747
15218
19358
38587
14
65
393459
11
89793
232859
35
208
7378
11
665118
105
667982
669723
662092
19159
535859
4
52545
4
559638
320
4
258
6
13
57249
4
81
599094
5
670936
624
314
466275
5
660270
5
62241
25632
639134
13
3
4
161
664100
5
4
367769
659911
479
37
2527
453761
5861
475912
5347
655025
7781
3
4
550
3
50916
295
851
4796
3
4790
40644
6
32
7233
7
678571
7
7548
669334
5
3
14620
4
4256
454368
60329
4
40930
4
1843
657033
7
831
122933
331745
5
7
391028
604288
3792
662501
5408
72416
9
7
103
8
15330
4
649652
5
668543
435795
228861
1372
9
3
81
12
7
5
642003
18
624916
9
158468
1117
654176
125632
671979
45182
3143
662967
4
205
3
6
483281
7
44804
5
4
163
10
5
32456
896
210714
4841
458716
66366
9
315822
5
888
4
486435
4
209
161
8861
8
173607
43
133
39021
1280
3
6
3
190770
60115
98542
181
1557
3
5
76
500
662035
661148
5
8
563056
5
3
3
22
516315
1110
322
27487
4
6
17
373770
5
671891
567895
949
3
3157
3
11
10183
4
7
580171
5
669515
5113
121013
4
3
149
669256
233
82
816
656477
4
12
89
667841
28286
4
6
668520
