72
7
22
313803
85490673
5
1767986
35165988
7
634
42
3
1418171
5
3955991
6
4
85465678
58968
327521
652
54244459
2892
85321858
85485475
79905967
5
3
4
177999
32192301
84476901
67418691
85
84001655
42
6543
4
5
5
5144121
5
85305717
10097121
55248460
9107
139516
5
84594383
68010246
85318863
8
14
3
79672096
1196345
23
1386710
73474036
20982
6
57978365
85128839
80163136
933913
20
158
4
569
14977685
6
31140
3888
48252
14639618
22
182
24002573
690
36
1151
76
1280
2063327
446
66433362
85369044
82732447
43145075
44
85511267
1382005
81259767
14852
4
288
350505
495879
85488399
5
2592
4
1299
1045715
11071159
82028083
9590
3
4
101438
21346843
6797886
855
10341
2832280
5542
85342078
5199
5
85230672
8
4
52715522
5
9
5
85482734
83243759
18
9072
85265842
4
46843
56
7441
7
31030621
562
6
85529766
6
296664
10
5681831
3101996
6
8951410
83911077
73141359
6
890
85002674
5
36751
23512483
167444
33818341
74
3
4916710
22021
477
85414834
46879196
161
315547
7440843
85382997
2574925
57457088
1443
154
39971390
63
270
2992265
159246
65651624
48344
1316
4
40
654
56556759
5
3
160766
84850129
34
14652982
839084
85603911
4
5743462
6
13
85548047
4
4532
41907
6
85375003
25
4222372
6354
724
85705359
85426319
85510083
233656
5
4
1318
59
85210456
85511308
1313179
83779668
127399
275308
20238043
82373
83799252
19
40734341
84834860
62196322
5
2488
41070718
86
5
2480
2304266
920
20417856
1274
1580949
85424188
5
21691
56438
56
85348156
13
85453097
75657612
39456812
20132
5
3746
12
37552736
19859975
535
13415
164
438338
6
50095720
26818436
85316491
747663
37301536
5500416
63
38464217
62383
2097
146445
10315624
60887
157
923
1320
77099475
11
85296826
63973410
76
85378793
85344002
10353
15338140
2651743
461157
80742342
2863926
3997047
804
7
85360914
5
79697094
639082
942
627
13
27910
12627
282
163223
85243711
137
27338170
1341489
69
3802696
5
62018842
274
900671
85555102
66059530
4
5
11
63
84960224
5
6
85455162
70670
2527
532933
3947
84352945
65377947
17584
21104089
85363269
8982
4
3
17290841
5
71065518
43
42860
3082
908
79
85290493
7
327
5
3
66702070
70
11387
84825532
5
4
1581
59
829939
25767
3993155
6
2041
3
2900182
85298229
55790
2662395
6668464
85493626
85365000
11
36221487
6
75935
85270705
85221128
5331075
1259
6
622641
122
1222907
636
15905
85304642
290
84624559
12176969
37153
58
4
17
2535
5
4
85474326
64757897
85438988
1026
231599
3707
83807116
1304891
217973
9
20277
85117339
5
183
3
3305654
14557
6
109089
12
4419
70348372
299
29
85481938
601111
66550233
15
3113
67614794
11759447
636611
4
146
4
76725319
7
30
13
163864
8183
31237519
9447
1225
171644
48871
477
5
3
85412363
85548677
83745664
2213
82643254
6
5
5
23
6207895
85449354
5
5176
15293217
5
4
3
7
163570
7704
478
65884487
4
33
3
183048
59789179
122
83750084
471
3
72
41079
82729987
627832
478
4
5573992
6
10387293
19
85423619
5
8
7
75401795
2527
8
919371
10756
4
42
1949284
85530498
2649201
5
5
85526672
