7
6
6
8
2
6
1884
3
7
7
6
6
833
6
2181
6
6
3
36
8
8
2
27
2
3
3
6
6
6
36
1013
151
3
6
3
6
28
6
6
6
15670
7
3
9
5166
7
99
6
2
3
13
6
7
6
2
502
6
15733
62
8
6
3
3
2
21
6
31
6
34
3
6
7
7
269
3
6
22
17625
8
6
344
6
7
7
92
2
3
3
3
6
2
3
19
35
5
7
3
8
2
6
7
6
7
341
175
3
166
6
6
2
9
1221
39
7
4
123
3
7
7
3
6
7
3
6
6
8
3
3
8
66
3
5
7
6
1525
7
3
7
6
3
6
8
6
101
9633
6
14
3
3
6
19
2
6
7
2
8
2
7
5
1982
7
7
3
45591
7
4
2
2
9
9
277
26
3
7
7
1998
39
3
131
31
6
11
7
3
6
6
281
2
7
2
65
3
6
3
6
6
2
6
7
7
6
3
7
139
7
7
3
3
3
226
6
6
27
6
2
2
6
3
634
70
2
8
2
9
3
2
22
6
7
2
6
6
161
8
7
3
7
8
3
6
102
66
67
3
6
3
2
3
7
6
239
6
181
197
136
531
6
7
6
3
20558
3
3
3
3998
17
18
8
156
17
8
7
6
7
6
3
6
2
3
7
2
3
8
10252
8
26188
3
2
8
27
6
2
6
2
8
6
6
6
7
9
6
8
3
7
3
8
7
4
6
6
9
2477
3
2
6
6
6
6
3
6
6
3
1022
7
2
7
3
206
83
9
2
7
6
6
3
6
58
6
8
1463
6
6
2
6
27
7
6
3
6
9
3
6
6
18
6
17
229
3
6
9
6
3
3
7
9
8
2
2
6
3
7
7
2
3
10
21
6
8
6
7
6
15
3
15
2
1780
7
7
6
6
7
6
6
3
2
20
7
1217
6
3
8
212
6
7
2
6
6
5
8
6
6
453
6
6
3
6
21
3
8
2
6
25
2
66
779
6
63
6
2
6
6
6
7
492
2
7
6
8
7
6
6
6
3
2
2
7
2
5
6
5
34
3
3
6
6
2
6
6
5
6
7
7
6
16
6
6
5
116
3
30
3
7
6
48
9
3
8
7
6
56
6
2
6
2
5
6
25
2
7
6
3
194
6
6
3
2
19
6
6
2
