233
203
208
246
215
240
233
336
299
213
265
320
193
214
207
257
233
238
208
212
221
272
212
218
233
212
231
188
201
231
186
194
232
237
206
179
231
178
201
189
184
187
202
202
195
220
224
206
226
209
188
217
235
235
279
240
230
216
199
180
209
229
262
286
234
253
233
205
181
411
324
221
182
248
196
221
214
222
245
237
205
200
212
218
185
221
218
224
280
206
233
193
212
228
213
240
213
206
211
215
220
212
191
202
220
239
219
201
240
222
234
204
249
208
209
228
208
207
212
225
184
191
238
219
196
242
199
199
206
183
205
222
228
202
289
334
300
387
223
195
219
245
205
191
174
220
209
193
191
204
217
218
253
224
203
210
214
206
198
227
230
240
203
198
205
197
212
201
203
216
195
213
203
255
240
238
232
214
210
219
219
200
224
224
215
204
214
207
223
234
229
231
217
255
246
238
212
244
226
193
238
215
205
198
213
199
212
182
193
212
192
192
203
224
285
218
230
185
236
216
173
241
210
214
233
221
189
231
245
208
179
228
171
232
194
253
244
262
220
198
242
232
205
220
204
224
239
178
238
226
217
186
222
209
209
225
275
208
225
231
197
214
196
184
259
240
170
246
204
223
214
231
193
177
228
213
217
212
251
250
201
230
229
279
233
232
201
209
207
209
181
204
225
229
219
196
171
277
207
261
275
311
257
231
254
217
160
210
185
205
223
212
252
220
201
229
211
222
232
325
214
215
261
203
227
219
240
246
216
188
207
197
219
206
189
205
246
253
303
399
256
207
219
230
226
213
207
228
217
228
188
178
226
236
214
179
268
235
264
232
219
194
215
237
177
250
233
200
212
215
223
177
227
229
214
202
243
192
186
196
261
191
229
197
245
215
218
229
215
202
223
214
221
226
215
206
193
178
204
219
201
248
447
376
442
368
242
229
237
213
235
234
235
217
234
196
206
265
189
182
210
191
224
236
190
205
204
206
244
193
229
186
216
206
193
228
228
206
222
203
197
230
200
224
194
202
284
351
209
224
214
214
238
265
236
248
218
250
261
220
235
248
204
206
154
170
196
170
223
251
215
202
220
252
214
236
216
180
240
220
193
205
199
204
185
240
200
198
216
193
233
203
256
259
207
219
185
230
191
165
