2627
2831
2709
3007
3130
2927
4225
3103
2886
3069
3781
2901
2592
2762
2711
2650
2529
2683
3009
3155
3023
3216
2817
2904
3127
2933
2745
3565
2796
3265
2780
2834
2848
3009
3188
2768
2836
2955
2773
2822
2734
3043
3030
3009
2839
2615
2791
2766
2681
3049
2893
3020
2716
2723
3022
2811
2665
2980
2497
2993
2863
2970
3396
3112
2855
2725
2853
2693
3072
2598
2900
2622
2827
2983
3018
2897
3249
3157
2786
2805
2799
2665
2588
2634
3011
2899
2619
2863
2712
2898
2556
2878
2652
2959
2906
2883
2986
3085
3508
4175
4128
3428
2979
5001
3052
2927
3142
2348
2987
2771
3102
3364
3097
2694
2776
2823
2987
2891
2806
3212
2791
2317
3092
2623
3281
3628
4000
2912
3146
2665
2784
2515
3256
3182
3206
3034
2985
2962
2868
3154
3460
2920
2925
3034
2870
2891
2830
2989
2590
2785
2745
2683
2845
5902
2663
3460
2660
2784
2658
2884
2884
3155
2681
2806
2491
2775
3661
3161
3780
3156
2546
3230
3303
2851
2669
2998
2781
2995
3353
3014
2910
2961
2386
2452
3549
2570
3106
3117
2635
2640
2951
2559
2860
4042
2738
3042
2308
2988
2954
3052
3016
3012
3146
2793
3051
2739
2714
2995
3175
2685
2575
3019
2541
2719
2561
2351
2753
2734
2495
2970
2859
3246
2499
2584
2802
2556
2716
2852
2386
2879
2177
2849
3598
3230
2927
3173
3270
2914
2671
2768
2571
2414
2940
2704
3115
2887
3271
3062
3027
3196
2650
2794
2891
3186
3085
2484
3132
2891
2879
4444
2380
2448
2525
2533
3143
2668
2752
2467
4178
2495
2629
3005
2832
2885
3102
2803
2738
2494
3024
2416
2922
3370
4282
2672
2295
3259
2439
3040
3289
3021
2992
2848
2893
2732
2900
2997
3051
2861
2649
2928
2962
3109
2890
2733
2925
3080
4176
3004
3062
4008
3166
3111
2952
2321
2912
2358
3194
2616
3488
2818
2613
3197
2645
2920
2631
3196
3159
2797
2531
2812
2490
2957
2609
2438
3002
2754
2902
2921
2941
2582
2842
3018
2817
3098
2965
2966
2543
3396
2788
2848
2901
3114
3492
2611
2637
2767
2468
3067
2852
2622
3244
4498
2860
3023
2531
3023
2742
2918
2889
2999
3544
3082
2886
3055
2869
2935
2478
2590
2609
2925
3167
2818
2508
2881
2978
2487
2831
2975
2679
3032
2730
3150
3279
4659
3466
3084
2947
3157
2922
3231
2835
2856
2672
3141
3312
2769
3065
2705
3061
2768
4995
3452
2547
3072
2691
2989
3385
2127
3633
2958
2912
2460
2492
3173
3104
2562
2947
2398
3196
2377
3190
3015
3320
3380
3137
2913
3013
3053
2625
2782
2704
2956
2539
3142
3059
2849
3226
2639
2933
3019
2841
2632
3284
2777
2862
2931
3372
2924
2834
3112
3297
3289
2691
2939
2804
2936
2603
2859
2913
2652
2782
3366
2869
2776
3046
2814
2961
2646
3179
2754
3019
2624
2992
2883
2851
2608
2688
2789
2826
2786
2809
3053
3203
3117
2361
2721
3221
2775
3316
3031
