10088
10565
10894
11812
12522
12342
12398
11607
14359
12109
12345
11321
11183
10100
11207
10223
11075
9617
11300
12824
12079
9740
14262
12828
13461
11269
13919
10770
11150
12741
10463
11595
10225
12774
10280
10677
12297
12032
11268
11294
12181
12045
11847
10563
12762
9712
14202
12156
11587
11975
11416
10414
9894
11853
10231
11815
10740
10427
11196
12703
10685
11060
10639
11184
11812
10289
11224
11240
12263
12100
11203
11594
11290
11950
11229
10733
9718
12546
11316
12089
11994
11133
12722
11917
11360
11221
11501
10574
10547
9835
12098
11638
11504
12602
11038
11282
12668
12448
12608
10467
12301
12232
9225
11934
11946
12571
11447
11368
10438
11585
11417
11047
11164
12095
13534
9530
11288
12814
10767
13804
13932
11426
10849
11309
10167
11104
11342
12989
12941
8933
9245
11835
10864
12287
13057
13689
13771
11913
12732
10675
10937
9617
13531
13985
11831
13032
11145
12446
10002
11746
10712
13143
12067
11066
12056
11635
12779
10739
10696
11609
10030
10831
11008
10785
11271
12125
10145
11648
10606
11252
10894
10680
12150
11535
11284
11901
10285
9244
11577
14727
11357
12609
10872
10996
11183
10862
12122
10731
13857
10761
11598
11440
14665
11967
11825
12194
9461
10303
13665
11349
10247
12926
10658
12253
9760
12303
10255
11013
13243
11209
11626
9032
11846
10387
11195
12109
11254
12993
10714
11033
9529
11012
12989
11947
12709
10644
9867
11561
10865
11161
10393
9812
9525
12061
11588
10827
11134
12309
15300
10369
10180
10243
10906
9652
10931
10633
10291
10692
9704
10536
12877
12901
11803
11127
13110
13364
11352
10168
10319
9776
10297
12549
11200
11443
11725
10069
12068
11480
12492
10405
10554
11238
11148
13239
10828
11815
13239
11262
11480
11206
9775
10577
10582
10187
11770
11206
11657
10975
8876
11521
10721
9792
12186
11846
10406
12120
11376
10733
10632
11933
10474
9509
14406
12498
10888
10155
10356
13674
10198
11193
13029
11724
11223
11761
11103
10503
11523
13144
11695
11646
11463
10571
11995
12144
12209
12628
11253
9329
12011
10814
11607
14947
11873
12379
9725
12255
12125
10117
9885
10006
14075
10280
11814
14000
10664
11902
11849
10145
12017
10216
12834
12693
13052
14377
11097
8280
11479
10893
10669
10772
10808
11352
11424
12133
11965
10243
9966
13329
11378
11090
11688
10761
11429
11292
10347
11453
11868
11020
10910
11700
9432
10962
9291
10875
9944
11314
11595
10797
12813
13429
10418
11257
9371
12168
10553
10785
10552
11965
13909
14299
11184
12657
11348
11316
9625
10459
12153
9181
11558
13441
11198
10008
11200
11892
10135
9638
11976
12959
11499
12521
9897
12852
13529
13128
12687
13376
12209
12394
12657
11404
12637
11849
12534
10721
11911
14426
10607
11141
10494
12841
10144
11135
11093
11321
9549
12232
9700
11330
12979
10677
11984
12415
10654
11936
10871
10011
12619
11614
10979
11454
10668
11895
9106
12654
12518
13088
12189
11140
12729
9876
11702
9700
12909
10028
10670
11516
9815
12120
13304
10967
11390
11750
11792
10543
10314
11539
10077
11283
11824
11013
11355
12239
12154
11064
13377
11532
12167
10230
12076
12413
