28
7
5
5
5
5
4
5
4
4
4
5
7
5
4
4
4
4
4
4
4
4
4
4
4
4
4
5
4
4
4
4
4
4
4
4
5
6
4
4
4
4
5
4
4
4
4
4
4
4
4
4
4
4
4
4
4
4
4
4
4
4
4
5
4
4
4
4
4
4
14
7
5
4
4
4
4
4
4
4
4
4
4
4
4
4
4
4
4
4
4
4
4
4
4
4
4
4
5
4
9
11
9
9
9
9
10
10
11
11
10
10
10
9
9
11
7
4
4
4
4
4
4
4
4
4
4
5
4
4
5
4
4
4
4
4
4
4
5
4
5
5
4
4
7
4
4
4
4
4
4
4
4
4
4
4
4
4
4
4
4
4
4
4
4
4
4
4
4
4
4
4
4
4
6
5
4
5
4
4
4
4
4
4
4
4
4
4
4
4
4
4
4
4
4
4
4
4
4
4
4
4
5
5
4
4
4
4
4
4
5
5
4
4
4
4
4
4
4
4
4
4
4
4
4
4
4
4
4
4
4
4
4
5
4
4
4
4
4
4
4
4
4
4
4
4
4
4
4
4
4
4
4
4
4
4
4
4
4
4
4
4
4
4
6
4
4
4
4
4
4
4
4
4
4
4
4
5
4
15
5
4
4
4
4
4
4
4
4
4
4
4
10
5
4
4
4
10
4
4
4
4
4
4
4
4
4
4
4
4
4
4
4
4
4
4
4
4
4
4
4
6
4
4
4
4
4
4
4
4
4
4
4
4
4
4
4
4
8
5
5
11
5
5
5
4
4
5
5
8
4
5
5
4
4
4
4
4
6
5
4
5
4
4
4
4
4
4
4
4
5
4
4
4
4
4
4
4
6
4
4
4
4
4
4
4
4
4
4
4
4
4
4
4
4
5
4
4
5
4
4
4
4
4
5
5
4
4
7
4
4
4
4
4
4
4
4
4
5
5
4
4
4
4
4
5
4
4
4
4
4
4
4
4
4
4
4
5
4
4
4
4
4
4
4
4
4
4
4
4
4
4
4
4
4
4
4
4
4
4
4
4
4
4
4
4
4
7
4
4
4
4
4
4
4
5
4
4
4
4
4
4
4
4
4
4
4
5
5
4
5
4
4
4
4
4
8
5
4
4
