48489
31449
27231
22483
24696
14054
22879
57607
49292
47664
52755
34292
31951
48088
67279
40067
24127
20139
32915
24058
26718
41580
45046
50733
34348
39338
24485
52226
35751
16300
36989
30209
28050
33346
45387
28394
19304
44966
24319
28058
42847
20939
45745
42830
26098
43663
9242
29452
52912
43816
23596
26785
49536
33305
41998
13386
10314
33576
40238
30908
29236
53514
30343
23556
28639
54378
25761
49087
49738
26195
32243
25009
9128
38034
35062
17770
15555
21245
49512
16349
20978
43170
19296
31597
29733
30087
23819
11462
54455
34950
31909
38011
47689
9403
18929
37885
9596
40646
31186
42205
49668
38219
50095
25026
56877
44336
50420
42982
13397
44633
32526
38118
23604
10797
48980
33681
41157
39369
27453
36919
10981
24852
15486
40033
23438
24541
17400
36281
20907
51935
29945
22081
40453
33467
15865
42448
33449
39284
39079
47607
45561
21331
12371
53649
46787
31003
22952
28434
38380
23848
25003
17764
23090
46425
38203
58622
40249
28596
30501
17312
15519
3647
40274
26612
30118
45703
40239
21167
43894
30682
56369
18079
50833
28496
28788
32880
50620
37975
27060
43623
27030
22667
26009
31876
18605
33078
56498
49925
28845
48626
26549
35204
37942
36537
26882
23006
23615
24455
20777
38597
27033
51551
19250
47016
24876
13369
35101
51222
23018
20838
28049
59145
36301
18836
40868
28245
41358
10059
51682
17118
21822
31965
51966
9359
32880
43270
56401
11121
36927
53955
14658
30072
44057
52647
40510
11897
31048
65735
46404
26134
48850
54721
33161
17909
44829
53615
24814
35725
50711
57457
17232
31825
20564
42810
16608
38143
30978
34528
11167
17800
54228
18947
36833
52180
52409
42787
64304
47384
56609
32764
15471
48245
42198
25693
46563
20206
19144
60218
31773
18188
14463
33896
23352
22926
32828
27867
17729
15631
34897
26140
28107
39842
52713
28604
26780
33442
69137
29845
18187
27043
50177
98455
29099
67959
34215
39521
47464
20405
27594
25806
34957
33477
36636
14762
27802
32721
29258
40882
41728
49594
14281
5271
60561
47967
22585
41375
26931
23865
11649
24987
42756
46534
45246
22277
26063
13892
34728
23702
35288
28362
50569
49971
43565
55335
42111
65564
24478
40744
45117
34827
34887
14250
32250
48511
54285
20507
25030
46534
29816
43687
13538
38874
35993
27111
46935
19498
22133
25617
19646
21785
32049
18002
6210
36833
30771
55435
58512
64688
10005
11277
23232
23793
21635
35697
32910
15976
57961
59342
34535
49987
20402
34060
16949
48826
36597
29033
30784
38892
33685
46612
16906
55592
27475
16089
9336
26802
42572
16686
53007
37324
25399
26928
41064
34967
37231
44151
34654
31988
22265
38904
13415
40892
57003
44151
37938
15629
22774
34781
35261
29143
43330
36966
20870
23908
24353
41049
27320
32117
55175
45296
45823
38724
35421
36663
40574
25348
33668
40133
33758
48144
36514
10460
63399
36786
44982
32940
34694
27502
44287
32833
41627
19407
40403
36988
50560
57558
52615
34151
33851
35116
18945
48613
40810
14589
8804
30189
36572
25327
27496
9608
43564
33206
47171
35491
48680
34818
26339
26400
32007
23367
29504
63514
43448
52103
34548
39545
30447
43929
61393
47086
