1567
1627
1787
1683
1683
1887
1710
1678
1775
1812
1448
1572
1549
1511
1566
1689
1783
2088
1960
1516
1683
1781
1522
1860
1528
1653
1660
1718
1683
1640
1709
1791
1553
1724
1662
1704
1649
1644
1589
1809
1549
1596
1671
1443
1666
1872
1841
1855
1643
1433
1763
1745
1731
2333
1814
1836
2607
2816
2264
1654
1643
1809
1744
1932
1722
1835
1626
1634
1660
1466
1542
1761
1944
1658
1584
1646
1586
1723
2600
3273
1656
1611
1780
1746
1725
1816
1645
1650
1857
1808
1729
1680
1718
1640
2260
3293
1933
1742
1578
1961
1572
1785
1373
1481
1650
2126
2033
1860
1823
1570
1617
1468
1916
1771
1818
1682
1716
1636
1651
1962
1537
1736
1780
1578
1894
1626
1626
1715
1758
1674
1785
1436
1469
1665
2810
3166
2135
1560
1835
1507
1579
1763
1689
1724
1604
1619
1554
1664
1782
1820
1719
1775
1739
1797
1478
1430
1954
1511
1930
1540
1516
1867
1674
1898
1810
1712
1420
1725
1522
1967
1690
1643
1700
1538
1537
1594
1876
1638
1425
1904
1505
1566
1494
1468
1624
2155
2898
1921
1677
1582
1712
1473
1552
1682
1536
1392
1619
1754
1612
1775
1764
1705
1788
1470
1525
1668
1594
1803
1707
1562
1750
2029
1605
1711
1629
1734
1440
2143
1897
1729
1717
1373
1471
1588
1719
1741
1649
1451
1551
1566
1753
1824
2081
1800
1692
1709
1704
1463
2476
1839
1824
1425
1778
1584
1712
1722
1860
1684
1608
1714
1812
1812
1674
1592
1833
1653
1718
1698
1624
1554
1693
1677
1610
1455
1822
1527
1427
1480
1787
1583
1971
1518
1740
1584
1649
1607
1815
1861
1671
1575
1516
1622
1443
1642
2156
1719
1745
1701
1455
1757
1903
1681
1635
1766
1710
1559
1887
1537
1761
1514
1611
1604
1454
1673
1831
1576
1753
1897
1665
1661
1684
1593
1590
1726
1939
1575
1904
1637
1548
1501
1381
1635
1859
1620
1474
1754
1528
1373
1844
1596
1797
1496
2007
1610
1837
1764
1628
1953
1666
1791
1781
1549
1724
1949
1581
1556
1832
1531
1659
1761
1498
1575
1706
1906
1311
1822
1655
1546
1446
1804
1545
1619
1530
1690
1510
1721
1768
1805
1669
1567
1814
1433
1682
1436
1670
1599
1713
1720
1587
1714
1579
1630
1550
1491
1598
1643
1496
1724
1532
1715
1672
1748
1475
1627
1668
1689
1635
1747
2986
3645
1942
1616
1780
1660
1601
1603
1583
1669
1462
1746
1579
1571
1485
1552
1741
1587
1772
1459
1875
1438
1578
1835
1747
1803
1469
1737
1589
1395
1684
2065
1501
1642
1573
1657
1631
1693
1719
1508
1739
1657
1707
1559
1507
1904
1940
1734
1652
1641
1596
1872
1798
1653
1781
1782
1673
1548
1656
1517
1512
1521
1581
1773
1851
1420
1733
1580
1776
1877
1838
2022
1990
1640
2258
1685
2228
1694
1629
1732
1624
1817
1746
3031
3393
2925
1729
1698
1870
1837
1897
1644
1742
1535
1579
1573
1475
1778
1517
1616
1693
1838
