1331
1333
1535
1443
1365
1539
1613
1510
1437
1541
1430
1389
1565
1698
1246
1343
1882
1629
1370
1487
2478
1336
1472
1469
1444
1363
1387
1348
1342
1672
2704
2082
1416
1531
1339
1533
1349
1484
1454
1472
1317
1411
1441
1360
1396
1454
1318
1320
1468
1461
1397
1324
1414
1310
1368
1383
1569
1418
1389
1475
1346
1372
1315
1334
1394
1334
1410
1661
1430
1430
1462
1431
1384
1444
1216
1351
1662
1308
1410
1362
1413
1458
1452
1402
1517
1320
1436
1386
1492
1495
1369
1338
1328
1420
1459
1545
1272
1395
1459
1314
1684
1485
1282
1341
1371
1340
1375
1486
1263
1183
1441
1420
1420
1569
1421
2949
1904
1566
1208
1492
1717
1467
1470
1504
1344
1399
1408
1751
2466
1822
1425
1339
1362
1560
1274
1375
1275
1486
1345
1351
1233
1334
1339
1312
1572
1456
1305
1372
1235
1238
1432
1392
1597
1346
1341
1340
1404
1279
1408
1499
1376
1515
1555
1576
1193
1189
1540
1295
1470
1316
1391
1171
1384
1457
1415
1346
1611
1680
1484
1306
1524
1353
1429
1349
1199
1227
1356
1434
1519
1342
1512
1388
1368
1305
1135
1302
1537
1364
1413
1492
1806
1296
1283
1333
1232
1440
1131
1742
2052
1331
1731
1399
1406
1711
1493
1299
1291
1620
1271
1768
1510
1394
1376
1446
1592
1435
1255
1371
1422
1371
1181
1571
1323
1451
1466
1434
1143
1301
1416
1308
1407
1236
1380
1323
1257
1453
1492
1391
1343
1360
2351
1602
1453
1451
1594
1597
2220
2505
1238
1345
1501
2305
2424
1406
1302
1430
1556
1603
1413
1372
1457
1387
1409
1426
2197
2451
1290
1622
1360
1458
1570
1531
1382
2439
1526
1498
1333
1424
1374
1394
2827
1400
1655
1578
1490
1722
1448
1361
1439
1370
1260
1381
1450
1416
1428
1476
1267
1308
1435
1574
1453
1370
1466
1413
1344
1420
1381
1396
1311
1477
1259
1260
1209
1497
1394
1418
1498
1444
1267
1378
1437
1484
1409
1487
1679
1602
1351
1756
1540
1279
1950
1387
1305
1847
1415
1278
1398
1334
1176
1490
1385
1659
1372
1514
1461
1527
1489
1641
1432
1521
1439
1505
1401
1313
1585
1498
1452
1281
1472
1303
1475
1350
1299
1421
1275
1416
1526
1314
1694
1493
1297
1407
1509
1428
1435
1308
1527
1394
1657
1459
1545
1484
1383
1296
1527
1196
1412
1207
1614
1344
1491
1487
1297
1582
1433
1373
1267
1337
1264
1336
1354
1381
1414
1280
1340
1551
1406
1295
1355
1376
1431
1332
1316
1365
1321
1322
1484
1282
1590
1408
1341
1329
1399
1501
1289
1350
1476
1232
1198
1340
1411
1299
1341
1429
1341
1591
1248
1297
1583
1391
1509
1405
1477
1460
1217
1290
1567
1357
1314
1436
1283
1421
1467
1371
1368
1306
1352
1433
1377
1370
1364
1357
1485
1493
1333
1485
1392
1334
1522
1345
1381
1474
1495
1344
1314
1318
1385
1451
1271
1247
1292
1363
1421
1168
1442
1324
1484
1445
1550
1463
