4672
5001
5967
4993
4402
5659
5823
4653
5173
4962
4416
5566
5019
4202
4288
4681
4947
4774
5393
4457
5168
4957
4445
5383
4311
4840
4661
4601
4770
4629
4676
5146
4376
5415
4874
5019
4778
4774
4406
4708
4299
4544
4544
4030
4754
5641
6240
5345
5925
4023
5028
4471
4374
5335
4400
4797
4715
4799
4431
5410
4608
4787
5130
5152
4890
5097
4382
4811
4490
4063
4696
4859
4764
4657
4405
5045
4524
4907
4197
5370
4358
4720
5020
4672
4762
4186
4737
4363
4772
5143
4769
4919
4891
5480
5569
5067
4299
6087
4673
5178
4446
5333
4020
4207
4517
4813
5142
5180
5538
5407
5572
4355
5936
5012
5364
5596
5677
4654
4643
5163
4292
5019
4619
4307
4834
4512
5006
4340
4242
4706
5001
4074
4047
4948
4541
5399
4937
4373
5625
4269
4435
4949
4776
5695
6080
4811
5331
4658
4702
4883
4833
5206
4859
5075
4102
3910
5601
4495
5431
4267
4246
4709
4265
4688
4671
4832
3759
5478
4122
5406
4551
4582
4857
3873
4349
4533
5482
4631
4208
5126
4291
4291
3896
4030
4685
4431
4715
5701
4661
4389
5077
4030
4293
4283
4263
4110
4554
4971
4543
5195
5778
5031
4860
4399
6049
5679
4687
5342
4602
4451
5554
5116
4325
6192
4661
5380
3907
5146
4525
4471
4704
3741
4155
4171
4773
4502
4335
4096
4476
4228
4902
4796
4730
4822
4420
4650
4776
3958
5137
5742
4399
4085
5623
4304
4825
5164
4948
4907
4625
4848
5298
5440
4667
4466
4852
4768
5547
4486
4680
4782
4779
4850
4601
4028
5118
4273
3877
4071
5508
4340
4756
4647
5009
4393
5068
4553
5181
5330
4285
4268
4318
4349
3957
5146
4704
5035
5553
4707
4064
5083
4749
5036
4779
4889
4944
4872
4697
4306
4983
4353
4622
4149
4012
4653
5873
4364
4949
5168
6630
4757
4773
4793
6226
5915
5466
5172
6164
4598
4368
4176
3884
4544
5209
4523
4209
5293
4278
3840
5174
4470
5196
4339
5431
4585
5670
5152
5067
5880
4887
5914
5233
4832
5829
5606
4966
4422
6524
4507
4919
4851
4252
4585
4929
4642
3600
5649
4602
4391
4396
5215
4373
4545
4310
4742
4298
4911
5252
5426
5005
4520
5662
4000
4764
3943
4704
4620
4782
4916
4458
5251
4819
5574
4451
4244
4772
4625
4297
5027
4260
5139
4977
5157
4198
5652
4775
4543
4546
4841
4695
4374
4745
4911
4995
4727
4538
4491
4543
4588
4194
5047
4470
4573
4222
4385
4843
4589
5822
4730
5564
4149
4375
5273
5381
5423
4412
5107
4410
3900
4917
5300
4270
4765
4283
4879
4601
4721
5710
5689
4787
6052
5070
4940
4124
5398
5107
4388
4456
4554
4348
5152
4896
4589
4516
5575
4675
4485
4861
4287
4119
4261
4461
4622
4577
3951
4868
4464
4987
4863
4972
5093
4836
4126
4639
4155
4828
4274
4382
4739
4421
5361
5587
5380
6376
5143
5008
4823
4873
5406
5443
4762
5459
6397
4429
4594
4178
5266
4348
4528
5080
4894
