1 20 760 0 1 1 1 0 1 0 0 1 1 1 1 1 1 1 1 1 1 1 0 
2 20 702 1 1 1 1 0 1 1 1 0 1 1 1 1 1 0 1 1 0 1 0 
3 20 915 1 1 1 1 1 1 1 0 0 1 1 1 1 1 1 1 0 1 1 0 
4 20 774 1 1 1 1 1 1 0 1 0 1 1 1 1 0 1 1 0 1 1 0 
5 20 788 1 1 1 1 1 1 1 1 1 0 1 1 1 1 0 0 0 1 1 1 
6 20 818 1 0 0 1 1 1 1 1 1 1 1 1 1 0 0 1 1 1 1 1 
7 20 898 0 0 1 1 0 1 1 1 1 0 1 0 1 1 1 1 1 1 1 1 
8 20 842 1 1 1 0 1 0 1 1 0 1 1 1 0 0 1 0 1 1 1 1 
9 20 864 1 1 1 0 0 1 1 1 1 1 1 0 1 1 0 1 1 1 1 1 
10 20 726 1 1 0 1 1 1 1 0 1 0 1 1 1 1 1 1 0 0 1 1 
11 20 746 1 1 1 0 1 1 1 1 0 1 1 0 1 0 1 1 1 0 1 1 
12 20 835 1 1 1 1 0 0 1 1 0 1 1 0 1 1 0 1 1 1 1 1 
13 20 870 0 1 1 1 0 1 1 0 1 1 0 1 1 1 1 1 1 1 1 0 
14 20 928 1 1 1 1 1 1 1 1 1 0 0 1 0 0 0 1 0 1 1 1 
15 20 1021 1 1 1 0 1 1 0 0 1 1 0 1 1 1 1 0 1 1 1 1 
16 20 797 1 1 1 0 0 1 1 1 1 1 1 1 1 1 0 0 0 1 1 1 
17 20 897 1 1 0 1 1 1 0 1 1 1 1 0 1 1 0 1 1 1 1 1 
18 20 758 1 1 1 1 0 1 0 1 1 0 0 1 1 1 1 1 1 1 1 1 
19 20 801 0 1 1 1 0 0 1 1 1 1 1 1 0 1 1 1 1 1 0 1 
20 20 833 1 1 0 1 1 1 0 0 1 1 1 0 1 0 1 1 0 1 1 1 
21 20 939 1 1 0 0 1 0 1 0 1 1 1 1 1 0 1 1 1 0 1 1 
22 20 657 0 1 1 1 1 1 1 1 1 1 1 0 1 1 1 1 1 1 1 1 
23 20 721 1 0 1 1 1 1 1 1 1 1 1 1 1 1 0 1 0 1 0 0 
24 20 857 1 0 1 1 1 0 1 1 1 1 1 1 0 1 1 1 1 0 1 1 
25 20 862 1 1 0 1 0 1 1 0 1 1 1 1 1 1 1 0 1 1 0 1 
26 20 837 1 1 1 1 1 1 1 1 1 0 1 1 0 1 1 0 1 1 1 0 
27 20 839 1 1 1 0 1 1 1 1 1 1 1 1 1 0 1 1 0 0 0 1 
28 20 836 0 1 1 1 0 1 1 0 1 1 1 1 0 1 1 1 1 1 1 1 
29 20 794 1 1 1 1 0 0 1 0 1 1 1 1 1 0 0 0 1 1 1 1 
30 20 861 1 1 1 0 1 1 1 1 1 1 1 0 0 1 1 1 1 1 0 1 
31 20 747 1 1 0 1 1 0 1 0 1 1 1 1 1 1 1 1 1 1 1 1 
32 20 839 1 1 1 0 1 1 0 1 1 1 1 1 1 1 1 1 1 0 1 1 
33 20 859 0 1 0 0 1 0 1 1 0 1 1 1 0 0 1 1 1 1 1 1 
34 20 785 0 1 0 1 1 1 1 0 1 0 1 1 0 1 1 1 1 1 1 1 
35 20 709 0 1 1 1 0 0 1 1 1 0 1 1 1 1 1 1 1 1 0 1 
36 20 790 1 1 0 0 0 1 1 1 1 0 0 1 1 1 1 1 1 1 0 1 
37 20 783 1 1 0 0 1 1 1 1 1 1 1 1 1 1 1 0 1 1 0 1 
38 20 974 1 0 1 1 0 1 0 1 1 1 1 0 0 1 0 1 1 1 1 1 
39 20 726 1 0 0 1 1 0 1 1 1 1 1 1 1 1 1 1 1 0 1 1 
40 20 823 1 1 1 0 1 1 0 1 1 0 0 1 1 1 1 1 1 0 1 1 
41 20 849 1 0 1 1 1 1 1 1 0 1 1 1 1 1 0 1 1 1 1 0 
42 20 782 1 1 0 0 1 1 1 1 1 1 0 1 0 1 1 1 1 1 1 1 
43 20 964 1 1 0 1 1 0 1 1 1 1 1 0 1 1 0 1 1 0 0 1 
44 20 734 1 1 0 1 1 1 1 1 1 0 1 1 0 0 1 0 1 1 1 1 
45 20 735 0 1 1 1 1 1 0 1 0 1 1 1 0 1 1 1 1 1 1 0 
46 20 685 0 0 1 1 1 1 0 1 1 1 1 1 0 1 1 1 1 1 1 1 
47 20 895 1 1 1 1 1 1 0 1 0 1 0 0 1 0 1 1 1 1 1 1 
48 20 821 1 1 1 1 0 1 1 0 1 0 1 0 1 1 1 0 1 1 1 0 
49 20 704 1 1 1 1 1 0 1 1 0 1 1 1 1 0 0 1 1 1 1 1 
50 20 791 0 1 0 1 1 1 1 1 1 0 1 1 1 1 0 1 0 1 1 1 
51 20 870 1 1 1 1 1 1 1 1 0 1 1 1 1 0 0 1 1 0 1 1 
52 20 889 0 0 1 0 1 1 1 1 1 1 1 0 1 1 1 1 1 1 1 0 
53 20 892 1 1 1 1 1 1 1 0 0 0 1 1 1 1 1 0 1 1 1 1 
54 20 758 1 1 1 1 0 1 1 0 1 1 1 0 0 1 1 1 0 0 1 1 
55 20 740 1 1 1 1 1 1 1 1 1 1 0 0 1 1 1 1 0 1 0 1 
56 20 691 1 0 1 0 0 1 1 0 1 1 1 1 1 0 1 1 1 1 0 1 
57 20 837 1 1 1 1 1 1 0 0 1 1 1 1 1 1 0 0 1 1 1 1 
58 20 829 1 1 1 1 1 1 0 1 0 0 0 1 1 0 1 1 1 1 1 1 
59 20 854 0 0 1 1 1 1 1 1 1 0 1 0 1 0 1 1 1 1 1 1 
60 20 817 1 0 0 1 1 1 1 1 0 1 1 1 1 0 0 1 1 1 1 1 
61 20 857 1 1 1 1 1 1 1 1 1 1 1 1 0 0 1 0 0 0 1 1 
62 20 750 0 1 1 1 0 1 0 1 1 1 1 1 1 1 1 1 0 0 0 1 
63 20 792 1 0 1 1 1 1 1 1 1 1 0 1 1 1 1 0 1 0 1 1 
64 20 614 1 1 1 0 1 1 1 1 1 1 1 1 0 1 0 0 0 1 0 1 
65 20 775 1 1 0 0 0 1 1 0 1 1 1 0 1 1 1 1 1 1 1 1 
66 20 939 1 1 1 1 1 0 1 1 1 1 1 0 1 1 1 0 1 0 1 1 
67 20 790 1 0 1 1 1 1 0 1 1 0 1 1 0 0 1 1 1 1 1 0 
68 20 698 1 1 1 0 1 1 0 1 1 0 1 1 0 1 1 1 1 1 1 1 
69 20 788 1 1 1 1 1 1 0 0 1 1 1 1 1 1 1 1 0 1 1 1 
70 20 773 1 0 0 0 1 1 1 1 1 1 1 1 0 1 1 1 1 1 1 1 
71 20 882 1 1 1 0 1 0 0 1 1 1 1 0 1 1 1 1 1 1 0 0 
72 20 875 1 0 0 1 1 1 1 1 1 0 1 1 1 1 0 1 1 1 1 0 
73 20 734 1 1 1 1 0 1 1 1 0 1 1 0 1 1 0 1 1 1 1 1 
74 20 805 1 1 0 1 1 0 1 1 1 1 1 1 1 1 1 1 0 1 1 0 
75 20 1018 1 0 1 1 1 1 1 1 0 1 0 1 1 0 1 1 1 0 1 1 
76 20 678 1 1 1 1 1 1 1 1 1 1 1 1 1 1 1 0 1 1 0 0 
77 20 889 1 1 1 1 1 0 0 1 1 1 1 1 1 0 1 1 0 1 0 1 
78 20 778 1 1 0 1 1 0 1 0 1 0 1 1 1 1 1 0 1 1 1 1 
79 20 693 1 1 1 0 1 1 1 1 1 1 0 1 1 1 0 1 1 0 1 1 
80 20 763 1 0 1 1 1 1 1 1 1 0 1 1 0 1 1 1 1 1 1 0 
81 20 924 0 1 1 1 1 1 1 1 1 1 1 0 1 1 0 0 1 0 0 1 
82 20 704 1 1 1 1 1 1 0 1 0 0 0 1 0 1 1 0 1 1 1 1 
83 20 733 1 1 1 0 0 1 1 1 1 1 0 0 1 0 1 1 1 1 1 0 
84 20 922 1 1 1 1 1 1 1 1 0 1 1 1 0 0 1 1 1 0 1 1 
85 20 888 0 0 1 1 1 1 1 1 1 1 1 1 1 0 1 1 1 0 1 1 
86 20 888 1 1 1 1 1 0 1 1 1 0 1 0 1 1 1 1 1 1 1 1 
87 20 779 1 1 1 1 1 1 1 1 1 1 0 1 1 1 0 0 1 1 0 0 
88 20 751 1 1 1 1 1 0 1 1 0 1 1 1 1 0 1 1 1 0 0 1 
89 20 711 0 1 0 1 0 1 0 1 1 1 1 1 0 1 1 1 1 0 1 1 
90 20 925 1 0 1 1 1 1 1 0 0 1 1 1 1 1 1 1 1 1 0 1 
91 20 947 1 1 1 1 0 0 0 1 1 1 1 1 1 0 1 1 1 0 1 1 
92 20 851 1 1 1 1 0 1 1 1 1 0 0 1 1 1 1 1 0 1 0 1 
93 20 732 1 1 1 1 1 1 1 1 1 1 1 1 0 1 1 1 0 0 1 0 
94 20 933 1 1 1 1 1 0 1 1 1 0 1 1 0 1 0 1 1 1 0 1 
95 20 941 1 0 1 1 1 1 1 1 1 1 1 1 1 0 0 1 1 1 0 1 
96 20 833 1 1 1 1 1 1 1 1 1 0 0 1 1 1 1 1 1 1 0 0 
97 20 903 1 1 1 1 1 1 1 1 1 1 1 1 1 0 1 0 0 1 1 1 
98 20 684 0 1 1 1 1 1 1 0 1 1 0 1 1 1 1 1 1 0 1 1 
99 20 764 1 0 1 1 0 0 1 1 1 0 1 1 1 1 1 1 1 0 1 1 
100 20 862 1 1 0 1 1 1 1 1 1 0 1 1 0 1 0 1 1 1 1 1 
101 20 612 0 0 1 0 1 0 1 1 0 1 1 1 1 1 0 0 1 1 1 1 
102 20 693 1 1 1 1 1 1 0 1 1 1 1 1 1 1 0 1 0 1 0 1 
103 20 852 0 1 1 0 1 1 1 1 1 1 1 1 0 0 1 0 1 0 1 0 
104 20 832 1 0 1 1 1 1 1 1 0 1 1 1 1 1 0 1 1 1 0 1 
105 20 634 1 1 1 1 0 0 0 1 1 1 1 1 0 1 1 1 1 1 1 0 
106 20 680 0 1 0 0 1 1 0 1 1 1 1 1 1 1 1 1 1 1 1 0 
107 20 818 1 1 1 1 0 0 1 0 1 1 1 1 1 1 1 1 1 1 1 1 
108 20 806 0 0 1 1 1 1 1 1 1 1 1 1 1 0 1 1 1 0 1 0 
109 20 881 0 0 1 1 1 1 1 1 1 1 0 1 1 1 1 1 1 1 0 1 
110 20 753 1 0 1 0 1 0 0 1 1 1 1 1 1 1 1 1 1 0 0 1 
111 20 731 1 1 0 1 1 1 0 1 1 0 0 1 1 1 1 1 1 0 0 1 
112 20 964 0 1 1 1 1 0 0 0 1 1 1 1 1 0 0 1 1 1 1 1 
113 20 761 0 0 1 1 1 1 1 1 1 1 1 1 1 1 1 0 1 0 1 0 
114 20 1061 1 1 1 1 1 0 1 0 0 1 1 1 1 1 0 1 1 0 1 1 
115 20 735 1 1 1 1 1 1 1 1 1 1 1 0 1 1 0 0 0 1 1 1 
116 20 798 1 0 1 1 1 1 1 1 1 1 0 1 0 0 1 1 0 1 1 1 
117 20 815 1 1 1 1 1 0 0 1 1 1 1 1 1 1 0 1 1 1 0 1 
118 20 761 1 1 0 1 1 1 1 1 1 1 1 0 1 0 0 1 1 1 1 1 
119 20 824 1 0 0 1 1 1 1 0 1 1 1 1 1 1 0 1 0 1 1 1 
120 20 841 0 1 0 0 1 1 1 1 1 1 0 1 1 0 1 1 1 1 1 1 
121 20 919 0 1 1 1 1 1 1 1 0 0 1 1 0 0 0 1 1 1 1 1 
122 20 828 1 1 0 1 1 1 0 1 1 1 1 1 0 1 0 1 1 1 1 1 
123 20 641 1 0 1 1 0 0 1 1 1 0 1 1 0 1 1 1 1 1 0 1 
124 20 854 1 0 0 1 1 1 0 1 0 0 1 1 1 1 1 1 1 1 1 1 
125 20 741 1 1 1 1 1 0 1 1 0 0 1 1 1 1 1 1 0 1 1 1 
126 20 905 1 1 1 1 0 1 0 0 1 1 1 1 0 1 1 1 1 1 1 1 
127 20 718 1 1 1 1 1 1 1 0 1 1 1 1 1 1 1 0 1 0 1 1 
128 20 771 1 1 1 1 0 1 0 1 0 1 0 0 1 1 1 0 1 1 0 1 
129 20 920 1 1 1 1 1 1 1 0 1 0 0 0 1 0 0 1 1 1 1 1 
130 20 838 0 1 1 1 1 0 1 1 1 1 1 0 1 1 1 1 0 1 1 0 
131 20 803 1 1 1 1 1 1 1 0 1 1 0 1 1 1 1 1 0 1 0 1 
132 20 726 1 1 1 1 0 1 1 1 1 1 1 1 1 0 1 1 0 0 0 1 
133 20 663 1 1 1 1 0 1 1 1 1 0 1 1 1 0 1 1 0 1 1 1 
134 20 824 1 0 1 1 1 0 1 1 1 0 1 0 0 1 0 1 1 1 1 1 
135 20 969 0 1 0 1 1 0 1 1 1 1 0 1 1 1 1 1 1 1 1 1 
136 20 801 0 1 1 1 0 1 1 1 1 0 1 0 1 1 1 1 0 1 1 1 
137 20 883 0 0 1 1 0 1 1 0 1 1 1 1 0 1 1 1 1 1 1 1 
138 20 623 1 1 0 1 1 1 0 1 1 1 1 1 1 1 0 1 1 0 0 1 
139 20 725 0 1 1 1 0 1 1 1 1 1 1 0 1 1 1 1 1 1 0 0 
140 20 918 1 1 1 1 1 1 1 0 1 1 1 1 0 0 1 1 1 1 0 1 
141 20 845 1 1 1 1 1 0 1 1 0 1 1 1 1 1 1 1 1 0 0 1 
142 20 765 0 1 1 1 1 1 1 0 0 1 0 1 1 0 1 1 1 1 1 1 
143 20 828 1 1 1 1 0 1 0 1 1 1 1 1 0 0 1 0 1 1 1 1 
144 20 800 1 1 1 1 1 1 1 1 1 0 0 1 1 0 1 1 1 1 0 1 
145 20 734 1 1 0 1 0 1 1 1 0 1 1 1 0 1 1 1 0 0 1 1 
146 20 756 1 0 1 0 1 0 1 1 1 1 1 0 1 1 1 1 1 1 1 1 
147 20 772 1 0 1 1 1 1 0 1 0 1 0 1 1 1 1 1 1 1 1 1 
148 20 765 0 1 1 1 1 0 1 1 1 1 0 1 1 1 1 0 1 0 1 1 
149 20 952 1 0 1 1 1 1 1 0 1 1 1 1 1 0 0 1 1 1 1 1 
150 20 813 1 0 1 1 1 0 1 1 0 1 1 1 1 1 1 1 1 1 0 1 
151 20 733 1 1 0 1 1 1 0 1 1 0 1 0 1 1 1 1 1 0 1 0 
152 20 749 1 0 1 1 1 1 1 0 1 0 1 0 1 1 1 1 1 1 1 0 
153 20 839 1 0 1 0 0 1 1 1 1 1 1 0 0 1 1 1 1 1 1 1 
154 20 867 1 1 1 1 1 1 1 1 0 0 1 1 1 1 0 0 1 1 1 1 
155 20 701 1 1 1 1 1 1 1 1 1 0 1 0 0 1 1 0 1 0 1 1 
156 20 800 1 1 1 0 1 0 0 1 1 1 0 1 1 1 0 1 1 1 1 1 
157 20 739 0 1 1 1 0 1 1 1 1 0 0 1 1 1 1 1 1 1 1 1 
158 20 816 1 1 1 1 1 1 1 0 1 1 0 1 1 1 1 1 1 1 0 0 
159 20 864 1 1 1 1 1 0 0 1 1 1 1 1 1 0 1 1 1 1 1 0 
160 20 849 1 1 1 1 1 1 1 1 1 1 1 0 0 1 1 0 1 1 1 1 
161 20 758 0 1 1 1 1 0 1 0 1 1 1 1 1 0 0 1 1 1 1 1 
162 20 683 1 1 1 1 0 1 0 1 1 0 1 0 1 1 0 1 1 1 1 0 
163 20 904 0 0 0 1 1 0 1 1 0 1 1 0 1 1 1 1 1 1 1 1 
164 20 752 1 1 1 1 1 1 1 1 0 1 1 0 1 1 1 0 1 1 1 1 
165 20 893 0 1 1 1 1 0 1 1 1 0 1 1 1 0 1 1 1 1 1 0 
166 20 742 1 1 1 1 1 1 1 0 1 1 1 1 1 0 1 1 0 1 1 0 
167 20 807 0 1 1 0 1 1 1 1 1 1 1 1 1 1 1 1 0 1 1 1 
168 20 718 1 0 1 0 1 1 1 1 1 1 0 1 1 1 1 1 1 0 1 1 
169 20 697 1 1 1 1 0 1 1 1 1 0 1 1 1 0 0 1 1 1 1 0 
170 20 745 1 0 0 1 0 1 1 1 1 0 1 1 1 1 1 1 1 1 1 1 
171 20 943 0 1 0 1 1 1 1 1 1 1 1 1 1 1 1 1 1 0 0 1 
172 20 542 1 1 1 1 0 0 1 1 1 0 1 1 1 1 1 0 1 1 1 0 
173 20 723 1 1 0 1 1 1 1 1 1 0 1 1 1 1 1 1 1 0 1 1 
174 20 802 1 1 1 1 0 1 1 1 0 1 1 0 1 0 1 0 1 1 1 1 
175 20 693 1 1 1 0 1 1 1 1 1 1 0 1 0 0 1 1 1 1 0 1 
176 20 721 1 1 1 1 1 1 0 1 1 1 0 1 1 1 0 1 1 0 1 1 
177 20 780 1 0 1 1 1 0 1 1 0 1 1 1 1 1 1 1 1 1 1 1 
178 20 797 1 1 1 1 1 1 1 1 1 0 1 0 0 0 1 0 1 1 1 1 
179 20 714 1 1 1 1 1 0 1 0 1 1 0 1 1 1 1 0 1 0 1 1 
180 20 824 0 1 1 1 1 1 0 0 0 1 0 1 1 1 0 1 1 1 1 1 
181 20 836 1 1 1 1 1 0 1 0 1 0 1 1 0 1 1 1 1 1 1 1 
182 20 662 1 1 1 0 1 1 1 1 1 1 1 1 1 1 1 0 1 1 1 1 
183 20 971 1 1 1 0 1 1 1 1 0 1 1 1 0 1 0 1 1 1 1 1 
184 20 862 1 0 0 0 0 0 1 1 1 1 1 1 1 1 1 1 1 1 1 1 
185 20 939 0 1 1 1 0 1 1 0 1 0 1 1 1 1 1 1 1 0 1 1 
186 20 682 1 1 0 0 1 1 1 1 1 1 1 0 0 1 0 0 1 1 1 1 
187 20 838 1 1 1 1 1 0 1 1 1 0 1 1 1 1 0 1 0 1 1 0 
188 20 720 1 1 1 1 1 0 0 1 1 1 1 1 1 0 1 0 1 1 0 1 
189 20 847 0 0 1 1 1 1 1 1 1 0 1 0 1 0 1 1 1 1 1 1 
190 20 893 1 1 1 1 1 0 1 1 1 0 0 1 1 0 0 1 1 1 1 1 
191 20 722 1 1 1 0 0 0 1 0 1 1 1 1 1 1 1 1 1 0 1 1 
192 20 904 1 0 1 1 1 1 1 1 0 1 1 1 0 1 1 1 1 0 1 0 
193 20 783 0 0 1 0 1 1 1 1 0 1 1 1 1 1 1 0 1 1 1 1 
194 20 819 1 1 1 1 0 1 1 1 1 1 1 0 1 0 1 1 1 1 1 0 
195 20 815 1 1 1 1 0 1 1 1 1 1 1 1 1 1 0 0 1 1 0 1 
196 20 865 1 1 1 0 1 1 1 0 1 0 1 0 1 0 1 0 1 1 1 1 
197 20 839 1 1 1 1 1 0 0 1 1 0 0 0 1 1 1 0 1 1 1 1 
198 20 867 1 1 0 1 1 0 1 1 1 0 0 1 1 1 0 1 1 1 1 1 
199 20 846 1 0 1 1 1 1 1 0 1 1 1 1 1 1 1 0 0 1 1 1 
200 20 826 1 0 1 1 1 1 1 0 1 0 1 1 1 0 1 1 1 1 1 0 
201 20 793 1 1 0 1 1 1 1 1 1 1 0 1 1 1 1 0 1 1 0 1 
202 20 899 1 0 1 1 1 1 1 0 1 0 1 1 0 0 1 1 1 1 1 1 
203 20 911 1 1 0 0 1 1 0 1 1 1 0 1 1 1 1 1 1 1 1 1 
204 20 765 1 1 1 0 1 1 1 0 1 1 0 1 1 1 1 1 1 1 0 1 
205 20 963 0 1 1 0 0 1 1 1 1 1 1 1 1 0 1 1 0 1 1 1 
206 20 703 1 1 1 1 0 1 0 0 1 1 1 1 1 1 1 1 1 1 0 1 
207 20 875 1 1 1 1 1 0 1 1 1 1 1 1 1 0 1 0 1 1 1 0 
208 20 860 0 1 1 1 0 1 1 1 0 1 1 1 1 1 1 1 0 1 1 1 
209 20 883 0 1 0 0 0 1 1 0 1 1 1 1 1 1 0 1 1 1 1 1 
210 20 848 0 1 1 1 1 1 1 0 1 1 1 1 0 1 1 1 1 0 0 1 
211 20 789 1 0 1 1 1 0 0 1 0 0 1 0 1 1 1 1 1 1 1 1 
212 20 761 1 1 1 1 0 1 1 0 1 1 1 1 0 0 1 1 0 1 1 0 
213 20 840 1 1 1 1 1 1 1 1 1 0 0 1 0 1 1 0 1 1 1 1 
214 20 926 1 0 1 1 1 1 1 1 0 0 1 1 1 1 1 1 1 1 0 1 
215 20 781 1 1 0 1 0 1 1 0 1 0 1 1 1 1 0 1 1 1 0 1 
216 20 798 1 1 1 1 1 1 1 1 1 1 1 1 1 0 1 1 0 1 1 0 
217 20 766 1 1 1 1 0 0 1 0 1 1 1 0 1 1 1 1 1 1 0 1 
218 20 839 1 1 0 1 1 1 0 0 0 1 1 1 1 1 1 1 1 1 1 1 
219 20 1129 1 1 1 1 1 1 1 1 1 0 0 0 1 1 1 0 1 1 0 1 
220 20 773 1 1 0 1 1 1 1 0 1 1 0 1 1 1 0 1 1 1 1 1 
221 20 898 1 1 0 1 0 1 1 0 0 0 1 1 0 1 1 1 1 1 1 1 
222 20 804 1 1 0 0 0 1 1 1 1 1 1 1 0 1 0 1 1 1 1 1 
223 20 760 1 1 1 1 1 1 1 0 0 1 1 1 1 0 0 0 0 0 1 1 
224 20 746 1 1 1 1 0 1 0 1 0 1 1 1 1 1 0 0 0 1 1 1 
225 20 783 1 1 1 1 1 0 1 1 1 1 0 1 1 1 1 0 1 0 1 1 
226 20 895 1 1 1 0 1 1 1 1 1 0 1 1 1 1 1 1 1 0 1 0 
227 20 813 1 0 1 1 1 1 1 1 0 0 1 1 1 0 0 1 1 1 1 1 
228 20 813 1 1 1 1 1 0 1 1 0 0 1 1 1 1 1 0 1 1 1 1 
229 20 798 0 1 1 1 1 1 0 1 1 0 1 1 1 1 1 1 1 1 1 1 
230 20 781 1 1 1 1 0 1 1 0 1 1 0 1 1 1 1 0 0 1 1 1 
231 20 997 1 1 1 0 1 0 0 1 1 1 1 1 1 1 1 1 1 0 1 1 
232 20 712 1 1 0 1 1 1 1 1 1 1 1 1 1 1 1 1 0 0 1 1 
233 20 913 1 1 0 1 1 1 1 1 1 1 0 0 0 1 1 1 1 1 1 0 
234 20 808 0 1 1 1 1 1 1 1 1 0 0 1 1 1 1 0 1 1 1 1 
235 20 683 0 1 1 0 1 1 1 1 1 1 1 1 0 1 1 1 1 1 0 1 
236 20 1037 1 1 1 1 0 0 1 1 0 0 1 1 1 0 1 1 1 1 0 1 
237 20 723 1 1 1 1 0 1 0 1 1 1 0 1 0 0 1 1 1 1 1 1 
238 20 659 1 1 1 1 1 0 1 1 0 1 1 1 1 1 1 1 0 1 0 1 
239 20 804 1 1 1 1 1 0 0 1 1 1 1 1 1 0 0 0 1 0 1 1 
240 20 929 0 1 1 0 1 1 1 1 1 1 1 1 1 1 0 1 1 1 1 1 
241 20 763 1 1 1 1 1 1 1 0 1 1 1 1 0 1 1 0 0 0 1 1 
242 20 840 1 0 1 0 1 1 1 1 0 1 1 1 1 1 1 1 1 1 1 1 
243 20 865 0 0 1 1 1 1 1 1 1 1 0 0 0 1 1 1 1 1 1 1 
244 20 954 1 1 0 1 1 1 0 1 1 0 1 1 1 1 0 0 0 0 1 1 
245 20 876 1 1 1 1 1 1 1 0 1 0 0 1 1 0 1 1 1 1 1 1 
246 20 697 1 1 1 0 0 1 1 1 1 0 1 1 1 1 0 1 1 1 1 0 
247 20 894 1 0 1 1 0 1 1 1 1 1 0 0 1 1 1 1 1 1 1 1 
248 20 830 1 0 1 1 1 1 1 0 1 0 1 1 0 0 1 1 1 1 1 1 
249 20 853 1 0 1 1 1 1 1 1 1 1 1 0 0 0 1 1 1 1 1 1 
250 20 914 1 0 0 1 1 1 1 1 0 1 1 0 1 0 1 1 1 1 1 1 
251 20 857 1 0 1 1 1 0 1 1 1 1 1 1 1 1 0 1 1 0 0 1 
252 20 869 1 1 1 1 0 0 1 0 1 0 1 1 1 1 1 1 1 0 1 0 
253 20 612 1 1 0 1 1 0 0 1 1 1 1 1 0 1 0 1 1 1 1 1 
254 20 746 0 1 1 0 1 1 1 1 0 1 0 1 1 1 1 1 1 1 1 0 
255 20 933 0 1 1 1 0 1 1 1 1 1 0 1 1 1 1 1 1 0 1 1 
256 20 801 0 1 1 1 1 1 0 1 1 1 1 1 1 1 1 1 0 0 1 1 
257 20 756 0 1 1 1 1 1 1 1 0 1 1 1 1 1 1 1 1 1 0 0 
258 20 764 1 0 1 1 1 1 1 1 1 0 1 1 1 1 1 1 0 1 1 1 
259 20 804 0 0 1 0 1 0 1 0 1 0 1 1 1 1 0 1 1 1 1 1 
260 20 829 0 1 1 0 1 1 1 1 0 0 1 1 1 1 1 0 1 1 0 1 
261 20 935 1 1 1 0 0 1 0 1 1 1 1 1 1 1 1 1 1 1 0 1 
262 20 802 1 1 1 1 1 0 0 1 1 0 0 1 1 0 1 1 1 1 1 1 
263 20 847 1 1 1 1 1 1 1 1 0 1 1 1 0 1 0 1 1 0 1 1 
264 20 850 1 1 1 1 1 1 1 0 1 0 1 1 0 1 1 0 1 1 0 1 
265 20 1026 1 1 0 1 1 1 1 0 1 1 1 1 0 1 0 1 1 0 1 1 
266 20 811 1 0 1 1 0 1 1 1 1 1 1 1 1 0 1 1 0 1 0 1 
267 20 1008 1 1 1 1 1 1 1 1 1 0 0 0 1 1 1 1 1 1 0 1 
268 20 806 1 1 1 0 1 1 1 1 0 1 1 1 1 1 1 1 1 1 1 0 
269 20 839 1 1 1 1 1 1 1 1 0 1 0 1 1 1 0 1 1 1 1 1 
270 20 791 1 1 1 1 1 1 1 1 0 1 1 1 1 1 0 1 1 1 0 0 
271 20 1034 0 1 0 0 1 1 1 1 1 1 1 1 1 0 1 1 1 1 0 1 
272 20 844 1 1 1 1 1 0 1 1 1 1 0 0 1 1 0 1 1 1 0 1 
273 20 675 1 1 1 0 0 1 1 1 0 0 1 1 1 1 1 1 1 1 1 1 
274 20 846 1 1 0 0 1 1 1 1 1 1 1 1 1 1 1 1 0 1 0 1 
275 20 912 1 0 1 1 1 1 1 0 1 1 0 1 1 1 1 0 1 1 1 0 
276 20 838 1 0 1 0 1 0 1 1 1 1 1 1 0 1 1 0 1 1 0 1 
277 20 735 1 1 1 1 1 0 0 1 1 1 0 0 1 1 0 1 1 1 1 1 
278 20 887 1 1 1 0 1 0 1 1 1 1 1 1 1 1 1 1 1 0 1 0 
279 20 908 1 1 1 1 1 1 1 1 0 1 1 1 1 0 1 1 1 1 1 0 
280 20 604 1 1 1 0 0 1 1 1 1 1 0 1 1 1 1 1 1 1 0 1 
281 20 874 1 1 1 0 1 1 1 1 1 0 1 1 1 1 1 1 0 1 1 1 
282 20 920 0 0 1 1 1 0 1 0 0 1 1 1 1 1 1 1 1 1 0 0 
283 20 704 1 0 0 1 0 1 1 1 1 1 0 1 1 1 1 1 1 1 1 1 
284 20 883 1 0 0 1 0 1 0 1 1 1 1 1 1 1 1 1 1 1 1 0 
285 20 846 1 1 1 0 1 1 1 0 1 1 1 0 0 0 1 1 0 1 1 0 
286 20 601 1 1 0 0 1 1 1 1 1 1 1 1 1 1 1 1 1 0 1 1 
287 20 855 1 1 0 1 1 1 0 1 0 1 1 1 1 1 0 1 1 1 1 1 
288 20 754 1 1 1 1 1 1 1 1 1 1 1 1 1 1 0 1 1 0 1 1 
289 20 844 0 1 1 0 0 1 0 1 1 1 1 1 0 0 1 1 1 1 1 1 
290 20 902 1 1 1 1 1 1 0 1 1 0 0 0 1 1 1 0 1 1 1 1 
291 20 793 1 0 1 1 1 1 1 1 1 0 0 1 1 1 1 1 1 0 1 1 
292 20 1006 1 0 0 1 1 1 1 0 1 1 1 0 0 1 1 1 1 1 1 1 
293 20 790 1 1 1 1 0 1 0 1 1 1 1 1 1 1 1 1 1 1 0 1 
294 20 838 1 0 0 0 1 0 1 0 1 1 1 1 1 0 1 1 1 1 1 1 
295 20 501 1 1 1 0 1 1 1 1 1 1 1 1 0 1 1 1 1 1 1 0 
296 20 773 1 1 0 1 0 1 1 1 1 1 1 1 1 0 1 1 1 1 0 0 
297 20 832 1 1 1 1 1 1 1 1 1 1 0 0 1 1 1 1 1 1 0 1 
298 20 831 1 1 1 1 1 0 1 0 1 1 1 1 1 1 0 0 1 1 1 1 
299 20 795 0 1 0 1 1 1 1 1 0 1 1 0 1 1 1 1 0 1 1 1 
300 20 1008 1 1 1 1 0 1 0 1 0 1 0 1 1 1 0 1 1 1 1 1 
301 20 761 1 1 1 1 1 1 1 0 1 1 1 1 1 1 1 0 1 0 0 1 
302 20 885 0 0 1 1 1 0 0 0 1 1 0 1 1 1 1 1 1 1 1 1 
303 20 768 0 1 1 1 0 1 1 1 1 1 1 0 0 1 1 1 1 0 1 0 
304 20 867 0 0 1 1 0 1 1 1 0 0 1 1 1 1 1 1 1 1 1 1 
305 20 884 1 1 0 0 0 1 1 1 1 1 0 1 1 0 1 1 1 1 1 1 
306 20 886 0 0 1 1 1 1 1 0 1 0 1 1 1 1 1 1 1 1 1 0 
307 20 887 1 1 1 1 1 1 1 1 1 0 0 1 0 1 0 0 1 1 1 1 
308 20 699 0 1 1 0 0 1 0 1 1 1 0 1 1 1 1 1 1 1 1 1 
309 20 904 1 0 1 0 1 1 1 1 1 0 1 1 1 0 1 1 1 1 1 1 
310 20 705 0 0 1 0 1 1 1 1 1 1 1 0 1 1 1 1 1 1 1 1 
311 20 761 1 1 0 1 0 1 1 1 1 1 0 0 1 1 1 1 1 1 1 0 
312 20 832 0 1 1 1 1 0 1 1 1 0 1 0 0 1 1 1 0 1 1 1 
313 20 781 1 0 0 1 1 1 1 0 1 1 0 1 1 1 1 1 0 1 1 0 
314 20 899 1 1 0 1 0 1 1 1 1 0 1 1 1 1 1 0 0 1 1 1 
315 20 721 0 1 1 1 0 1 1 1 1 0 1 1 0 0 1 1 1 1 1 1 
316 20 867 1 1 1 1 0 0 0 1 0 1 1 0 1 1 0 1 1 1 1 1 
317 20 725 1 0 1 1 1 1 1 1 0 1 1 1 0 0 1 0 0 1 1 1 
318 20 736 1 1 0 0 1 1 1 1 1 0 0 1 1 1 1 1 1 1 1 1 
319 20 951 1 0 1 1 1 1 0 1 1 0 0 1 0 1 1 1 1 1 1 0 
320 20 840 1 1 0 0 1 1 1 1 1 1 0 1 0 1 1 1 1 1 1 1 
321 20 762 0 1 1 0 1 1 1 0 1 1 1 1 1 1 0 1 1 1 1 1 
322 20 772 0 1 0 0 1 0 1 1 1 1 0 1 1 1 0 1 1 1 1 1 
323 20 810 1 1 1 0 1 0 1 1 1 0 1 1 0 1 0 1 1 1 0 1 
324 20 846 1 1 0 1 1 1 1 1 1 0 1 1 1 1 1 1 1 0 0 1 
325 20 712 0 0 1 1 1 1 1 1 1 1 0 1 1 1 1 1 0 1 1 1 
326 20 786 1 1 1 1 0 1 1 0 1 0 1 0 1 1 1 0 1 1 1 1 
327 20 894 1 0 1 1 0 0 1 1 1 1 1 1 1 0 1 1 1 1 1 1 
328 20 914 1 0 1 0 1 1 1 0 1 1 0 0 1 1 0 1 1 0 1 1 
329 20 994 1 1 0 0 1 1 0 1 1 1 0 1 1 1 1 1 1 0 1 1 
330 20 796 1 0 0 1 1 1 1 0 0 1 1 1 1 1 1 0 0 1 1 1 
331 20 800 1 1 1 1 1 1 1 0 1 1 1 1 0 1 1 1 1 0 0 1 
332 20 734 1 0 0 1 1 0 1 1 1 1 1 0 1 1 1 0 1 1 1 1 
333 20 966 1 1 1 1 1 1 1 1 0 1 1 1 1 0 1 0 1 1 0 1 
334 20 988 1 1 1 1 1 1 1 1 1 0 0 1 1 1 0 1 1 1 1 0 
335 20 780 1 1 1 1 1 1 1 1 0 1 1 1 0 1 0 1 0 1 1 1 
336 20 828 0 1 1 1 1 1 0 1 1 1 1 1 1 1 0 1 1 1 0 1 
337 20 829 1 0 1 1 1 1 1 1 1 0 0 0 1 1 1 0 1 1 1 1 
338 20 745 1 1 1 0 0 1 1 1 0 1 1 1 1 1 0 1 1 1 1 1 
339 20 937 0 0 0 1 1 1 1 1 1 1 1 1 1 1 1 1 1 1 1 0 
340 20 613 0 1 0 1 1 1 1 0 1 0 1 1 1 0 0 1 1 1 1 1 
341 20 913 1 0 1 0 1 1 1 1 1 1 1 0 1 1 1 0 1 1 1 1 
342 20 918 1 1 0 1 0 0 1 1 0 1 1 1 1 1 0 1 1 1 1 0 
343 20 872 0 0 1 1 1 0 0 1 1 1 1 0 1 1 0 1 1 1 1 1 
344 20 832 0 1 1 1 0 0 1 1 1 0 1 1 1 1 1 1 1 1 0 1 
345 20 837 1 1 0 0 1 0 1 1 1 1 1 0 1 1 1 1 1 0 1 0 
346 20 711 1 1 1 0 1 1 1 1 0 0 1 0 1 1 1 1 1 1 0 0 
347 20 828 1 1 1 0 1 1 1 1 1 1 1 1 1 0 1 0 1 1 1 1 
348 20 770 1 0 1 1 0 1 1 1 0 1 1 1 0 1 0 1 1 0 1 1 
349 20 786 1 0 1 0 1 1 1 1 1 1 1 1 1 1 1 1 0 1 0 1 
350 20 790 0 1 0 0 1 1 1 1 1 1 0 0 1 1 1 1 1 1 1 1 
351 20 977 1 0 1 1 1 0 1 1 0 1 0 1 1 1 1 0 1 0 1 1 
352 20 771 1 1 1 1 0 1 1 1 1 1 1 0 1 0 1 1 1 1 1 1 
353 20 812 1 1 1 0 1 1 1 1 1 1 1 0 1 1 1 1 1 0 1 0 
354 20 876 1 1 1 1 1 1 1 0 1 0 0 1 1 1 1 1 0 1 1 0 
355 20 818 1 1 0 0 0 1 0 1 1 1 1 0 1 1 1 0 1 1 1 1 
356 20 862 1 0 1 1 1 0 0 1 1 1 0 1 1 1 1 1 1 0 1 1 
357 20 714 1 0 1 1 1 1 1 1 0 1 1 1 1 0 0 1 1 0 0 1 
358 20 839 1 1 1 1 1 1 1 0 1 0 1 1 1 0 1 1 1 1 1 0 
359 20 879 1 1 1 1 0 1 0 1 1 1 1 0 0 1 1 0 1 1 0 1 
360 20 811 1 1 1 1 1 1 1 0 1 1 1 1 1 0 1 1 1 0 1 1 
361 20 755 1 0 1 1 1 1 1 0 1 0 1 1 1 0 1 0 1 0 1 1 
362 20 805 1 1 1 1 1 0 1 1 1 1 0 1 1 1 1 1 1 1 1 0 
363 20 711 1 0 0 1 0 0 0 1 1 1 1 1 1 1 1 1 1 1 1 0 
364 20 798 0 1 1 1 0 1 0 1 1 1 1 1 1 0 1 1 1 1 1 0 
365 20 884 1 1 1 1 1 0 0 1 1 1 1 1 0 1 1 0 1 0 1 1 
366 20 825 0 1 1 1 0 1 1 1 1 1 1 1 1 1 1 1 0 0 1 0 
367 20 689 0 1 1 1 0 1 1 1 0 1 1 1 1 1 1 0 0 1 1 1 
368 20 844 1 1 1 0 1 1 1 1 1 1 1 1 0 0 0 0 1 1 1 1 
369 20 863 1 1 0 1 0 0 1 1 1 1 1 0 0 1 1 1 1 0 1 1 
370 20 958 1 1 0 1 0 1 1 0 1 1 1 1 1 0 1 1 1 1 1 1 
371 20 828 1 1 1 1 1 1 1 1 1 1 1 0 1 1 1 1 1 0 1 0 
372 20 751 1 1 1 1 1 1 1 1 1 0 0 1 0 0 0 1 1 1 1 1 
373 20 769 1 0 1 1 0 1 1 1 0 1 1 0 1 1 1 0 0 1 1 1 
374 20 940 0 1 1 1 1 1 0 1 1 1 0 1 1 1 0 1 0 1 1 1 
375 20 849 0 0 0 1 1 0 1 0 1 1 1 1 1 1 1 1 1 0 1 1 
376 20 711 1 1 1 1 1 1 0 1 1 1 1 0 0 1 1 1 0 0 0 1 
377 20 846 1 0 0 1 1 1 1 1 0 1 1 1 1 0 1 1 1 1 1 1 
378 20 888 1 1 0 0 1 1 0 1 0 1 1 1 1 1 1 0 0 1 1 1 
379 20 779 1 0 0 1 1 1 0 0 1 1 1 1 1 1 1 1 1 1 1 1 
380 20 913 1 1 1 1 0 1 0 1 1 1 1 1 0 1 1 0 1 1 0 1 
381 20 873 1 0 0 1 1 0 1 1 1 1 1 1 1 1 1 1 1 1 0 0 
382 20 891 1 1 1 1 1 0 1 1 1 1 1 1 0 1 1 0 1 0 1 0 
383 20 924 1 0 1 1 0 1 1 0 1 1 1 1 1 1 0 1 1 1 0 1 
384 20 761 1 1 1 0 0 1 1 0 0 1 1 1 1 1 1 1 1 1 1 1 
385 20 934 1 1 1 1 1 0 1 0 0 1 1 1 1 0 1 1 1 1 1 0 
386 20 994 0 1 0 1 1 1 1 0 1 0 1 1 0 1 1 1 1 1 1 1 
387 20 872 1 1 1 0 1 1 1 1 1 1 1 0 0 1 0 1 1 1 1 0 
388 20 784 1 0 0 1 1 1 1 1 0 1 1 1 1 1 1 1 1 1 1 1 
389 20 700 0 0 1 1 0 1 1 1 1 1 1 1 1 1 1 1 1 0 1 0 
390 20 1016 1 1 1 1 1 0 1 0 1 1 0 1 1 1 1 1 0 1 1 0 
391 20 768 0 1 1 1 0 1 0 0 1 1 0 1 1 1 1 0 1 1 1 1 
392 20 766 1 1 1 0 1 1 1 0 1 1 1 1 1 0 0 1 1 1 1 1 
393 20 729 1 1 1 0 0 0 1 1 0 1 0 1 1 1 1 1 1 0 1 1 
394 20 900 1 0 0 1 1 1 0 1 1 1 0 0 1 0 1 1 1 1 1 1 
395 20 881 1 0 1 1 0 1 1 1 1 1 1 1 1 1 0 1 1 1 1 1 
396 20 930 0 1 1 1 1 1 1 1 1 1 1 1 0 0 0 0 1 1 1 1 
397 20 1114 1 1 1 1 1 1 1 1 0 0 1 1 0 1 1 1 1 0 1 1 
398 20 879 1 1 1 1 1 1 0 1 1 1 0 1 1 1 0 1 1 0 1 1 
399 20 931 1 1 1 1 1 1 1 0 0 1 0 1 1 1 1 0 1 0 1 1 
400 20 725 1 0 1 0 1 1 1 1 1 1 1 1 0 1 0 1 1 1 1 0 
401 20 638 1 1 1 1 1 0 0 1 0 1 1 1 1 1 1 1 1 1 0 1 
402 20 882 0 1 1 0 1 1 1 0 0 1 1 1 1 1 1 1 1 1 1 1 
403 20 843 1 0 1 1 0 1 1 1 1 1 1 1 1 0 1 1 1 0 1 1 
404 20 723 0 1 0 1 1 0 1 1 1 1 0 0 1 1 1 1 1 1 1 1 
405 20 732 1 0 1 1 1 1 1 1 0 1 0 1 1 1 1 1 1 1 0 1 
406 20 845 1 1 1 1 1 0 0 1 0 1 0 1 1 1 1 1 0 1 0 1 
407 20 938 0 0 1 0 0 1 1 1 1 1 1 1 1 1 1 1 1 1 1 1 
408 20 890 1 1 0 0 1 1 0 0 1 1 0 1 1 1 1 0 1 1 1 1 
409 20 604 1 1 1 0 1 1 1 1 1 1 0 1 1 0 0 1 1 1 1 1 
410 20 817 1 1 1 0 1 1 0 1 1 1 1 1 1 0 1 1 0 1 1 1 
411 20 848 1 1 0 1 1 1 1 1 1 1 0 1 0 1 0 1 1 1 1 1 
412 20 818 1 1 1 0 1 0 1 0 1 1 1 1 0 0 1 1 1 1 1 1 
413 20 781 1 1 1 1 1 1 1 1 1 1 0 1 1 1 1 0 1 1 0 1 
414 20 590 1 1 0 1 1 1 1 1 0 0 1 1 1 0 0 1 0 1 1 1 
415 20 737 1 0 1 1 0 1 1 0 1 1 0 1 0 1 1 1 1 0 1 0 
416 20 1028 1 1 0 0 1 1 1 1 0 1 1 0 1 1 1 1 1 1 0 1 
417 20 748 1 1 1 1 1 1 1 0 0 0 1 1 0 1 0 1 1 1 1 0 
418 20 819 0 1 1 1 1 0 1 0 0 1 0 1 1 1 1 0 1 1 1 1 
419 20 822 0 1 1 0 1 1 1 1 1 0 1 1 0 1 1 1 1 1 0 0 
420 20 826 1 0 0 1 1 1 1 1 1 1 1 0 1 0 1 1 1 1 1 1 
421 20 766 1 1 0 0 1 1 0 1 1 1 1 1 0 0 1 1 1 1 1 1 
422 20 680 1 1 1 1 1 0 1 1 1 1 1 0 1 1 1 1 1 1 0 1 
423 20 844 1 0 1 1 1 1 1 1 1 1 1 1 1 1 1 0 1 0 1 1 
424 20 931 0 1 1 0 1 1 1 1 1 0 1 1 0 1 1 1 1 1 0 1 
425 20 829 1 0 1 1 0 1 0 1 1 0 1 1 0 1 1 1 1 1 1 1 
426 20 852 1 1 0 1 1 1 1 0 0 1 0 1 1 1 1 1 1 1 1 0 
427 20 675 1 0 1 1 0 1 1 1 1 1 1 1 1 1 1 1 0 1 1 1 
428 20 809 0 1 1 1 1 1 1 1 0 1 0 1 0 1 0 1 1 1 1 1 
429 20 826 0 1 1 1 1 1 1 1 0 1 0 1 0 1 1 1 1 1 0 1 
430 20 727 0 0 1 1 1 1 1 0 1 1 1 1 1 0 1 1 1 1 0 1 
431 20 770 0 1 0 1 1 1 1 1 1 1 1 0 1 1 0 1 1 1 1 0 
432 20 733 1 1 0 1 1 1 1 0 1 1 1 0 0 1 1 1 1 1 0 1 
433 20 808 0 1 1 1 1 1 0 0 0 0 1 0 1 1 1 1 1 1 1 1 
434 20 862 0 1 1 1 1 1 1 1 0 1 1 1 1 0 1 0 1 1 1 1 
435 20 834 0 1 1 1 1 0 1 1 0 0 1 0 1 1 1 1 1 1 1 0 
436 20 787 0 1 1 1 0 1 1 1 1 1 1 1 1 1 0 0 1 1 0 1 
437 20 609 1 1 1 1 1 1 0 1 1 0 1 1 1 1 1 1 0 0 0 1 
438 20 716 0 1 1 1 1 1 1 0 1 1 0 1 1 1 1 0 1 1 0 0 
439 20 966 1 1 1 1 0 1 1 1 1 1 1 1 1 1 0 1 0 1 0 1 
440 20 870 0 1 1 1 0 0 1 1 1 1 1 0 1 1 1 1 0 1 1 1 
441 20 681 1 1 1 1 0 1 1 1 1 1 1 0 1 1 1 1 0 1 1 0 
442 20 812 0 0 1 1 1 0 1 1 1 1 1 1 0 0 1 1 0 1 1 1 
443 20 814 0 1 1 1 1 1 1 1 1 0 1 1 1 1 1 1 1 1 1 0 
444 20 915 1 0 1 0 1 1 1 1 1 1 0 1 1 0 1 0 1 1 1 1 
445 20 981 1 1 0 1 0 1 1 1 0 1 1 0 1 0 1 1 1 1 1 1 
446 20 669 1 0 1 0 1 0 1 1 1 1 1 1 1 1 0 1 1 1 0 1 
447 20 763 1 1 1 0 1 0 0 1 1 1 1 1 1 1 1 1 1 1 1 1 
448 20 898 1 0 1 0 1 0 1 1 1 1 1 1 1 1 1 0 1 0 1 1 
449 20 804 1 0 1 1 1 1 1 1 1 0 0 1 0 1 1 1 1 1 1 1 
450 20 670 1 1 1 1 1 0 1 0 1 1 1 0 1 1 0 1 1 1 1 1 
451 20 779 1 1 1 1 1 0 1 1 0 1 1 1 1 1 1 1 0 0 1 1 
452 20 924 1 1 0 0 1 0 1 1 1 1 1 0 1 1 1 1 0 1 1 1 
453 20 827 1 0 1 1 1 1 1 0 1 1 1 1 1 0 1 1 0 1 1 0 
454 20 781 1 1 1 0 1 1 1 0 1 1 1 0 1 0 1 0 1 1 1 1 
455 20 893 1 1 1 0 1 1 1 1 1 1 0 1 1 1 1 0 1 1 1 1 
456 20 882 1 1 1 1 1 1 1 1 0 1 1 1 1 1 1 0 0 1 1 1 
457 20 736 1 0 0 1 1 1 1 1 1 0 1 1 1 1 1 1 1 0 1 1 
458 20 878 1 1 1 1 0 0 1 1 1 1 1 1 1 1 0 1 1 1 1 0 
459 20 930 1 0 1 1 0 1 1 1 0 0 1 1 1 0 1 1 1 1 1 1 
460 20 859 1 1 0 1 1 1 0 1 1 1 1 1 1 0 0 1 0 0 1 1 
461 20 731 1 1 1 1 0 1 1 1 0 1 1 0 1 1 1 0 0 1 1 1 
462 20 910 1 0 1 1 1 1 1 1 1 1 1 0 1 1 0 0 1 0 1 1 
463 20 790 1 1 1 1 1 1 1 0 1 0 1 1 1 1 1 1 1 0 0 1 
464 20 839 1 1 1 1 1 0 0 1 1 1 1 1 1 1 0 1 1 1 1 1 
465 20 768 1 1 1 1 1 1 1 1 0 1 0 1 1 0 0 1 0 0 1 1 
466 20 809 1 1 1 0 1 0 0 1 1 1 0 1 1 1 1 1 0 1 1 1 
467 20 731 0 1 1 1 1 1 0 1 1 1 1 1 1 1 0 1 1 0 1 1 
468 20 836 1 1 1 0 0 1 1 1 1 1 1 1 1 1 1 0 1 0 1 1 
469 20 924 1 1 1 1 1 1 1 0 1 1 0 1 1 1 1 1 1 1 1 0 
470 20 744 0 0 1 1 0 0 1 1 1 1 1 1 1 1 1 1 1 1 1 1 
471 20 794 1 1 1 1 1 1 0 1 0 1 1 1 1 1 0 0 1 0 1 1 
472 20 1040 1 1 1 0 1 1 1 0 1 1 1 0 1 0 1 0 1 1 1 1 
473 20 697 0 1 1 0 1 1 1 1 1 1 1 0 1 0 0 1 1 0 1 0 
474 20 906 0 1 1 0 1 0 1 1 1 1 1 1 1 1 1 0 1 1 1 1 
475 20 725 1 0 0 1 1 1 1 0 1 0 1 1 1 0 1 0 1 1 1 1 
476 20 963 1 1 1 0 0 1 1 0 0 0 1 1 1 1 0 1 0 1 1 1 
477 20 819 1 0 1 1 1 1 1 1 1 1 1 1 1 1 0 1 1 0 1 1 
478 20 831 1 1 0 1 1 1 1 1 1 1 1 1 0 1 0 1 1 1 0 0 
479 20 722 1 0 0 1 0 1 1 0 1 1 1 1 1 1 1 1 0 1 1 1 
480 20 766 1 1 0 1 1 1 0 0 1 1 1 1 1 1 1 1 1 1 1 0 
481 20 812 1 1 1 0 1 1 1 1 1 1 0 1 1 1 1 0 0 0 1 1 
482 20 769 0 1 1 0 1 1 1 0 1 1 0 1 1 0 1 1 1 0 1 1 
483 20 844 1 0 1 1 0 1 1 1 1 1 0 1 1 1 0 1 1 1 1 1 
484 20 745 1 1 1 0 1 1 1 0 1 1 1 1 1 1 1 0 0 1 1 1 
485 20 808 1 1 1 1 1 1 1 1 1 1 1 1 0 1 0 1 1 0 0 1 
486 20 743 0 0 1 1 1 1 1 1 0 1 1 0 1 1 0 1 0 1 1 1 
487 20 822 1 1 1 0 1 0 1 1 1 1 0 1 1 1 0 1 1 0 1 1 
488 20 780 1 0 1 0 1 1 1 1 1 1 1 0 0 1 1 1 1 1 0 1 
489 20 939 1 0 0 1 1 1 1 0 0 1 1 1 1 1 1 0 1 1 0 1 
490 20 857 1 1 1 1 1 0 1 0 1 1 0 0 1 1 0 1 1 1 1 1 
491 20 940 1 1 1 1 1 1 1 0 0 1 1 1 1 0 1 1 1 0 1 0 
492 20 999 1 1 1 0 1 1 1 1 1 0 0 1 1 0 0 1 1 1 1 1 
493 20 928 1 1 1 1 1 1 0 1 1 0 1 1 0 0 1 1 1 1 1 1 
494 20 763 1 1 1 0 1 1 1 1 1 0 1 1 1 1 1 0 1 1 1 1 
495 20 797 1 0 1 0 1 1 1 1 1 1 0 1 1 1 1 1 0 1 0 0 
496 20 739 0 1 1 1 1 1 1 1 0 1 1 0 1 0 1 1 0 1 1 1 
497 20 845 1 1 0 0 1 1 0 1 1 0 1 1 0 1 1 1 0 1 1 1 
498 20 824 1 0 1 0 1 1 1 1 1 1 0 1 1 1 0 1 1 1 1 1 
499 20 842 1 1 0 1 1 1 1 1 0 1 1 1 1 0 0 1 1 1 1 1 
500 20 758 1 1 1 1 1 1 1 0 1 0 0 1 0 1 1 1 1 0 1 1 
