1 20 3024 58 6 69 17 324 80 238 63 44 7 87 19 235 56 241 59 25 8 343 86 108 33 381 96 391 98 12 9 219 55 264 66 293 72 195 50 36 8 218 51
2 20 2711 281 71 119 33 13 7 375 94 134 29 12 10 269 65 229 58 140 31 241 64 256 67 67 24 24 13 332 82 142 33 262 68 65 23 212 51 79 23 137 32
3 20 3596 220 59 252 67 383 96 235 62 214 57 80 16 381 95 237 56 138 29 108 30 254 65 281 69 35 18 191 49 297 75 313 80 277 68 283 73 19 4 298 73
4 20 3006 217 56 312 78 347 88 216 53 80 22 140 41 127 28 308 75 132 29 189 48 122 33 328 83 41 19 267 64 129 39 152 42 88 16 257 64 105 33 201 49
5 20 2998 371 93 175 46 256 67 387 97 81 22 321 82 310 79 28 14 91 25 194 45 311 79 55 21 309 80 39 17 256 64 222 53 104 25 65 19 65 21 108 26
6 20 3113 317 81 242 58 40 10 76 26 223 59 254 65 190 52 160 44 53 18 308 78 26 5 380 95 50 15 182 43 319 79 174 46 18 12 258 65 368 92 254 65
7 20 3536 130 27 264 64 230 59 324 82 97 22 46 14 201 54 392 99 257 67 235 57 280 72 189 46 172 42 113 34 67 18 374 93 396 99 106 27 159 40 388 98
8 20 3281 397 100 365 92 222 55 74 15 91 20 186 44 174 49 88 27 163 38 377 94 364 91 266 70 344 85 32 5 155 42 39 4 284 71 113 33 152 40 216 58
9 20 3405 370 93 4 8 42 12 133 32 214 51 180 47 63 13 212 51 393 98 180 49 34 2 314 77 196 53 329 81 192 44 324 83 161 40 182 50 338 84 396 100
10 20 2886 326 82 178 42 95 22 119 29 98 31 356 90 268 67 125 27 25 2 154 35 48 13 323 83 131 33 169 46 176 47 321 80 288 70 110 22 178 50 120 31
11 20 2908 106 28 161 37 352 88 376 94 385 97 185 47 17 8 3 10 97 21 132 31 271 71 119 27 398 100 127 27 2 10 227 58 128 38 68 12 114 30 368 93
12 20 3288 116 34 37 2 14 13 126 30 240 56 111 24 299 77 358 91 130 26 315 79 359 90 104 22 253 61 386 97 264 63 133 33 310 77 130 39 342 84 83 28
13 20 3421 196 45 60 16 283 73 336 85 140 30 386 97 48 17 223 53 253 67 350 88 155 36 335 84 201 48 129 36 292 72 57 17 347 88 237 63 70 19 179 41
14 20 3700 262 69 190 46 382 96 400 100 254 64 264 63 270 69 236 57 383 96 91 19 210 50 198 55 190 44 168 39 176 40 202 52 117 25 154 44 172 42 307 75
15 20 3950 145 40 369 93 254 67 320 79 360 89 341 86 166 41 40 8 278 70 360 91 157 35 295 76 215 58 65 24 47 19 319 78 301 77 167 46 373 93 366 92
16 20 3068 285 69 165 47 374 94 238 56 80 18 328 82 276 72 5 9 2 6 80 27 315 78 79 23 180 49 371 93 158 37 165 37 165 39 24 12 164 40 382 96
17 20 3684 7 8 392 98 302 74 54 13 110 30 348 88 364 91 186 50 120 34 143 37 387 97 246 58 184 50 127 37 231 54 54 15 374 94 343 87 276 69 358 90
18 20 2922 73 18 8 7 211 54 198 52 181 41 248 63 165 39 370 93 48 17 97 17 290 71 210 50 312 79 17 14 227 57 364 92 57 17 58 15 146 37 373 93
19 20 3175 237 57 52 18 143 33 87 22 54 6 348 87 340 86 370 93 183 49 334 85 57 19 278 70 105 23 128 32 123 31 354 90 15 5 366 92 92 17 303 76
20 20 3286 325 82 95 20 175 40 266 66 363 91 223 52 153 32 189 43 351 88 146 37 186 48 172 40 309 78 107 20 64 19 352 89 27 2 47 18 390 98 168 47
21 20 3724 379 95 360 90 49 6 186 44 216 54 133 28 270 67 67 13 228 62 275 68 63 22 297 77 262 69 240 57 261 66 278 68 172 43 294 72 339 84 286 74
22 20 2488 353 88 118 36 92 31 212 57 238 60 33 6 261 67 32 12 23 9 2 2 10 3 303 75 8 8 8 9 278 70 284 72 387 97 261 69 100 20 108 29
23 20 2695 302 78 33 6 230 62 150 43 260 65 4 2 40 18 116 33 183 51 30 10 194 53 113 32 348 88 196 52 10 1 289 73 120 29 231 61 308 76 212 52
24 20 3344 392 98 311 76 252 64 155 41 373 94 297 73 188 51 363 91 49 13 131 37 52 19 391 98 198 46 163 42 15 9 125 36 48 19 95 22 213 52 370 93
25 20 3332 273 69 171 48 119 25 387 97 148 34 399 100 153 43 180 44 192 49 217 59 216 55 115 24 8 3 347 88 97 32 54 10 179 49 389 97 335 83 186 49
26 20 3177 34 15 205 56 156 45 62 24 332 84 316 81 392 98 146 35 36 16 305 75 179 44 6 8 88 15 377 95 349 87 103 21 373 94 10 3 200 52 303 74
27 20 3311 116 31 155 42 184 45 160 37 343 85 307 79 165 41 360 91 232 58 72 23 287 74 57 22 66 19 334 82 340 85 356 90 87 21 117 25 199 47 202 54
28 20 3185 130 30 263 67 36 17 34 6 137 33 176 44 33 12 341 84 272 71 23 14 187 50 80 27 194 45 379 95 349 86 372 93 121 36 358 89 336 84 161 45
29 20 3111 266 67 56 15 335 85 386 97 142 32 208 48 269 68 41 6 295 73 346 86 383 96 56 21 282 71 138 30 89 22 170 38 60 14 181 50 52 13 134 38
30 20 3417 143 36 242 61 120 31 278 69 283 72 380 96 156 45 43 18 184 49 109 28 195 49 204 50 315 77 391 98 271 69 73 22 321 81 223 57 153 37 188 49
31 20 2967 388 97 169 44 301 74 9 6 134 40 246 59 397 100 336 83 110 33 91 17 47 16 44 17 259 67 149 44 176 46 207 53 302 76 13 5 15 5 316 81
32 20 3304 278 69 129 34 239 64 307 75 153 44 301 76 312 77 21 4 5 4 62 19 368 92 314 79 358 90 87 18 254 67 235 59 10 6 260 63 365 91 72 23
33 20 3352 19 1 220 60 268 65 205 48 392 98 68 10 336 84 314 78 105 22 304 77 282 73 300 76 73 13 102 24 194 54 157 46 399 100 126 37 237 60 89 16
34 20 3048 76 12 273 71 207 48 141 39 363 91 217 56 189 50 340 85 190 48 33 3 303 77 380 96 126 26 309 79 126 31 32 9 215 57 4 3 147 39 139 39
35 20 2760 50 9 396 99 290 73 72 23 284 69 84 17 391 98 22 6 98 27 50 11 207 55 146 38 16 5 2 4 104 28 123 27 320 79 303 77 222 54 271 70
36 20 3104 388 97 368 93 59 13 187 44 83 18 295 77 9 6 232 62 152 37 182 43 179 40 79 20 255 67 329 82 282 70 53 14 252 64 297 74 96 18 103 27
37 20 2964 7 4 262 63 196 47 154 36 350 88 281 71 68 22 75 26 188 52 373 94 227 57 352 89 8 10 399 100 66 15 41 2 142 42 70 26 384 96 62 24
38 20 3848 196 53 149 32 376 94 252 65 220 53 216 57 169 37 339 85 351 88 321 80 250 66 140 29 59 11 384 97 253 62 257 68 171 44 381 96 15 2 312 79
39 20 2838 121 28 103 20 283 69 147 42 14 4 82 15 238 63 98 30 352 88 277 69 91 30 157 39 368 92 217 55 316 81 16 7 159 40 295 72 79 19 135 39
40 20 3216 110 34 367 91 221 56 132 27 256 66 9 4 324 80 163 42 182 43 53 8 20 1 129 35 72 20 208 53 367 93 355 89 61 18 276 68 321 80 394 99
41 20 3381 152 38 256 62 199 52 134 35 253 65 56 9 288 74 393 99 323 79 322 82 265 65 260 64 101 24 4 2 160 38 6 4 352 90 326 81 255 65 122 25
42 20 3075 392 98 155 40 274 67 81 16 228 58 371 93 114 28 62 23 298 78 185 52 310 76 148 42 163 36 197 52 152 39 330 81 153 41 18 4 13 2 200 51
43 20 3818 298 75 180 48 85 19 204 56 137 36 72 17 149 42 363 91 377 94 337 84 280 72 282 68 360 90 304 77 342 85 215 54 239 61 53 8 160 37 336 84
44 20 2744 188 52 25 12 61 8 287 72 101 32 181 49 133 39 376 94 10 9 103 21 399 100 308 79 331 82 147 33 18 12 65 16 133 33 241 61 2 8 321 82
45 20 2960 259 62 20 4 354 89 76 25 171 42 147 35 109 20 262 63 137 29 235 62 242 62 126 32 136 32 129 34 327 80 179 44 190 51 216 52 236 60 150 35
46 20 2600 112 27 360 89 9 8 203 52 256 64 198 54 62 14 39 15 285 70 312 80 16 1 178 46 135 32 40 19 168 46 265 66 26 8 246 64 291 75 49 17
47 20 3474 155 36 346 87 25 15 338 83 112 29 362 91 205 48 371 94 128 26 38 19 175 41 255 61 358 90 108 21 246 59 232 60 389 97 336 85 87 27 77 23
48 20 3242 138 37 252 61 60 24 261 67 150 33 385 96 281 69 43 6 338 85 307 75 384 96 217 50 190 52 203 55 239 60 75 17 312 77 33 8 129 34 56 13
49 20 2797 3 1 70 21 366 92 121 31 365 92 171 40 190 50 29 12 186 44 214 53 21 9 179 48 214 55 220 51 218 52 202 50 266 66 285 69 5 9 172 46
50 20 2992 99 19 50 19 30 5 67 20 320 80 356 90 394 99 30 16 259 66 270 66 13 11 324 81 85 29 87 24 235 58 305 78 121 25 103 25 295 76 298 77
51 20 3380 375 94 103 28 15 11 37 13 42 14 283 72 251 60 269 67 322 80 163 43 382 96 190 51 324 81 93 21 338 84 166 42 341 86 118 24 323 82 90 30
52 20 3520 43 6 256 63 223 58 159 38 112 24 185 48 267 69 338 84 177 46 267 67 235 60 104 19 374 94 356 89 337 86 227 59 14 5 345 86 50 14 332 82
53 20 3520 143 37 153 39 301 76 49 13 350 89 224 60 285 74 326 80 81 15 218 53 310 78 161 38 171 42 326 80 400 100 279 68 83 22 65 20 125 35 351 89
54 20 2940 297 76 273 68 60 15 144 40 155 36 299 75 283 73 48 3 343 86 208 55 197 54 192 46 60 9 239 62 279 69 23 13 51 5 271 67 35 13 219 59
55 20 2972 56 9 223 56 248 62 220 59 264 69 100 26 8 1 133 35 344 87 278 71 51 5 318 79 60 19 74 16 354 88 390 98 355 88 63 18 58 8 119 26
56 20 2701 394 99 155 35 2 10 37 3 26 3 72 21 162 45 132 31 249 62 298 73 69 17 351 87 205 50 134 27 267 68 191 48 178 50 60 13 201 48 194 48
57 20 3200 144 32 145 37 343 86 88 30 156 43 212 56 198 48 368 91 179 49 15 11 306 78 151 41 278 71 286 72 87 19 151 32 63 21 146 38 342 86 342 86
58 20 3251 368 92 112 29 390 98 71 20 177 49 374 95 200 47 34 4 183 45 137 30 50 10 399 100 286 71 245 60 251 64 199 54 101 29 232 61 66 14 189 49
59 20 3373 197 46 49 11 362 92 399 100 120 31 10 2 96 25 310 79 121 33 192 47 361 91 242 59 306 78 173 39 329 82 358 89 63 16 57 13 386 97 86 26
60 20 3190 328 82 188 45 74 16 234 62 30 10 3 4 122 33 218 58 162 39 287 71 362 91 95 21 370 94 170 41 214 50 122 33 303 75 1 7 393 99 312 77
61 20 3324 22 15 302 77 308 77 285 71 171 47 344 86 159 43 257 66 150 35 229 61 65 14 379 95 93 17 312 76 373 93 356 88 49 6 49 10 138 41 115 36
62 20 2916 94 23 399 100 96 25 291 74 257 61 31 11 44 3 383 96 73 19 93 29 235 61 341 85 398 100 92 29 305 77 103 31 169 39 89 21 99 23 54 13
63 20 3080 228 58 190 46 168 42 259 66 47 13 206 56 110 21 357 90 232 61 8 2 297 74 169 45 132 39 264 68 260 65 221 53 247 64 74 13 178 47 203 55
64 20 2372 125 34 143 36 156 45 50 12 239 58 217 53 352 89 90 22 178 49 214 58 237 61 5 3 88 17 190 49 218 53 74 15 49 5 62 17 135 29 144 40
65 20 3027 333 83 93 24 40 7 174 41 62 13 181 49 339 86 336 83 340 85 330 82 40 9 173 39 314 79 252 62 170 44 14 7 54 21 361 90 144 39 34 15
66 20 3712 317 80 326 84 28 6 59 11 353 88 151 33 49 14 94 27 75 26 321 80 390 98 295 72 148 39 319 81 184 51 252 60 299 77 274 66 399 100 307 77
67 20 3033 270 69 71 14 344 85 55 19 197 54 396 99 57 13 199 49 39 16 246 59 188 53 322 82 192 47 132 32 290 74 62 19 22 14 304 78 313 79 93 18
68 20 2720 30 1 389 98 118 29 238 59 346 86 82 28 194 46 109 27 142 41 194 44 250 62 385 96 126 26 324 82 60 17 42 16 119 34 5 7 222 60 25 14
69 20 3026 118 35 37 8 106 23 255 68 364 92 27 13 351 87 340 85 381 96 391 98 28 15 128 36 149 41 46 4 265 67 383 96 75 15 10 11 250 64 79 21
70 20 3018 216 55 255 60 288 70 195 48 356 88 305 76 132 32 158 44 95 27 54 16 19 3 374 94 43 6 101 28 267 70 135 35 150 42 140 36 169 48 321 79
71 20 3450 201 55 385 97 282 70 215 51 205 50 55 6 112 25 113 32 3 11 241 63 382 96 170 41 111 31 268 70 334 84 355 88 152 39 380 96 233 56 116 25
72 20 3407 363 91 255 61 55 13 16 10 378 95 260 67 386 97 201 50 194 49 239 59 7 3 309 80 42 19 377 95 269 65 264 66 97 29 87 27 385 97 75 15
73 20 2770 13 4 285 70 239 64 346 87 201 48 3 1 53 22 302 77 343 85 94 28 324 83 84 17 135 38 6 3 85 18 181 50 208 57 39 17 148 39 374 94
74 20 3161 377 95 362 90 239 58 284 72 365 91 153 37 58 20 316 78 54 19 118 32 320 81 215 54 51 5 54 15 196 53 131 36 158 36 27 4 226 60 248 60
75 20 3985 74 21 115 24 379 95 280 73 270 69 323 82 232 60 192 53 39 8 277 71 372 93 324 82 237 62 168 37 252 63 144 37 354 89 312 78 314 79 324 82
76 20 2614 50 20 83 21 326 83 164 45 53 21 218 57 99 25 226 56 6 2 139 38 382 96 9 2 357 90 47 16 135 38 388 97 112 29 144 39 210 51 120 26
77 20 3524 373 94 376 94 324 82 388 97 223 58 66 10 279 68 304 76 315 78 18 3 83 20 32 11 49 19 291 70 160 39 327 82 218 53 353 88 39 6 187 48
78 20 3011 246 64 54 13 155 36 124 31 241 62 160 37 280 70 47 7 245 61 223 54 184 47 330 82 339 85 382 96 249 66 181 41 33 16 103 27 27 15 161 43
79 20 2646 321 80 51 18 114 26 161 36 56 22 10 6 77 20 277 72 347 88 289 72 127 27 45 19 13 3 279 72 292 72 137 35 164 43 93 20 266 68 189 49
80 20 2938 285 73 69 15 170 45 101 25 153 37 383 96 111 35 115 29 128 36 256 61 158 44 190 50 278 68 1 3 304 75 315 79 124 33 93 30 292 73 147 32
81 20 3632 244 59 392 99 347 86 336 85 362 92 278 69 310 79 320 82 125 27 188 49 52 17 255 61 57 20 304 78 46 6 317 78 400 100 46 8 17 1 144 41
82 20 2788 24 9 268 68 383 96 3 1 72 14 394 99 165 38 184 45 45 7 140 29 50 5 299 73 104 19 26 12 242 64 231 56 400 100 159 45 123 32 174 46
83 20 2872 170 44 96 28 386 97 124 25 49 9 319 81 372 94 244 63 329 84 63 21 312 78 87 18 207 53 65 12 202 46 260 67 101 26 108 24 14 5 82 16
84 20 3576 127 35 160 46 399 100 390 98 36 17 306 76 154 43 367 93 292 72 20 9 382 96 128 37 79 12 306 76 32 3 226 59 330 83 227 55 206 50 303 77
85 20 3541 249 62 246 61 71 23 163 46 361 91 390 98 328 83 291 73 286 75 38 18 95 24 321 81 82 26 269 67 368 93 254 67 44 5 272 66 186 50 113 35
86 20 3511 23 10 350 88 326 82 352 90 279 73 254 61 182 48 86 28 30 2 357 89 34 18 368 92 375 94 281 71 33 12 255 65 215 54 44 12 345 87 200 54
87 20 3052 43 12 347 87 347 88 236 58 151 39 327 82 71 22 223 57 293 75 182 49 62 8 307 78 99 25 2 5 307 76 271 65 13 10 364 92 103 19 67 9
88 20 2995 33 8 168 44 295 72 336 83 299 77 236 57 104 28 111 28 169 38 214 53 42 15 341 85 103 25 162 39 81 20 218 56 301 76 142 32 67 14 322 81
89 20 2790 174 39 194 53 105 21 332 82 203 47 22 15 96 20 64 19 129 39 38 9 74 22 87 28 85 16 242 64 119 28 363 92 379 95 117 25 344 85 321 80
90 20 3680 360 91 265 64 326 83 285 74 285 71 24 1 253 67 278 69 320 79 316 81 351 88 34 11 194 52 337 84 227 59 261 65 177 49 82 28 164 38 61 21
91 20 3671 184 50 294 74 189 49 300 78 32 7 170 39 228 54 89 29 163 42 158 41 372 93 280 69 283 74 354 88 349 87 349 89 4 10 160 38 246 65 385 97
92 20 3264 253 65 76 22 309 79 297 77 59 13 151 44 151 41 80 21 364 91 110 26 266 64 26 10 392 98 47 19 392 99 10 7 300 74 321 82 95 20 381 96
93 20 2873 213 57 61 17 109 32 207 54 95 22 179 45 322 81 353 88 377 95 225 59 25 9 65 14 74 11 63 22 374 94 132 33 276 68 21 1 55 10 366 91
94 20 3686 235 60 299 75 377 94 320 80 178 46 90 18 249 64 335 84 189 49 266 64 308 75 384 97 238 58 67 20 169 40 64 24 170 42 399 100 165 36 106 23
95 20 3649 113 33 309 76 303 76 231 62 121 29 313 80 327 82 198 51 109 33 7 10 322 82 161 46 243 63 69 11 211 52 362 91 274 71 214 54 368 92 307 78
96 20 3320 19 7 319 79 110 32 105 23 207 55 101 32 36 11 356 89 285 71 281 68 142 31 326 82 396 99 30 5 274 70 21 9 338 84 345 85 246 59 214 52
97 20 3676 351 89 186 47 260 68 179 47 43 13 32 11 389 98 102 20 31 8 99 31 250 65 263 67 144 41 382 96 331 84 323 81 395 99 218 57 352 89 265 68
98 20 2622 67 16 92 28 201 52 245 62 17 13 1 8 293 75 117 23 365 92 118 31 152 34 158 41 5 2 174 45 149 41 175 47 73 21 379 95 107 28 390 98
99 20 2939 400 100 214 53 19 13 49 13 73 12 198 48 22 12 313 80 48 19 180 42 258 67 248 66 160 43 111 28 272 69 334 84 375 94 92 18 150 36 158 40
100 20 3367 223 56 321 80 304 74 368 92 32 1 358 89 334 84 27 14 40 18 304 75 331 84 349 89 133 31 69 19 127 27 372 94 9 10 145 40 256 65 107 27
101 20 2354 62 9 201 49 68 23 58 13 91 29 72 14 263 65 148 42 114 25 120 30 75 21 317 81 228 59 326 81 33 2 79 18 365 91 147 38 129 38 47 14
102 20 2701 36 11 39 10 315 78 275 71 142 35 53 20 38 2 111 31 308 76 362 92 104 26 36 10 137 32 170 41 164 39 336 84 197 46 133 36 278 67 143 40
103 20 3350 52 6 309 80 371 94 56 7 68 19 342 85 223 56 144 38 48 13 367 93 260 65 303 78 205 50 355 88 391 98 87 15 297 73 44 4 221 60 45 8
104 20 3305 163 46 259 63 329 82 30 14 377 95 232 59 286 70 215 55 311 76 153 44 250 62 144 38 156 45 255 63 228 55 106 26 189 50 261 68 135 29 53 15
105 20 2438 303 78 231 62 4 4 180 46 36 2 119 24 82 15 173 44 335 85 398 100 210 55 71 24 34 4 27 1 140 32 191 52 58 21 64 23 52 7 340 84
106 20 2600 103 21 47 18 87 17 170 40 35 15 152 37 95 22 102 28 368 92 120 34 283 71 391 98 106 32 57 18 47 18 247 59 151 41 314 81 152 38 224 53
107 20 3204 81 17 86 23 324 83 361 91 242 58 311 77 313 80 257 62 227 58 37 8 2 7 242 60 355 88 347 86 12 2 243 62 68 24 248 64 42 12 208 53
108 20 3140 276 66 28 2 138 31 332 83 28 5 261 68 95 26 229 58 291 75 92 26 77 27 361 91 344 85 212 51 34 15 383 96 298 77 88 15 168 43 190 46
109 20 3417 54 9 373 93 186 52 106 32 110 35 36 2 293 76 342 87 221 57 180 47 169 40 322 81 49 12 265 70 258 64 139 37 358 91 260 67 271 66 280 71
110 20 2884 135 37 100 22 394 99 185 42 132 33 54 12 54 12 234 61 145 40 258 68 123 36 273 68 158 46 389 98 203 47 30 15 387 97 252 60 97 21 3 8
111 20 2844 105 29 368 92 187 45 40 18 299 73 377 94 54 7 211 58 261 67 15 1 143 31 138 34 367 93 125 38 371 93 6 1 163 39 291 71 33 5 2 2
112 20 3822 120 26 244 63 268 67 187 48 383 96 273 67 138 30 125 29 400 100 235 62 85 26 313 77 333 84 182 43 148 34 229 61 216 55 338 85 339 85 222 55
113 20 2964 119 26 144 33 286 71 379 95 303 76 88 22 264 67 13 12 13 5 374 95 73 19 176 44 71 22 393 99 101 25 221 53 389 97 165 39 27 12 106 24
114 20 4207 99 25 388 97 131 37 350 87 397 100 327 81 395 99 215 51 282 70 292 73 52 12 396 100 351 88 252 66 177 44 61 19 244 65 81 17 378 95 391 98
115 20 2887 24 1 389 98 213 57 130 33 308 78 126 34 305 77 138 39 20 9 191 49 108 28 157 35 185 48 6 10 276 69 258 62 113 22 3 7 307 78 352 89
116 20 3096 380 95 59 12 231 59 364 92 28 13 30 9 57 23 260 63 202 50 10 9 337 83 321 81 128 29 134 31 194 51 357 90 118 24 373 94 233 62 54 7
117 20 3174 286 73 15 13 175 46 275 71 39 5 198 45 267 64 136 36 222 57 230 59 320 79 293 76 320 79 239 62 196 45 11 10 324 80 122 30 140 33 160 39
118 20 3016 263 68 12 3 206 48 281 72 21 7 367 92 24 1 395 99 238 63 151 40 109 32 101 19 262 69 126 28 391 98 247 62 5 9 347 88 16 4 209 52
119 20 3180 390 98 274 68 268 65 324 83 21 11 321 80 98 28 70 11 95 25 127 33 304 78 248 60 221 58 386 97 45 8 234 60 152 33 64 24 85 25 248 64
120 20 3281 221 53 365 92 107 23 196 45 285 74 188 51 172 48 35 11 58 21 357 91 283 70 163 42 72 19 90 16 385 97 26 14 264 67 387 97 83 26 365 91
121 20 3562 88 21 26 16 383 96 368 92 245 62 240 64 177 47 333 84 54 6 206 50 237 62 397 100 50 10 130 27 384 96 327 83 335 83 193 52 88 28 192 50
122 20 3258 221 58 10 8 189 45 18 4 81 20 37 12 231 57 159 44 179 47 202 52 361 91 238 63 187 46 53 15 277 68 262 66 207 56 381 96 382 96 398 100
123 20 2485 386 97 78 13 66 19 21 6 162 35 161 35 372 93 353 90 57 18 84 20 31 2 44 16 59 9 19 14 308 75 394 99 259 63 66 16 83 17 104 33
124 20 3272 247 59 298 74 42 3 32 16 394 99 119 31 129 27 30 16 253 60 115 23 92 31 73 20 357 89 168 47 271 68 385 97 324 81 199 55 275 71 288 74
125 20 2801 366 93 19 14 204 51 339 85 313 80 156 37 147 41 57 19 163 39 202 49 7 5 38 8 303 76 344 87 386 97 65 21 191 44 180 45 5 5 17 14
126 20 3468 95 23 218 58 377 94 245 64 260 64 108 34 196 46 137 30 355 90 217 56 62 23 220 57 282 68 122 35 272 68 170 48 149 38 108 32 380 95 363 90
127 20 2832 21 4 121 31 11 7 308 77 196 53 296 77 44 3 278 67 4 7 248 63 364 92 64 18 335 83 387 97 9 6 210 51 232 60 273 67 81 28 58 12
128 20 3039 304 77 362 91 46 13 118 35 16 1 161 38 66 12 191 47 43 6 345 88 105 24 283 68 375 94 206 50 314 79 49 5 220 53 106 33 210 50 279 73
129 20 3568 376 94 33 12 390 98 337 86 193 50 334 83 390 98 63 13 154 43 165 36 132 28 287 70 110 32 178 44 73 14 397 100 213 56 99 31 161 43 375 94
130 20 3280 231 56 373 93 188 49 18 6 358 89 213 53 161 44 285 72 213 53 326 83 188 52 45 3 57 20 59 14 147 40 358 90 251 61 187 48 337 85 106 25
131 20 3143 62 20 309 78 109 30 68 22 249 63 131 36 337 86 387 97 12 4 222 57 80 16 148 33 349 88 44 6 379 95 329 84 274 66 253 65 69 11 118 36
132 20 2818 28 10 44 12 298 76 353 88 237 58 71 22 341 87 397 99 310 78 13 4 224 57 21 15 72 16 94 21 134 34 380 95 152 32 33 2 204 50 117 33
133 20 2623 58 18 181 50 28 7 42 13 196 46 148 39 307 78 43 20 145 39 210 49 369 93 97 29 158 44 213 52 52 20 398 100 211 51 151 38 177 49 95 26
134 20 3188 365 92 81 13 17 10 249 64 35 14 188 42 46 16 330 85 197 55 300 73 213 57 56 8 144 32 72 17 52 11 232 61 372 94 368 92 271 67 397 100
135 20 3808 325 80 231 58 302 74 211 54 289 74 136 30 261 69 173 47 354 90 321 80 197 45 121 26 83 22 335 83 210 54 355 89 356 90 351 87 77 23 72 23
136 20 3125 206 50 339 84 6 5 303 75 150 36 197 50 247 62 153 39 108 34 117 26 158 45 148 34 330 84 199 54 54 13 384 96 166 38 291 75 208 52 143 33
137 20 3447 288 70 75 16 176 47 63 15 157 37 357 90 305 76 125 28 366 91 8 11 310 77 174 49 231 54 359 90 65 22 259 66 200 51 221 57 172 41 398 100
138 20 2547 192 47 323 80 95 20 274 66 56 13 76 17 207 49 10 6 70 23 226 55 168 40 200 50 363 90 67 23 95 20 220 53 54 15 224 53 82 18 182 45
139 20 2774 54 6 393 99 187 46 236 58 282 69 130 36 101 28 140 39 348 87 281 73 319 81 269 65 161 41 34 13 32 12 198 48 184 49 20 15 47 11 52 6
140 20 3536 336 84 215 58 283 74 22 10 377 94 254 66 273 72 229 54 257 68 152 39 74 24 241 63 275 67 66 10 142 32 24 10 321 82 239 64 331 82 309 78
141 20 3326 338 84 200 53 125 33 174 43 377 95 324 79 102 25 255 63 217 53 125 31 89 27 371 94 396 99 341 86 20 10 50 15 225 59 222 52 124 28 83 28
142 20 2954 239 56 13 5 400 100 164 41 330 82 187 52 387 97 153 35 137 29 269 66 180 41 175 49 48 15 63 13 6 7 371 93 65 19 105 29 198 54 203 56
143 20 3239 226 61 219 59 163 45 68 23 55 12 334 83 184 45 182 46 348 88 212 54 379 95 127 29 176 40 320 79 81 22 106 24 280 69 65 18 150 42 374 94
144 20 3156 12 5 16 6 276 72 45 16 263 65 395 99 200 50 63 20 392 98 294 72 112 22 267 68 228 58 199 45 56 7 214 58 220 54 151 41 216 51 327 83
145 20 2795 314 78 380 95 147 32 67 20 31 2 371 93 77 27 66 19 57 10 187 47 125 39 301 76 69 10 26 15 327 81 20 7 228 55 171 38 130 37 400 100
146 20 3025 16 8 193 44 235 58 234 55 95 28 191 44 393 98 25 2 41 12 84 25 62 22 199 48 305 79 312 80 315 79 183 47 196 48 383 96 46 6 274 68
147 20 3012 230 58 156 34 264 67 277 70 113 31 377 94 248 61 194 52 200 48 39 17 155 34 81 26 349 87 248 61 325 80 289 73 63 9 16 10 39 4 102 33
148 20 2927 192 47 74 26 391 98 71 23 331 82 284 70 38 15 357 90 232 60 37 15 46 7 175 43 169 47 380 95 154 44 28 2 303 76 199 47 108 29 90 22
149 20 3732 134 39 263 63 306 77 170 48 16 7 350 87 214 54 184 44 326 80 309 80 362 90 217 57 266 70 208 50 301 73 166 47 278 72 260 65 32 1 303 78
150 20 3194 339 85 349 87 360 91 219 56 337 85 253 61 140 36 173 45 80 15 2 4 352 88 6 2 333 85 77 20 200 53 151 35 180 46 44 11 119 24 279 71
151 20 2876 108 29 56 21 196 45 231 60 368 92 96 27 108 26 302 76 17 4 73 10 275 67 62 11 200 51 41 13 201 53 306 76 332 85 268 65 304 79 51 5
152 20 2889 373 94 176 41 285 74 98 30 323 80 254 62 93 31 182 43 252 63 265 64 71 23 88 15 180 50 292 74 138 32 192 52 9 9 240 59 53 16 48 4
153 20 3244 308 79 218 53 400 100 222 52 67 14 207 51 351 87 359 90 242 64 226 58 148 36 34 1 284 70 177 46 34 16 100 30 198 52 179 50 97 28 205 52
154 20 3400 4 5 305 78 13 10 235 59 397 100 137 30 346 86 18 12 196 46 257 61 358 89 64 17 201 48 242 59 223 53 176 39 231 56 143 42 387 97 317 79
155 20 2739 121 33 333 82 6 2 145 38 90 18 326 83 384 96 20 12 4 10 113 24 377 94 197 45 136 29 304 76 219 52 140 29 190 44 108 21 92 31 119 30
156 20 3138 125 33 391 98 173 44 392 98 296 77 114 27 91 16 70 19 107 33 30 13 111 27 79 22 328 82 386 97 166 36 337 85 193 49 245 65 148 42 141 41
157 20 2786 210 49 27 12 128 35 329 84 211 49 398 100 110 35 13 11 246 65 80 16 209 50 346 88 202 52 187 50 184 48 228 60 58 12 123 31 90 30 104 26
158 20 3124 299 77 143 41 56 19 131 35 99 29 149 38 62 22 53 8 212 57 329 83 62 12 359 90 140 41 286 72 192 49 143 36 209 52 289 75 302 74 391 98
159 20 3371 57 11 45 9 370 93 284 74 214 55 166 38 12 2 186 50 317 80 201 49 265 69 338 85 95 25 359 89 163 42 158 45 283 73 349 88 39 16 313 77
160 20 3249 333 85 275 71 134 37 35 1 188 52 385 97 236 62 82 28 94 30 144 39 227 62 152 35 338 84 56 20 275 71 340 84 5 1 201 52 353 88 209 53
161 20 2949 172 41 15 14 197 52 373 94 307 77 261 63 39 9 42 6 19 9 275 70 113 31 288 70 232 60 229 53 48 9 390 98 337 85 37 9 14 3 299 77
162 20 2671 142 39 400 100 59 10 83 22 89 17 159 44 110 21 31 14 384 96 265 65 367 93 134 27 93 20 123 36 21 3 94 22 318 81 88 24 318 82 61 7
163 20 3590 139 31 80 13 107 20 263 68 370 92 56 10 306 75 386 97 258 62 177 42 181 49 276 67 203 53 327 81 2 1 40 17 268 67 303 75 347 87 399 100
164 20 2920 39 13 369 92 169 48 247 63 132 33 90 21 239 61 68 21 180 40 48 12 179 49 288 70 57 13 85 20 227 59 292 71 121 34 375 95 199 55 246 63
165 20 3473 189 43 360 91 34 11 332 84 152 44 107 23 383 96 5 11 180 48 102 20 371 93 291 76 30 14 192 47 284 72 72 24 368 92 347 88 194 49 349 86
166 20 2809 24 10 81 28 384 96 187 50 320 81 368 92 29 11 125 27 160 44 252 61 25 12 333 84 65 16 67 9 110 32 251 64 129 30 122 37 80 24 400 100
167 20 3094 98 22 253 63 39 16 378 94 346 87 138 38 63 24 329 83 367 93 138 33 94 26 21 13 388 97 164 43 289 72 123 34 308 76 53 15 24 5 255 65
168 20 2728 207 55 204 49 222 58 100 23 316 79 28 14 349 87 207 55 220 59 74 24 214 51 360 91 218 56 198 54 52 18 65 18 11 2 204 48 70 25 91 23
169 20 2630 342 85 355 88 158 46 269 70 51 6 7 4 11 6 154 44 7 11 126 28 76 26 298 74 219 54 140 34 269 66 166 45 328 81 146 41 62 22 104 21
170 20 2928 324 81 66 10 316 78 303 75 111 24 341 87 225 59 319 80 28 3 252 60 90 27 151 35 365 92 46 9 149 43 166 43 68 17 2 8 33 8 306 78
171 20 3683 241 57 361 91 260 64 391 98 355 89 69 26 342 86 224 57 227 58 211 55 28 11 222 55 131 40 12 1 221 57 285 74 383 96 340 84 127 29 174 49
172 20 2026 7 5 134 32 83 25 85 23 224 53 74 13 286 71 100 22 69 19 78 14 30 16 313 79 49 20 55 21 172 46 75 14 279 71 298 73 43 19 79 14
173 20 2676 40 17 57 20 362 91 132 37 127 36 370 93 257 66 246 65 213 56 246 62 80 17 10 4 166 47 355 90 174 44 25 8 130 40 61 13 161 46 134 37
174 20 3087 216 55 331 84 292 72 212 58 262 64 334 84 87 29 8 12 249 60 7 4 359 91 81 13 354 89 137 32 320 81 67 10 74 26 383 96 45 8 41 13
175 20 2706 82 24 155 42 399 100 143 35 149 39 33 9 175 47 347 88 302 77 287 71 141 29 386 97 99 24 165 40 45 16 164 46 88 22 74 12 140 34 9 3
176 20 2729 376 94 391 98 146 41 344 88 17 10 34 10 341 85 3 5 231 61 172 47 200 48 60 8 30 14 256 68 111 25 192 53 269 68 37 2 9 7 193 49
177 20 3114 376 95 208 49 25 2 151 40 355 89 333 82 335 83 72 15 250 60 218 59 121 31 396 100 336 83 36 3 81 25 202 52 50 13 34 16 60 10 254 64
178 20 3076 301 78 184 48 354 88 99 27 82 27 252 64 326 81 9 8 229 61 268 65 17 10 189 45 56 10 254 60 40 15 52 9 112 34 244 61 399 100 379 95
179 20 2750 130 35 71 16 156 45 206 52 357 89 243 59 175 47 278 68 366 92 18 9 24 2 310 78 250 64 210 56 131 39 119 24 207 55 32 6 31 6 124 31
180 20 3217 63 15 248 65 223 56 304 76 294 74 391 98 66 16 198 48 71 17 145 36 187 46 75 22 17 8 343 88 231 56 233 58 40 17 258 65 391 98 244 63
181 20 3338 232 59 238 64 386 97 32 4 264 66 322 80 394 99 38 2 50 5 133 31 372 93 178 50 345 86 341 86 28 3 216 54 168 44 42 14 273 68 121 30
182 20 2410 313 79 110 34 390 98 298 74 30 6 382 96 25 14 20 7 11 3 14 10 65 17 78 28 18 5 335 86 211 53 310 76 197 54 51 19 147 43 8 10
183 20 3886 391 98 290 72 368 92 280 69 147 43 394 99 253 65 170 47 211 51 56 6 178 48 181 51 328 81 302 75 222 54 219 58 25 2 374 94 332 83 137 38
184 20 3460 342 86 83 19 126 28 147 35 240 58 308 75 238 58 102 26 345 87 360 91 145 36 326 81 211 53 224 59 41 17 28 3 151 37 363 90 286 73 259 65
185 20 3723 86 21 87 26 368 92 330 82 51 8 268 66 362 91 244 58 315 78 285 70 32 2 345 87 320 81 307 76 221 56 134 33 163 46 267 64 349 88 120 35
186 20 2661 136 37 36 9 102 22 187 42 328 84 49 14 71 24 334 84 283 74 63 18 259 63 57 12 103 22 128 36 208 49 29 5 258 62 159 41 224 59 313 77
187 20 3249 214 53 180 50 370 93 31 11 209 57 175 41 320 80 268 71 246 63 222 53 215 57 208 55 387 97 16 7 70 17 218 56 143 33 99 25 240 63 231 56
188 20 2824 292 71 338 86 108 22 56 17 82 28 38 5 121 24 30 11 119 34 14 2 128 32 297 73 303 77 234 55 246 59 166 37 376 94 255 66 153 35 174 48
189 20 3335 298 74 161 37 161 44 215 54 334 85 145 40 278 70 88 27 260 67 93 20 193 51 211 51 309 80 153 34 179 45 310 80 82 26 303 78 197 51 199 49
190 20 3477 349 88 150 43 219 51 238 62 197 50 282 68 162 41 333 85 38 16 144 32 258 62 384 96 243 63 47 7 151 32 290 71 49 20 317 80 384 96 112 31
191 20 2887 359 90 151 39 241 61 185 43 136 30 98 17 185 45 81 13 122 37 55 12 241 58 43 20 209 52 395 99 183 45 166 39 331 83 231 54 30 3 167 39
192 20 3540 237 62 216 50 361 90 363 91 343 86 368 93 212 55 352 90 169 38 248 62 234 57 234 62 258 62 188 50 70 17 58 14 245 65 183 42 19 10 67 16
193 20 3029 340 84 90 15 82 18 150 36 120 33 270 67 368 93 47 21 122 27 159 41 147 41 344 86 257 64 67 19 189 47 83 18 387 97 146 43 65 24 354 89
194 20 3251 188 50 142 39 205 51 326 82 47 8 3 1 323 81 245 63 324 83 96 26 274 68 251 60 124 31 334 82 138 39 64 17 373 93 355 90 26 5 226 54
195 20 3191 328 84 26 12 203 53 327 83 278 69 191 43 137 37 29 12 11 12 294 74 372 93 167 45 247 64 281 72 188 42 305 74 170 47 141 37 113 23 181 47
196 20 3421 395 99 300 75 177 48 206 51 279 71 237 63 150 39 26 1 272 69 253 62 287 73 46 7 200 50 186 45 124 27 147 34 351 89 371 94 84 21 186 47
197 20 3363 358 89 296 75 261 64 303 78 179 46 117 27 208 50 43 12 377 94 169 41 184 42 134 29 316 77 173 47 43 13 77 18 68 16 322 81 379 96 197 51
198 20 3308 61 19 367 92 200 49 167 44 22 6 194 47 204 56 309 80 71 25 142 30 172 40 193 53 317 81 377 95 122 29 354 89 90 23 286 74 182 51 305 79
199 20 3338 227 60 155 34 381 95 120 31 273 71 44 7 253 64 182 42 143 37 282 72 264 65 308 79 277 72 200 51 44 5 171 41 331 81 103 29 85 24 330 84
200 20 3268 278 70 61 12 175 47 102 29 227 57 70 20 224 55 187 43 295 73 290 71 165 47 385 96 247 65 241 59 160 45 228 61 183 43 130 32 343 86 94 20
201 20 3008 69 23 25 12 129 30 223 55 264 66 15 10 383 96 380 95 393 98 1 7 178 40 388 98 207 55 177 43 152 43 319 78 203 51 16 13 144 31 95 28
202 20 3523 316 80 352 88 362 91 358 91 234 63 37 15 238 61 218 53 235 61 29 1 141 32 387 97 74 12 212 52 246 63 196 51 375 94 18 1 355 90 21 9
203 20 3458 9 8 368 93 325 80 69 12 77 27 290 74 244 59 398 100 291 75 359 91 236 58 35 14 262 65 334 83 368 92 272 71 52 19 271 69 13 10 50 20
204 20 3101 44 16 320 79 111 34 303 74 378 94 273 68 244 61 223 52 259 68 113 28 219 53 179 47 25 16 316 78 267 70 10 1 281 69 34 15 201 48 77 21
205 20 3792 71 14 319 80 180 45 103 22 325 80 312 77 280 73 360 90 220 56 34 17 272 65 12 5 366 92 317 78 392 98 280 70 149 33 175 49 390 98 184 48
206 20 2718 95 23 376 94 42 5 112 31 138 33 218 56 235 55 165 36 327 82 1 7 3 8 169 47 262 64 381 96 279 72 44 14 258 67 104 28 182 42 7 9
207 20 3360 3 5 265 68 340 87 374 94 9 10 275 66 225 54 20 5 8 11 251 66 256 65 98 29 361 91 108 23 286 73 395 99 398 100 274 69 171 48 83 14
208 20 3401 103 23 215 52 238 58 391 98 222 53 340 85 368 92 397 100 267 64 261 68 242 61 77 28 243 63 32 17 80 19 337 86 274 66 97 24 18 3 50 6
209 20 3469 42 8 276 71 348 86 71 14 151 33 355 90 251 62 137 29 173 48 122 33 154 44 195 49 203 52 389 98 124 29 374 94 285 74 28 2 393 98 266 68
210 20 3371 163 37 396 99 371 93 244 62 365 92 133 34 97 31 295 73 361 90 161 42 271 69 112 33 127 30 11 6 114 31 207 50 139 36 159 38 176 42 312 80
211 20 3168 158 39 214 51 387 97 265 66 93 24 64 14 70 10 364 91 87 17 38 1 5 5 325 80 236 59 35 3 384 96 307 76 246 61 191 53 364 91 128 28
212 20 3056 143 36 296 72 252 63 310 78 175 40 352 87 87 20 172 39 148 43 145 40 398 100 75 16 106 21 180 41 44 18 76 25 125 25 340 85 311 78 85 16
213 20 3296 79 25 160 45 165 40 201 53 178 48 276 70 350 88 313 78 128 38 182 43 343 85 101 18 285 69 246 62 355 88 41 4 235 60 1 2 108 31 374 94
214 20 3651 191 49 101 22 117 32 1 6 44 11 263 67 209 54 323 82 277 68 325 80 385 97 362 91 154 41 212 53 248 62 254 63 327 81 214 53 223 53 334 84
215 20 3096 332 82 106 30 23 5 197 48 27 6 324 80 269 70 59 11 322 81 205 47 275 69 285 70 237 57 175 42 259 62 82 26 53 14 347 86 207 48 87 26
216 20 3068 59 15 115 34 68 14 164 46 179 46 247 62 317 80 242 64 96 28 290 73 151 41 394 99 145 40 257 63 106 28 207 51 303 76 286 73 2 4 207 48
217 20 2940 393 99 22 6 367 92 181 51 104 25 258 62 317 80 130 31 273 66 5 11 19 11 232 55 400 100 10 11 78 24 380 96 127 38 274 69 58 10 47 12
218 20 3270 1 3 301 78 257 63 395 99 283 70 331 85 206 47 269 66 115 25 182 48 254 64 205 49 190 47 13 9 30 10 382 96 149 39 1 7 394 99 130 36
219 20 4519 282 70 191 47 367 92 383 96 289 74 326 81 298 75 296 74 229 60 332 82 202 46 304 74 306 79 346 87 127 39 111 25 377 95 270 67 243 59 370 93
220 20 2966 180 48 40 16 95 22 298 77 290 74 333 84 273 71 230 57 81 26 305 78 201 49 61 16 231 60 146 36 230 55 29 9 23 8 393 99 12 7 257 64
221 20 3596 390 98 318 78 139 31 333 83 166 37 337 85 251 63 247 59 214 50 45 6 49 14 205 53 125 28 342 86 263 64 35 11 322 81 337 86 240 64 137 32
222 20 3176 4 11 287 72 197 45 60 8 318 78 171 44 164 45 18 5 264 65 333 83 210 54 394 99 210 50 302 74 61 14 251 67 59 16 348 87 56 15 264 67
223 20 3038 321 81 240 63 322 79 393 99 80 22 87 27 160 42 137 33 201 47 200 49 62 11 242 61 191 49 37 3 50 8 197 47 46 4 129 26 353 88 350 89
224 20 2912 68 18 26 13 316 81 140 34 197 46 4 6 219 51 399 100 83 15 92 25 112 27 361 91 104 25 219 57 132 30 16 2 82 19 359 91 360 90 351 88
225 20 3069 30 6 146 36 242 62 68 16 109 34 253 62 228 56 319 82 180 47 196 54 74 13 145 37 315 81 297 74 293 73 297 72 332 85 156 38 115 30 42 10
226 20 3461 197 47 317 79 322 82 214 52 188 52 221 60 56 22 301 76 352 87 128 29 342 86 128 32 278 70 215 56 209 54 26 12 18 7 266 64 286 73 263 64
227 20 3140 187 51 153 35 364 92 158 39 130 30 146 42 249 63 226 60 216 51 258 63 282 70 360 90 208 57 83 16 98 21 143 40 106 32 101 26 305 79 153 42
228 20 3160 347 88 318 82 10 8 278 73 157 42 300 74 18 8 1 3 108 25 276 67 399 100 300 78 15 5 1 1 173 43 150 33 124 38 327 81 354 88 295 75
229 20 3188 244 59 14 2 371 94 242 64 79 20 265 68 385 96 316 81 10 7 251 62 226 60 299 75 80 25 239 60 51 5 307 79 78 18 90 28 386 97 53 15
230 20 3103 244 63 219 55 96 27 285 72 167 38 80 22 217 56 168 38 143 39 344 86 174 41 225 57 156 39 382 96 195 52 254 61 102 23 290 74 39 17 99 26
231 20 3884 267 70 282 72 390 98 169 40 175 42 226 53 275 68 93 31 369 92 208 54 334 84 35 13 383 96 228 60 34 9 357 90 24 10 305 74 366 92 336 84
232 20 2781 21 7 33 9 327 81 64 22 376 95 176 41 357 90 307 78 6 10 259 67 77 20 48 14 171 48 237 62 254 65 17 2 326 81 128 26 200 51 93 31
233 20 3612 350 87 392 98 82 17 256 63 362 91 10 9 284 73 23 12 268 68 375 94 206 49 316 78 152 35 373 93 293 75 257 64 128 32 90 23 105 31 194 44
234 20 3135 209 49 11 1 312 80 46 15 398 100 77 22 203 52 265 66 318 81 158 38 99 23 334 84 188 48 12 4 54 15 331 81 326 83 6 11 375 94 197 52
235 20 2603 157 38 193 53 358 90 26 4 52 14 259 65 4 7 155 43 336 84 315 78 117 28 122 31 319 78 239 64 186 46 132 37 5 9 86 24 165 39 28 10
236 20 4108 299 76 327 84 393 99 179 50 243 59 186 44 230 61 288 71 38 7 78 14 363 92 246 61 295 75 259 63 351 87 233 58 199 48 364 91 227 55 338 84
237 20 2839 80 23 288 73 71 22 306 76 345 85 126 30 69 15 27 2 216 56 7 7 118 25 212 58 111 24 76 14 224 57 266 66 271 69 312 79 234 58 190 47
238 20 2535 299 76 288 70 107 31 3 8 7 11 156 34 29 6 309 78 125 25 198 49 279 69 62 20 116 37 262 65 1 8 231 60 244 58 8 3 177 39 268 68
239 20 3158 51 17 178 46 365 91 398 100 300 75 213 49 76 14 364 92 150 38 313 77 188 52 135 35 244 58 68 10 279 68 20 1 93 29 138 32 114 29 261 65
240 20 3660 396 99 150 41 133 37 384 96 393 99 190 46 128 38 236 61 95 25 315 80 374 94 165 46 10 4 275 69 208 49 390 98 199 53 111 26 146 41 277 71
241 20 3012 27 7 194 48 315 80 262 66 227 59 324 82 380 95 324 80 122 38 88 22 390 98 29 12 129 29 308 79 31 7 79 12 175 43 117 23 123 36 121 34
242 20 3228 142 40 216 50 158 45 391 98 115 31 1 1 142 41 210 55 244 60 291 75 113 36 199 53 398 100 11 4 221 59 363 91 8 3 156 41 325 82 332 83
243 20 3364 202 50 370 93 179 44 183 49 297 76 258 67 253 67 272 71 41 16 4 2 112 26 122 29 49 8 234 61 263 67 214 54 390 98 249 64 137 34 377 95
244 20 3776 384 96 379 95 205 48 340 85 294 73 386 97 226 55 201 53 370 93 144 30 173 47 32 14 391 98 134 30 40 6 17 3 134 27 182 45 341 85 348 88
245 20 3472 73 16 73 14 378 94 290 71 183 48 228 58 266 70 264 63 381 95 231 55 215 51 387 97 189 46 191 45 191 47 150 41 351 89 104 31 187 50 8 9
246 20 2635 27 8 123 38 393 98 97 21 234 57 108 32 97 26 391 98 97 30 52 6 191 50 329 83 41 16 87 29 181 45 21 14 295 75 352 88 63 12 115 28
247 20 3496 22 9 285 70 391 98 387 97 298 74 141 35 373 93 123 30 284 74 45 17 279 67 17 1 334 84 80 17 257 67 364 91 151 40 77 25 374 95 88 22
248 20 3238 62 17 87 19 174 46 238 60 163 42 279 70 28 15 308 75 269 69 136 32 363 90 268 68 88 20 232 56 124 32 28 15 204 54 311 78 347 88 339 86
249 20 3347 190 47 281 68 276 70 309 79 39 17 310 79 28 1 355 90 205 52 222 60 80 23 235 58 136 32 259 62 238 63 226 60 328 83 387 97 8 9 72 23
250 20 3551 90 29 130 28 242 58 2 7 334 83 309 79 355 88 175 47 139 33 305 79 395 99 217 51 182 48 173 42 121 33 298 77 310 78 314 77 128 31 220 59
251 20 3335 326 84 130 30 251 65 178 48 90 25 153 38 67 17 167 43 205 52 166 47 21 10 386 97 337 84 398 100 211 49 135 39 272 68 245 60 126 27 305 78
252 20 3531 394 99 296 76 254 63 371 93 152 36 166 40 184 51 161 36 325 80 227 55 260 64 13 3 396 99 1 3 51 22 137 34 368 92 164 40 358 90 136 31
253 20 2360 347 87 182 49 63 9 51 16 264 66 203 48 35 3 102 30 267 67 192 50 185 48 3 4 271 67 218 54 45 4 38 10 185 49 139 33 143 36 17 13
254 20 2881 89 16 384 96 221 59 183 41 75 11 181 49 162 45 53 20 205 49 271 67 144 33 34 13 360 91 184 49 288 71 215 54 12 8 240 64 188 49 113 23
255 20 3662 135 30 86 23 81 21 395 99 314 78 269 69 304 77 381 96 297 75 43 9 271 66 314 79 129 34 197 53 52 14 354 89 225 59 202 49 251 66 278 70
256 20 3136 208 49 21 7 392 98 131 33 248 65 261 64 210 49 41 15 323 81 157 41 147 39 175 44 356 89 251 61 198 45 52 18 97 19 271 65 368 92 14 9
257 20 2962 136 28 51 13 308 79 26 1 312 79 78 26 295 74 102 30 260 63 9 5 31 4 389 98 387 97 89 28 389 97 28 10 366 92 77 23 212 52 158 37
258 20 2948 240 64 313 77 275 69 37 18 391 98 294 73 62 16 348 87 44 11 265 64 264 65 118 36 279 71 75 27 20 11 68 18 189 46 44 14 50 8 310 78
259 20 3156 125 30 32 4 31 10 282 69 376 94 147 32 333 83 49 10 52 22 127 31 139 35 371 93 105 26 353 88 50 7 366 92 280 70 307 79 337 85 84 27
260 20 3228 92 17 392 98 163 45 35 1 221 56 296 76 313 79 268 70 332 82 231 55 143 41 234 59 87 23 193 50 22 12 78 12 266 65 337 84 48 6 285 71
261 20 3692 219 59 360 91 389 98 181 41 230 54 139 40 314 78 29 3 326 83 237 61 279 72 243 62 61 11 326 83 370 94 69 15 83 23 148 41 219 55 393 99
262 20 3097 216 57 170 47 165 47 21 10 140 38 65 13 216 51 347 87 133 39 218 52 72 12 374 94 267 67 226 53 34 17 107 23 246 61 200 49 346 88 309 78
263 20 3307 303 79 259 66 104 28 112 31 320 82 364 92 185 48 130 34 193 44 321 82 145 39 266 70 357 90 327 84 268 66 6 6 56 7 42 3 233 59 143 40
264 20 3322 198 50 31 10 181 45 168 45 296 77 271 70 283 69 131 31 252 65 215 50 89 26 231 56 92 22 341 85 303 77 144 31 213 52 336 86 254 62 124 37
265 20 4106 286 73 363 91 142 33 346 88 217 58 160 42 41 5 223 54 323 80 297 74 389 98 132 34 217 50 336 86 259 63 276 69 317 80 235 56 276 72 298 76
266 20 3157 196 51 240 58 21 7 222 57 209 50 385 97 317 80 350 87 128 39 85 23 145 38 146 40 315 81 212 51 106 30 144 35 42 3 263 66 100 22 321 80
267 20 3933 77 26 342 87 267 69 351 89 381 96 238 62 121 29 66 20 331 82 318 78 204 49 164 37 355 90 382 96 208 57 186 48 3 1 387 98 320 79 216 58
268 20 3092 21 11 27 16 123 35 257 62 173 44 338 86 353 88 246 65 292 72 191 48 325 81 15 8 307 77 3 7 108 32 288 72 261 67 233 58 42 11 262 65
269 20 3213 268 70 258 65 274 71 343 85 10 4 145 38 395 99 346 87 276 67 137 39 151 35 153 40 5 11 281 71 396 99 62 16 52 15 60 22 196 53 209 53
270 20 3101 397 100 266 69 217 53 157 45 256 67 85 21 268 67 333 84 200 47 87 19 41 10 399 100 283 72 11 13 124 26 30 1 225 59 26 11 280 68 192 46
271 20 4120 178 42 375 95 158 36 284 69 103 28 219 55 307 76 269 69 255 65 250 65 232 60 230 62 364 91 198 46 191 51 194 48 363 92 338 86 284 69 358 91
272 20 3315 260 69 368 93 55 14 384 96 338 84 267 65 126 31 108 28 103 28 340 86 68 16 305 74 65 24 298 74 172 42 40 16 334 83 183 50 60 11 270 68
273 20 2642 348 88 339 86 50 6 165 36 85 15 168 47 71 21 238 57 216 51 217 51 334 83 281 68 20 14 79 19 176 46 131 38 82 18 56 14 186 50 61 20
274 20 3272 226 60 101 27 152 35 322 79 316 79 106 22 65 25 276 72 318 80 193 53 309 77 382 96 267 70 124 31 136 40 305 75 280 68 120 35 79 15 14 4
275 20 3564 385 97 40 3 362 91 29 15 338 86 327 81 383 96 182 44 330 84 92 24 327 80 43 19 60 10 60 17 260 63 130 29 214 57 296 76 384 96 213 51
276 20 3311 389 98 100 20 125 30 121 27 330 84 131 29 108 30 368 93 316 79 12 4 305 77 247 64 326 80 95 24 210 52 145 33 156 44 365 92 39 7 251 67
277 20 2792 274 70 67 22 2 7 72 26 308 77 172 40 64 14 3 7 217 53 15 4 91 17 142 31 136 38 146 38 229 56 4 3 387 97 396 100 372 94 393 99
278 20 3452 193 53 328 83 361 90 138 31 57 23 152 35 151 41 225 58 50 4 196 51 399 100 46 10 224 60 263 66 345 87 5 7 268 70 329 81 331 84 255 62
279 20 3536 102 33 216 56 46 6 67 21 125 36 391 98 382 96 145 40 241 59 268 69 318 79 60 18 364 91 317 78 4 5 261 66 262 65 363 90 149 39 340 84
280 20 2311 57 19 235 57 265 70 147 31 253 60 84 28 18 7 318 78 34 1 292 74 130 28 131 30 292 71 10 7 36 17 28 15 274 70 13 12 102 20 170 48
281 20 3444 201 52 253 67 331 83 325 81 232 58 302 78 133 32 383 96 170 43 275 67 188 47 41 20 166 42 4 9 81 27 345 87 388 97 119 32 218 58 151 43
282 20 3626 147 33 305 75 193 48 279 72 377 95 51 7 231 56 95 23 209 48 208 54 271 70 257 64 330 83 322 81 400 100 335 85 37 16 381 96 51 11 54 13
283 20 2762 24 6 152 35 228 53 62 10 74 14 11 7 207 54 233 56 202 49 69 19 240 56 326 83 248 63 74 15 316 78 5 12 383 96 169 40 100 32 330 84
284 20 3524 12 7 185 46 172 40 260 67 188 43 365 92 237 59 390 98 188 51 329 83 343 86 259 66 348 87 228 60 325 83 47 8 234 62 64 19 38 14 193 47
285 20 3325 386 97 280 73 266 66 47 10 187 49 177 45 301 77 245 60 113 27 353 88 8 11 147 31 73 16 87 15 277 68 320 80 38 8 365 92 286 73 201 48
286 20 2357 30 17 156 44 286 70 264 64 80 24 161 41 83 18 63 16 79 23 94 20 336 85 366 93 69 19 312 80 26 6 16 5 1 1 81 13 191 47 253 62
287 20 3338 246 62 113 33 144 32 397 100 200 51 375 94 142 31 183 50 355 89 107 26 77 25 67 15 295 77 193 53 223 53 221 57 317 81 263 67 126 30 129 34
288 20 2937 46 20 359 90 57 8 64 10 140 41 36 4 387 97 2 7 19 14 125 30 1 9 120 33 174 46 218 57 395 99 325 82 330 83 391 98 314 79 169 44
289 20 3297 154 36 229 58 351 88 303 75 69 14 266 69 61 14 310 77 294 76 338 85 203 54 201 55 133 30 104 24 316 80 291 75 219 55 74 18 153 38 53 16
290 20 3501 311 80 340 85 31 12 302 77 37 10 348 88 170 38 291 75 233 62 384 97 96 18 131 28 314 80 102 32 180 49 136 30 316 80 336 85 145 38 174 49
291 20 3144 81 25 156 36 75 19 371 93 44 13 52 8 337 85 164 40 373 94 233 56 180 43 94 31 81 21 216 55 318 81 20 9 381 95 257 63 172 44 325 80
292 20 4021 306 78 112 21 286 70 397 99 276 71 382 96 306 76 227 56 332 84 377 95 388 97 174 40 243 57 395 99 32 11 16 5 294 73 15 2 151 40 318 80
293 20 3060 302 77 136 37 295 75 69 16 345 86 196 45 70 15 28 5 236 62 37 12 258 67 11 11 351 88 15 2 274 70 39 15 400 100 393 98 369 92 1 10
294 20 3305 315 78 109 26 51 8 46 6 53 9 253 62 158 40 134 32 198 53 364 91 121 35 369 92 307 78 236 56 62 16 353 89 237 62 357 90 284 71 125 34
295 20 1960 47 13 21 6 57 18 172 39 248 63 67 25 28 13 398 100 90 22 110 29 65 19 200 52 165 36 27 3 95 28 28 9 62 22 2 7 288 72 281 69
296 20 2997 67 23 56 16 160 37 139 31 176 39 198 53 160 42 285 74 357 88 222 54 36 11 96 30 280 71 57 12 309 78 390 98 217 55 175 49 201 46 166 40
297 20 3456 35 2 67 17 400 100 59 8 159 45 348 87 318 80 226 59 180 49 214 55 343 85 369 92 167 45 326 83 105 29 187 47 44 9 64 24 337 84 372 93
298 20 3236 50 15 167 44 312 79 173 44 312 78 27 6 47 16 342 85 132 32 224 56 219 56 310 79 216 57 207 52 123 24 331 82 143 42 382 96 84 23 244 62
299 20 3063 56 10 344 87 270 66 112 30 291 72 54 22 200 52 13 6 84 16 119 30 298 73 172 41 11 12 136 37 137 39 395 99 206 49 312 79 249 64 370 93
300 20 3996 91 29 375 94 383 96 377 94 156 35 312 78 253 61 35 6 301 74 400 100 199 48 295 76 128 32 256 65 142 30 157 44 3 9 340 86 399 100 394 99
301 20 2992 126 36 81 20 306 77 276 71 291 74 12 4 384 96 245 59 95 17 135 34 28 14 195 54 335 83 49 12 286 71 254 61 337 86 203 49 60 8 43 12
302 20 3517 218 54 97 19 367 92 111 35 322 82 294 72 89 20 131 31 394 99 17 3 116 27 337 85 157 44 128 38 136 35 46 13 338 85 399 100 374 93 326 81
303 20 3042 77 15 90 30 99 27 319 80 187 45 101 26 143 35 100 24 97 32 209 53 235 57 159 38 40 7 316 78 258 63 378 95 379 95 116 22 288 73 212 49
304 20 3383 227 55 99 22 388 97 386 97 139 32 95 29 203 51 391 98 342 85 93 20 297 74 365 92 62 23 248 63 1 5 39 14 384 96 195 51 201 50 74 27
305 20 3536 53 6 394 99 117 26 189 43 120 25 366 92 350 88 119 30 392 99 123 37 206 48 99 25 297 75 294 72 332 83 134 34 235 60 122 32 121 34 358 90
306 20 3452 75 12 17 1 257 67 85 28 47 21 118 37 355 89 212 49 370 93 335 82 287 73 55 7 215 58 374 94 268 69 392 98 133 33 263 66 224 53 233 55
307 20 3532 239 61 385 97 378 95 195 50 16 3 288 71 84 22 13 5 301 75 281 69 68 11 267 69 124 29 393 99 244 59 210 49 203 49 111 35 267 68 348 88
308 20 2751 267 65 280 69 226 57 199 48 91 19 283 72 64 9 266 69 267 66 290 73 79 16 204 52 296 73 160 43 9 7 2 7 67 10 27 6 212 52 150 43
309 20 3524 325 82 200 48 236 62 382 96 358 91 263 68 36 13 136 35 141 39 270 65 85 25 303 77 38 8 46 5 288 74 147 38 364 92 369 93 293 75 126 32
310 20 2772 289 70 97 22 63 16 200 46 327 84 300 77 182 46 31 15 19 6 326 81 67 9 107 22 146 40 382 95 369 92 207 56 23 1 185 49 21 8 125 30
311 20 3011 230 60 82 23 204 47 397 100 198 45 261 67 224 59 168 44 228 58 383 96 144 35 109 24 162 42 283 72 180 45 11 5 161 41 14 10 140 39 185 42
312 20 3264 16 2 383 96 235 58 355 90 40 15 270 66 224 57 292 75 312 77 173 40 334 85 26 6 280 68 180 50 99 24 287 71 53 11 2 1 277 71 242 62
313 20 3080 370 93 311 77 33 3 398 100 40 10 238 60 224 61 95 17 327 82 249 60 214 50 89 27 110 31 135 37 356 90 320 80 104 23 71 18 128 32 39 5
314 20 3527 210 53 300 75 285 69 209 51 123 29 255 66 324 80 87 26 81 27 162 39 377 94 40 8 358 90 324 83 147 37 105 23 210 50 170 48 325 80 317 81
315 20 2787 97 19 388 97 136 40 68 19 134 32 173 49 192 53 21 1 17 8 190 43 390 98 336 84 68 13 221 54 338 86 225 60 175 45 93 27 22 3 200 51
316 20 3390 121 27 392 98 146 42 90 25 167 39 133 29 222 55 376 94 264 64 263 66 349 88 19 2 266 69 75 27 53 6 309 77 118 31 385 96 235 60 255 67
317 20 2796 84 23 115 26 56 13 188 52 22 5 170 45 355 89 279 71 284 70 193 53 274 68 247 66 56 9 68 12 283 71 112 24 80 14 97 31 392 98 140 40
318 20 2905 145 37 332 84 132 29 128 29 261 68 102 25 108 34 349 88 156 42 284 69 303 74 26 14 18 8 55 21 181 45 141 34 54 14 196 54 311 79 350 89
319 20 3828 252 65 145 34 368 92 273 66 365 92 223 54 234 56 329 83 146 36 214 51 89 18 190 52 139 29 201 49 310 76 317 81 333 83 290 71 184 51 184 44
320 20 3258 81 21 122 33 350 87 304 75 382 96 325 82 289 75 393 98 56 11 96 29 114 23 22 12 54 8 339 86 398 100 73 26 26 3 60 17 281 73 308 78
321 20 2931 319 78 213 51 225 59 330 82 294 74 99 22 241 63 38 6 306 77 202 51 13 10 316 81 6 3 301 77 50 9 197 53 48 17 331 84 5 6 130 34
322 20 3010 108 21 399 100 106 23 105 24 196 54 176 40 222 59 87 22 213 54 25 2 175 39 310 79 182 49 385 97 113 24 155 44 294 76 24 13 241 62 247 61
323 20 3180 105 24 398 100 245 64 239 57 72 17 22 3 296 74 327 84 263 66 124 26 204 49 247 62 89 16 286 74 60 13 139 37 128 39 236 62 279 67 217 58
324 20 3244 4 3 373 94 309 76 286 71 166 41 224 58 324 80 144 41 284 74 188 45 91 25 208 57 45 19 147 43 291 76 41 8 320 81 165 38 157 37 288 75
325 20 2752 98 18 185 42 22 11 156 43 62 17 175 43 89 29 65 18 254 63 140 34 295 72 310 78 393 99 8 8 231 61 285 70 150 33 119 35 396 99 7 4
326 20 3120 49 21 292 74 295 73 234 56 203 46 361 91 35 7 178 41 74 19 165 38 378 95 102 20 25 8 11 7 35 11 172 40 377 95 351 88 345 86 218 55
327 20 3487 183 50 165 41 37 18 315 79 227 53 263 64 307 78 196 50 378 95 16 5 12 13 104 24 395 99 267 67 386 97 328 83 11 4 190 49 348 88 231 62
328 20 3618 370 93 205 49 47 16 8 1 265 66 394 99 374 94 204 48 395 99 368 92 64 10 282 69 223 55 133 29 93 17 196 53 284 73 54 6 219 58 345 87
329 20 3910 395 99 295 76 338 84 112 23 140 38 188 52 60 8 383 96 126 33 29 9 281 68 398 100 87 23 240 59 395 99 291 74 347 88 202 49 367 92 214 56
330 20 3108 320 80 26 1 86 14 380 95 251 65 364 90 337 84 382 95 58 13 17 11 47 16 233 58 132 36 12 3 178 48 143 31 94 17 212 56 309 77 305 77
331 20 3078 174 46 235 61 221 54 119 35 57 15 317 80 68 20 299 73 228 61 161 40 215 57 74 23 245 59 353 89 162 43 147 43 274 69 68 13 167 40 264 64
332 20 2897 353 88 252 61 174 39 198 51 9 2 57 12 306 75 37 18 324 82 251 62 49 16 154 33 255 67 2 1 109 28 138 33 367 92 284 71 287 72 16 9
333 20 3743 25 9 346 86 349 89 295 74 348 87 213 58 175 49 299 77 288 71 384 96 173 47 3 5 233 60 249 61 397 100 200 48 142 40 334 86 208 49 18 3
334 20 3815 80 20 280 72 304 79 75 27 305 78 46 16 272 71 81 20 370 93 396 99 156 38 384 97 342 87 328 84 141 33 272 69 111 35 136 40 399 100 291 73
335 20 3054 28 2 308 77 391 98 152 38 242 63 358 90 259 66 382 96 345 86 248 64 84 19 99 32 66 9 175 46 278 69 76 27 93 16 95 18 126 38 13 6
336 20 3300 268 66 111 31 213 55 311 77 253 65 196 51 214 49 307 78 387 97 85 25 40 13 181 50 199 55 23 13 229 54 217 54 40 13 269 67 254 61 328 84
337 20 3215 289 75 255 61 84 28 60 21 301 78 361 90 88 29 154 40 363 91 59 8 206 50 101 20 20 4 379 95 73 23 196 45 371 93 386 97 125 32 148 33
338 20 2912 96 28 165 46 142 35 72 13 108 22 251 62 62 22 398 100 282 69 52 10 134 33 198 52 285 70 140 35 282 69 373 94 255 64 10 8 132 38 204 48
339 20 3598 315 79 83 15 240 60 316 81 189 50 67 25 196 48 198 53 20 7 359 91 332 84 283 73 14 11 351 88 358 91 336 85 174 48 328 84 58 18 281 70
340 20 2354 30 2 207 53 92 17 119 36 218 55 214 56 11 2 38 7 187 48 151 36 251 61 142 39 370 93 66 15 238 57 137 37 73 22 290 75 103 24 6 12
341 20 3597 398 100 327 80 90 23 301 75 180 49 40 14 151 39 82 19 213 54 316 81 398 100 189 44 79 26 324 81 394 99 119 29 272 68 182 48 396 99 46 13
342 20 3701 324 80 338 86 129 26 238 61 198 47 239 58 167 44 51 13 144 34 246 60 330 83 396 99 69 18 290 73 106 22 285 71 290 71 383 97 236 62 168 38
343 20 3446 156 37 190 45 384 96 263 69 244 61 103 22 193 46 346 87 361 91 60 23 332 82 195 46 66 12 199 54 49 5 330 83 157 44 248 59 131 34 301 77
344 20 3239 94 20 289 72 339 85 136 34 128 26 220 52 386 97 236 61 30 3 82 16 319 80 117 36 134 38 10 6 128 37 141 38 392 98 370 93 304 75 194 54
345 20 3292 146 41 257 65 136 28 57 8 241 60 106 26 279 73 302 76 55 17 171 44 364 91 183 44 8 4 359 89 317 80 331 84 365 91 297 72 89 22 53 11
346 20 2817 202 49 164 44 27 3 108 21 216 57 174 44 284 71 47 15 79 17 107 24 157 43 121 27 133 40 375 94 393 99 187 49 397 100 12 3 122 28 217 52
347 20 3237 103 25 4 10 255 65 272 66 7 11 367 92 296 72 290 75 322 83 316 78 24 1 92 27 367 92 286 69 58 18 280 68 71 17 198 53 115 29 324 80
348 20 3022 27 7 291 71 332 83 346 88 92 21 91 27 20 8 292 73 29 7 280 71 370 93 13 9 149 34 376 94 149 35 342 87 192 47 64 9 314 79 9 4
349 20 3033 79 27 298 73 89 29 187 45 62 24 6 3 207 55 240 60 161 42 178 45 331 82 323 80 315 78 2 2 189 49 397 100 40 4 27 12 270 66 391 98
350 20 3153 169 38 225 56 181 45 157 39 78 23 83 22 379 95 316 81 36 9 9 1 64 10 266 64 151 42 84 18 260 68 132 34 258 65 385 97 353 90 356 89
351 20 3971 375 94 182 43 331 84 380 96 279 71 299 74 325 81 376 94 102 19 315 78 192 45 281 71 145 37 225 59 321 81 145 31 94 24 171 42 78 21 348 86
352 20 3064 300 76 167 46 65 17 341 85 298 74 348 88 2 6 176 47 244 61 232 62 58 20 359 89 38 15 247 61 244 64 149 38 21 12 207 56 231 59 103 19
353 20 3191 48 11 140 38 309 77 234 56 244 62 387 97 348 87 235 59 5 5 23 5 162 42 197 47 104 26 237 60 162 46 314 81 52 17 132 27 393 99 263 65
354 20 3436 372 94 335 83 389 97 252 64 44 9 284 73 313 78 170 38 266 67 77 12 104 22 243 62 141 40 180 47 125 38 272 69 177 40 78 18 132 37 341 84
355 20 3148 197 53 239 64 59 13 133 30 166 40 345 87 138 29 300 76 14 13 97 28 341 85 208 49 2 8 285 72 259 66 109 23 160 42 341 85 259 69 284 70
356 20 3345 63 19 180 44 203 55 346 88 176 45 215 51 245 59 325 83 377 94 225 60 65 9 235 63 32 11 182 51 12 3 374 93 197 54 166 39 342 85 222 58
357 20 2778 254 63 135 31 318 81 251 66 323 80 92 28 302 76 342 85 29 3 62 16 18 12 156 39 199 49 100 21 22 5 282 73 132 33 135 33 295 73 26 13
358 20 3327 267 67 65 13 104 28 294 75 135 34 322 82 134 32 184 43 328 83 160 34 313 81 90 27 48 16 194 45 326 83 266 67 233 59 68 23 270 69 358 89
359 20 3440 104 33 351 88 400 100 297 74 113 25 121 33 174 39 255 64 324 80 118 33 280 73 57 12 217 51 316 81 36 11 212 52 252 64 336 85 100 23 238 60
360 20 3215 294 73 111 35 123 32 397 100 122 30 146 36 301 75 257 62 98 24 189 48 79 24 187 46 288 71 334 82 379 95 126 33 119 24 214 50 35 10 220 55
361 20 2909 243 61 36 5 202 49 328 82 292 75 311 80 186 49 181 42 187 49 243 57 243 64 103 32 248 62 178 43 27 8 86 19 339 86 18 4 138 37 48 21
362 20 3278 320 80 79 21 368 93 219 57 150 38 232 56 99 25 46 9 30 5 78 13 322 80 204 55 24 8 324 81 134 36 378 95 8 2 382 96 359 91 342 85
363 20 2816 329 81 102 19 151 35 367 92 117 26 254 62 28 5 19 4 46 11 276 71 374 94 246 61 277 70 112 33 177 41 6 2 260 68 305 76 16 7 59 9
364 20 3132 18 3 367 92 399 100 202 50 181 43 13 9 236 56 275 67 376 94 54 15 260 66 345 86 208 56 173 40 133 29 19 4 32 16 269 67 164 47 191 45
365 20 3536 218 57 228 56 133 33 169 43 147 36 237 56 224 54 153 38 383 96 294 76 287 72 39 14 124 29 286 71 400 100 127 29 377 95 196 47 272 66 127 31
366 20 3208 71 15 214 55 111 30 384 96 251 59 316 80 399 100 78 25 175 42 187 51 105 23 243 63 65 24 153 42 389 98 366 92 110 24 369 92 1 4 23 1
367 20 2639 41 5 391 98 80 21 271 69 95 20 27 14 1 2 144 39 199 48 308 79 97 25 157 42 229 62 15 7 46 18 193 45 161 37 282 72 322 80 240 61
368 20 3288 346 86 380 96 169 45 336 83 221 60 54 19 267 68 82 14 124 28 14 13 295 76 151 38 228 54 123 27 70 10 70 10 369 93 399 100 314 80 98 28
369 20 3375 164 41 130 36 212 49 186 48 95 17 120 27 337 86 336 85 280 72 357 91 117 34 103 22 206 49 306 75 202 54 343 86 328 84 111 26 260 63 26 8
370 20 3755 214 57 42 13 41 4 358 90 313 77 341 86 152 40 284 69 55 17 279 70 98 26 130 36 249 62 327 81 381 95 361 91 358 89 218 56 381 95 112 35
371 20 3228 177 45 7 8 117 30 163 46 42 18 127 39 364 92 147 37 202 50 118 31 38 7 209 49 383 96 247 62 96 25 244 62 367 93 380 95 345 87 263 64
372 20 2860 383 96 342 87 53 21 400 100 93 24 1 7 109 27 69 20 230 59 116 24 63 12 290 75 231 57 149 36 187 46 255 64 271 71 83 27 165 47 86 26
373 20 3032 293 75 227 54 17 5 129 37 102 22 398 100 99 30 288 72 137 29 275 71 248 65 115 24 328 83 234 59 320 79 116 25 125 27 115 30 184 48 40 15
374 20 3684 258 63 118 31 187 44 182 50 70 21 304 76 164 37 159 40 157 45 372 94 181 41 354 89 386 97 286 73 301 74 256 64 19 3 329 81 391 98 132 37
375 20 3344 33 1 143 32 30 3 352 88 368 92 126 26 89 21 220 54 375 94 65 20 384 97 232 62 231 58 129 32 288 74 363 92 355 88 289 70 2 5 106 26
376 20 2867 109 26 2 1 204 55 141 35 326 83 281 69 135 29 283 71 95 26 41 15 213 50 170 38 79 14 260 66 273 67 338 83 147 32 139 32 100 19 248 64
377 20 3492 225 59 325 80 248 59 16 4 28 3 63 18 303 77 339 86 242 59 12 5 9 12 186 47 269 67 248 60 387 97 92 24 358 90 390 98 345 87 281 72
378 20 3565 348 87 357 91 170 41 236 56 351 87 162 43 202 47 279 69 92 20 121 33 310 79 23 9 344 88 340 86 103 26 73 11 191 46 338 84 132 34 285 72
379 20 3013 141 41 147 32 41 5 256 65 98 28 103 25 321 80 259 62 369 93 300 75 238 61 245 62 85 21 118 35 209 53 64 16 379 95 13 7 176 48 205 54
380 20 3558 354 89 111 31 163 44 103 25 351 87 375 95 108 23 337 85 306 79 3 9 133 35 384 97 272 65 359 89 66 24 134 29 261 68 392 98 74 12 162 45
381 20 3445 292 76 220 52 266 64 203 54 197 49 87 20 287 75 180 44 234 60 221 54 179 46 193 47 331 84 188 50 300 73 386 97 208 51 47 13 84 19 204 48
382 20 3457 151 36 12 7 215 57 208 55 374 94 279 69 347 87 269 68 184 50 103 32 134 40 237 63 125 28 141 35 349 88 233 56 393 98 57 13 326 81 185 44
383 20 3589 290 74 125 26 346 88 116 31 156 37 337 85 337 86 389 97 383 96 64 21 293 75 128 39 233 61 42 10 89 18 394 99 371 94 66 20 142 32 186 45
384 20 2857 348 88 121 34 24 16 135 33 52 5 303 77 95 32 285 69 275 66 133 33 69 25 286 72 101 31 192 47 39 19 59 14 252 63 327 84 137 40 339 86
385 20 3735 265 66 60 13 120 30 287 71 133 31 54 8 362 90 291 71 248 60 320 80 346 87 252 66 229 60 265 65 355 89 323 81 157 44 360 90 113 36 129 28
386 20 3880 124 26 395 99 302 74 363 92 246 64 64 22 165 41 137 31 221 60 315 78 210 56 185 47 110 26 373 94 176 46 344 87 350 87 257 65 209 55 304 79
387 20 3426 55 14 323 83 388 98 111 25 117 32 253 66 171 41 86 28 352 89 385 97 161 42 347 87 158 35 261 66 214 49 64 20 300 76 134 40 316 80 87 20
388 20 2968 276 70 111 21 283 69 278 68 32 3 50 14 384 96 122 37 373 93 77 26 272 69 297 75 342 86 192 52 41 14 207 55 177 48 26 16 151 43 20 12
389 20 2680 85 14 183 44 261 68 110 34 199 46 236 59 103 24 195 48 282 68 379 95 262 68 121 36 317 79 11 11 73 16 12 13 150 37 67 10 163 44 141 30
390 20 3964 108 30 302 76 330 84 364 91 171 44 373 93 334 83 121 26 197 52 328 82 184 43 108 34 66 19 288 75 286 73 344 88 205 50 339 85 398 100 110 24
391 20 3108 51 7 326 81 102 24 105 33 130 30 311 76 161 37 254 61 375 94 264 64 127 29 320 81 258 64 344 85 50 19 93 21 199 49 144 35 30 5 241 58
392 20 2944 395 99 294 75 141 37 155 35 192 52 322 82 274 70 208 49 61 22 261 69 49 10 48 12 217 52 282 70 94 17 103 30 16 6 8 7 206 53 355 90
393 20 2810 170 44 93 26 295 74 57 12 192 44 43 10 255 65 239 60 185 42 255 62 221 52 109 35 211 54 391 98 107 30 121 34 104 32 29 5 262 69 174 46
394 20 3565 284 73 74 12 67 15 368 93 361 90 283 69 203 47 279 73 134 39 178 44 186 45 198 46 133 38 198 46 178 46 278 72 312 77 123 31 384 96 236 59
395 20 3412 32 14 370 92 48 14 356 90 175 41 104 29 173 46 296 73 368 92 206 55 19 11 313 79 284 73 376 95 309 76 47 6 394 99 15 2 17 12 363 91
396 20 3683 277 68 362 90 346 86 320 79 216 59 61 17 228 56 341 84 170 46 296 75 28 2 195 51 226 53 61 11 89 19 274 66 269 68 180 48 348 88 317 81
397 20 4482 382 96 57 18 277 70 398 100 382 96 129 32 365 92 211 55 293 71 351 87 369 93 127 37 285 69 392 99 224 61 363 91 321 83 312 78 328 84 37 7
398 20 3488 280 73 289 75 348 86 190 49 10 4 282 70 237 56 290 72 70 25 138 31 293 72 361 90 333 83 51 13 292 71 105 26 302 77 79 15 379 96 32 9
399 20 3649 106 30 214 52 221 57 156 42 167 44 187 47 351 89 108 23 100 21 389 98 370 92 281 71 160 46 381 96 313 78 170 40 388 98 177 41 91 21 232 62
400 20 2823 365 91 79 14 357 89 261 64 221 57 121 31 177 46 94 23 91 24 17 4 139 38 339 84 23 5 249 66 138 33 62 19 58 19 337 85 195 49 206 47
401 20 2449 202 52 349 88 253 65 304 78 320 80 231 57 187 45 152 40 105 19 125 34 61 19 113 23 4 7 23 1 41 16 368 92 15 11 67 20 120 24 22 12
402 20 3397 49 5 279 71 304 77 361 90 361 91 24 4 53 22 184 43 271 65 302 78 235 62 74 27 372 93 393 99 194 49 57 20 172 44 386 97 157 45 19 3
403 20 3288 183 51 302 74 71 22 77 19 110 23 170 47 68 15 291 75 266 66 143 36 263 69 272 71 350 88 319 79 65 13 13 7 262 69 109 22 394 99 383 96
404 20 2662 65 9 279 71 111 22 205 54 169 48 166 39 194 53 113 35 76 25 259 68 88 22 236 58 20 3 66 22 343 86 280 73 35 18 41 18 370 93 212 56
405 20 2844 240 61 85 16 8 5 261 68 98 28 210 56 82 19 174 43 291 71 288 74 220 52 260 69 221 55 31 13 208 55 6 5 112 35 184 48 187 42 390 98
406 20 3352 35 5 222 58 393 99 136 34 226 56 258 63 102 18 334 83 98 18 397 100 125 29 304 78 9 2 70 24 271 69 293 76 192 47 376 94 87 21 263 67
407 20 3676 281 68 197 45 247 66 292 71 164 40 180 47 121 34 204 56 320 82 152 41 279 70 300 76 334 82 83 18 70 18 385 96 348 87 289 72 242 64 108 29
408 20 3506 162 43 213 54 284 70 64 9 384 96 277 69 163 36 35 5 287 74 161 45 65 16 331 82 254 64 2 6 364 91 276 68 349 89 306 76 301 75 105 26
409 20 2347 158 42 135 35 1 8 251 60 104 23 191 50 341 85 348 87 10 1 46 15 95 19 69 23 54 6 27 3 220 53 182 45 253 64 30 13 186 48 233 59
410 20 3292 99 26 374 93 120 36 169 40 50 10 268 65 213 51 330 83 189 46 115 34 53 9 10 1 139 38 250 59 331 83 180 45 219 51 389 97 315 77 303 74
411 20 3267 82 25 362 91 105 25 85 28 379 96 173 48 296 74 251 67 385 97 286 74 228 53 107 34 390 98 2 6 144 32 108 28 191 51 121 31 24 6 365 92
412 20 3228 135 34 12 5 315 78 65 12 81 24 192 44 370 93 118 28 353 89 194 50 274 72 364 91 247 61 205 48 110 29 228 58 360 90 234 59 105 25 74 21
413 20 3034 74 18 190 51 326 83 335 84 235 59 366 93 146 43 282 73 125 32 30 11 138 30 37 8 62 18 3 2 137 39 251 60 183 46 139 33 384 96 350 88
414 20 2300 112 25 277 68 67 14 229 59 11 5 107 26 3 5 165 43 10 1 139 32 6 4 184 50 378 95 171 39 96 20 275 69 95 18 274 69 199 47 77 25
415 20 2879 23 9 22 5 141 36 351 89 54 6 254 66 124 37 149 33 159 40 323 82 105 23 93 31 60 7 188 44 303 76 319 79 217 57 249 61 365 91 100 18
416 20 4096 358 90 198 52 203 48 69 13 396 99 121 26 397 100 112 30 318 79 313 79 399 100 351 87 6 2 302 75 211 53 154 38 391 98 367 93 84 16 370 93
417 20 2864 11 12 299 76 72 25 229 60 366 92 100 28 145 39 33 3 29 7 126 26 304 74 230 62 334 83 201 54 136 32 302 77 95 24 382 96 103 29 83 13
418 20 3175 54 10 397 100 321 80 100 31 308 76 115 23 289 73 108 23 228 54 91 29 245 58 193 52 211 56 53 17 346 87 50 7 170 48 257 65 281 70 152 35
419 20 3243 203 48 167 45 110 30 66 11 141 34 344 85 54 16 301 77 266 67 121 24 321 80 291 73 37 3 230 59 296 76 318 78 380 96 17 6 294 72 97 22
420 20 3201 35 14 288 71 256 61 255 65 1 4 113 35 135 32 251 63 368 93 66 15 284 73 181 43 257 66 82 13 400 100 308 79 318 79 277 69 105 34 22 5
421 20 2956 305 77 39 10 253 60 61 9 190 48 343 88 206 49 82 24 244 64 20 12 174 47 168 46 161 40 90 19 352 88 359 91 155 44 111 25 17 11 365 91
422 20 2549 2 3 107 31 224 54 16 6 278 71 256 64 19 9 283 71 154 41 330 83 9 6 300 74 9 9 181 47 377 95 211 55 22 13 208 54 94 22 107 32
423 20 3341 41 12 396 99 374 94 65 17 392 98 154 41 258 68 262 66 49 5 223 57 315 79 293 76 224 54 209 54 34 10 355 88 314 79 110 21 103 31 6 3
424 20 3672 190 43 358 89 318 81 134 32 38 10 126 33 260 63 366 91 181 49 221 51 395 99 262 68 217 51 226 55 248 66 383 96 154 42 144 37 159 36 210 52
425 20 3200 382 96 191 46 5 5 10 12 89 20 9 5 90 21 345 87 396 100 217 53 300 77 347 88 218 54 369 93 234 59 104 29 137 39 137 33 357 89 63 17
426 20 3267 371 93 332 83 343 85 382 96 313 79 214 56 4 10 141 31 96 20 107 34 123 29 161 45 357 89 309 77 236 61 212 57 112 35 45 14 86 23 140 31
427 20 2738 48 16 229 56 324 82 324 82 269 67 77 24 73 15 244 63 50 14 73 22 298 75 140 35 39 2 104 26 9 4 329 82 276 67 393 98 114 33 10 2
428 20 3132 219 52 19 13 132 37 98 30 168 43 289 74 69 18 76 26 53 7 12 6 86 17 353 89 306 75 310 79 166 37 344 87 260 63 316 81 389 97 251 66
429 20 3150 51 6 365 92 180 50 268 68 371 93 370 93 91 31 209 54 97 22 17 10 269 67 222 54 116 24 221 57 73 24 388 97 264 67 78 27 284 70 4 9
430 20 2860 155 37 71 17 69 23 193 50 295 74 309 80 374 94 101 23 285 72 350 87 192 49 59 15 389 97 252 62 109 29 48 7 33 10 15 8 159 38 117 32
431 20 3027 296 72 149 36 53 11 378 95 75 19 338 85 225 56 39 13 245 65 390 98 252 62 303 74 31 14 167 45 77 14 28 12 288 71 258 63 130 36 62 8
432 20 2791 237 61 253 66 91 20 14 10 25 9 118 32 110 33 120 26 171 45 246 58 187 52 181 42 276 67 385 97 386 97 316 79 142 40 181 51 49 7 1 3
433 20 3178 139 34 298 75 240 63 259 64 385 97 72 16 214 51 155 35 35 5 141 31 380 96 140 32 378 95 326 81 13 7 385 96 18 12 278 70 98 32 19 4
434 20 3377 231 57 116 30 259 65 225 57 130 33 144 38 338 84 254 64 89 15 339 86 153 42 191 44 242 63 293 72 350 87 237 58 156 45 362 92 4 5 109 27
435 20 3273 162 36 290 75 378 95 38 13 236 56 304 75 397 100 192 49 203 47 76 18 324 81 71 16 212 53 259 64 149 39 292 74 61 20 333 84 101 31 14 1
436 20 3031 234 56 384 96 3 6 359 90 175 41 44 12 217 54 390 98 358 90 288 72 381 95 1 7 385 97 13 3 209 52 90 21 40 18 150 40 53 13 15 9
437 20 2358 19 8 70 17 7 3 103 24 277 71 38 4 15 1 2 7 35 15 92 21 147 43 286 72 299 77 194 48 305 78 309 80 70 13 260 62 167 40 253 62
438 20 2805 158 37 312 76 130 39 49 12 198 55 154 44 18 5 131 31 319 78 88 20 78 17 281 69 278 69 305 77 368 93 139 33 273 68 11 11 138 31 79 17
439 20 3712 294 76 141 37 115 24 389 98 392 98 377 95 245 65 257 66 49 20 68 25 283 72 180 49 317 81 263 67 84 16 175 48 252 61 237 63 203 50 319 80
440 20 3422 128 30 27 11 316 81 365 91 189 45 207 50 306 77 201 55 277 69 292 76 175 44 171 39 279 71 100 30 96 29 218 59 226 53 111 29 319 78 275 70
441 20 2637 271 69 277 73 42 13 315 81 164 40 59 11 6 7 29 15 152 45 319 79 37 12 258 62 100 31 46 15 208 54 75 22 160 37 313 77 305 77 161 37
442 20 3165 242 59 62 12 388 98 72 24 163 42 166 37 302 77 350 88 128 37 41 17 126 36 377 95 211 50 64 12 279 70 233 59 102 21 273 68 303 75 75 26
443 20 3166 160 35 75 15 172 44 51 16 253 65 366 92 332 84 147 34 65 21 298 74 104 28 325 82 29 13 351 88 50 8 336 84 184 50 294 74 30 16 336 83
444 20 3629 108 29 319 79 368 93 287 70 386 97 46 18 291 74 373 93 298 75 77 18 197 48 169 46 371 93 79 13 298 74 83 17 209 55 354 88 182 45 42 17
445 20 3823 191 53 39 11 313 78 181 49 162 38 274 68 96 29 191 52 221 53 390 98 342 86 58 13 315 81 220 51 316 79 375 94 230 60 345 86 193 51 327 84
446 20 2526 62 23 77 17 363 91 176 42 342 87 155 33 64 19 33 10 324 82 138 39 310 77 9 8 9 4 171 47 171 39 109 27 122 35 378 95 66 12 79 25
447 20 2864 210 57 160 46 15 13 317 78 62 21 255 61 175 43 400 100 31 16 113 33 52 17 57 6 135 41 267 68 54 20 273 68 110 29 328 84 215 55 351 89
448 20 3487 324 83 210 49 76 25 37 6 59 13 238 58 348 87 7 11 298 77 331 82 261 67 259 66 44 15 171 47 317 81 41 7 270 66 356 88 345 87 367 91
449 20 3136 234 59 357 89 226 57 199 53 150 36 7 1 268 69 5 8 113 30 155 35 59 10 360 90 223 53 1 4 174 46 363 91 394 99 355 89 87 20 191 52
450 20 2562 22 2 59 20 305 77 386 97 20 13 167 38 353 89 50 4 207 52 28 7 17 6 274 66 130 32 51 18 159 36 288 73 128 37 362 90 50 20 147 37
451 20 2959 51 18 272 69 53 22 16 11 375 94 190 43 294 76 187 47 290 70 46 15 5 11 177 49 377 94 307 76 357 89 206 48 108 24 190 44 69 22 129 38
452 20 3703 140 36 160 43 117 25 155 35 359 90 141 31 40 6 150 37 384 96 158 43 358 90 285 69 274 70 299 76 352 87 309 78 278 68 366 91 70 22 234 59
453 20 3286 328 81 190 44 158 45 229 56 55 13 319 80 31 9 135 33 400 100 358 89 43 17 61 21 375 94 158 35 315 79 203 50 214 52 315 78 34 15 187 42
454 20 3005 263 68 35 16 5 10 60 7 264 69 248 63 234 61 158 36 120 33 153 44 387 97 319 79 79 24 64 8 108 24 194 47 241 61 385 96 183 51 257 64
455 20 3477 225 53 180 50 258 65 369 92 76 25 5 4 35 4 90 30 274 72 180 48 342 85 194 54 338 85 317 80 301 76 215 50 348 88 260 67 215 55 125 37
456 20 3436 307 77 184 50 142 38 22 7 261 67 213 57 376 95 284 73 84 16 287 74 222 58 148 40 300 75 365 92 247 62 395 99 400 100 18 6 13 10 27 1
457 20 2817 357 89 184 44 154 33 108 26 336 86 157 42 361 91 387 97 55 16 311 77 320 82 144 36 11 6 90 27 22 9 45 12 10 7 57 12 353 89 60 21
458 20 3432 395 99 36 7 4 6 103 21 47 4 254 60 366 91 190 52 285 74 265 66 348 87 77 24 160 46 129 38 263 64 344 85 54 14 361 91 312 77 298 73
459 20 3707 360 90 99 21 168 48 397 100 230 56 335 86 322 82 323 81 149 32 252 62 373 94 78 20 107 31 262 63 143 38 344 87 386 97 69 22 29 1 208 53
460 20 3349 149 40 118 34 290 72 371 93 245 65 171 45 64 9 256 65 216 59 370 93 367 93 274 70 97 20 41 3 167 41 326 84 55 11 243 57 182 47 185 51
461 20 2768 102 33 314 79 19 13 148 34 67 13 73 18 78 20 369 92 151 35 241 64 42 16 146 33 11 12 130 37 338 85 84 15 248 60 190 49 345 88 364 91
462 20 3539 399 100 195 46 390 98 362 91 83 25 253 67 69 18 53 21 321 80 109 34 374 94 113 23 172 48 368 93 191 46 196 46 261 65 236 58 170 42 109 34
463 20 3072 250 66 97 24 316 79 23 1 276 68 243 65 248 64 168 37 325 83 115 28 110 32 2 3 16 12 142 37 310 80 309 78 111 32 298 72 226 54 256 66
464 20 3304 161 40 117 34 209 54 390 98 383 96 216 50 290 72 220 58 166 42 179 47 127 33 225 58 108 34 28 5 369 92 394 99 188 47 261 66 29 14 70 14
465 20 3002 69 22 253 66 9 6 183 47 247 62 234 55 80 23 182 47 171 39 330 83 66 10 155 43 308 78 40 4 114 23 305 77 325 81 61 14 303 77 318 82
466 20 3204 38 9 226 57 120 33 90 17 144 39 269 65 353 88 112 35 135 35 279 72 75 15 335 84 253 66 152 40 120 26 314 79 86 14 393 99 121 37 390 98
467 20 2794 102 21 89 26 344 86 255 64 186 50 135 40 294 71 75 22 95 21 38 12 154 42 364 91 325 81 186 52 89 17 256 67 113 28 219 51 33 16 141 33
468 20 3276 320 82 125 36 252 66 161 36 176 39 343 86 363 91 233 60 299 77 67 21 58 22 210 56 236 61 156 44 55 23 308 75 2 6 324 80 362 92 45 13
469 20 3551 303 78 165 44 324 82 327 83 3 2 341 86 253 67 264 63 338 86 175 46 262 65 340 86 200 47 111 31 335 85 305 79 5 10 1 10 8 2 379 95
470 20 2920 152 35 268 65 287 73 56 19 272 66 91 18 146 42 89 26 254 64 196 50 9 2 250 65 37 1 224 57 203 51 392 98 155 43 122 37 122 35 325 81
471 20 3045 16 5 248 65 171 47 131 39 296 76 220 58 116 24 37 8 131 27 86 23 333 85 151 42 113 35 277 70 139 33 276 69 353 90 132 32 269 71 312 80
472 20 4114 154 39 388 97 168 46 302 75 328 83 73 18 365 92 234 56 334 85 353 88 350 89 191 45 128 32 173 40 278 72 132 29 353 88 388 97 380 95 71 19
473 20 2684 61 12 279 69 340 85 121 26 34 17 106 34 35 13 148 36 233 59 387 97 182 50 76 16 390 98 96 21 51 11 139 35 202 52 228 56 209 52 39 5
474 20 3498 108 22 121 35 337 85 256 61 242 60 220 52 19 9 216 57 1 5 296 76 34 17 111 34 342 85 392 98 39 16 342 85 306 79 364 92 289 73 338 85
475 20 2834 37 13 176 39 39 4 357 90 123 33 273 71 111 30 94 19 27 7 163 38 308 76 217 58 394 99 180 43 160 42 80 15 96 31 252 62 96 22 360 91
476 20 3779 42 19 398 100 378 95 101 25 138 29 386 97 220 56 123 29 116 23 95 19 284 71 21 11 376 94 236 61 243 58 366 91 136 28 346 87 372 93 347 88
477 20 3310 58 21 397 99 317 81 235 63 97 31 249 66 59 18 171 47 87 28 169 47 317 80 274 71 262 67 303 77 358 90 57 16 352 89 314 77 35 14 27 3
478 20 3204 239 63 6 6 156 35 388 97 290 72 58 19 254 62 341 85 29 10 54 21 360 90 350 88 62 7 243 63 85 17 311 78 147 43 130 34 184 44 318 79
479 20 2787 184 49 86 17 69 13 276 67 268 65 232 62 14 9 223 53 98 24 242 60 75 22 239 64 67 25 29 10 34 5 187 50 67 16 364 92 378 95 352 88
480 20 3015 286 72 217 53 225 54 128 34 184 46 56 19 219 52 131 27 339 85 235 58 281 72 330 82 64 19 12 13 320 79 84 28 20 13 43 4 351 89 244 59
481 20 3259 305 76 185 47 177 47 203 48 270 68 299 75 11 5 50 20 381 95 313 78 110 22 319 81 349 89 1 6 3 2 183 43 121 26 301 73 367 92 126 31
482 20 3044 281 69 164 44 369 93 39 7 59 19 75 19 187 51 150 34 315 78 116 30 160 35 168 47 382 95 111 24 338 85 281 70 382 96 56 10 3 3 169 39
483 20 3308 98 27 60 9 52 21 97 25 256 62 109 29 322 80 370 92 300 78 148 36 223 53 168 47 344 86 278 71 339 84 365 91 5 9 259 66 61 14 281 72
484 20 2794 19 14 36 12 349 87 277 67 35 18 65 25 35 13 348 86 162 46 137 34 360 91 19 13 378 95 261 64 126 37 38 7 70 16 339 84 353 89 86 23
485 20 3148 3 1 147 35 193 53 153 44 145 42 246 62 164 47 323 82 190 50 246 64 125 33 302 78 276 68 173 47 203 46 48 5 268 67 108 24 233 58 389 98
486 20 2905 293 71 92 20 303 78 274 70 14 6 122 32 288 70 310 76 56 10 273 71 365 91 169 39 37 15 209 50 22 1 230 62 97 17 308 76 98 28 72 18
487 20 3192 1 10 105 30 238 58 157 37 101 33 322 79 263 65 325 81 197 52 195 49 113 26 363 91 302 77 384 96 199 45 316 78 76 22 29 5 124 35 180 45
488 20 3010 17 7 26 5 303 76 383 96 293 76 341 87 86 22 4 11 278 70 301 78 284 73 96 21 237 56 231 61 305 78 117 28 25 7 161 46 34 7 241 60
489 20 3744 309 78 54 12 196 45 314 78 298 77 385 97 349 88 169 38 172 41 45 13 307 75 289 72 315 80 283 73 240 59 160 37 229 59 236 59 235 57 95 31
490 20 3368 365 92 366 93 293 75 40 16 173 49 211 49 150 41 118 28 117 32 305 75 195 47 180 41 264 65 148 38 223 52 360 90 293 75 50 16 17 13 343 87
491 20 3656 351 89 199 54 57 16 50 21 329 84 398 100 304 77 202 48 200 48 283 71 307 78 280 69 46 11 72 11 313 80 303 77 184 51 268 66 246 62 178 41
492 20 3897 206 57 299 76 215 54 117 26 220 56 177 45 259 68 340 86 266 68 304 74 282 68 165 44 369 93 211 49 71 16 316 81 117 36 253 62 348 87 337 86
493 20 3617 182 50 392 98 21 11 228 61 380 96 351 88 113 23 304 76 297 76 326 80 36 10 230 57 358 89 117 25 336 84 173 46 332 83 255 65 87 20 4 7
494 20 3018 21 9 104 27 9 6 270 65 294 72 73 22 139 37 305 75 84 16 315 77 394 99 331 85 36 2 150 43 276 69 229 54 69 24 272 72 128 34 274 71
495 20 3092 306 77 47 7 291 75 139 30 91 26 330 84 384 96 1 7 146 39 113 26 244 58 295 75 52 12 61 23 318 81 316 80 69 13 382 96 183 45 98 21
496 20 2840 218 53 363 92 69 26 50 7 281 69 26 14 182 45 69 20 113 26 328 81 249 66 66 15 197 53 209 51 199 53 32 12 110 22 324 81 250 66 215 54
497 20 3386 114 29 228 60 147 32 139 32 326 82 297 72 185 42 345 88 9 10 233 55 121 36 174 48 104 25 266 65 300 76 372 93 132 31 353 89 262 66 126 31
498 20 3159 137 35 271 67 162 43 289 71 53 17 123 33 284 72 308 79 311 78 339 86 88 15 158 45 235 60 4 8 158 34 323 82 48 19 250 63 127 31 281 73
499 20 3294 382 96 35 17 315 77 109 28 196 49 394 99 104 26 86 23 29 4 74 24 382 96 359 89 398 100 204 49 296 72 128 32 129 38 311 77 26 13 161 35
500 20 2960 214 57 369 93 382 96 92 28 28 3 42 15 44 16 132 31 209 54 178 42 182 42 314 80 100 19 314 77 375 94 217 53 62 18 188 43 110 33 149 41
