195
244
177
186
200
189
144
252
126
113
111
120
123
124
103
97
93
112
103
102
103
99
105
105
107
122
100
119
118
110
97
91
118
109
97
99
118
114
85
110
112
119
91
115
157
115
107
113
112
119
105
110
141
95
117
115
95
116
109
108
102
116
103
93
112
108
103
109
92
117
105
95
150
123
115
86
117
97
115
110
104
114
112
98
125
109
104
102
98
98
107
115
99
98
103
97
93
114
183
188
198
172
197
188
180
183
172
178
147
162
153
172
109
102
123
106
111
107
103
116
90
112
116
98
102
111
87
100
92
108
129
100
120
101
102
144
110
149
152
114
120
243
932
150
179
172
150
186
158
113
114
108
94
96
131
127
103
104
109
128
87
92
99
120
99
190
125
201
128
121
118
127
99
98
102
109
129
119
116
115
122
117
119
111
93
112
111
120
109
128
107
125
108
100
111
116
95
111
98
96
103
101
119
161
110
110
97
95
84
112
108
96
178
120
113
115
93
112
111
94
93
116
103
108
116
125
97
87
119
102
97
113
96
118
110
101
104
118
124
113
97
129
108
78
99
113
119
94
118
120
93
111
100
99
125
96
102
119
126
101
118
86
98
115
110
99
124
101
96
113
94
118
89
89
110
97
120
114
107
103
104
106
109
90
113
97
95
97
91
110
107
96
116
98
110
118
97
124
91
121
101
97
96
116
94
157
101
80
108
113
136
109
102
110
114
123
118
105
100
104
92
89
110
114
91
124
113
109
98
109
124
106
120
100
95
97
108
108
111
95
84
98
118
103
116
106
105
91
98
96
94
102
159
95
104
98
99
94
114
92
111
87
113
102
106
112
107
100
96
95
110
109
93
93
110
118
119
105
83
92
119
101
94
109
111
107
115
116
111
99
104
102
99
142
104
104
104
111
108
166
147
117
115
104
99
94
110
107
100
104
110
112
119
90
98
121
113
101
77
114
89
110
113
93
119
101
98
98
183
108
95
119
95
123
118
123
114
104
97
108
91
105
142
91
97
111
113
106
115
106
111
115
110
87
116
110
106
102
117
110
105
91
119
106
108
101
114
100
116
110
100
98
99
94
101
94
110
108
118
98
119
120
126
101
124
111
182
117
107
109
110
106
107
114
111
141
104
122
117
116
