5721
2977
3688
2505
2657
1600
2453
4664
3230
4144
3944
3082
2519
4248
5620
3448
2699
2149
3301
3190
2426
3889
4064
6198
4756
3756
2706
3709
3355
2337
4873
3262
2324
3247
4384
2403
1957
3697
3189
2977
4036
2086
4732
4586
3249
3550
1451
2708
4276
4775
2632
3279
3708
2882
4071
1500
1291
3194
3686
3161
2849
3980
3809
2935
4127
6026
2682
3548
3954
2318
3185
3108
1223
3551
3634
2109
1614
2224
4437
1825
2791
3389
2265
2884
2679
3690
2557
1505
3961
2788
3125
3643
4456
1371
2181
3206
1117
5486
3557
3807
3123
3730
3387
2257
4210
3591
3786
3521
1602
4204
2895
3462
2508
1174
2620
3134
3104
3333
2735
3251
1857
2398
1628
4097
2324
2721
1455
4282
3255
5005
2938
2302
2823
2654
2164
4350
3485
3212
3427
5216
3125
2368
1509
5327
4298
2528
2784
2455
2760
2201
2183
2005
2656
2874
4155
5859
3960
2168
2865
1829
2408
616
4216
2073
3566
3015
3002
1919
3986
3445
4114
1739
4941
2549
2662
4338
3650
3661
2534
4201
3090
3038
2722
3628
2514
2878
5204
3959
3011
4132
2243
2998
3793
3676
2810
2075
2571
3168
2416
3327
3216
3157
2534
3769
2386
1452
4670
3987
2626
2210
2405
5765
4080
2204
4864
2783
3990
1177
4534
1759
1986
3211
3272
1376
3012
3768
4173
1131
3146
4345
1853
2350
3664
3965
3421
1628
3003
5697
3299
3257
3914
3915
4057
3266
3657
4670
2489
2492
3472
3683
1599
2840
2000
4112
2098
4689
3603
3463
1258
1895
3623
2219
3476
3484
5480
5246
4198
3959
4073
2819
1635
3348
3155
2859
4555
2473
2342
4954
2874
1657
1744
4603
2482
2677
3118
2741
2150
2183
4665
2565
2513
4106
4621
3816
3263
4232
4447
2037
1921
2740
4249
4776
2170
3564
3425
4229
4654
2675
2881
2175
3343
2763
3456
1669
2545
2905
2719
3165
2804
3822
2025
919
5001
4313
2082
3275
3082
3172
1522
2592
3315
3293
3155
2116
2711
2143
3437
3657
2987
3327
5815
5303
4124
4619
4537
5792
2446
4222
4280
3125
3165
1709
2682
5605
3916
2116
2100
4043
2451
3993
1443
6343
4524
3290
3640
1862
2681
2910
2482
2071
3039
1849
922
3805
2714
4018
3367
5912
1277
1833
2598
1861
3000
4156
3190
2296
4298
4158
2992
4099
1770
3968
1834
3287
4085
2798
2675
3237
4368
4708
1774
4356
3141
2796
1468
2913
4404
1728
4826
3808
3548
2452
3950
4245
4231
3923
2277
2633
2665
3268
1646
3668
3489
3442
2926
1676
2251
3836
2234
3134
4322
3575
2161
2257
2846
3890
2109
3313
4730
4075
6431
3985
3121
6111
3772
2812
3197
3775
3012
3786
2662
1277
4824
4725
3504
3271
2310
2870
3776
3977
5099
2593
4079
3371
4720
5974
4060
2878
3056
3187
2526
4929
4014
1646
1361
2581
3641
2453
1886
1329
3664
3498
2870
3025
3713
4548
2829
2641
2935
2486
3471
5907
3410
5044
3806
3344
4400
3291
3081
3593
