5272
2846
2938
2506
2436
1526
2222
4747
3107
4222
4047
3098
2451
4227
5608
3447
2749
2083
3187
3135
2460
3814
4043
5282
3615
4154
3045
4476
3672
2423
4868
3334
2344
3310
4313
2479
1936
3792
3207
2975
4047
2036
4711
4570
3295
3647
1377
2693
4531
4676
2748
3181
3589
2869
4369
1619
1310
3240
3563
3108
2741
3963
3563
2839
3439
5131
2661
3636
5683
3063
3161
3084
1216
3543
3645
1980
1593
2257
4408
1784
2823
3400
2282
2801
2642
3504
2530
1473
4777
2820
3125
3808
4374
1379
2150
3057
1069
4326
3350
3928
3243
3792
3504
2401
4147
3357
3691
3485
1594
4136
2854
3523
2538
1192
2623
3196
3090
3407
2719
3234
1843
2560
1619
4103
2354
2648
1411
4223
2651
4785
2887
2299
2823
2619
2161
4206
3429
3298
3454
5265
3243
2386
1490
6259
4138
2560
2783
2468
2769
2219
2081
2009
2559
2932
3985
5946
4261
2113
2923
1832
2166
591
4144
2180
3489
3087
2982
1915
3972
3384
4151
1801
4984
2528
2617
3621
3680
3775
2738
4437
3177
3023
2850
3517
2540
2895
5026
3994
3109
4150
2217
3050
3756
3570
2806
2021
2660
3340
2409
3392
3395
3141
2693
3775
2298
1457
4571
4038
2748
2298
2828
6137
4064
2217
4609
2605
3995
1118
4580
1782
2078
3536
3224
1485
3065
3847
4227
1123
3259
4489
1986
2429
4079
4187
3757
1668
2869
5142
3308
3149
3783
3967
4112
3231
3751
4611
2388
2637
3657
3904
1714
2949
2118
3974
1980
4712
3591
3208
1249
1906
3605
2323
3464
3446
5589
5380
4234
4043
4127
2789
1531
3338
3278
3124
4962
2565
2230
4798
2866
1652
1669
4641
2459
2633
3043
2889
2261
2287
4695
2517
2563
3978
4197
3323
3307
3875
4442
2031
1747
2808
4218
4638
2023
3454
3237
4291
4824
2742
2959
2238
3270
2779
3357
1690
2402
2877
2665
3266
2744
3240
1995
863
4643
4311
2098
3217
3213
3181
1478
2626
3323
3560
3415
2323
2718
2204
3478
3650
3008
3221
5872
5291
3548
4532
4024
5885
2338
4102
4358
3272
3044
1769
2649
5730
3913
2120
2083
4003
2334
3822
1404
6070
4312
3229
3458
1790
2413
2935
2508
2097
3053
1896
932
3972
2491
4049
3345
5885
1273
1841
2786
1867
3302
4014
3129
2329
4441
4143
3039
4221
1757
4088
1842
3588
4265
2770
2784
3078
4218
4824
1843
4413
3106
2843
1474
2868
4406
1786
4844
3780
3551
2552
3920
4316
4288
3875
2377
2733
2659
3316
1656
3714
3437
3307
2919
1650
2389
3853
2340
3050
4355
3696
2146
2291
2864
3909
1973
3326
5028
4165
6093
3911
3096
6200
3649
2866
3201
3647
3050
3791
2629
1281
4896
4969
3709
3525
2332
2874
4073
4181
4833
2521
4053
3253
4749
5546
3907
2663
2917
3169
2565
5154
3976
1669
1407
2640
3762
2438
1870
1340
3777
3532
2845
3079
3676
4508
2712
2605
2950
2479
3390
5906
3373
5120
3816
3977
4506
3270
3100
3495
