1 20 713 1 1 1 1 0 1 1 1 0 1 1 1 1 1 1 1 1 0 1 1 
2 20 910 1 1 1 1 1 1 1 1 0 1 1 1 1 0 1 1 1 1 1 0 
3 20 868 0 1 1 1 1 1 1 0 1 1 1 1 1 1 1 1 1 1 0 1 
4 20 873 1 1 1 1 1 1 1 1 1 1 1 0 1 1 0 1 1 0 1 1 
5 20 960 1 1 0 1 0 1 0 1 1 1 1 1 1 1 1 1 1 1 1 1 
6 20 938 0 1 1 1 0 1 1 1 0 1 1 1 1 1 1 1 1 1 1 1 
7 20 873 1 1 1 1 0 1 1 1 1 1 0 1 1 1 1 1 1 1 1 0 
8 20 972 1 1 1 0 1 1 0 1 1 1 1 1 1 1 1 0 1 1 1 1 
9 20 1014 1 1 1 1 1 1 1 1 1 1 0 1 1 1 1 1 1 1 0 0 
10 20 956 1 1 1 1 0 1 1 0 1 1 1 1 1 1 0 1 1 1 1 1 
11 20 935 1 1 0 1 0 1 1 1 1 1 1 1 1 1 0 1 1 1 1 1 
12 20 909 1 1 1 1 1 1 1 1 1 1 1 1 0 0 1 1 0 1 1 1 
13 20 1024 1 1 0 1 1 1 1 1 1 1 1 1 1 0 1 1 0 1 1 1 
14 20 1050 1 1 1 1 0 0 1 1 1 1 1 1 1 1 1 1 1 1 0 1 
15 20 880 1 1 0 1 1 1 1 1 0 1 0 1 1 1 1 1 1 1 1 1 
16 20 833 1 1 1 1 1 1 1 1 1 1 1 0 1 0 1 1 0 1 1 1 
17 20 788 1 1 1 1 1 1 1 1 1 1 1 0 1 1 0 1 1 1 1 1 
18 20 948 1 1 1 1 0 1 1 1 1 1 1 1 1 0 1 1 0 1 1 1 
19 20 858 1 1 1 0 1 0 1 1 1 1 1 1 1 1 1 1 1 1 1 1 
20 20 860 0 1 1 1 1 0 1 1 1 1 1 1 1 1 1 1 0 1 1 1 
21 20 873 1 1 1 1 1 1 1 1 0 1 1 1 1 1 1 1 1 0 1 1 
22 20 831 1 1 1 1 1 1 1 1 1 1 1 1 1 1 0 1 1 1 1 0 
23 20 890 1 1 1 1 1 1 1 1 0 1 1 0 1 1 1 1 0 1 1 1 
24 20 892 1 1 1 0 1 1 1 1 0 1 1 1 1 1 1 1 1 0 1 1 
25 20 914 1 1 0 1 1 1 1 1 1 1 1 1 1 1 1 1 1 1 0 0 
26 20 1027 1 1 1 0 1 1 1 1 1 1 1 1 1 0 1 1 1 1 1 0 
27 20 814 1 1 1 1 0 0 1 1 1 1 1 1 1 1 1 1 1 0 1 1 
28 20 1013 1 1 1 1 1 1 1 1 1 1 1 1 1 1 1 0 1 0 1 0 
29 20 995 1 1 1 1 1 1 1 0 1 1 1 1 1 1 1 0 1 0 1 1 
30 20 924 1 1 0 0 0 1 1 1 1 1 1 1 1 1 1 1 1 1 1 1 
31 20 827 1 1 0 1 1 1 1 1 1 1 0 1 1 1 0 1 1 1 1 1 
32 20 788 1 1 1 1 1 1 1 1 1 1 1 0 1 1 1 1 1 1 0 1 
33 20 983 1 1 1 1 1 0 1 0 1 1 1 1 1 1 1 1 1 1 0 1 
34 20 916 1 1 1 1 0 1 1 1 1 1 1 1 1 1 1 1 1 1 0 0 
35 20 818 1 1 0 1 1 1 1 1 1 1 1 1 1 1 1 0 1 1 1 0 
36 20 832 1 0 1 1 1 1 1 1 1 0 1 1 1 1 1 1 1 1 1 1 
37 20 990 1 1 1 1 0 1 0 1 1 1 1 1 0 1 1 1 1 1 1 1 
38 20 952 0 1 1 1 1 0 1 1 1 1 1 1 1 1 1 1 1 1 1 0 
39 20 734 1 1 1 1 1 1 0 1 1 1 1 1 1 1 0 1 1 1 1 1 
40 20 932 1 1 0 1 1 1 1 1 1 1 0 1 0 1 1 1 1 1 1 1 
41 20 962 1 1 1 1 1 1 0 1 1 1 1 1 1 0 1 1 1 1 0 1 
42 20 1012 1 1 1 1 1 1 1 1 1 0 1 1 1 1 1 0 0 1 1 1 
43 20 778 1 0 1 1 1 1 1 1 0 0 1 1 1 1 1 1 1 1 1 1 
44 20 971 1 0 1 1 1 1 1 1 1 1 1 1 0 1 1 0 1 1 1 1 
45 20 895 1 1 1 1 0 1 1 1 1 1 1 1 0 1 1 1 1 1 0 1 
46 20 981 0 1 1 1 0 1 1 1 1 1 1 1 1 1 1 1 1 1 1 0 
47 20 869 1 1 1 1 1 1 1 1 1 1 0 0 0 1 1 1 1 1 1 1 
48 20 959 1 1 1 1 1 1 0 1 1 1 1 0 1 1 1 1 1 0 1 1 
49 20 937 0 1 1 1 1 1 1 0 1 1 1 0 1 1 1 1 1 1 1 1 
50 20 1004 1 1 1 1 1 1 1 1 1 1 1 1 1 0 0 1 1 0 1 1 
51 20 882 1 1 1 1 1 1 1 1 1 1 1 1 1 1 1 0 0 1 1 0 
52 20 853 1 1 1 1 1 1 1 1 1 1 1 1 0 1 1 0 1 1 1 0 
53 20 1038 1 1 0 1 0 1 1 1 1 1 1 0 1 1 1 1 1 1 1 1 
54 20 793 1 1 1 1 1 1 1 0 1 1 1 1 0 0 1 1 1 1 1 1 
55 20 989 1 0 1 1 1 1 1 1 1 1 1 1 1 1 1 0 0 1 1 1 
56 20 961 0 1 1 1 1 1 1 1 1 1 1 1 1 0 1 1 0 1 1 1 
57 20 795 1 1 1 0 1 1 1 0 1 1 1 1 1 1 1 1 1 1 1 1 
58 20 986 1 1 1 1 1 1 1 1 1 1 0 1 1 0 1 1 1 1 0 1 
59 20 915 1 1 1 1 1 1 1 1 1 1 1 1 1 1 0 0 1 0 1 1 
60 20 915 1 1 1 1 1 1 0 1 1 1 1 1 1 0 1 1 1 1 1 0 
61 20 883 1 1 0 1 1 1 1 0 1 1 1 1 0 1 1 1 1 1 1 1 
62 20 996 1 1 1 1 1 1 1 0 1 1 1 1 0 1 1 1 1 1 0 1 
63 20 877 1 1 1 1 1 1 0 1 0 1 1 1 1 0 1 1 1 1 1 1 
64 20 808 1 1 1 1 0 1 1 1 1 0 1 1 1 1 1 1 1 1 1 1 
65 20 948 1 1 1 1 1 1 1 0 1 1 1 1 1 1 1 0 1 0 1 1 
66 20 869 1 1 1 1 1 1 1 1 1 0 1 1 1 1 1 1 0 1 0 1 
67 20 858 1 1 1 1 1 0 1 1 1 1 0 1 1 1 1 0 1 1 1 1 
68 20 914 1 0 1 1 1 1 1 1 1 1 1 1 1 1 0 1 1 1 0 1 
69 20 773 1 1 1 1 1 1 1 1 1 0 1 1 1 0 0 1 1 1 1 1 
70 20 983 1 1 1 1 1 0 1 1 1 1 1 1 1 0 1 1 1 1 0 1 
71 20 875 1 1 1 0 1 1 1 1 1 1 1 1 0 1 1 1 1 1 1 0 
72 20 795 0 1 1 1 1 1 0 1 1 1 1 1 0 1 1 1 1 1 1 1 
73 20 950 1 1 1 1 1 0 1 0 1 1 1 1 1 1 1 0 1 1 1 1 
74 20 1023 1 1 0 1 1 1 1 1 1 1 1 1 1 1 0 0 1 1 1 1 
75 20 964 1 1 1 0 1 1 1 1 0 0 1 1 1 1 1 1 1 1 1 1 
76 20 721 1 1 1 1 1 0 1 1 1 1 1 1 0 1 1 1 1 1 1 1 
77 20 988 1 1 1 1 1 1 1 1 1 1 1 1 0 1 1 0 1 0 1 1 
78 20 819 1 1 1 1 1 1 1 0 1 1 1 0 1 1 1 1 1 1 1 1 
79 20 853 1 1 1 1 1 1 1 1 1 1 1 1 1 1 1 1 1 0 0 1 
80 20 910 1 0 1 1 1 1 1 1 1 1 0 1 1 0 1 1 1 1 1 1 
81 20 841 1 0 1 1 1 1 1 1 0 1 1 1 1 1 1 1 1 1 1 0 
82 20 962 1 1 1 1 0 1 1 0 1 1 1 1 1 1 1 1 1 0 1 1 
83 20 941 1 1 0 1 1 1 1 0 1 1 1 0 1 1 1 1 1 1 1 1 
84 20 837 1 1 1 1 1 1 1 0 1 1 1 1 1 1 1 0 1 1 1 1 
85 20 1044 1 0 0 0 1 1 1 1 1 1 1 1 1 1 1 1 1 1 1 1 
86 20 837 1 1 1 1 0 1 1 1 0 1 1 1 1 1 1 1 1 1 1 1 
87 20 874 0 1 1 1 1 1 0 1 1 1 1 1 1 1 1 1 1 1 1 1 
88 20 860 1 1 1 0 1 1 1 1 1 1 1 0 1 1 1 1 1 0 1 1 
89 20 826 1 1 1 1 1 1 1 1 1 1 1 1 1 1 1 1 1 0 0 0 
90 20 833 1 1 1 1 1 1 1 0 1 0 1 1 1 1 1 1 1 0 1 1 
91 20 901 0 1 1 0 1 1 1 0 1 1 1 1 1 1 1 1 1 1 1 1 
92 20 968 1 1 1 1 0 1 1 0 1 1 1 1 1 1 1 1 1 0 1 1 
93 20 854 1 1 1 1 1 1 1 1 0 1 1 1 1 1 1 1 0 1 1 1 
94 20 841 0 1 1 1 1 1 1 1 1 0 1 1 1 1 1 1 1 1 1 1 
95 20 861 1 0 1 1 1 0 1 1 1 1 1 0 1 1 1 1 1 1 1 1 
96 20 842 1 1 1 1 1 1 1 0 1 1 1 0 1 1 1 1 1 1 1 1 
97 20 777 1 0 1 0 1 1 1 1 1 1 0 1 1 1 1 1 1 1 1 1 
98 20 966 1 0 1 1 1 1 1 1 1 1 1 1 0 1 1 1 1 1 1 0 
99 20 890 1 1 1 1 0 1 1 1 1 1 1 1 0 0 1 1 1 1 1 1 
100 20 951 0 1 1 1 1 1 1 1 1 1 0 1 1 0 1 1 1 1 1 1 
101 20 985 1 1 0 1 1 1 0 0 1 1 1 1 1 1 1 1 1 1 1 1 
102 20 881 0 0 1 1 1 1 1 1 1 1 1 1 1 1 1 0 1 1 1 1 
103 20 990 1 1 1 1 1 1 1 0 1 1 0 0 1 1 1 1 1 1 1 1 
104 20 959 0 1 1 1 1 1 1 1 1 1 0 1 1 1 0 1 1 1 1 1 
105 20 938 1 1 1 1 0 1 1 1 0 1 0 1 1 1 1 1 1 1 1 1 
106 20 929 1 1 1 1 1 1 1 1 1 1 0 1 1 0 1 1 1 0 1 1 
107 20 863 0 1 1 1 1 1 1 1 1 1 1 1 1 1 1 1 1 1 0 1 
108 20 901 1 1 1 1 1 0 1 1 0 1 1 1 1 1 1 1 1 1 1 0 
109 20 751 0 1 1 1 1 1 1 1 1 1 1 1 1 0 1 1 1 1 1 1 
110 20 833 1 0 0 1 1 1 1 1 1 1 1 1 1 1 1 1 1 1 1 1 
111 20 800 1 1 0 1 1 1 1 1 1 1 1 1 1 0 1 1 1 1 1 1 
112 20 914 1 1 1 1 1 1 1 1 0 1 1 0 1 1 0 1 1 1 1 1 
113 20 900 1 1 1 1 0 1 0 1 1 1 1 1 1 1 1 1 1 0 1 1 
114 20 859 1 1 1 0 1 1 1 1 0 1 1 1 1 1 1 1 1 1 1 1 
115 20 1028 1 0 1 1 1 1 1 1 1 0 1 1 1 0 1 1 1 1 1 1 
116 20 886 1 1 1 1 0 0 1 1 1 1 1 1 1 1 1 1 1 1 1 1 
117 20 921 1 1 1 1 1 1 0 1 1 1 0 1 1 1 1 0 1 1 1 1 
118 20 894 1 0 1 1 1 1 1 1 1 0 1 1 1 1 1 1 1 1 1 0 
119 20 866 1 1 0 1 1 1 1 0 1 1 1 1 1 1 1 1 1 1 1 1 
120 20 988 1 1 1 1 1 1 1 0 1 1 1 1 1 1 1 0 1 1 1 0 
121 20 757 1 1 1 0 1 1 1 1 1 1 0 1 1 1 1 1 1 1 1 1 
122 20 932 1 1 1 1 1 0 0 1 1 1 1 1 1 1 1 0 1 1 1 1 
123 20 969 0 1 1 1 1 1 1 1 1 1 0 1 1 1 0 1 1 1 1 1 
124 20 836 1 1 1 1 1 1 0 1 1 1 1 1 1 1 0 1 1 1 0 1 
125 20 867 1 1 1 0 1 1 1 1 1 1 1 1 1 1 1 1 0 1 1 0 
126 20 938 1 1 1 1 1 1 1 0 0 1 1 1 1 1 1 1 0 1 1 1 
127 20 727 1 0 1 1 1 1 1 1 1 0 1 1 1 1 1 1 1 1 1 1 
128 20 861 0 1 1 1 1 1 1 0 1 1 1 1 1 0 1 1 1 1 1 1 
129 20 800 1 1 1 1 1 0 1 1 1 1 1 1 1 1 0 1 1 1 1 1 
130 20 896 0 1 1 1 1 1 1 1 1 1 1 0 1 1 1 1 0 1 1 1 
131 20 1068 1 0 1 1 1 1 0 1 1 1 1 1 1 1 1 1 1 1 0 1 
132 20 859 1 1 1 1 1 1 1 1 1 0 0 1 1 1 1 1 1 1 1 1 
133 20 1010 1 1 0 1 1 1 1 1 0 1 0 1 1 1 1 1 1 1 1 1 
134 20 860 1 1 1 1 1 1 1 1 1 1 0 1 1 1 1 1 0 1 1 1 
135 20 874 0 1 1 1 1 1 1 1 1 1 1 1 1 1 1 0 1 1 1 1 
136 20 956 1 1 0 1 1 1 1 1 1 1 1 1 1 1 1 1 1 0 0 1 
137 20 893 1 1 0 1 1 1 1 1 1 0 1 1 0 1 1 1 1 1 1 1 
138 20 836 1 0 1 1 1 1 0 1 1 1 1 1 1 1 1 0 1 1 1 1 
139 20 938 0 1 1 1 1 1 1 1 0 1 1 1 0 1 1 1 1 1 1 1 
140 20 934 1 1 1 1 0 1 1 1 1 1 1 1 1 1 0 1 1 1 1 0 
141 20 964 1 1 1 1 1 0 0 1 1 1 1 1 1 1 1 1 1 1 0 1 
142 20 946 1 1 1 1 1 1 0 1 0 1 1 1 1 1 1 0 1 1 1 1 
143 20 897 1 1 1 1 1 1 1 1 1 1 0 1 1 0 1 1 1 1 1 0 
144 20 806 1 1 1 1 1 1 1 1 1 0 0 1 1 1 1 1 1 1 1 1 
145 20 907 1 1 1 1 0 1 1 1 0 1 1 1 1 1 1 0 1 1 1 1 
146 20 937 0 1 1 1 1 1 1 1 1 1 0 1 1 1 1 1 1 1 0 1 
147 20 821 1 0 1 0 1 1 1 1 1 1 1 1 1 1 0 1 1 1 1 1 
148 20 1004 1 1 1 1 1 1 1 1 1 1 1 1 1 0 0 1 1 1 0 1 
149 20 1059 1 1 0 1 1 1 1 1 1 1 1 1 1 1 0 0 1 1 1 1 
150 20 932 1 1 1 1 1 1 1 0 0 0 1 1 1 1 1 1 1 1 1 1 
151 20 955 0 1 1 1 1 1 1 1 0 1 1 1 1 1 1 1 0 1 1 1 
152 20 893 1 1 1 1 0 1 1 1 1 1 1 1 1 0 1 1 1 0 1 1 
153 20 808 1 1 1 1 1 1 0 1 1 1 1 1 1 1 1 0 1 1 1 1 
154 20 808 1 1 1 1 0 1 1 1 1 1 1 1 1 0 1 1 1 0 1 1 
155 20 907 1 1 1 1 1 1 0 1 0 1 0 1 1 1 1 1 1 1 1 1 
156 20 885 1 1 1 1 1 1 1 1 0 0 1 1 1 1 1 1 1 0 1 1 
157 20 851 1 1 1 1 1 1 1 0 0 1 1 1 1 1 1 0 1 1 1 1 
158 20 871 1 1 1 1 1 1 1 1 1 1 0 1 1 0 1 1 1 1 1 1 
159 20 917 1 1 0 1 1 1 1 1 1 0 1 1 1 1 1 1 0 1 1 1 
160 20 1065 1 1 1 0 1 1 1 1 1 0 1 1 1 1 0 1 1 1 1 1 
161 20 736 1 1 1 0 1 0 1 1 1 1 1 1 1 1 1 1 1 1 1 1 
162 20 766 0 1 0 1 1 1 1 1 1 1 1 1 1 1 1 1 1 1 1 1 
163 20 856 1 1 1 1 1 1 0 1 1 0 1 1 1 1 1 1 1 1 1 1 
164 20 1009 1 1 0 1 1 1 1 0 1 1 1 1 1 1 1 1 0 1 1 1 
165 20 744 1 1 1 1 1 0 1 1 1 1 1 1 1 1 1 1 0 1 0 1 
166 20 1059 1 1 1 1 1 1 0 1 1 1 1 1 0 1 1 1 0 1 1 1 
167 20 852 1 0 1 1 1 1 1 1 1 1 1 1 0 1 0 1 1 1 1 1 
168 20 1100 1 1 1 1 1 1 1 0 0 1 1 1 0 1 1 1 1 1 1 1 
169 20 1013 0 1 1 1 1 1 1 1 0 1 1 1 1 0 1 1 1 1 1 1 
170 20 995 1 1 1 1 1 1 0 1 1 1 1 1 0 1 1 1 0 1 1 1 
171 20 1006 1 1 1 1 1 1 1 1 1 1 1 0 1 1 1 1 1 1 0 0 
172 20 890 1 1 1 1 1 1 0 1 1 1 1 0 1 1 1 0 1 1 1 1 
173 20 832 1 1 1 1 1 1 0 0 1 1 1 1 1 1 1 1 1 1 1 1 
174 20 812 1 0 0 1 1 1 0 1 1 1 1 1 1 1 1 1 1 1 1 1 
175 20 826 1 1 1 1 1 0 1 1 1 1 0 1 1 1 1 1 1 1 0 1 
176 20 786 1 1 0 1 1 1 1 1 1 1 1 1 0 1 1 1 1 1 1 1 
177 20 1081 0 1 1 1 1 1 1 1 1 1 1 0 1 1 1 1 1 1 1 0 
178 20 983 1 1 1 1 1 1 1 1 1 1 0 0 1 1 1 1 0 1 1 1 
179 20 995 1 1 1 1 1 1 1 1 0 1 1 1 0 1 1 1 0 1 1 1 
180 20 987 1 1 1 1 0 1 1 1 0 1 1 0 1 1 1 1 1 1 1 1 
181 20 986 1 1 1 1 1 1 1 0 1 1 1 0 1 0 1 1 1 1 1 1 
182 20 925 1 1 1 1 0 0 1 1 1 0 1 1 1 1 1 1 1 1 1 1 
183 20 922 1 1 1 1 1 0 0 1 1 1 0 1 1 1 1 1 1 1 1 1 
184 20 923 1 1 1 1 1 0 0 1 1 0 1 1 1 1 1 1 1 1 1 1 
185 20 809 1 1 1 1 1 0 1 1 1 1 1 1 0 1 1 1 1 1 1 1 
186 20 927 0 1 1 1 1 1 1 1 1 1 1 1 1 1 1 0 1 1 0 1 
187 20 940 1 0 1 1 1 1 1 1 1 0 1 1 1 1 1 1 1 1 1 0 
188 20 1014 1 1 1 1 1 0 1 1 1 0 1 1 1 1 0 1 1 1 1 1 
189 20 902 0 1 1 0 1 1 1 1 1 1 1 0 1 1 1 1 1 1 1 1 
190 20 875 0 0 1 1 1 1 1 1 1 1 1 1 1 1 1 1 1 0 1 1 
191 20 892 1 1 1 1 1 0 1 1 0 1 1 1 1 1 1 1 0 1 1 1 
192 20 1054 1 1 1 0 1 0 1 1 1 1 1 1 1 0 1 1 1 1 1 1 
193 20 891 1 1 1 1 1 1 1 0 1 0 1 0 1 1 1 1 1 1 1 1 
194 20 839 1 1 0 1 1 1 1 1 1 1 1 0 1 1 1 1 0 1 1 1 
195 20 870 1 1 1 1 1 1 0 1 1 1 1 0 1 1 1 1 1 1 1 1 
196 20 986 1 1 1 1 1 0 0 1 1 1 1 1 1 1 1 0 1 1 1 1 
197 20 800 1 1 1 1 1 1 1 0 1 1 1 0 1 1 1 1 1 1 1 1 
198 20 917 1 1 0 1 1 1 1 0 0 1 1 1 1 1 1 1 1 1 1 1 
199 20 792 1 1 1 1 1 1 1 1 1 1 0 1 1 1 0 1 1 1 1 1 
200 20 817 1 1 1 0 1 1 1 1 1 1 1 1 1 1 1 1 0 1 0 1 
201 20 829 1 1 1 1 1 0 1 1 1 1 1 1 0 1 1 0 1 1 1 1 
202 20 820 1 0 0 1 1 1 1 1 1 1 1 1 1 1 1 1 1 1 1 1 
203 20 853 0 1 1 1 1 1 0 1 1 1 1 1 1 1 1 1 1 1 0 1 
204 20 963 1 1 1 1 1 1 1 1 0 1 1 1 1 1 0 1 1 1 0 1 
205 20 933 1 1 1 1 1 1 1 1 1 0 1 0 1 1 1 1 1 0 1 1 
206 20 904 1 1 1 1 1 1 1 1 0 1 1 1 1 1 0 1 0 1 1 1 
207 20 814 0 1 1 0 1 1 1 1 1 1 1 1 1 1 1 1 1 0 1 1 
208 20 807 1 1 1 1 0 1 1 1 1 1 1 1 1 1 1 1 0 1 1 1 
209 20 718 1 1 1 1 1 1 1 1 1 1 1 1 1 1 1 1 0 0 1 1 
210 20 947 1 0 0 1 1 1 1 1 1 1 0 1 1 1 1 1 1 1 1 1 
211 20 911 1 1 1 1 1 1 1 1 1 1 0 1 1 1 0 1 1 0 1 1 
212 20 823 1 1 1 1 1 1 1 1 0 1 0 1 0 1 1 1 1 1 1 1 
213 20 838 1 1 1 1 1 1 1 1 1 1 0 1 1 0 0 1 1 1 1 1 
214 20 970 0 1 1 1 1 1 1 1 1 1 1 1 1 1 1 1 0 1 1 0 
215 20 960 1 1 1 1 0 1 1 1 0 1 1 1 0 1 1 1 1 1 1 1 
216 20 975 1 1 1 1 1 1 1 1 1 0 0 1 1 1 1 1 0 1 1 1 
217 20 781 1 1 1 0 1 1 0 1 1 1 1 1 1 1 1 1 1 1 1 1 
218 20 921 0 1 1 1 1 1 1 1 1 1 1 1 0 1 1 1 1 1 0 1 
219 20 923 0 1 1 1 1 1 1 0 1 1 1 1 0 1 1 1 1 1 1 1 
220 20 802 1 1 1 1 1 1 0 0 1 1 1 1 1 1 1 1 1 1 1 1 
221 20 798 1 1 1 1 1 1 1 1 0 1 1 1 1 0 1 1 1 1 1 1 
222 20 976 0 1 1 1 1 0 1 1 1 1 0 1 1 1 1 1 1 1 1 1 
223 20 872 1 1 1 1 1 1 1 1 1 1 1 1 0 1 1 0 1 0 1 1 
224 20 900 0 1 1 1 1 1 1 1 1 1 0 1 1 0 1 1 1 1 1 1 
225 20 977 1 1 0 1 1 1 0 1 1 0 1 1 1 1 1 1 1 1 1 1 
226 20 1053 1 1 1 1 1 1 0 1 1 1 1 1 1 1 0 1 1 1 0 1 
227 20 857 1 1 1 1 1 1 0 1 1 0 1 1 1 1 1 1 1 1 1 1 
228 20 740 1 1 1 0 1 1 1 1 1 1 1 0 1 1 1 1 1 1 1 1 
229 20 1004 1 1 0 1 1 1 1 1 1 1 1 1 1 0 1 1 1 1 1 0 
230 20 867 1 1 0 1 1 1 1 1 0 1 1 1 1 1 1 1 1 1 1 0 
231 20 837 1 1 1 1 1 1 1 1 0 1 1 1 0 1 1 1 1 1 1 1 
232 20 933 1 1 0 1 0 1 0 1 1 1 1 1 1 1 1 1 1 1 1 1 
233 20 823 1 1 1 1 1 1 1 1 1 1 1 0 1 1 1 1 1 1 1 0 
234 20 985 1 1 1 0 1 1 1 1 1 1 1 1 1 1 1 1 1 1 0 0 
235 20 920 1 1 0 1 1 1 1 1 1 1 1 0 1 1 1 1 1 1 1 0 
236 20 852 1 1 0 1 1 1 1 0 1 1 1 1 0 1 1 1 1 1 1 1 
237 20 902 1 1 0 1 1 1 1 0 1 1 1 0 1 1 1 1 1 1 1 1 
238 20 993 1 1 1 1 1 1 1 1 1 1 1 1 0 0 1 0 1 1 1 1 
239 20 1052 1 0 1 1 1 1 1 1 1 1 0 1 1 1 0 1 1 1 1 1 
240 20 963 1 1 1 1 0 1 1 1 1 1 1 1 1 1 1 1 1 0 0 1 
241 20 815 1 1 1 1 1 1 0 1 1 1 1 0 1 1 1 1 0 1 1 1 
242 20 1095 1 1 1 1 1 1 1 1 1 1 1 1 1 0 1 1 0 1 1 0 
243 20 914 1 1 0 1 1 1 1 1 1 1 0 1 1 1 1 1 0 1 1 1 
244 20 678 1 0 1 1 1 1 1 1 1 1 1 1 1 0 1 1 1 1 1 1 
245 20 852 1 1 0 1 1 1 1 1 1 1 1 0 1 1 1 1 1 1 1 1 
246 20 985 1 1 1 1 1 1 1 1 1 1 0 1 1 1 0 1 1 1 1 0 
247 20 993 1 1 1 1 1 0 1 0 1 1 1 1 1 1 1 0 1 1 1 1 
248 20 801 1 1 1 1 1 1 1 1 1 0 1 1 0 1 1 1 1 1 1 1 
249 20 990 0 1 1 1 1 1 1 1 1 1 1 1 1 1 1 1 0 1 1 0 
250 20 1013 0 1 1 1 1 1 1 1 0 1 1 1 1 1 1 1 0 1 1 1 
251 20 797 1 1 1 1 1 1 1 1 1 1 1 1 0 0 1 1 1 1 1 1 
252 20 923 1 1 1 1 1 0 1 1 1 1 1 1 1 0 1 1 1 0 1 1 
253 20 827 1 1 1 0 1 1 0 1 1 1 1 1 1 1 1 1 1 1 1 1 
254 20 835 1 1 0 1 1 1 1 0 1 1 1 1 1 1 1 1 1 1 1 1 
255 20 1008 0 1 0 1 1 1 1 1 1 0 1 1 1 1 1 1 1 1 1 1 
256 20 819 1 1 1 1 1 1 1 1 1 1 1 1 0 1 1 1 1 0 1 1 
257 20 865 1 1 1 1 1 1 1 1 1 1 0 1 1 0 1 1 1 0 1 1 
258 20 901 1 1 1 1 1 1 0 1 0 1 1 1 1 1 1 1 1 1 0 1 
259 20 937 1 1 1 1 1 1 0 1 1 1 0 1 1 1 1 0 1 1 1 1 
260 20 873 1 1 1 1 1 1 1 1 1 1 0 1 1 0 1 1 1 1 1 1 
261 20 995 1 1 1 1 1 1 0 1 1 1 1 1 1 0 1 1 1 1 0 1 
262 20 710 1 1 1 1 1 1 1 1 1 1 1 1 1 0 1 1 1 1 1 0 
263 20 844 1 1 1 1 1 1 0 1 1 1 1 1 1 1 1 1 1 1 0 1 
264 20 961 1 1 1 1 1 1 1 1 0 1 1 1 0 0 1 1 1 1 1 1 
265 20 931 0 0 1 1 1 1 1 1 1 1 1 1 1 1 1 1 1 0 1 1 
266 20 873 1 1 1 1 1 1 1 1 1 1 1 1 1 1 1 0 1 1 1 0 
267 20 1052 1 0 1 1 1 1 1 1 1 0 1 1 1 1 0 1 1 1 1 1 
268 20 867 1 1 1 0 1 1 0 1 1 1 1 1 1 1 0 1 1 1 1 1 
269 20 815 1 1 0 1 1 1 1 1 1 1 1 1 1 1 1 1 1 1 1 0 
270 20 953 1 1 0 1 1 1 1 1 1 1 0 1 1 1 1 0 1 1 1 1 
271 20 794 1 1 1 1 1 1 1 1 1 1 1 0 1 1 1 1 1 0 1 1 
272 20 1000 0 1 1 1 1 1 1 1 1 1 0 1 1 0 1 1 1 1 1 1 
273 20 745 1 1 1 0 1 1 1 1 1 1 1 1 1 1 1 1 1 1 0 1 
274 20 741 1 1 0 0 1 1 1 1 1 1 1 1 1 0 1 1 1 1 1 1 
275 20 939 1 1 1 1 1 1 1 1 1 1 1 0 1 0 1 0 1 1 1 1 
276 20 815 1 1 1 1 1 1 1 1 1 1 1 1 0 1 0 1 1 1 1 1 
277 20 1014 1 1 1 0 0 1 1 1 1 1 1 1 1 1 1 0 1 1 1 1 
278 20 990 1 0 1 1 1 1 1 1 1 1 1 1 1 1 0 1 1 0 1 1 
279 20 887 1 1 1 1 1 1 0 0 1 1 1 1 1 1 1 0 1 1 1 1 
280 20 860 1 0 1 1 1 1 1 1 1 1 1 1 1 1 1 1 0 1 1 1 
281 20 879 1 0 1 1 1 1 1 1 0 1 1 1 1 1 1 1 1 1 1 1 
282 20 906 1 1 1 1 1 1 1 1 1 0 1 1 0 0 1 1 1 1 1 1 
283 20 921 1 0 1 1 1 1 1 1 1 1 1 1 1 0 0 1 1 1 1 1 
284 20 766 1 0 1 1 1 1 1 1 1 1 1 1 0 1 1 1 1 1 1 1 
285 20 938 1 1 0 1 1 1 1 1 1 1 0 1 1 1 1 1 1 0 1 1 
286 20 832 1 1 1 1 1 0 1 1 1 1 1 1 1 1 1 1 1 0 1 1 
287 20 819 1 1 1 1 1 1 1 1 1 1 1 1 1 1 1 0 0 1 1 1 
288 20 770 1 1 1 1 1 1 1 1 1 1 1 1 0 1 1 1 1 0 1 1 
289 20 772 1 1 1 1 0 1 1 1 1 1 1 1 1 1 1 1 0 1 1 1 
290 20 915 1 1 0 1 1 1 1 1 1 1 1 1 0 1 1 1 0 1 1 1 
291 20 885 1 1 1 1 1 1 0 1 1 1 0 1 1 0 1 1 1 1 1 1 
292 20 814 1 0 1 1 1 1 1 1 1 1 1 1 1 1 1 1 1 0 1 1 
293 20 976 1 0 1 1 1 1 1 1 1 0 1 1 0 1 1 1 1 1 1 1 
294 20 838 1 1 1 1 1 1 0 1 1 1 1 1 1 1 1 1 1 0 0 1 
295 20 945 1 1 1 1 1 1 1 1 0 1 1 1 1 1 0 0 1 1 1 1 
296 20 995 1 1 1 1 1 1 1 1 1 0 1 1 1 1 1 1 0 1 1 0 
297 20 827 1 1 1 1 1 1 1 1 1 1 1 1 1 1 1 1 1 1 0 0 
298 20 793 1 1 0 1 1 1 1 1 1 1 1 1 1 1 1 1 1 0 1 1 
299 20 760 1 0 1 1 0 1 1 1 1 1 1 1 1 1 1 1 1 1 1 1 
300 20 1008 1 1 1 1 1 1 0 1 1 1 1 1 1 0 1 1 1 0 1 1 
301 20 851 1 1 1 1 1 1 0 1 1 1 1 1 1 1 1 1 1 0 1 0 
302 20 835 1 1 1 1 1 1 1 0 1 1 1 1 1 1 1 1 1 1 1 0 
303 20 821 1 1 1 1 1 1 0 1 0 1 1 1 1 1 1 1 1 1 1 1 
304 20 980 1 1 1 1 0 1 1 1 1 1 1 1 1 1 1 1 1 1 0 0 
305 20 783 0 1 1 1 1 1 1 0 1 1 1 1 1 1 1 1 1 1 1 1 
306 20 910 1 0 1 1 1 1 1 1 1 0 1 1 1 0 1 1 1 1 1 1 
307 20 835 1 1 1 1 1 1 1 1 1 1 0 1 1 0 1 1 1 1 1 1 
308 20 668 1 1 1 1 1 0 1 1 1 1 1 1 1 1 1 0 1 1 1 1 
309 20 892 0 1 1 1 1 1 0 1 1 1 1 1 1 1 1 1 1 1 0 1 
310 20 954 1 1 1 0 1 1 1 0 1 1 1 1 1 1 1 0 1 1 1 1 
311 20 1010 1 1 1 1 1 1 1 1 0 1 1 1 1 1 0 1 1 0 1 1 
312 20 906 0 0 1 1 1 1 1 0 1 1 1 1 1 1 1 1 1 1 1 1 
313 20 873 1 1 1 0 1 1 1 1 1 1 1 1 1 0 1 1 1 1 1 0 
314 20 920 1 1 1 1 0 1 1 0 1 1 1 1 1 0 1 1 1 1 1 1 
315 20 972 1 1 0 1 1 1 1 1 1 0 1 1 1 1 1 1 1 0 1 1 
316 20 1038 1 1 1 1 1 1 1 1 0 1 1 0 1 1 1 1 1 0 1 1 
317 20 983 1 1 1 1 1 1 0 1 1 0 1 1 1 0 1 1 1 1 1 1 
318 20 879 1 1 1 1 1 1 1 1 1 1 1 1 0 1 1 0 1 1 0 1 
319 20 852 0 0 1 1 1 1 1 1 1 1 1 1 1 1 1 1 1 1 1 1 
320 20 897 1 1 1 1 0 1 1 1 1 1 1 1 1 1 1 1 1 0 1 1 
321 20 805 1 1 1 1 1 1 1 1 1 0 1 1 1 1 0 1 1 1 1 1 
322 20 740 1 1 1 1 1 0 1 1 1 0 1 1 1 1 1 1 1 1 1 1 
323 20 926 1 1 1 1 1 0 1 1 1 0 1 1 1 1 1 0 1 1 1 1 
324 20 971 1 1 0 1 1 1 1 0 1 1 1 1 1 1 1 1 0 1 1 1 
325 20 763 1 1 1 1 1 1 1 1 1 1 1 1 1 1 0 0 0 1 1 1 
326 20 1030 1 0 1 1 1 0 1 1 1 1 1 1 1 1 1 0 1 1 1 1 
327 20 961 1 1 1 1 0 1 1 1 1 1 1 1 1 1 1 1 1 0 1 0 
328 20 912 1 1 0 1 1 1 0 1 1 1 1 0 1 1 1 1 1 1 1 1 
329 20 821 0 1 1 1 1 1 1 0 1 1 1 1 1 1 0 1 1 1 1 1 
330 20 915 1 1 1 1 1 1 0 1 1 0 1 1 1 1 1 1 0 1 1 1 
331 20 1034 1 1 0 1 1 1 1 1 1 1 1 1 1 1 0 1 1 1 1 0 
332 20 899 1 1 0 1 1 1 1 0 1 1 1 1 0 1 1 1 1 1 1 1 
333 20 1004 1 1 0 1 1 1 1 1 1 1 1 1 1 0 1 1 1 1 1 0 
334 20 863 1 1 1 1 1 1 1 1 1 1 1 1 1 1 1 0 1 0 1 1 
335 20 823 1 1 1 1 0 1 1 1 1 1 1 0 1 1 1 1 1 1 1 1 
336 20 818 1 0 1 1 1 0 1 1 1 1 0 1 1 1 1 1 1 1 1 1 
337 20 895 1 1 0 0 1 1 1 1 1 1 1 1 1 1 1 1 1 1 1 0 
338 20 928 1 1 1 1 1 1 0 0 1 1 1 1 1 1 1 1 1 1 0 1 
339 20 944 0 0 1 1 1 1 1 0 1 1 1 1 1 1 1 1 1 1 1 1 
340 20 800 1 1 1 1 1 1 1 0 0 1 1 1 1 1 1 1 1 1 1 1 
341 20 728 1 1 1 1 1 1 1 1 0 1 1 1 1 1 1 1 1 0 1 1 
342 20 843 1 1 1 1 1 1 1 0 1 1 1 1 1 0 1 1 0 1 1 1 
343 20 977 1 1 1 1 0 1 1 1 0 1 1 1 1 1 1 1 1 1 1 0 
344 20 876 1 1 1 1 1 1 1 0 1 1 1 0 1 1 1 1 1 1 1 1 
345 20 975 1 0 1 1 1 1 1 1 1 1 0 1 1 0 1 1 1 1 1 1 
346 20 905 1 1 1 1 1 1 1 1 1 1 1 1 1 0 1 1 1 0 0 1 
347 20 877 1 1 1 1 1 0 0 1 1 0 1 1 1 1 1 1 1 1 1 1 
348 20 781 1 0 1 1 1 1 1 1 1 1 1 1 1 1 1 1 0 1 1 1 
349 20 827 1 1 0 1 0 1 1 1 1 1 1 1 1 1 1 1 1 1 1 1 
350 20 817 1 1 1 1 1 1 0 1 1 1 1 1 0 1 1 1 1 1 1 1 
351 20 805 1 1 1 1 1 1 1 1 1 1 1 0 1 0 1 1 1 1 1 1 
352 20 855 1 1 1 1 0 1 1 1 1 1 1 1 1 1 1 1 1 0 1 1 
353 20 982 1 1 1 0 0 1 1 1 1 1 1 0 1 1 1 1 1 1 1 1 
354 20 809 1 1 1 1 1 1 1 1 1 1 1 0 1 1 1 1 1 1 0 1 
355 20 877 1 1 1 0 1 1 1 1 1 1 1 1 1 1 1 0 1 1 1 0 
356 20 820 0 1 1 1 1 1 1 1 0 1 1 0 1 1 1 1 1 1 1 1 
357 20 844 1 1 1 1 0 1 1 1 1 1 1 0 1 1 1 1 1 1 1 1 
358 20 810 1 1 1 1 1 1 1 1 1 1 1 0 1 1 1 1 1 1 0 1 
359 20 961 1 1 1 0 1 1 0 1 1 1 1 1 1 1 1 1 1 0 1 1 
360 20 795 1 1 1 1 1 1 1 1 0 1 0 1 1 1 1 1 1 1 1 1 
361 20 922 1 1 1 1 0 1 1 1 1 0 1 1 0 1 1 1 1 1 1 1 
362 20 753 1 1 1 1 1 1 1 1 1 0 1 1 1 1 1 1 0 1 1 1 
363 20 957 1 1 1 1 1 0 1 1 0 1 1 1 1 1 0 1 1 1 1 1 
364 20 874 1 1 1 1 1 1 1 1 1 1 1 1 0 1 1 0 0 1 1 1 
365 20 858 1 1 0 1 1 1 1 1 1 1 1 1 1 1 1 0 1 0 1 1 
366 20 938 1 1 1 1 1 1 0 1 0 1 1 1 1 1 1 1 1 0 1 1 
367 20 878 1 0 1 1 1 1 1 1 1 1 1 1 0 1 1 1 0 1 1 1 
368 20 848 1 0 1 1 1 1 1 1 1 1 1 0 1 1 1 1 1 1 0 1 
369 20 811 1 1 1 1 1 1 1 1 1 1 1 1 1 1 1 0 0 1 1 1 
370 20 796 1 1 1 0 1 1 1 1 1 1 1 1 1 0 1 1 1 1 1 1 
371 20 939 1 1 1 1 1 1 1 1 1 0 1 1 1 1 1 1 1 1 0 0 
372 20 913 1 1 1 1 1 1 0 1 0 1 1 1 1 1 0 1 1 1 1 1 
373 20 770 1 0 1 1 1 1 1 0 1 1 1 1 1 1 1 1 1 1 1 1 
374 20 800 1 0 1 1 1 1 1 1 1 1 1 1 1 1 1 1 1 0 1 1 
375 20 933 1 1 1 1 0 1 1 1 1 1 1 1 1 1 0 1 0 1 1 1 
376 20 1001 1 0 1 1 1 1 1 1 1 1 1 1 1 1 1 1 1 1 0 0 
377 20 1003 1 1 1 1 0 1 1 1 1 1 0 1 1 1 1 1 1 1 0 1 
378 20 882 0 1 1 1 1 1 0 0 1 1 1 1 1 1 1 1 1 1 1 1 
379 20 700 1 1 1 0 1 1 1 1 0 1 1 1 1 1 1 1 1 1 1 1 
380 20 773 1 1 1 1 1 1 1 0 1 1 1 0 1 1 0 1 1 1 1 1 
381 20 1005 1 1 1 1 1 1 1 1 1 1 1 1 0 1 1 1 1 0 0 1 
382 20 851 1 1 1 1 0 1 1 1 1 1 1 1 1 1 0 1 1 1 1 1 
383 20 813 1 0 1 1 1 1 1 1 1 1 1 1 1 0 1 1 1 1 1 1 
384 20 930 1 0 1 1 1 1 1 1 1 1 1 0 1 1 1 0 1 1 1 1 
385 20 941 1 0 1 1 1 1 1 1 1 1 1 1 1 1 0 1 0 1 1 1 
386 20 846 1 1 1 1 0 1 1 1 1 1 1 1 1 1 0 1 1 0 1 1 
387 20 971 0 1 1 1 1 1 1 0 1 1 1 1 0 1 1 1 1 1 1 1 
388 20 955 1 1 1 1 1 1 1 1 0 1 1 1 1 0 1 1 1 1 0 1 
389 20 918 1 1 1 0 1 1 1 1 1 1 1 0 1 1 1 1 1 0 1 1 
390 20 864 1 1 0 1 0 1 1 1 1 1 1 0 1 1 1 1 1 1 1 1 
391 20 872 0 1 0 1 1 1 1 0 1 1 1 1 1 1 1 1 1 1 1 1 
392 20 883 1 1 1 1 1 1 1 1 1 1 1 1 0 1 0 1 1 1 1 0 
393 20 860 1 1 1 1 1 1 1 1 1 1 1 1 1 0 1 0 1 1 1 1 
394 20 1181 1 1 1 0 1 1 1 1 1 1 1 1 1 1 0 1 1 1 1 0 
395 20 878 1 0 1 1 1 1 1 1 1 1 0 0 1 1 1 1 1 1 1 1 
396 20 891 1 0 0 1 1 1 1 1 1 1 1 1 1 0 1 1 1 1 1 1 
397 20 873 1 0 1 0 1 1 1 1 0 1 1 1 1 1 1 1 1 1 1 1 
398 20 927 1 1 1 1 1 1 0 1 1 1 1 1 0 1 1 1 1 0 1 1 
399 20 913 1 1 1 1 1 1 1 1 1 0 1 1 1 1 1 0 1 1 0 1 
400 20 900 1 1 1 0 1 1 1 1 1 1 0 1 1 0 1 1 1 1 1 1 
401 20 920 0 1 1 1 1 1 1 0 1 1 0 1 1 1 1 1 1 1 1 1 
402 20 988 1 1 1 1 1 1 0 1 1 1 0 1 1 1 1 1 1 1 1 0 
403 20 980 1 1 1 1 1 1 0 1 1 1 0 0 1 1 1 1 1 1 1 1 
404 20 883 0 0 1 1 1 1 1 1 1 1 1 1 1 1 1 1 1 0 1 1 
405 20 824 1 1 0 1 1 1 1 1 1 1 1 0 1 1 1 1 1 1 1 1 
406 20 797 0 1 1 0 1 1 1 1 1 1 1 1 1 1 1 1 1 1 1 1 
407 20 924 1 1 1 1 1 1 0 1 1 1 1 1 1 1 0 1 1 1 1 0 
408 20 889 1 0 1 1 1 1 1 1 1 1 1 1 0 0 1 1 1 1 1 1 
409 20 835 1 0 1 1 0 1 1 1 1 1 1 1 1 1 1 1 0 1 1 1 
410 20 855 1 0 1 1 1 0 1 1 1 1 1 1 1 1 1 1 1 1 0 1 
411 20 928 1 1 0 1 1 1 1 1 1 1 1 1 1 1 0 1 1 1 1 0 
412 20 909 1 0 1 0 1 1 0 1 1 1 1 1 1 1 1 1 1 1 1 1 
413 20 1013 0 1 1 1 1 1 0 1 1 1 1 1 1 1 1 0 1 1 1 1 
414 20 757 1 1 0 1 1 1 1 1 1 1 1 1 1 1 1 1 1 1 1 0 
415 20 846 1 1 1 1 1 1 1 1 1 1 1 0 1 1 1 1 0 0 1 1 
416 20 1026 0 0 1 1 1 1 0 1 1 1 1 1 1 1 1 1 1 1 1 1 
417 20 948 1 0 1 1 1 1 1 0 1 1 1 1 1 1 0 1 1 1 1 1 
418 20 854 1 1 1 0 1 1 1 0 1 1 1 1 1 1 1 1 1 1 0 1 
419 20 654 1 1 1 1 1 1 1 1 0 1 1 1 1 1 1 0 1 1 1 1 
420 20 944 1 1 0 1 1 1 1 0 1 0 1 1 1 1 1 1 1 1 1 1 
421 20 762 1 1 0 1 1 1 1 1 1 1 1 0 1 1 1 1 1 1 1 1 
422 20 932 1 1 0 1 1 0 1 1 1 1 1 1 1 1 1 1 0 1 1 1 
423 20 940 1 1 1 1 1 0 1 1 1 0 1 1 1 1 1 1 1 1 1 0 
424 20 807 1 1 1 1 1 1 1 1 1 0 1 1 1 1 1 1 1 1 1 0 
425 20 1007 1 1 1 1 1 1 1 1 1 0 1 0 1 1 1 1 1 0 1 1 
426 20 835 1 1 1 1 0 1 0 1 1 1 1 1 1 1 0 1 1 1 1 1 
427 20 831 1 1 1 0 1 1 1 1 1 1 0 1 1 1 1 0 1 1 1 1 
428 20 827 1 1 0 0 1 1 1 1 1 0 1 1 1 1 1 1 1 1 1 1 
429 20 1052 0 1 1 1 0 1 1 1 1 1 1 0 1 1 1 1 1 1 1 1 
430 20 923 1 1 1 1 1 0 1 1 1 1 1 1 1 1 1 1 1 0 1 0 
431 20 807 1 0 1 1 1 1 1 1 1 1 1 1 1 1 0 1 1 1 1 1 
432 20 1009 1 1 1 1 1 0 1 1 1 1 1 1 1 1 1 1 0 1 0 1 
433 20 802 1 0 1 1 1 1 1 1 1 1 1 1 1 1 1 0 0 1 1 1 
434 20 1041 1 0 1 1 1 1 1 1 0 1 1 1 0 1 1 1 1 1 1 1 
435 20 986 1 1 1 0 1 0 1 1 1 1 1 1 1 1 1 0 1 1 1 1 
436 20 1043 1 1 1 0 1 1 0 1 1 1 0 1 1 1 1 1 1 1 1 1 
437 20 950 0 1 1 1 1 1 1 1 1 1 1 1 1 1 0 0 1 1 1 1 
438 20 884 1 1 0 1 1 1 1 1 1 1 1 0 1 1 0 1 1 1 1 1 
439 20 825 1 0 1 1 0 1 1 0 1 1 1 1 1 1 1 1 1 1 1 1 
440 20 889 1 1 0 1 0 1 1 1 0 1 1 1 1 1 1 1 1 1 1 1 
441 20 786 1 1 1 1 1 1 1 1 1 0 1 1 1 1 1 1 1 1 1 0 
442 20 883 1 1 0 1 1 1 1 1 1 1 1 1 1 1 1 0 1 1 1 0 
443 20 843 1 1 0 0 0 1 1 1 1 1 1 1 1 1 1 1 1 1 1 1 
444 20 730 0 1 1 1 1 1 1 1 0 1 1 1 1 1 1 0 1 1 1 1 
445 20 834 1 1 1 1 1 1 1 1 1 1 0 0 1 1 1 1 1 1 1 1 
446 20 899 1 1 0 1 1 1 1 1 1 1 1 0 1 1 1 1 1 0 1 1 
447 20 945 0 1 1 1 1 1 1 1 1 1 0 1 1 1 1 1 1 1 0 1 
448 20 882 1 1 0 1 1 1 0 1 0 1 1 1 1 1 1 1 1 1 1 1 
449 20 969 1 1 1 0 1 1 1 1 0 1 1 1 1 1 1 1 1 0 1 1 
450 20 896 1 1 0 1 1 1 1 1 1 1 1 1 1 1 0 1 1 1 0 1 
451 20 931 1 1 1 1 1 1 1 0 1 1 1 0 1 1 1 0 1 1 1 1 
452 20 980 1 1 1 1 1 1 1 0 0 1 1 1 1 1 1 1 0 1 1 1 
453 20 932 0 1 1 1 1 1 1 1 1 1 1 1 1 0 1 1 0 1 1 1 
454 20 745 1 1 1 1 1 1 1 1 1 1 1 1 1 1 1 1 1 0 1 0 
455 20 987 1 1 1 1 1 1 1 1 1 1 1 1 0 1 1 1 0 1 0 1 
456 20 933 1 1 1 0 1 1 1 1 1 1 0 1 1 1 1 1 0 1 1 1 
457 20 893 0 1 1 1 1 1 0 1 1 1 1 1 1 0 1 1 1 1 1 1 
458 20 860 1 0 1 0 1 0 1 1 1 1 1 1 1 1 1 1 1 1 1 1 
459 20 974 1 1 1 0 1 0 1 1 1 1 1 1 1 1 1 1 1 1 1 0 
460 20 904 1 0 1 1 1 1 1 0 1 0 1 1 1 1 1 1 1 1 1 1 
461 20 910 1 1 1 1 1 0 0 1 1 0 1 1 1 1 1 1 1 1 1 1 
462 20 767 1 1 1 1 1 0 1 0 1 1 1 1 1 1 1 1 1 1 1 1 
463 20 956 1 1 1 1 1 1 1 1 1 0 1 1 1 1 0 0 1 1 1 1 
464 20 890 1 1 1 1 1 1 1 1 0 1 0 1 1 1 0 1 1 1 1 1 
465 20 920 1 1 0 1 1 1 1 1 1 1 1 1 1 1 1 1 1 1 0 0 
466 20 848 1 1 1 1 1 1 1 1 1 1 1 1 1 1 1 1 1 1 0 0 
467 20 960 1 1 0 0 1 1 0 1 1 1 1 1 1 1 1 1 1 1 1 1 
468 20 851 1 1 1 1 1 1 1 1 1 0 1 1 1 1 1 1 0 1 1 1 
469 20 972 1 1 0 1 1 1 1 1 1 0 1 1 1 1 1 1 1 0 1 1 
470 20 922 1 1 1 0 1 1 1 1 1 1 1 1 1 1 1 1 1 0 0 1 
471 20 839 0 1 1 1 0 1 1 1 1 1 1 1 1 1 1 1 0 1 1 1 
472 20 844 1 1 1 1 1 1 1 1 1 1 1 1 1 1 0 0 1 0 1 1 
473 20 837 1 1 1 1 1 1 1 1 1 1 0 0 1 1 0 1 1 1 1 1 
474 20 803 1 1 1 1 1 1 1 0 1 0 1 1 1 1 1 1 1 1 1 1 
475 20 846 1 1 1 1 1 1 1 1 1 1 0 1 0 1 1 1 1 1 1 1 
476 20 789 0 1 1 1 1 1 1 1 1 1 1 1 1 1 1 1 1 1 0 1 
477 20 931 1 1 1 1 1 1 1 1 1 1 0 1 1 1 1 0 1 1 0 1 
478 20 902 1 1 1 1 1 1 1 1 1 1 0 0 1 1 1 1 1 0 1 1 
479 20 1007 1 1 0 1 1 1 1 1 0 1 1 1 1 1 0 1 1 1 1 1 
480 20 809 1 1 1 0 1 1 1 1 1 0 1 1 1 1 1 1 1 1 1 1 
481 20 991 1 1 0 0 1 1 1 1 0 1 1 1 1 1 1 1 1 1 1 1 
482 20 991 1 1 1 1 1 1 1 1 1 1 1 0 0 1 1 0 1 1 1 1 
483 20 1070 1 1 1 1 1 1 1 1 1 1 1 1 1 0 1 0 1 1 1 0 
484 20 872 1 1 0 1 1 1 1 1 1 1 1 0 1 1 1 1 1 1 0 1 
485 20 1026 0 0 1 1 1 1 1 1 1 1 1 1 1 1 1 1 1 1 0 1 
486 20 730 1 1 1 0 1 0 1 1 1 1 1 1 1 1 1 1 1 1 1 1 
487 20 924 1 1 1 1 1 1 1 1 1 1 0 1 1 1 0 1 1 1 0 1 
488 20 900 1 1 1 1 1 1 1 1 1 1 1 1 0 1 1 1 0 0 1 1 
489 20 888 1 1 0 0 1 1 1 1 1 1 0 1 1 1 1 1 1 1 1 1 
490 20 927 1 1 1 1 1 0 1 1 0 1 1 0 1 1 1 1 1 1 1 1 
491 20 914 1 1 1 1 1 1 1 1 1 0 0 1 1 1 0 1 1 1 1 1 
492 20 909 1 0 1 1 1 1 1 1 1 1 1 0 1 1 0 1 1 1 1 1 
493 20 903 1 1 1 1 1 1 0 1 1 1 1 1 1 1 1 0 1 1 1 0 
494 20 961 1 0 1 1 1 1 1 1 1 1 0 1 1 1 1 0 1 1 1 1 
495 20 942 1 0 1 1 1 1 1 1 1 1 1 0 1 1 1 0 1 1 1 1 
496 20 932 1 1 1 1 1 1 1 1 1 1 0 1 1 0 1 1 1 1 1 0 
497 20 859 1 1 1 1 1 1 1 1 0 1 1 1 1 1 1 1 0 1 0 1 
498 20 975 1 0 1 1 1 1 1 1 1 1 0 1 1 1 0 1 1 1 1 1 
499 20 957 1 0 1 1 0 1 1 1 1 1 1 1 1 1 1 1 1 0 1 1 
500 20 939 1 1 0 1 0 1 1 0 1 1 1 1 1 1 1 1 1 1 1 1 
