166
101
152
159
98
129
177
183
211
753
173
269
381
388
91
100
130
100
179
97
145
180
124
88
89
51
115
172
75
103
90
220
113
170
115
83
216
155
96
71
104
153
117
136
148
85
86
119
201
84
107
125
130
135
155
74
140
125
326
316
100
108
181
88
116
87
90
111
108
119
259
130
110
273
114
131
154
183
315
465
163
71
109
119
136
109
104
130
176
153
109
68
89
70
111
278
59
73
101
111
122
313
100
102
95
193
226
103
124
107
105
160
242
120
97
73
156
97
154
112
81
80
222
391
155
152
93
322
85
87
149
91
132
106
93
190
149
144
126
96
161
75
137
109
121
115
116
162
104
154
107
81
97
141
119
86
191
109
144
114
224
88
127
112
148
99
273
80
113
107
92
322
135
92
95
175
122
78
120
144
85
66
102
111
83
95
147
97
73
159
159
252
80
74
136
171
81
77
67
281
97
105
178
200
211
96
92
105
97
132
137
113
89
222
276
162
102
132
110
175
90
252
130
96
248
121
83
110
116
74
90
99
159
204
97
128
80
143
82
134
167
74
65
181
106
137
175
119
154
79
121
116
114
69
197
151
129
298
127
175
158
118
107
82
127
203
122
681
75
132
155
104
111
65
83
193
115
64
215
111
123
112
201
120
74
471
113
86
109
87
155
76
165
57
143
176
97
122
145
779
50
147
78
130
125
149
83
188
127
65
286
118
102
215
95
105
135
80
126
196
162
96
164
88
162
164
64
94
122
84
98
136
110
85
140
86
64
96
91
137
93
110
80
182
158
81
112
132
230
139
91
92
91
142
98
86
113
227
74
126
89
151
147
237
103
101
102
131
176
149
207
157
109
102
128
114
92
107
151
162
145
157
168
81
127
208
139
160
170
103
122
294
176
240
188
98
117
114
94
317
105
72
69
141
71
165
128
77
226
107
166
73
105
109
77
101
216
129
90
168
83
162
66
308
95
102
99
90
141
62
112
60
135
153
97
155
187
112
76
132
223
142
87
126
225
199
136
198
113
89
112
73
95
367
271
347
154
229
198
272
238
318
189
324
82
122
269
129
90
187
285
94
74
97
74
156
303
138
107
423
178
217
104
229
72
84
153
108
107
96
131
90
64
257
84
92
88
148
128
225
