1 20 813 1 1 0 1 1 1 0 1 1 1 1 1 1 1 1 1 1 0 1 1 
2 20 1118 1 1 1 1 1 0 1 0 1 1 1 1 1 1 0 1 1 1 1 1 
3 20 1095 1 1 1 0 1 1 1 1 0 1 1 1 0 1 1 1 1 1 1 1 
4 20 1018 1 1 1 1 1 1 1 1 0 0 1 1 1 1 0 1 1 0 1 1 
5 20 1230 1 1 1 1 0 1 1 1 1 1 0 1 1 1 1 1 0 1 1 1 
6 20 1124 1 1 0 1 1 1 1 1 1 1 1 1 0 1 1 1 1 1 1 0 
7 20 1035 1 1 0 1 1 1 1 1 1 1 0 1 1 1 1 1 0 1 1 1 
8 20 896 1 0 1 1 1 1 1 1 1 1 0 1 1 0 1 1 1 1 1 1 
9 20 931 1 1 1 0 1 1 1 0 1 1 1 0 1 1 1 1 1 1 1 1 
10 20 849 1 1 1 1 1 0 1 1 1 1 1 1 1 0 1 0 1 1 1 1 
11 20 859 1 1 1 1 1 1 1 0 0 1 1 1 1 1 1 1 1 1 0 1 
12 20 780 1 1 0 1 1 1 0 1 1 1 0 1 1 1 1 1 0 1 1 1 
13 20 953 1 1 0 1 1 1 1 1 1 0 1 1 1 1 0 1 0 1 1 1 
14 20 827 1 1 1 1 1 1 1 0 1 1 0 1 1 1 0 1 0 1 1 1 
15 20 1212 1 1 1 1 1 0 0 1 1 1 1 1 1 1 1 1 1 0 1 1 
16 20 937 1 1 0 1 1 0 1 1 1 1 1 1 1 0 1 1 1 1 1 1 
17 20 937 1 1 1 0 0 1 1 1 1 1 1 1 0 1 1 1 1 1 1 1 
18 20 955 1 1 1 1 1 0 1 1 1 1 1 1 0 0 1 1 1 0 1 1 
19 20 946 1 1 1 1 1 1 1 1 0 1 1 1 1 1 0 1 0 1 1 1 
20 20 968 1 0 1 1 1 0 1 1 1 1 1 1 1 1 1 1 1 1 1 1 
21 20 1047 1 1 0 1 1 1 0 1 1 1 1 0 1 1 0 1 1 1 1 1 
22 20 798 1 0 1 1 1 1 1 1 1 1 1 1 0 0 1 0 1 1 1 1 
23 20 1150 1 1 1 0 1 1 1 1 1 1 1 1 1 1 1 1 1 0 1 1 
24 20 1070 1 1 1 1 0 1 1 1 1 1 1 1 1 1 0 1 0 1 1 1 
25 20 895 1 1 0 1 1 1 1 1 1 0 1 1 0 1 1 1 1 1 1 1 
26 20 1157 1 0 1 1 1 1 1 1 1 1 1 1 1 1 1 1 0 1 1 0 
27 20 1141 1 1 1 0 1 1 1 1 1 1 1 0 1 1 1 0 1 1 1 1 
28 20 949 1 1 0 1 1 1 1 1 1 1 1 1 1 1 0 1 1 1 0 1 
29 20 1094 1 0 1 1 0 1 1 1 1 1 1 1 1 1 0 1 1 1 1 1 
30 20 957 1 1 0 1 1 1 1 1 1 1 1 1 1 1 0 1 0 1 1 1 
31 20 952 0 1 1 1 1 1 1 1 1 1 1 1 1 1 1 1 0 1 0 1 
32 20 1029 1 1 1 0 1 1 1 1 1 1 1 1 1 1 1 0 0 0 1 1 
33 20 1062 1 1 1 1 1 0 0 1 0 1 1 1 1 1 1 1 1 1 1 1 
34 20 1053 0 1 1 1 0 1 1 0 1 1 1 1 1 1 1 1 1 0 1 1 
35 20 1049 0 1 1 1 1 1 1 1 1 1 1 1 0 1 1 1 0 1 1 1 
36 20 920 1 1 0 1 1 1 0 1 1 1 1 1 1 1 1 1 0 1 1 1 
37 20 984 1 1 1 1 1 0 1 1 0 1 1 1 0 1 0 1 1 1 1 1 
38 20 846 1 1 0 1 1 1 1 1 1 1 0 1 1 1 0 1 1 1 0 1 
39 20 938 1 1 0 1 1 1 1 1 1 1 1 1 1 1 1 1 0 1 1 1 
40 20 1048 1 1 1 1 1 1 1 0 1 1 0 1 1 1 1 1 1 1 0 1 
41 20 878 1 1 1 1 1 1 1 1 1 1 0 1 0 1 1 1 1 1 0 1 
42 20 873 1 0 1 1 1 1 1 1 1 1 1 1 1 1 0 1 0 1 1 1 
43 20 812 0 1 1 1 1 1 1 1 1 1 0 0 1 1 1 1 0 1 1 1 
44 20 760 1 1 1 1 1 0 1 1 0 1 1 1 1 1 1 0 0 1 1 1 
45 20 1027 1 0 1 0 1 1 0 1 1 1 1 1 1 1 1 1 1 1 1 1 
46 20 839 0 0 1 1 1 1 1 1 0 1 1 1 1 1 1 1 0 1 1 1 
47 20 827 1 1 1 1 0 1 1 1 1 1 1 1 1 0 1 1 1 1 0 1 
48 20 994 1 1 1 1 1 1 1 1 1 1 1 1 1 0 0 1 1 1 1 0 
49 20 962 1 1 1 1 1 1 1 1 1 0 1 0 1 0 0 1 1 1 1 1 
50 20 869 1 0 1 1 0 1 1 1 1 1 1 1 0 0 1 1 0 1 1 1 
51 20 1060 1 1 0 1 1 1 1 1 0 1 1 1 1 1 1 1 0 1 1 1 
52 20 1038 1 1 1 1 1 1 1 1 0 1 1 1 1 1 0 0 1 1 1 1 
53 20 1109 1 1 1 1 1 1 1 1 1 1 0 0 1 0 1 1 1 1 1 1 
54 20 1057 1 1 1 1 1 1 1 1 1 1 1 1 0 0 1 0 1 1 1 1 
55 20 918 1 1 0 1 1 1 1 1 1 1 0 0 1 1 1 1 1 1 1 1 
56 20 700 1 0 1 1 1 1 1 1 1 1 1 0 1 0 1 1 1 1 1 1 
57 20 815 1 1 1 1 1 1 0 1 0 1 0 1 1 1 1 1 1 1 1 1 
58 20 1170 1 1 1 1 0 1 1 1 1 1 1 1 0 1 1 1 0 1 1 1 
59 20 988 1 1 1 0 1 1 1 1 1 1 0 1 1 1 1 1 1 0 1 1 
60 20 990 1 1 1 1 1 1 1 0 1 1 1 1 1 1 1 0 0 1 0 1 
61 20 867 1 0 1 0 0 1 1 1 1 1 1 1 1 1 0 1 1 1 1 1 
62 20 1006 1 1 1 1 1 1 1 1 1 0 1 0 1 1 1 1 1 1 0 1 
63 20 947 1 1 1 0 1 1 1 0 1 1 1 1 1 1 0 1 1 1 1 1 
64 20 941 1 1 1 1 1 0 1 1 1 1 0 1 1 1 1 1 1 0 1 1 
65 20 1005 1 1 1 1 1 1 0 0 1 1 1 1 1 1 1 1 0 1 1 1 
66 20 801 1 0 1 1 1 1 1 1 1 1 1 0 1 0 1 1 1 1 1 1 
67 20 1003 0 1 1 1 1 1 0 1 1 1 1 1 1 1 1 1 1 1 1 0 
68 20 1170 1 1 1 1 0 1 1 1 1 0 1 0 1 1 1 1 1 1 1 1 
69 20 941 1 1 1 1 1 1 1 1 1 1 1 0 1 0 0 1 1 1 1 1 
70 20 1009 0 1 1 1 1 1 1 1 1 0 1 1 0 1 1 1 1 1 1 1 
71 20 964 1 1 1 1 1 1 1 1 1 1 1 0 1 0 1 0 1 1 1 1 
72 20 1015 1 1 0 1 1 1 1 1 1 1 1 0 1 1 0 1 1 1 1 1 
73 20 1002 1 0 1 1 1 1 0 1 1 1 1 1 1 0 1 0 1 1 1 1 
74 20 792 1 1 1 0 1 1 1 1 0 1 1 1 1 1 1 1 1 1 0 1 
75 20 1134 1 1 1 1 1 1 1 1 1 1 1 1 1 0 1 1 0 1 1 0 
76 20 1117 1 1 1 1 1 1 0 0 1 1 1 1 1 1 1 0 1 1 1 1 
77 20 828 0 1 1 1 1 1 1 0 1 1 1 0 1 1 1 0 1 1 0 1 
78 20 1141 1 1 1 1 1 0 1 1 1 1 1 1 0 1 1 1 0 1 1 1 
79 20 865 1 1 1 1 1 0 1 1 1 1 1 1 1 1 0 1 1 1 1 0 
80 20 859 1 1 1 0 0 0 1 1 1 1 1 0 1 1 1 1 1 1 1 1 
81 20 900 1 1 0 1 1 1 1 1 1 0 1 0 1 1 1 1 1 1 1 1 
82 20 1119 1 1 0 1 1 1 1 1 1 1 1 1 1 1 1 1 0 1 0 1 
83 20 830 1 1 1 1 0 1 1 1 1 1 1 0 1 1 1 1 1 1 1 1 
84 20 1019 1 1 1 1 0 1 1 1 1 0 1 1 1 1 1 1 1 0 1 1 
85 20 947 1 1 0 1 1 1 1 1 0 1 1 1 0 1 1 1 1 0 1 1 
86 20 980 0 1 1 1 1 1 1 1 1 1 0 1 1 1 1 1 1 0 0 1 
87 20 1132 1 1 1 1 1 0 1 1 0 1 1 1 1 1 1 1 0 1 1 1 
88 20 1059 0 1 1 1 1 1 1 1 0 1 1 1 1 1 0 1 1 1 0 1 
89 20 900 1 1 1 0 1 1 0 1 0 1 1 1 1 1 1 1 1 1 1 1 
90 20 721 1 1 1 1 1 1 1 1 1 1 1 1 1 1 0 1 1 0 1 1 
91 20 1078 0 1 1 1 1 0 0 1 1 1 1 1 1 0 1 1 1 1 1 0 
92 20 1074 1 0 1 1 1 1 0 1 1 1 1 1 0 1 1 1 1 1 1 1 
93 20 1074 1 1 1 1 1 1 1 1 0 1 1 1 1 1 1 1 1 0 1 0 
94 20 1169 1 1 1 0 1 1 1 1 0 1 1 1 1 1 1 1 0 1 1 1 
95 20 797 1 1 1 1 1 1 1 1 1 1 1 0 1 1 1 1 1 1 0 0 
96 20 1009 1 1 1 0 0 1 1 1 1 1 0 1 1 1 1 1 1 1 1 1 
97 20 1059 1 0 1 1 1 1 1 1 1 1 0 1 1 1 1 1 1 1 0 1 
98 20 1134 1 1 1 0 1 1 1 1 1 1 1 1 1 1 1 0 1 1 1 1 
99 20 1116 1 1 1 1 1 1 1 1 1 1 1 1 1 1 0 1 1 0 1 0 
100 20 963 1 1 1 1 1 1 1 1 1 1 1 1 0 0 1 1 1 1 0 1 
101 20 1058 1 1 1 1 1 1 0 1 1 1 1 1 1 1 1 1 1 0 0 1 
102 20 922 1 1 1 1 0 1 1 0 1 0 1 1 1 1 1 1 1 1 1 1 
103 20 917 1 1 1 1 0 1 1 1 1 0 1 1 1 1 1 1 1 1 1 0 
104 20 863 0 1 1 1 1 1 1 1 1 1 1 1 1 1 0 1 0 1 1 1 
105 20 991 1 1 1 1 1 0 1 1 1 0 1 1 1 1 1 1 1 1 1 0 
106 20 848 1 1 0 1 1 1 1 1 0 1 1 1 1 1 1 0 1 1 1 1 
107 20 841 1 1 1 1 1 1 1 1 1 1 0 1 1 0 1 1 1 1 1 1 
108 20 1157 1 1 1 1 1 1 0 1 1 1 0 0 0 1 1 1 1 1 1 1 
109 20 819 1 1 1 0 1 1 1 0 1 1 1 0 1 1 0 1 1 1 1 1 
110 20 1043 1 1 0 1 1 1 1 0 1 1 0 1 1 1 1 1 1 1 1 0 
111 20 957 1 1 1 1 1 0 1 1 1 1 1 1 1 0 1 1 0 0 1 1 
112 20 1009 1 1 1 0 1 1 1 1 0 1 1 1 0 1 0 1 1 1 1 1 
113 20 835 1 1 1 1 1 1 1 0 1 0 1 1 0 0 1 1 1 1 1 1 
114 20 883 1 0 1 1 0 1 1 0 1 1 1 1 1 1 1 1 1 1 1 1 
115 20 1067 1 1 1 1 1 1 1 1 1 1 1 0 0 1 1 1 0 1 1 1 
116 20 969 1 0 0 0 1 1 1 1 1 1 1 1 1 1 1 1 1 1 1 1 
117 20 859 1 1 1 1 1 1 1 0 1 1 0 1 1 1 1 1 1 1 1 0 
118 20 933 1 1 1 0 1 1 1 0 1 1 1 1 1 1 1 1 1 0 1 1 
119 20 939 0 1 0 1 1 1 1 1 1 1 1 1 1 1 1 1 1 1 0 1 
120 20 978 1 1 0 1 1 1 1 1 1 1 1 1 1 1 0 1 1 1 1 0 
121 20 1095 1 1 1 0 1 1 1 1 1 1 1 0 1 1 1 1 0 1 1 1 
122 20 1101 1 1 1 0 1 1 1 1 1 1 0 1 1 1 1 1 1 1 1 0 
123 20 1087 1 1 1 0 1 1 1 1 1 0 1 1 1 1 1 1 0 1 1 1 
124 20 1032 1 1 1 1 0 0 1 1 0 1 1 1 1 0 1 1 1 1 1 1 
125 20 682 1 1 1 0 1 1 1 1 1 1 0 1 1 0 1 0 1 1 1 1 
126 20 965 1 0 1 1 1 1 1 1 1 0 1 1 1 0 1 1 1 1 1 1 
127 20 953 0 1 1 1 0 1 1 1 1 1 1 1 1 1 1 1 1 0 1 1 
128 20 996 1 1 1 1 1 1 1 0 1 1 1 0 1 1 1 1 1 0 1 1 
129 20 879 1 0 1 0 1 1 1 1 1 0 1 1 1 1 1 1 1 1 1 1 
130 20 938 1 1 1 1 1 1 1 0 1 1 1 0 1 1 1 1 1 1 0 1 
131 20 1090 1 0 1 1 1 1 1 1 1 1 1 1 0 1 1 1 1 0 1 1 
132 20 1028 1 1 1 1 1 1 0 1 1 1 1 1 1 1 0 1 0 1 1 1 
133 20 957 1 1 1 0 1 1 1 1 1 1 1 0 0 1 1 1 1 0 1 1 
134 20 883 1 1 1 1 0 1 1 1 1 1 1 1 1 0 1 1 1 0 1 1 
135 20 688 0 0 1 1 1 1 1 0 1 1 1 1 1 1 1 1 1 1 1 1 
136 20 840 1 1 1 1 1 1 0 1 1 0 1 1 1 1 1 1 0 1 1 1 
137 20 1106 1 1 1 0 1 1 1 1 1 1 0 1 0 1 1 1 1 1 1 1 
138 20 894 1 1 0 1 1 1 1 0 0 1 1 1 1 1 1 0 1 1 1 1 
139 20 918 1 1 1 1 1 1 1 1 1 0 1 1 1 1 1 1 1 0 1 0 
140 20 820 1 1 1 1 1 1 1 1 1 1 0 1 1 0 1 1 1 1 1 0 
141 20 893 0 1 1 1 1 1 1 1 1 1 1 1 1 1 1 0 1 1 0 1 
142 20 994 0 1 1 0 1 1 1 1 1 1 1 0 1 1 1 1 1 1 1 1 
143 20 1006 1 1 1 1 1 1 1 0 1 1 1 1 0 1 1 1 1 1 1 0 
144 20 692 0 1 1 1 1 1 0 0 1 1 1 1 1 1 1 0 1 1 1 1 
145 20 930 0 1 1 1 1 1 0 1 1 1 1 1 0 1 1 1 1 1 1 0 
146 20 893 1 1 1 1 1 1 0 1 1 1 1 0 1 1 1 1 0 1 1 1 
147 20 877 1 1 1 1 1 1 0 1 0 1 1 1 1 1 1 1 1 1 1 0 
148 20 757 1 1 1 1 1 1 1 1 1 0 1 0 1 1 0 1 1 1 1 1 
149 20 979 1 1 1 1 1 0 1 0 1 1 1 1 1 1 1 1 0 1 0 1 
150 20 933 1 1 1 1 0 0 1 0 1 1 1 1 1 1 1 1 1 1 1 1 
151 20 940 1 1 1 1 1 1 1 1 1 0 1 1 1 0 1 1 0 1 1 1 
152 20 895 1 1 1 1 1 1 1 0 1 1 1 1 1 0 1 1 1 1 1 0 
153 20 894 1 1 1 1 1 1 1 0 1 1 0 1 1 1 1 1 1 0 0 1 
154 20 1000 1 1 1 1 1 1 0 1 0 1 1 1 0 1 1 1 1 1 1 0 
155 20 796 1 1 1 1 1 1 1 1 1 1 1 1 1 0 0 1 1 0 1 1 
156 20 802 1 1 1 1 0 1 1 1 0 1 1 1 1 1 1 1 1 1 0 1 
157 20 776 1 1 0 0 1 1 1 1 0 1 1 1 1 1 1 0 1 1 1 1 
158 20 780 0 0 1 1 1 0 1 1 1 1 1 1 1 1 1 1 1 1 1 1 
159 20 1033 1 1 1 1 1 1 0 0 0 1 1 1 1 1 1 1 1 1 1 1 
160 20 1113 1 1 1 1 0 1 1 1 1 1 1 1 1 1 1 1 0 1 0 1 
161 20 998 1 1 1 1 1 0 1 1 1 1 1 1 0 1 0 0 1 1 1 1 
162 20 1108 1 1 1 1 1 1 1 0 1 1 1 1 1 0 1 1 1 0 1 1 
163 20 1171 1 1 1 1 1 1 0 1 1 0 1 1 1 1 0 1 1 1 1 1 
164 20 792 1 1 1 1 1 1 0 1 0 1 1 1 1 1 1 1 1 0 1 1 
165 20 948 1 0 1 1 0 1 0 1 1 1 1 1 1 1 0 1 0 1 1 1 
166 20 1017 1 0 1 0 1 1 0 1 1 1 0 1 1 1 1 1 1 1 1 1 
167 20 841 1 1 0 1 1 1 1 1 0 1 1 1 1 1 1 0 0 1 1 1 
168 20 1010 1 1 0 1 1 1 1 0 1 1 0 1 1 1 1 1 1 1 1 1 
169 20 1017 1 0 1 0 1 1 1 1 1 0 1 1 1 1 1 1 1 1 0 1 
170 20 1093 1 1 1 1 1 1 1 1 1 1 0 1 0 1 1 1 1 1 1 0 
171 20 1189 1 1 0 1 1 1 0 1 1 1 1 1 1 0 1 1 1 1 1 1 
172 20 821 1 1 1 1 1 1 1 1 1 1 1 1 1 1 0 0 1 1 1 1 
173 20 774 1 1 1 1 0 1 1 1 1 1 1 1 1 0 0 1 1 0 1 1 
174 20 906 1 1 1 1 1 1 0 1 1 0 1 1 1 1 1 1 1 0 1 1 
175 20 847 1 0 1 1 1 1 1 1 1 1 1 1 1 1 1 1 0 1 1 1 
176 20 1172 1 0 1 1 0 1 1 1 1 1 1 1 1 1 1 1 1 1 1 1 
177 20 1026 0 1 1 1 1 0 1 1 1 0 1 1 0 1 1 1 1 1 1 1 
178 20 986 0 1 1 1 1 1 1 1 1 1 1 0 0 1 1 1 1 1 1 1 
179 20 1016 1 1 1 1 1 1 0 0 1 1 1 1 1 1 1 1 1 1 1 1 
180 20 813 1 1 1 1 1 1 1 1 1 1 1 1 0 0 1 0 1 1 1 1 
181 20 857 1 1 0 0 0 1 1 1 1 1 1 1 1 1 1 1 1 0 1 1 
182 20 996 0 1 1 1 1 1 1 1 1 1 1 1 1 1 1 1 0 0 1 1 
183 20 908 1 1 0 1 1 1 1 1 1 1 1 1 1 1 1 0 1 1 0 0 
184 20 848 1 1 1 1 1 0 1 1 1 0 1 1 1 1 1 0 1 0 0 1 
185 20 849 1 1 1 0 1 1 1 0 1 1 1 1 1 1 1 1 1 1 0 1 
186 20 1350 1 1 1 1 1 1 1 0 0 1 1 1 1 1 1 1 1 1 1 1 
187 20 981 1 1 1 1 1 0 0 1 1 1 1 1 1 1 0 1 1 1 1 1 
188 20 1035 1 1 1 1 0 1 1 1 1 1 0 1 1 0 1 1 1 1 1 1 
189 20 755 0 1 1 1 1 1 1 1 1 1 0 1 1 1 1 1 1 1 0 1 
190 20 925 1 1 1 0 1 1 1 0 1 1 1 1 0 1 1 1 1 1 1 1 
191 20 938 1 1 0 1 1 1 1 1 1 1 1 1 0 1 1 1 1 1 0 1 
192 20 1047 1 1 1 1 1 1 1 1 1 1 1 1 1 0 0 1 1 1 1 1 
193 20 974 0 1 1 1 1 1 1 1 1 0 1 1 1 1 1 1 0 1 1 0 
194 20 852 1 0 1 1 1 1 1 1 1 1 1 1 1 1 0 1 1 1 1 0 
195 20 815 1 1 0 1 1 1 1 1 1 1 1 1 1 1 1 0 1 0 1 1 
196 20 787 1 1 1 1 1 1 1 1 0 1 1 1 0 1 0 1 1 1 1 1 
197 20 963 0 1 1 1 1 1 0 1 1 1 1 0 1 1 1 1 1 1 1 1 
198 20 1065 1 1 1 1 1 1 1 1 0 1 1 0 1 1 1 1 1 1 1 0 
199 20 1008 0 0 1 1 1 1 1 1 1 1 1 1 1 1 0 1 1 1 1 1 
200 20 909 0 1 1 0 1 1 1 1 1 1 1 1 1 1 1 1 1 1 0 1 
201 20 844 1 1 1 1 1 1 0 1 1 1 1 1 1 1 0 1 1 1 0 1 
202 20 1067 1 1 0 1 1 1 1 1 1 1 0 1 1 1 1 1 0 0 1 1 
203 20 991 1 1 1 1 1 1 1 0 0 1 1 1 0 1 1 1 1 1 1 1 
204 20 1059 1 1 1 1 1 1 1 1 1 0 0 1 1 1 1 1 1 1 1 1 
205 20 1051 1 1 1 0 1 1 1 1 1 1 1 0 0 1 0 1 1 1 1 1 
206 20 988 1 1 1 0 1 1 1 1 1 1 1 0 1 0 1 1 1 1 1 1 
207 20 966 1 1 1 1 1 1 1 1 1 0 1 1 1 1 0 1 1 1 1 0 
208 20 969 1 1 1 1 0 1 1 0 1 1 1 1 1 1 1 1 1 1 1 1 
209 20 894 0 1 1 1 1 1 0 1 1 1 0 1 1 1 1 1 1 1 1 1 
210 20 943 1 1 0 0 1 1 1 1 1 1 1 1 1 1 1 0 1 1 0 1 
211 20 966 1 1 1 1 1 1 0 1 1 1 1 0 1 1 1 1 1 0 1 1 
212 20 996 1 1 1 1 1 1 1 1 1 1 1 0 0 1 1 1 1 1 0 1 
213 20 1067 1 1 1 1 1 1 1 0 1 1 1 1 1 1 1 0 1 1 1 0 
214 20 912 1 1 1 1 0 1 1 1 1 1 1 1 0 1 1 1 1 1 0 1 
215 20 984 1 1 1 0 0 1 1 1 0 1 1 0 1 1 1 1 1 1 1 1 
216 20 958 1 1 1 1 1 1 1 1 1 1 1 1 1 0 0 1 1 1 1 1 
217 20 1061 0 1 1 1 1 1 1 1 1 0 1 1 1 1 1 0 1 1 1 1 
218 20 914 1 1 1 1 1 1 1 1 0 0 1 1 1 1 1 0 1 1 1 1 
219 20 740 1 1 1 1 0 1 1 1 0 1 1 1 1 0 1 1 1 1 1 1 
220 20 1147 1 1 1 1 1 0 1 1 1 1 1 1 1 1 1 0 1 1 0 1 
221 20 1065 1 1 1 1 1 1 1 1 0 1 1 0 0 1 1 1 1 1 1 1 
222 20 1012 1 1 1 1 1 0 1 0 0 0 1 1 1 1 1 1 1 1 1 1 
223 20 1290 1 1 1 1 1 1 1 1 1 1 1 1 1 1 0 1 0 1 1 1 
224 20 918 1 1 0 0 1 1 1 1 1 1 1 1 1 1 1 1 1 0 1 0 
225 20 1055 1 0 1 1 1 1 1 1 1 1 1 0 1 1 0 1 1 0 1 1 
226 20 761 1 1 0 1 1 0 1 1 0 1 1 1 0 1 1 1 1 1 1 1 
227 20 898 1 0 1 0 1 1 1 1 0 1 1 1 1 1 1 1 1 1 1 1 
228 20 1024 1 0 1 1 1 1 1 1 1 1 0 1 1 1 0 1 1 1 1 1 
229 20 911 1 1 1 1 1 1 0 1 1 0 1 1 1 1 1 1 0 1 1 1 
230 20 1037 0 0 1 1 1 1 1 1 1 1 1 1 0 1 1 1 1 1 1 1 
231 20 1006 1 1 1 0 1 0 1 1 1 1 1 1 1 1 1 1 1 1 1 0 
232 20 1133 1 1 1 1 1 1 1 1 0 1 1 1 1 0 1 0 1 1 1 1 
233 20 891 1 1 1 1 1 1 1 1 0 0 1 1 1 1 1 1 1 1 1 0 
234 20 947 0 1 0 1 1 0 1 1 1 1 1 1 1 0 1 1 1 1 1 1 
235 20 1011 0 1 1 1 0 1 0 1 1 1 1 1 1 1 1 1 1 1 1 1 
236 20 904 1 1 1 1 1 1 1 1 1 0 0 1 0 1 1 1 1 1 1 1 
237 20 863 0 1 1 1 1 1 1 0 1 1 1 0 1 1 1 1 1 1 1 0 
238 20 890 1 1 1 1 1 1 1 0 1 1 1 1 1 0 1 0 1 0 1 1 
239 20 934 1 1 1 1 1 1 1 1 1 1 0 1 1 0 1 1 1 1 0 1 
240 20 1001 1 1 1 1 1 1 1 0 1 1 1 1 0 1 0 1 1 1 1 1 
241 20 731 1 1 1 1 1 1 1 1 1 1 0 1 1 1 1 0 0 1 1 1 
242 20 912 0 1 1 1 1 1 1 1 1 0 1 1 1 1 1 1 1 1 0 1 
243 20 851 0 1 1 1 1 1 1 1 1 1 1 0 1 1 0 1 1 1 1 1 
244 20 956 1 1 1 1 1 1 1 1 1 0 1 1 1 1 1 1 1 1 1 0 
245 20 1059 1 1 1 1 1 1 0 1 1 1 0 1 1 1 1 0 1 1 1 1 
246 20 1037 1 1 1 1 1 1 1 1 1 0 1 1 0 0 1 1 1 1 1 1 
247 20 959 1 1 0 0 1 1 1 1 0 1 1 1 1 1 0 1 1 1 1 1 
248 20 965 1 1 1 1 1 1 0 0 1 1 1 1 1 1 1 1 1 0 1 1 
249 20 1111 1 1 1 1 1 1 1 1 1 1 0 1 1 1 0 0 1 1 1 1 
250 20 1061 0 1 1 1 1 1 1 1 1 1 1 1 1 1 1 1 0 1 0 1 
251 20 1106 1 1 1 1 1 1 1 1 0 1 1 1 1 1 1 1 1 1 0 1 
252 20 984 1 1 1 1 1 1 1 0 1 1 1 0 1 1 1 1 0 1 1 1 
253 20 1049 1 1 1 1 1 1 1 1 0 1 1 0 1 1 0 1 1 1 1 1 
254 20 1070 0 1 0 1 1 1 1 1 1 1 1 1 1 1 1 1 1 1 0 1 
255 20 1038 1 1 1 0 1 1 1 1 1 0 1 1 1 1 0 1 1 1 1 1 
256 20 843 1 1 1 1 1 0 1 0 1 1 1 0 1 1 1 1 0 1 1 1 
257 20 817 1 0 1 1 1 1 1 1 1 1 0 1 1 1 0 1 1 1 1 1 
258 20 743 1 1 0 1 1 1 1 0 1 1 1 1 1 1 1 1 0 1 1 1 
259 20 970 1 1 1 1 1 1 1 1 1 0 1 1 1 0 1 1 1 0 1 1 
260 20 1008 1 1 1 1 1 1 1 0 1 1 1 1 1 0 1 1 1 1 0 1 
261 20 936 1 1 1 0 1 1 0 1 1 1 1 1 1 1 1 1 1 1 1 0 
262 20 820 0 1 1 1 0 1 1 1 1 1 1 1 1 0 1 1 1 0 1 1 
263 20 999 1 0 1 1 1 1 0 1 1 1 1 1 1 1 0 1 1 1 1 1 
264 20 734 1 1 1 1 1 1 1 1 1 1 1 1 1 1 1 1 0 1 0 1 
265 20 1127 1 1 1 0 1 1 1 1 0 1 1 1 1 0 0 1 1 1 1 1 
266 20 1139 1 1 0 1 1 1 1 1 0 0 1 0 1 1 1 1 1 1 1 1 
267 20 977 0 1 1 1 1 1 1 1 1 0 0 1 1 1 1 1 1 1 1 1 
268 20 1032 0 0 1 1 1 1 1 0 0 1 1 1 0 1 1 1 1 1 1 1 
269 20 850 1 0 1 1 1 1 1 1 1 1 1 1 0 1 1 0 1 1 1 1 
270 20 972 1 1 1 1 1 1 1 0 1 1 1 1 0 1 0 1 1 1 0 1 
271 20 1130 1 1 1 1 1 1 1 0 1 1 0 1 1 0 1 1 1 1 1 0 
272 20 1040 1 0 1 1 1 1 1 1 1 1 1 1 1 1 0 0 1 0 1 1 
273 20 943 1 0 1 1 1 1 0 0 1 1 1 1 1 0 1 1 1 1 1 1 
274 20 983 0 1 1 1 1 1 1 1 1 1 0 1 1 1 1 1 1 1 1 0 
275 20 1129 1 0 1 1 1 1 1 1 1 1 1 1 0 1 1 1 1 1 1 1 
276 20 1057 1 0 1 1 1 0 1 1 1 0 1 1 1 1 1 1 1 1 1 1 
277 20 1033 0 1 1 1 1 0 1 1 1 0 1 1 1 1 1 1 1 0 1 1 
278 20 942 1 1 1 1 1 1 1 1 1 0 1 1 1 0 1 1 1 1 1 1 
279 20 1104 1 1 1 1 1 1 1 1 0 0 1 1 0 1 1 1 1 1 1 1 
280 20 1027 1 1 1 0 1 1 1 1 1 0 1 1 1 1 1 1 1 1 1 1 
281 20 896 1 1 0 1 1 1 1 1 1 1 1 1 1 0 1 1 1 0 1 1 
282 20 859 1 0 1 1 1 1 1 1 1 1 0 0 1 1 1 1 1 1 1 1 
283 20 854 1 1 0 1 1 1 1 1 1 1 1 1 1 1 1 0 1 1 0 1 
284 20 1027 0 1 1 1 1 1 1 1 1 1 1 1 1 1 1 1 1 1 0 1 
285 20 1132 1 1 1 1 1 1 0 1 1 1 1 1 1 1 0 1 0 0 1 1 
286 20 1034 0 1 0 1 1 0 0 0 1 1 1 1 1 0 1 1 1 1 1 1 
287 20 1236 1 1 1 1 0 1 1 1 1 1 1 0 1 1 1 0 1 1 1 1 
288 20 867 1 1 1 0 1 1 1 1 1 1 1 1 0 1 1 0 1 1 1 1 
289 20 855 1 1 1 1 1 0 1 1 1 1 1 1 1 0 1 1 1 0 1 1 
290 20 1155 1 1 1 1 1 1 1 1 1 1 1 1 0 1 0 0 1 1 1 1 
291 20 805 1 1 1 1 1 1 1 0 1 0 1 0 1 1 1 1 1 0 0 1 
292 20 877 1 0 1 1 1 1 1 1 1 1 1 1 1 1 0 0 1 1 1 1 
293 20 1023 0 1 1 1 1 1 1 1 1 0 1 1 1 1 1 1 0 1 1 1 
294 20 1006 1 1 1 0 1 0 1 1 1 1 1 1 1 1 1 1 1 1 1 0 
295 20 1032 1 1 1 1 1 0 1 1 1 1 1 0 1 1 1 1 1 1 0 1 
296 20 1035 1 0 1 0 1 1 1 1 1 1 1 1 0 1 0 1 1 1 1 1 
297 20 994 1 1 1 1 0 1 1 1 1 1 1 0 1 1 0 1 1 1 1 1 
298 20 1154 0 1 1 1 1 1 1 1 1 1 1 1 1 1 0 0 1 1 1 1 
299 20 947 1 1 1 1 1 1 1 1 1 0 1 0 1 0 1 1 1 1 1 1 
300 20 933 1 1 0 0 0 1 1 1 1 1 1 1 1 1 1 1 1 1 0 1 
301 20 1018 0 1 1 1 1 1 1 1 1 1 1 1 1 0 1 1 1 1 1 1 
302 20 1045 1 1 1 1 1 1 0 1 1 1 0 0 1 1 1 1 1 1 1 1 
303 20 977 1 0 1 1 1 1 1 1 1 1 1 1 0 0 1 1 1 1 1 1 
304 20 1051 1 1 1 1 1 1 1 1 1 0 1 1 1 1 1 1 0 1 1 0 
305 20 1049 1 1 1 1 0 1 1 1 1 1 1 1 0 1 1 1 1 1 0 1 
306 20 993 1 1 1 1 0 1 0 1 1 1 0 1 1 1 1 1 0 1 1 1 
307 20 918 0 1 1 1 1 1 1 0 1 1 1 1 1 0 1 1 1 1 1 1 
308 20 867 1 0 1 1 1 1 1 1 1 1 1 1 0 1 1 1 0 1 0 1 
309 20 842 1 0 0 0 1 1 1 1 1 1 1 1 1 1 1 1 1 1 1 1 
310 20 1025 1 1 0 1 1 1 1 1 1 1 1 1 1 1 1 0 1 0 1 1 
311 20 782 1 1 0 1 1 0 1 0 1 1 1 1 1 1 0 1 1 1 1 1 
312 20 995 1 1 1 0 0 1 1 1 1 1 1 0 1 0 1 0 1 1 1 1 
313 20 861 1 1 1 1 1 1 1 1 1 1 1 1 1 1 1 1 1 0 0 0 
314 20 850 1 1 1 0 0 1 1 1 1 1 0 1 1 1 1 1 0 1 1 1 
315 20 975 1 1 1 0 1 0 1 1 1 1 1 1 1 0 1 1 1 1 1 1 
316 20 988 1 1 1 1 1 1 1 0 1 1 1 1 1 1 1 1 1 0 0 1 
317 20 926 1 0 0 1 1 1 1 0 1 0 1 1 1 1 1 1 0 1 1 1 
318 20 891 1 0 1 1 1 1 1 1 1 1 1 1 1 0 0 1 1 0 1 1 
319 20 811 1 0 1 1 1 1 1 1 1 0 1 1 1 0 1 1 0 1 1 1 
320 20 846 1 1 1 1 0 1 1 1 0 1 1 1 1 1 1 1 0 1 1 1 
321 20 960 1 1 1 1 1 0 1 1 1 1 1 1 1 1 1 0 1 1 1 0 
322 20 847 1 1 1 0 1 1 1 1 1 1 1 1 1 0 0 1 1 1 1 1 
323 20 1077 1 0 1 1 1 1 1 1 1 1 1 1 1 1 0 1 0 1 1 1 
324 20 996 0 1 1 1 1 1 1 1 1 1 1 1 1 1 1 0 0 1 1 1 
325 20 785 1 1 1 1 1 1 1 1 0 0 1 1 1 1 1 0 1 1 0 1 
326 20 995 1 1 1 1 1 1 1 1 1 0 1 1 1 0 1 1 0 1 1 1 
327 20 1039 1 0 1 1 1 1 1 1 1 1 1 1 1 0 1 1 0 1 1 1 
328 20 890 1 1 0 1 0 1 1 1 1 1 1 1 1 1 1 1 1 0 1 1 
329 20 774 1 1 1 0 1 1 1 1 1 0 1 0 1 1 1 1 1 1 1 1 
330 20 951 1 1 0 1 1 1 1 1 1 1 1 0 1 1 1 0 1 1 1 1 
331 20 860 1 1 1 0 1 1 1 1 0 0 1 1 1 1 1 1 1 1 1 1 
332 20 815 1 0 1 1 1 1 1 0 1 0 1 1 1 1 0 1 1 1 1 1 
333 20 889 1 1 0 0 1 1 1 1 1 0 1 1 1 1 0 1 1 1 1 1 
334 20 1016 1 1 0 1 1 1 1 1 1 1 1 1 1 0 1 1 1 1 1 0 
335 20 987 1 1 1 1 1 1 1 1 0 1 1 1 1 1 0 0 1 1 1 1 
336 20 993 0 1 1 1 1 1 1 1 1 1 1 1 1 1 1 1 1 0 1 0 
337 20 938 1 0 1 1 0 1 1 1 1 1 1 1 1 1 1 1 1 1 1 0 
338 20 788 1 1 0 1 1 1 1 1 0 1 1 1 1 1 0 1 1 1 0 1 
339 20 986 0 1 1 1 1 1 1 1 1 1 1 1 1 0 1 1 0 1 1 1 
340 20 1057 1 1 1 1 1 0 1 1 1 0 1 1 1 1 1 0 1 1 1 1 
341 20 1102 0 1 0 1 1 1 1 1 1 1 1 1 1 1 1 1 1 1 0 1 
342 20 931 1 1 1 1 1 1 1 0 1 1 0 1 1 1 0 1 1 1 1 1 
343 20 1088 1 1 0 1 1 1 1 1 1 1 1 1 1 1 0 1 1 1 1 0 
344 20 763 1 1 1 1 1 1 1 1 1 0 1 0 0 1 1 1 1 1 1 1 
345 20 753 1 1 1 1 0 1 1 1 0 1 0 1 1 1 1 1 1 1 1 1 
346 20 957 1 1 1 1 0 1 1 1 0 1 1 1 1 1 0 1 0 1 1 1 
347 20 740 1 1 0 0 1 1 1 1 1 1 1 1 1 1 1 0 1 1 0 1 
348 20 952 1 0 1 1 1 1 1 1 1 1 1 1 1 1 1 0 1 0 1 0 
349 20 973 1 1 1 0 1 1 1 1 1 1 1 1 1 1 1 1 1 1 0 0 
350 20 988 1 0 1 1 1 0 1 1 1 1 0 1 1 1 1 1 1 1 1 1 
351 20 959 1 1 1 1 0 1 1 1 1 0 1 1 1 1 1 0 1 1 1 1 
352 20 807 1 1 1 1 1 1 1 1 1 1 0 1 1 1 0 1 1 1 1 0 
353 20 917 1 1 1 1 1 1 1 1 1 1 0 1 1 1 1 1 0 1 0 1 
354 20 961 1 0 1 1 1 1 1 1 1 1 1 1 1 0 1 0 1 1 1 0 
355 20 966 1 1 1 0 1 1 1 1 1 1 1 1 1 1 1 1 0 1 1 0 
356 20 975 1 1 0 1 1 1 1 1 1 1 0 1 1 0 0 1 1 1 1 1 
357 20 965 1 1 1 1 1 0 0 1 1 1 0 1 1 1 1 1 1 1 1 1 
358 20 1116 1 1 1 1 1 1 1 1 1 1 1 1 0 1 1 0 1 1 0 1 
359 20 1156 1 1 1 0 1 1 1 1 1 0 1 1 1 1 1 1 1 0 1 1 
360 20 893 1 0 1 1 1 1 1 0 1 1 0 1 1 1 1 1 0 1 1 1 
361 20 833 0 1 1 1 1 1 0 1 1 1 1 1 1 1 1 1 1 1 0 1 
362 20 983 1 1 1 1 1 1 1 1 1 1 0 1 1 1 1 1 1 1 0 0 
363 20 1159 1 1 1 1 0 0 1 0 1 1 1 1 1 1 1 1 1 1 1 1 
364 20 785 1 1 1 1 1 1 1 0 1 0 1 1 1 0 1 1 1 1 0 0 
365 20 964 1 1 1 1 1 1 1 1 1 1 0 0 1 1 1 1 0 1 1 1 
366 20 1031 1 1 1 1 1 1 1 1 1 1 0 1 1 0 1 1 1 1 1 0 
367 20 935 1 0 1 1 1 1 1 1 1 0 1 1 1 1 1 1 1 0 1 1 
368 20 858 1 1 1 1 1 1 1 1 1 1 1 1 1 0 0 1 0 1 0 1 
369 20 949 0 1 1 1 1 1 0 1 1 1 1 0 1 1 1 0 1 1 1 1 
370 20 791 1 1 1 1 1 0 0 0 1 1 1 1 1 1 0 1 1 0 1 1 
371 20 990 1 1 1 1 0 1 1 1 1 1 1 1 1 1 0 0 1 1 0 1 
372 20 999 1 1 1 1 1 1 1 1 1 1 0 0 1 1 1 1 0 1 1 1 
373 20 1008 1 1 1 1 1 1 0 1 1 0 1 0 1 1 1 1 1 0 1 1 
374 20 1042 1 0 1 1 1 1 1 1 1 1 1 1 1 1 0 1 1 1 1 1 
375 20 992 1 1 1 1 1 0 1 1 1 0 1 1 1 1 1 1 1 1 1 0 
376 20 996 1 1 1 1 1 1 1 1 1 1 0 1 1 1 1 1 1 0 1 0 
377 20 1128 1 0 0 1 1 1 1 1 1 1 1 0 1 1 1 1 1 1 1 1 
378 20 973 1 0 0 1 0 1 1 1 1 1 1 1 1 1 1 1 1 1 1 1 
379 20 867 1 1 0 1 1 0 1 1 1 1 1 1 1 1 1 1 1 0 1 1 
380 20 885 1 1 0 1 1 1 0 1 1 1 1 1 1 1 1 0 1 1 1 1 
381 20 926 1 0 1 1 1 1 1 0 1 1 1 0 1 1 1 0 1 1 1 1 
382 20 1039 1 0 1 0 1 1 0 1 1 1 0 1 1 1 1 1 1 1 1 1 
383 20 689 1 1 0 1 1 1 1 1 0 1 1 1 1 0 1 1 1 0 1 1 
384 20 897 1 1 1 0 0 1 1 1 1 1 1 1 1 1 1 1 0 1 1 1 
385 20 923 1 1 1 1 1 1 0 0 1 0 1 1 1 1 1 1 1 1 0 1 
386 20 915 1 1 1 1 1 1 1 1 1 0 0 1 0 1 1 1 1 1 1 1 
387 20 1035 1 1 1 1 1 1 1 0 1 1 1 1 1 0 1 1 1 1 0 1 
388 20 1034 0 0 1 1 1 1 1 1 1 1 0 1 1 1 1 1 1 1 1 1 
389 20 990 1 1 1 1 0 1 1 1 1 1 1 1 0 1 1 0 1 1 1 1 
390 20 1082 1 1 1 1 1 1 0 1 1 1 1 1 0 1 1 1 0 1 1 1 
391 20 786 1 1 1 1 1 0 1 0 1 1 1 1 1 1 1 1 1 1 0 1 
392 20 1180 1 1 1 0 0 0 1 1 0 1 1 1 1 1 1 1 1 1 1 1 
393 20 1102 1 1 0 0 1 1 1 1 0 1 1 1 1 1 1 0 1 1 1 1 
394 20 1060 1 1 1 0 1 1 0 1 1 0 0 1 1 1 1 1 1 1 1 1 
395 20 1025 1 1 1 1 0 1 1 1 1 1 0 1 1 1 1 1 1 0 1 1 
396 20 1059 1 1 1 0 1 1 1 1 1 0 1 1 1 1 1 1 0 1 1 1 
397 20 1068 1 1 1 0 0 1 1 1 1 1 1 1 1 1 1 1 0 1 1 1 
398 20 929 1 1 1 1 1 1 1 1 0 1 1 1 1 1 1 1 1 1 1 0 
399 20 869 1 1 1 0 1 1 1 1 1 1 1 1 1 1 0 0 1 1 1 1 
400 20 949 1 1 1 1 1 0 1 0 1 0 1 1 1 1 1 1 1 1 1 0 
401 20 1097 1 1 1 1 1 0 1 1 1 1 1 1 0 1 1 1 1 1 1 1 
402 20 929 0 1 0 1 1 1 1 1 1 1 1 1 1 1 1 1 1 1 1 0 
403 20 1091 1 0 1 1 1 1 1 1 1 1 0 1 1 1 1 1 1 1 1 1 
404 20 1260 0 1 1 1 1 1 1 1 1 1 1 1 1 1 1 1 0 1 1 0 
405 20 1083 0 1 1 1 1 1 1 1 1 0 1 1 1 1 1 1 1 1 1 0 
406 20 1011 0 1 1 1 1 1 1 1 1 0 1 1 1 0 1 1 1 1 1 1 
407 20 887 1 1 1 1 1 1 1 0 1 1 1 1 1 0 1 0 1 1 0 1 
408 20 865 1 1 1 1 1 0 1 1 1 1 1 1 1 1 1 1 0 1 1 0 
409 20 853 1 1 1 0 1 1 1 1 0 1 1 1 1 0 1 1 1 1 1 1 
410 20 918 1 1 1 1 1 0 1 1 1 1 1 0 1 1 0 1 1 1 1 1 
411 20 1047 1 0 1 1 1 1 0 1 1 1 1 1 1 1 1 1 1 1 1 1 
412 20 987 1 1 1 1 1 0 0 1 1 1 1 1 1 1 1 1 1 1 0 1 
413 20 833 1 1 0 1 0 1 1 1 1 0 1 1 1 1 1 1 0 1 0 1 
414 20 1020 1 0 1 1 1 1 1 1 1 1 1 1 1 1 1 1 0 1 1 0 
415 20 925 1 1 0 1 1 0 1 1 1 1 1 1 1 0 1 1 1 1 1 1 
416 20 833 1 1 1 1 1 0 1 1 0 1 1 1 1 0 1 1 1 1 1 1 
417 20 912 1 1 1 1 0 1 1 1 1 1 1 1 1 1 1 0 0 1 1 1 
418 20 803 1 1 1 1 1 0 1 1 1 0 0 1 1 1 1 1 1 1 1 1 
419 20 964 1 1 0 1 0 1 1 1 1 1 1 1 1 0 1 1 1 1 1 1 
420 20 1032 1 1 1 0 1 1 1 1 1 1 1 1 0 1 1 1 1 1 0 1 
421 20 826 1 1 1 1 1 1 1 0 1 1 1 1 1 1 1 1 0 1 0 1 
422 20 937 0 1 0 1 1 1 1 1 0 1 1 0 1 1 1 1 1 0 1 1 
423 20 851 1 1 1 1 0 1 1 1 1 1 1 1 1 1 1 1 1 0 1 1 
424 20 989 1 1 1 1 0 1 0 1 1 1 1 1 1 0 1 0 1 1 0 1 
425 20 758 1 1 1 1 1 1 1 1 1 1 1 1 1 1 1 0 1 1 0 1 
426 20 864 1 1 1 1 1 1 0 1 0 1 1 1 1 1 1 1 1 1 1 0 
427 20 1064 1 1 1 1 1 0 1 1 1 1 0 1 1 1 1 1 0 1 1 1 
428 20 1042 1 1 0 1 1 1 1 1 1 1 1 1 0 1 1 1 0 1 1 1 
429 20 915 1 1 0 1 1 1 1 1 1 1 0 1 1 1 1 1 1 0 1 1 
430 20 1153 0 1 1 1 1 1 0 1 1 1 1 1 1 1 1 0 1 1 1 1 
431 20 927 1 1 1 1 1 1 1 0 1 1 0 1 0 1 1 1 0 1 1 1 
432 20 1003 0 1 1 1 1 1 1 1 1 1 1 1 1 1 1 1 0 1 1 0 
433 20 1170 1 1 1 1 1 0 1 1 0 1 1 1 1 1 0 1 1 1 1 1 
434 20 1091 1 1 1 0 1 1 1 1 0 1 1 1 1 1 1 0 0 1 1 1 
435 20 869 0 1 1 1 1 1 1 1 1 1 1 1 1 0 1 1 1 1 0 1 
436 20 964 1 1 1 0 0 0 1 1 1 1 1 1 1 1 1 1 1 1 1 1 
437 20 919 1 1 1 0 1 1 0 1 1 1 1 0 1 1 0 1 0 1 1 1 
438 20 1006 1 1 1 1 1 1 1 0 1 1 0 1 1 1 1 1 1 1 1 1 
439 20 908 1 1 1 1 1 1 1 0 1 0 1 1 1 1 1 1 1 0 1 1 
440 20 1025 1 1 1 1 1 1 1 0 1 0 0 1 1 1 1 1 1 1 1 1 
441 20 922 1 1 1 1 1 1 1 0 1 1 1 0 1 0 1 1 1 1 1 1 
442 20 871 1 1 1 1 1 1 0 1 1 1 1 0 0 1 1 1 1 1 1 0 
443 20 949 1 0 1 1 1 1 1 1 1 1 1 1 1 1 1 1 1 0 1 0 
444 20 759 0 1 1 1 1 1 1 1 1 1 0 1 1 1 1 1 1 0 1 0 
445 20 886 1 0 1 1 0 1 1 0 1 0 1 1 1 1 1 1 1 1 1 1 
446 20 923 1 1 1 1 1 0 1 1 1 1 1 1 0 1 1 0 1 1 1 1 
447 20 1218 0 0 1 1 1 1 1 1 0 1 1 1 1 1 1 1 1 1 1 1 
448 20 1087 1 1 1 1 1 1 1 0 0 0 1 1 1 1 1 0 1 1 1 1 
449 20 919 1 1 1 1 1 1 1 1 1 1 1 0 1 1 1 1 1 0 1 0 
450 20 881 1 0 1 1 1 1 1 0 1 1 1 1 1 0 1 1 1 1 1 1 
451 20 915 1 1 0 1 1 1 1 0 1 1 1 1 1 1 1 1 0 1 1 1 
452 20 1151 1 1 1 0 1 1 1 1 1 0 1 1 1 1 1 1 1 0 1 1 
453 20 1110 1 0 1 1 1 0 1 1 1 1 1 1 1 1 1 0 1 1 1 1 
454 20 882 1 1 1 1 0 1 1 1 1 1 1 0 1 1 1 0 0 1 1 1 
455 20 1123 1 1 0 1 1 1 0 1 1 1 1 1 0 1 1 1 0 1 1 1 
456 20 1041 1 1 1 1 1 1 0 1 1 1 1 0 1 1 1 1 0 1 1 1 
457 20 1074 1 0 1 1 1 1 1 1 1 1 1 1 1 1 1 1 0 1 1 0 
458 20 977 1 1 1 1 0 1 1 1 1 1 1 1 1 1 0 1 0 1 1 0 
459 20 930 0 1 1 1 1 1 0 1 1 1 1 1 1 1 1 1 1 1 0 1 
460 20 871 1 0 1 1 0 1 0 1 1 1 1 1 1 1 1 1 1 1 1 1 
461 20 887 0 1 1 0 1 1 0 1 1 1 1 1 1 1 1 1 1 1 1 1 
462 20 910 1 1 1 1 1 1 1 1 0 1 0 0 1 1 1 1 1 1 1 1 
463 20 1120 1 1 0 1 1 1 1 1 1 1 1 1 1 0 1 1 1 1 1 1 
464 20 1178 1 1 1 1 1 1 1 1 0 0 0 1 1 1 1 1 1 1 1 1 
465 20 1176 0 1 1 1 1 1 0 1 1 1 1 1 1 1 1 1 1 1 0 1 
466 20 845 1 1 1 1 1 1 1 1 1 1 1 1 0 1 1 1 1 1 0 1 
467 20 1052 1 1 1 1 1 0 1 1 1 1 1 1 1 0 1 1 1 0 1 1 
468 20 964 1 1 1 1 1 1 1 1 1 0 0 1 0 1 1 1 1 1 1 1 
469 20 1024 1 1 1 1 1 1 1 1 0 1 1 1 0 1 1 1 1 1 1 1 
470 20 991 1 1 0 1 1 1 1 1 1 1 1 1 1 1 0 1 0 1 1 1 
471 20 988 1 1 1 1 1 1 0 1 1 1 1 1 0 1 1 1 1 0 1 1 
472 20 923 1 1 1 0 0 1 1 1 1 1 1 1 0 1 1 1 1 1 0 1 
473 20 971 1 1 1 1 1 0 1 1 1 1 0 1 1 1 1 1 1 1 0 1 
474 20 948 1 1 1 1 1 0 1 1 1 1 1 1 1 1 1 1 1 1 0 0 
475 20 1052 1 1 0 1 1 1 1 1 0 1 1 1 1 1 1 1 1 1 1 0 
476 20 854 1 1 1 1 1 1 0 1 0 1 1 1 1 1 1 1 1 0 1 1 
477 20 929 1 0 1 1 1 1 0 1 1 1 1 1 1 1 0 1 1 1 1 1 
478 20 1001 1 1 1 1 1 1 1 1 1 1 1 0 0 0 1 1 1 1 1 1 
479 20 944 0 1 1 1 1 1 1 1 1 1 1 1 1 1 1 1 0 0 1 1 
480 20 1129 1 1 1 0 1 0 1 1 1 1 1 1 1 1 1 1 0 0 1 1 
481 20 882 1 1 1 1 0 1 1 1 1 1 1 1 1 0 0 1 1 1 1 1 
482 20 941 0 1 1 1 1 1 1 1 1 0 1 1 1 1 1 1 1 0 1 1 
483 20 1018 0 1 1 1 1 1 1 0 1 1 1 0 1 1 1 1 1 1 1 0 
484 20 957 1 1 1 0 0 1 1 1 1 1 1 1 0 1 1 1 1 1 1 1 
485 20 1122 0 1 1 1 1 1 1 1 0 1 1 1 1 1 1 1 1 1 1 0 
486 20 898 1 1 1 0 1 1 1 1 1 1 1 1 0 1 1 1 0 1 1 0 
487 20 827 0 0 1 1 1 0 1 1 1 1 1 1 1 1 1 1 1 1 1 1 
488 20 812 1 0 1 1 1 1 1 1 1 1 1 0 0 1 1 1 1 1 1 1 
489 20 926 1 1 1 0 1 1 1 1 1 1 1 0 1 1 0 1 1 1 1 1 
490 20 947 1 1 1 1 1 1 1 0 1 0 1 1 1 1 1 1 0 1 1 1 
491 20 884 1 1 1 1 1 1 1 1 1 0 1 0 1 1 1 1 1 1 1 0 
492 20 925 1 1 1 1 1 1 0 1 1 1 1 1 1 0 1 1 1 1 1 0 
493 20 1029 1 0 0 1 1 1 1 1 1 1 1 1 1 1 1 1 1 1 1 0 
494 20 1131 1 1 1 1 1 1 1 1 1 1 1 0 1 0 1 0 0 1 1 1 
495 20 876 1 1 1 1 1 0 0 1 1 1 1 1 1 1 1 0 1 1 1 1 
496 20 1024 0 1 1 0 1 1 1 1 1 1 1 1 1 1 1 1 0 1 1 1 
497 20 1132 0 1 1 1 1 0 1 1 1 1 1 1 0 1 1 1 1 1 1 1 
498 20 915 1 1 0 1 1 1 1 0 1 1 0 0 1 1 1 1 1 1 1 1 
499 20 1037 1 1 1 1 1 0 1 1 1 0 1 0 1 1 0 1 1 1 1 1 
500 20 1053 1 1 1 1 1 1 1 0 1 1 1 0 1 1 1 1 1 0 1 0 
