1 20 6065 123 1 146 46 687 4 506 84 93 26 184 30 498 12 512 25 52 57 728 46 229 91 808 62 831 57 25 9 24 78 465 52 561 47 621 20 413 61 76 41
2 20 5581 75 80 597 51 252 69 27 66 796 52 284 13 26 86 570 17 486 55 298 19 511 98 544 79 142 94 50 84 705 7 301 30 556 75 138 88 451 24 168 68
3 20 7334 253 86 467 95 534 96 812 22 500 87 455 84 169 22 809 43 503 7 294 8 230 65 539 71 596 25 74 97 406 61 632 46 665 76 588 31 602 82 40 45
4 20 6142 130 14 461 70 663 47 737 73 458 34 169 62 298 91 269 18 653 11 280 14 401 58 259 69 696 74 87 95 566 5 274 99 323 80 186 10 546 40 222 94
5 20 6392 266 93 788 52 372 68 543 95 821 21 172 58 681 77 658 74 58 84 194 62 412 11 660 78 117 89 657 91 82 87 543 41 470 19 221 42 137 63 138 76
6 20 6434 325 89 672 80 515 7 84 48 160 91 474 79 539 70 404 88 339 77 112 74 655 59 54 39 806 27 106 64 386 27 677 29 369 68 37 89 548 53 781 24
7 20 7285 549 88 276 6 561 18 489 58 687 66 206 35 97 60 427 87 833 76 545 86 498 31 593 83 401 38 366 35 239 85 142 58 793 20 842 71 225 52 338 51
8 20 7262 833 46 844 19 775 88 470 43 157 24 192 30 394 23 369 95 186 78 347 25 801 8 772 32 564 92 730 17 68 31 329 71 83 19 603 52 239 83 322 64
9 20 6321 715 46 787 36 9 7 686 11 475 34 307 54 190 45 537 16 250 53 173 99 245 45 671 9 105 79 142 49 681 83 60 48 44 81 698 41 398 46 729 85
10 20 6740 842 72 342 82 522 45 218 24 311 30 345 25 788 89 805 67 423 32 147 7 191 39 128 12 432 81 739 33 423 43 670 44 596 81 327 72 75 28 102 45
11 20 6533 255 58 93 27 514 41 199 88 321 94 329 97 529 47 425 5 560 1 789 25 228 33 296 68 774 30 219 100 289 32 83 1 804 57 546 32 793 17 121 29
12 20 7403 781 86 46 29 694 10 50 4 215 98 266 40 509 2 235 20 634 81 761 100 276 1 670 43 763 38 221 21 537 10 819 36 561 1 283 43 658 32 275 99
13 20 7469 1 21 789 54 416 8 127 54 600 79 713 56 296 7 819 61 102 78 474 16 537 90 744 48 328 28 711 48 426 23 273 77 621 20 120 65 737 98 503 89
14 20 7547 503 45 128 89 555 91 402 31 812 38 849 60 539 49 560 9 572 77 502 17 813 19 194 25 446 18 420 97 403 16 357 17 374 12 429 60 248 21 328 92
15 20 7496 358 77 102 82 308 78 783 70 538 90 680 17 764 6 723 79 353 41 85 38 591 44 763 73 334 15 626 83 456 88 138 96 98 91 678 1 638 80 354 87
16 20 6112 64 92 271 24 604 6 351 94 794 84 506 4 170 34 697 32 585 87 9 86 3 38 198 30 252 17 662 20 768 79 143 20 558 45 665 93 140 40 200 42
17 20 6908 350 30 50 79 348 42 812 20 480 2 678 98 238 76 120 14 366 28 532 87 675 91 437 47 638 30 627 36 462 97 297 62 28 46 734 32 732 58 31 14
18 20 7220 793 41 729 88 585 47 760 62 172 19 384 2 609 53 535 50 574 46 78 62 444 42 232 93 451 12 653 25 29 73 89 53 159 78 483 5 831 57 435 91
19 20 6476 120 63 122 51 310 52 792 32 63 60 150 13 637 36 242 22 447 14 33 87 400 85 562 93 697 46 626 84 776 15 666 70 430 27 196 32 389 31 438 89
20 20 5136 31 53 776 37 196 7 643 57 805 82 612 24 223 44 111 67 316 91 194 56 48 39 4 48 37 88 319 37 430 47 515 43 157 78 427 27 17 16 560 88
21 20 6615 57 25 99 84 827 27 356 87 694 95 486 90 520 13 105 47 209 54 412 34 49 68 263 17 238 57 847 69 201 16 742 75 841 66 807 60 66 66 450 70
22 20 7800 364 50 624 8 720 26 607 92 690 89 316 30 822 23 821 53 765 60 392 9 293 66 584 8 574 6 542 1 274 44 469 3 217 52 644 36 17 78 16 82
23 20 6314 483 71 544 97 6 66 824 25 101 27 516 10 641 100 70 37 488 100 319 94 551 50 7 52 85 90 245 74 388 93 64 4 527 49 802 29 625 87 607 49
24 20 6868 21 41 614 59 255 41 491 90 653 14 451 32 606 98 112 78 95 63 530 39 537 94 575 75 114 47 744 91 446 13 421 33 656 13 693 98 457 50 115 41
25 20 7080 31 10 635 32 674 12 730 24 332 54 272 93 704 76 580 56 362 94 252 17 821 40 314 21 847 2 324 84 382 33 408 57 461 97 459 56 245 14 17 54
26 20 6409 673 25 843 14 258 45 736 98 98 84 69 47 545 34 72 82 436 91 331 94 131 100 704 79 671 89 832 46 310 37 76 87 648 13 380 39 13 80 186 4
27 20 6133 651 88 141 26 135 94 388 3 454 50 572 76 15 40 246 64 329 72 391 35 338 22 729 2 651 99 349 46 765 100 493 48 152 79 609 93 120 91 139 66
28 20 5988 54 85 287 89 573 22 357 30 133 50 168 51 672 72 276 30 559 64 77 90 71 35 290 41 373 43 69 71 724 13 577 96 48 6 777 47 627 20 773 49
29 20 7379 804 53 740 8 789 66 256 92 761 12 714 39 342 84 723 67 386 14 431 84 782 97 106 36 148 52 6 68 491 11 188 74 257 87 71 96 453 14 776 71
30 20 6826 293 16 189 49 362 8 127 43 385 93 109 51 284 78 466 36 444 61 488 30 459 70 269 71 532 95 840 39 791 11 728 46 619 28 427 49 410 51 311 79
31 20 7071 830 12 576 65 154 74 682 50 473 59 324 36 399 64 405 97 255 43 508 76 160 3 595 34 804 62 97 100 331 84 121 28 728 23 96 12 616 11 685 65
32 20 6401 316 100 373 68 439 57 641 61 27 1 133 60 31 56 671 83 559 70 294 33 493 60 850 77 4 39 788 76 496 78 191 6 341 2 541 16 600 92 214 79
33 20 5948 761 54 184 25 539 92 498 49 21 65 551 19 775 13 153 76 367 5 257 55 830 67 82 52 85 98 338 17 77 84 231 79 211 27 169 76 620 71 687 75
34 20 6016 154 18 216 38 411 97 333 100 848 47 268 88 502 56 188 11 130 19 32 69 761 52 44 36 618 91 294 55 583 48 612 85 408 48 438 9 167 76 513 95
35 20 4881 268 6 656 88 268 40 68 51 457 80 7 46 314 60 311 67 294 84 362 13 218 99 482 73 393 18 676 71 72 21 209 98 574 6 159 54 208 64 106 40
36 20 7451 700 37 488 4 465 1 381 65 221 59 260 25 680 7 643 72 472 33 575 80 832 97 139 92 778 15 306 47 177 21 237 74 828 3 319 67 492 95 321 37
37 20 5665 159 45 67 20 392 64 802 83 186 71 255 14 447 63 548 75 314 24 91 26 466 74 14 61 556 6 417 25 327 23 743 66 597 50 144 75 159 91 398 95
38 20 8652 716 57 452 88 515 2 258 17 766 100 680 17 354 11 8 36 827 18 830 96 522 16 819 71 416 82 317 7 797 2 535 75 467 24 459 82 359 6 719 65
39 20 5688 349 81 277 63 817 35 35 15 234 96 613 64 229 65 776 43 464 96 311 4 50 42 663 53 340 31 248 26 100 71 153 37 738 4 35 50 174 16 505 85
40 20 6702 741 88 396 70 312 23 799 40 357 92 434 55 425 79 714 4 155 67 338 49 626 9 167 42 286 89 296 28 793 92 1 56 412 33 43 64 617 3 466 81
41 20 6895 346 56 385 22 113 20 42 26 274 68 153 57 441 62 779 99 753 38 129 64 585 22 681 44 836 14 680 38 369 64 117 50 604 34 530 64 623 14 179 72
42 20 7398 835 46 685 6 683 73 562 26 553 23 213 42 8 56 339 31 13 27 526 88 808 82 171 64 582 31 86 89 832 38 328 56 581 22 171 23 484 61 788 55
43 20 7793 363 16 800 75 848 47 817 78 17 37 736 41 42 50 640 38 496 83 9 39 617 5 402 4 98 41 425 59 777 75 406 45 630 22 297 51 794 35 528 18
44 20 8936 317 82 771 57 800 32 715 22 594 78 598 4 764 40 646 62 726 9 457 49 507 67 111 21 340 18 714 41 327 47 832 7 651 16 59 72 457 26 785 46
45 20 6495 283 93 798 22 20 80 218 15 848 71 653 88 704 16 312 20 37 87 138 43 282 47 511 61 4 86 683 93 510 65 42 5 363 89 648 19 722 43 343 37
46 20 6104 231 1 555 5 290 7 498 83 514 66 268 52 289 29 273 64 694 1 380 40 403 80 459 25 501 61 318 29 220 28 338 90 105 3 320 80 430 61 544 44
47 20 8114 770 16 314 10 671 72 223 78 701 4 277 45 526 34 277 10 826 42 701 67 314 7 471 62 596 73 768 13 635 83 329 27 735 47 53 97 718 1 238 57
48 20 5886 426 52 85 93 630 32 39 10 842 44 178 64 96 90 490 27 43 62 136 58 593 98 165 84 474 22 717 20 619 1 293 67 534 16 127 99 554 76 317 13
49 20 5699 250 71 157 11 184 85 562 77 81 96 292 55 9 48 738 51 760 60 444 19 311 78 72 9 388 33 531 14 381 18 6 52 148 72 778 64 257 56 775 53
50 20 5313 155 48 606 8 609 47 185 54 368 6 583 45 681 54 554 55 8 55 138 51 346 67 346 72 46 2 125 29 734 43 635 88 211 6 106 85 64 35 142 70
51 20 7636 332 89 685 99 457 8 815 65 555 68 169 4 736 81 250 22 844 22 550 59 305 77 689 31 81 26 337 74 796 75 818 74 797 12 219 61 32 84 78 71
52 20 6744 585 71 515 63 61 68 353 81 293 41 595 96 478 48 708 81 416 24 285 85 206 42 410 86 546 30 66 81 678 23 791 20 90 20 544 36 473 74 337 35
53 20 6535 148 47 563 67 700 85 238 45 568 67 366 59 490 26 3 94 834 89 280 85 694 57 653 4 480 87 307 13 467 83 9 46 303 58 325 57 638 59 103 55
54 20 6767 748 56 794 72 714 82 9 21 122 55 271 78 497 41 268 43 328 82 14 100 575 70 120 21 484 17 603 32 655 88 615 28 631 68 579 47 127 51 305 82
55 20 6805 178 75 334 71 676 12 1 86 463 52 643 50 802 48 245 15 111 60 611 70 298 6 757 13 32 68 346 9 620 55 803 53 119 18 474 52 527 40 467 96
56 20 6948 735 25 484 2 309 34 318 43 282 63 730 60 590 69 107 5 676 32 127 72 157 34 752 7 827 26 754 10 134 62 123 11 252 25 436 99 721 39 171 1
57 20 5601 79 12 55 32 152 66 344 86 280 31 529 40 633 18 147 45 745 16 435 29 284 1 567 67 406 51 379 96 127 34 426 28 411 39 420 36 129 37 454 86
58 20 6455 187 100 331 83 449 75 419 36 781 2 380 82 31 85 649 65 320 71 591 59 607 58 185 30 321 1 132 80 309 57 726 71 726 38 155 92 309 28 461 98
59 20 6380 150 65 375 91 795 94 424 14 71 23 388 43 291 13 105 32 847 63 608 42 520 30 534 67 422 89 213 76 493 85 139 33 401 68 762 50 86 13 352 91
60 20 6398 847 100 253 53 20 25 304 24 294 25 392 24 440 78 718 31 557 48 307 91 729 61 183 77 675 44 59 83 262 90 175 16 414 15 371 97 368 22 630 70
61 20 6963 399 47 210 19 263 59 755 8 509 1 369 64 258 65 463 89 343 34 610 25 769 64 201 33 785 99 362 29 455 4 258 65 644 28 1 9 215 83 835 74
62 20 5484 136 43 47 18 829 76 586 77 323 72 406 43 700 86 223 40 625 65 555 38 227 58 730 17 298 95 336 24 70 78 26 94 301 89 26 13 106 13 306 35
63 20 7330 245 99 686 24 378 100 772 24 456 73 602 65 15 8 565 11 36 96 139 19 444 24 748 59 565 86 240 100 833 23 732 77 553 26 695 43 150 23 309 25
64 20 6397 114 45 9 57 475 48 226 42 411 65 515 12 477 52 794 28 24 90 536 58 656 2 228 49 631 40 359 70 280 91 560 78 553 39 469 19 524 74 156 15
65 20 5648 574 51 786 91 265 69 303 47 331 96 106 46 508 20 461 36 746 78 191 48 377 90 455 93 502 70 11 55 187 16 403 58 463 34 156 29 104 8 131 60
66 20 6707 86 36 644 13 707 32 197 51 85 34 370 22 132 31 385 81 720 69 712 23 723 49 701 13 84 41 368 6 666 67 534 28 360 62 29 68 114 92 767 15
67 20 7732 620 9 695 95 672 65 693 93 60 44 125 28 750 3 321 10 104 60 199 68 158 94 682 39 827 92 627 17 314 63 677 64 391 92 534 1 635 78 582 7
68 20 6496 551 77 382 83 574 60 149 27 730 10 117 76 418 95 841 38 121 41 423 36 83 84 523 9 399 100 683 90 408 36 281 40 615 73 131 71 47 95 645 84
69 20 5760 427 24 86 81 63 14 826 44 250 43 506 34 735 27 173 96 411 18 231 48 300 91 411 6 531 41 817 17 268 10 687 82 128 62 88 80 253 80 9 76
70 20 7177 846 7 736 14 251 88 78 45 225 22 540 100 772 95 56 6 88 83 745 9 722 51 808 93 830 9 59 90 271 77 315 75 97 5 562 56 812 82 159 27
71 20 5755 217 90 531 67 167 56 244 54 443 64 4 72 125 49 292 89 51 77 299 33 350 40 697 24 587 14 550 5 330 94 289 11 197 26 591 67 734 34 496 38
72 20 7674 296 58 359 98 681 5 632 51 824 97 707 71 347 54 170 52 269 14 47 28 199 29 630 1 826 61 672 96 653 43 255 28 611 67 725 84 558 89 132 38
73 20 7705 807 67 494 15 246 17 432 91 239 64 63 14 385 4 654 95 742 65 658 97 728 51 384 49 467 60 311 2 456 78 830 11 832 95 504 68 65 66 335 25
74 20 6365 183 82 818 47 158 25 334 4 234 15 60 4 241 21 99 55 605 16 507 97 734 65 427 25 6 41 413 14 831 76 590 86 199 24 669 81 671 21 178 34
75 20 5624 12 54 181 30 385 88 442 94 81 89 313 62 795 42 114 95 600 91 33 60 160 71 534 92 151 39 343 15 659 79 132 14 700 30 524 80 458 54 414 13
76 20 7282 113 57 416 91 279 71 335 19 57 35 479 91 527 13 593 19 525 29 133 95 551 70 847 68 534 81 515 58 646 48 756 10 309 70 615 93 391 81 482 60
77 20 8996 356 8 534 45 306 57 752 64 662 41 667 62 688 57 587 13 770 21 435 82 773 41 678 14 768 55 596 25 442 57 367 2 431 35 610 96 448 3 376 90
78 20 4480 100 74 287 79 824 49 237 55 306 71 445 30 254 17 35 94 324 94 429 81 654 97 3 56 564 17 86 70 126 76 366 79 193 5 125 39 176 45 67 65
79 20 6194 751 73 12 40 341 82 475 55 264 89 342 10 221 47 479 48 523 78 114 46 329 24 263 46 511 66 340 24 595 43 99 20 520 43 474 28 390 56 700 16
80 20 6484 300 96 1 63 816 46 68 9 743 26 497 7 770 41 575 57 682 47 109 79 241 31 341 10 119 96 21 9 551 20 441 70 767 87 653 73 275 32 136 12
81 20 6911 27 46 593 88 620 22 291 49 348 65 196 28 564 69 402 64 579 72 635 18 279 43 557 26 413 39 301 96 208 28 815 29 401 32 670 64 59 40 681 48
82 20 7380 590 25 2 60 646 13 668 51 263 62 197 95 619 54 313 12 568 61 161 98 828 87 35 84 486 91 842 70 242 78 675 80 775 32 123 47 564 13 628 64
83 20 5466 121 80 646 73 96 18 673 9 850 9 97 27 36 31 306 83 233 6 559 67 516 96 661 1 420 18 203 99 671 42 190 46 312 12 203 35 2 13 38 75
84 20 7201 220 4 54 79 513 94 491 29 850 5 338 87 260 58 369 67 413 43 504 24 651 97 604 31 41 13 244 80 685 93 593 61 576 83 636 16 688 78 272 22
85 20 6998 439 55 137 21 428 5 552 69 213 55 229 25 28 58 174 17 661 32 641 40 809 100 373 98 590 9 778 77 276 39 730 92 729 73 164 5 561 96 236 32
86 20 7803 167 1 650 35 68 21 481 73 700 45 482 31 437 36 644 76 162 63 315 62 285 18 662 41 766 91 594 98 245 82 644 73 379 72 837 10 790 24 446 81
87 20 7896 173 84 572 33 781 79 540 92 94 15 578 11 395 81 239 97 679 6 606 88 444 82 497 88 822 70 814 64 88 46 574 22 728 8 135 90 276 9 835 92
88 20 7560 797 44 597 60 70 66 542 65 457 51 93 51 732 72 424 88 367 11 485 87 431 87 802 59 247 38 450 82 455 18 649 56 492 74 684 46 626 16 50 77
89 20 5797 210 51 4 69 652 17 576 5 27 84 773 96 217 5 143 1 703 9 392 42 532 74 134 84 22 75 764 59 170 26 547 28 388 43 66 54 315 11 612 86
90 20 6120 218 42 343 38 172 48 463 65 639 63 301 21 141 32 685 62 117 44 58 49 776 27 96 83 203 51 45 6 816 24 203 16 567 33 806 10 402 19 600 22
91 20 7548 180 14 515 85 252 38 770 83 806 61 249 15 730 16 682 47 254 90 510 67 91 82 702 72 766 72 280 6 196 64 797 70 310 80 131 79 761 88 454 9
92 20 7388 411 79 716 15 481 75 555 44 375 89 174 97 349 19 128 80 739 46 721 74 506 48 572 75 825 8 376 43 163 57 118 23 801 41 463 40 518 93 245 70
93 20 7945 600 98 752 28 740 44 741 93 8 1 798 40 275 62 807 97 719 24 537 63 161 67 656 81 631 98 126 40 320 100 321 72 170 51 773 26 232 39 565 7
94 20 7516 563 98 484 12 778 98 607 3 622 75 158 81 720 24 187 96 679 1 453 90 129 62 231 81 439 70 202 38 380 46 683 66 750 2 800 90 477 80 53 62
95 20 7072 271 19 40 16 740 94 517 33 434 69 258 6 225 14 243 92 73 33 499 60 635 47 800 28 679 52 378 64 191 18 528 71 710 49 401 60 565 5 654 8
96 20 6888 712 60 195 17 569 43 269 16 821 43 369 100 452 42 29 27 198 10 240 79 656 22 643 46 491 100 258 35 664 94 694 37 420 59 231 90 15 88 684 82
97 20 6622 790 61 624 18 72 53 321 91 475 69 749 54 406 92 88 77 595 79 39 60 677 19 232 78 223 28 440 75 213 91 75 61 756 41 605 36 597 8 301 13
98 20 5388 463 99 254 8 291 69 628 6 584 85 51 87 86 62 86 54 216 30 745 80 395 48 551 82 379 67 90 64 67 64 827 23 216 13 66 48 210 91 531 83
99 20 7260 589 36 721 96 393 83 602 81 342 99 45 55 612 88 761 67 561 74 142 43 195 82 426 64 520 55 36 13 806 1 161 14 740 74 682 30 18 92 724 30
100 20 6692 322 16 336 62 11 50 369 61 315 75 372 73 155 63 805 82 227 58 828 70 213 100 317 54 387 5 786 13 428 19 85 50 293 6 685 79 700 12 731 45
101 20 6252 548 77 526 98 340 73 234 48 578 62 710 40 797 24 196 15 318 33 336 49 40 56 459 81 316 76 28 92 67 8 94 90 269 84 450 7 742 10 767 76
102 20 6058 702 69 741 97 282 31 146 57 270 11 789 94 19 5 751 37 622 64 554 27 415 96 131 8 427 30 143 84 122 37 193 85 152 25 558 30 314 90 242 20
103 20 6109 423 19 495 80 720 57 551 82 158 9 142 20 335 92 245 37 476 33 780 12 521 56 75 62 82 50 669 35 583 85 301 45 111 86 81 7 236 71 653 13
104 20 5940 740 26 383 9 440 35 242 43 254 41 273 84 316 50 98 34 560 70 41 36 655 40 111 7 657 90 788 91 119 7 143 62 726 14 474 51 305 63 101 57
105 20 7054 731 65 310 76 680 52 307 89 72 98 809 22 44 75 59 11 81 56 805 12 245 36 346 94 551 26 698 24 64 80 800 76 493 55 606 22 456 56 661 5
106 20 6547 821 63 310 36 536 39 802 64 319 57 153 27 372 48 652 66 754 34 95 14 469 64 644 82 490 94 8 9 543 45 455 9 76 30 80 21 127 44 478 84
107 20 5527 846 76 445 69 151 85 72 21 57 19 296 22 406 86 123 85 136 92 109 16 723 18 446 26 124 12 692 22 151 43 233 9 685 38 347 24 328 26 539 92
108 20 6236 254 79 601 56 830 58 225 84 120 69 99 81 523 9 320 72 666 100 322 46 476 7 360 21 219 22 494 81 735 91 404 61 159 78 264 79 656 65 68 57
109 20 5666 78 44 4 7 68 48 143 13 681 61 379 89 58 87 178 3 362 61 540 17 747 62 647 11 494 52 447 95 587 1 59 21 294 22 704 35 60 36 553 82
110 20 6864 506 58 488 73 798 23 546 20 790 91 452 86 157 53 199 9 693 96 588 75 712 22 32 42 488 48 297 59 114 21 791 38 395 100 224 84 233 99 77 8
111 20 7336 819 86 650 56 518 45 521 43 232 81 331 13 392 67 787 65 328 35 547 90 697 65 586 68 179 70 464 11 287 71 212 27 836 21 392 10 279 48 114 40
112 20 7180 318 59 641 37 667 65 793 31 733 69 311 40 822 98 492 51 111 8 727 97 384 63 97 25 236 1 151 86 719 27 582 92 119 47 246 10 783 75 43 95
113 20 5340 114 10 448 99 554 66 32 18 276 36 71 35 343 92 673 32 832 93 328 2 408 41 300 73 95 9 281 1 145 11 244 56 333 30 140 61 654 67 405 47
114 20 7557 814 30 580 24 293 12 266 29 849 12 500 89 181 79 665 11 706 73 386 27 315 19 486 88 459 54 718 43 719 62 471 45 292 30 200 36 220 72 327 95
115 20 6523 642 41 185 52 560 67 27 92 28 57 794 99 155 50 373 43 150 76 834 90 214 49 470 18 827 5 351 25 56 75 224 33 715 25 444 97 433 33 672 88
116 20 7664 843 52 694 17 838 11 456 21 598 41 620 46 110 41 842 99 746 42 534 82 377 44 128 70 519 95 171 31 803 99 830 52 124 6 14 17 160 98 173 54
117 20 6916 276 54 655 58 266 68 649 47 293 82 42 5 581 48 525 27 466 40 119 47 495 2 777 69 333 65 122 29 21 1 267 4 680 77 586 88 685 77 807 9
118 20 6952 271 58 481 91 537 7 678 8 459 15 831 65 145 51 339 3 674 85 16 81 493 32 237 34 241 49 616 90 664 30 71 94 415 59 814 14 100 15 608 77
119 20 6611 820 44 566 69 742 10 192 50 28 67 86 34 538 56 525 58 528 80 199 74 803 80 219 60 644 49 32 3 712 81 46 31 390 35 298 40 338 31 558 72
120 20 6340 388 52 81 71 678 6 95 58 779 53 51 21 838 53 504 95 320 68 231 79 214 9 556 92 267 20 831 69 525 44 10 88 736 73 34 24 384 53 404 12
121 20 6212 728 69 335 67 82 81 726 6 172 78 682 37 208 74 148 7 201 60 269 55 646 86 526 14 468 74 820 67 94 33 497 65 322 11 136 93 180 73 526 76
122 20 6962 468 25 775 65 227 20 416 5 604 86 399 84 364 90 73 61 123 84 758 98 601 29 347 53 152 52 192 9 817 42 54 89 560 66 823 93 175 84 775 10
123 20 7560 186 42 55 97 814 75 781 29 520 49 509 96 376 71 708 50 114 7 436 29 503 84 843 100 106 33 275 10 815 45 694 87 712 24 410 87 187 85 407 69
124 20 7476 469 76 20 76 400 31 38 22 388 21 409 10 522 58 303 40 731 45 578 51 545 91 425 60 777 47 373 14 473 70 276 66 428 52 809 96 737 96 644 100
125 20 6624 791 97 841 20 53 17 563 6 434 41 26 41 30 93 515 89 846 15 568 21 348 8 130 11 632 15 114 5 37 96 653 5 836 30 549 23 139 48 176 25
126 20 7092 795 87 525 13 632 41 89 8 68 92 838 16 251 59 274 12 64 93 537 6 243 9 195 100 155 61 757 7 357 90 574 47 818 24 687 55 423 94 584 77
127 20 6478 699 29 777 92 40 97 434 50 719 33 664 90 331 27 311 82 120 78 346 36 429 28 15 66 81 39 644 36 731 57 821 49 137 75 406 10 382 49 11 2
128 20 7670 35 99 439 24 338 55 723 95 236 62 678 65 267 27 815 49 101 35 135 89 789 55 580 16 766 55 534 71 72 31 705 68 409 43 831 38 450 27 685 95
129 20 6404 770 11 651 6 366 31 470 3 133 71 654 40 416 83 629 100 92 6 591 6 8 39 72 34 655 62 532 91 588 16 506 84 39 97 19 3 547 53 268 58
130 20 5262 580 24 172 97 122 37 761 76 459 91 236 12 489 30 724 4 273 41 228 17 156 48 315 11 195 87 809 27 289 71 1 94 9 52 237 79 460 13 63 55
131 20 5891 224 95 446 21 592 91 679 94 126 9 587 98 327 85 825 49 535 84 131 98 173 16 248 39 697 42 26 33 94 72 151 28 649 45 332 19 195 100 327 54
132 20 6755 211 91 342 68 796 25 433 58 203 94 41 47 561 5 480 90 19 54 321 41 640 72 547 54 354 82 587 47 814 12 38 15 671 15 385 37 641 90 360 63
133 20 7291 398 60 716 77 225 40 609 16 657 78 427 28 547 17 676 63 434 33 619 85 683 97 564 3 158 8 452 56 501 20 174 37 123 88 580 11 147 95 424 83
134 20 6542 581 13 537 72 145 11 250 91 350 7 527 11 450 75 632 89 335 60 235 18 651 86 653 100 118 78 527 4 285 52 476 53 44 16 825 18 281 24 276 34
135 20 7330 808 12 323 3 70 15 433 39 248 73 127 15 599 46 779 7 418 11 530 49 127 37 502 77 579 11 832 37 560 53 68 93 479 25 699 40 710 54 272 13
136 20 6968 846 66 449 31 320 50 376 86 202 59 432 92 533 21 30 5 652 63 549 9 636 47 1 12 643 83 849 50 844 75 7 54 738 14 123 36 151 18 329 13
137 20 7421 492 83 790 60 782 49 576 25 843 97 485 82 195 58 412 76 133 53 505 73 680 34 117 66 772 44 700 89 809 81 224 50 63 31 170 21 491 84 38 53
138 20 6655 754 38 756 64 746 15 163 74 152 79 54 52 230 85 58 2 48 19 573 76 309 38 330 50 425 62 426 39 446 27 833 30 188 40 819 37 211 83 798 50
139 20 6058 113 47 816 33 353 20 618 89 442 46 304 22 521 72 122 19 283 44 583 16 382 40 244 90 438 77 372 32 196 92 52 2 216 96 658 26 370 97 490 5
140 20 6216 242 17 711 65 499 50 526 56 572 43 213 100 213 78 406 35 686 20 202 24 582 8 119 39 160 37 440 15 21 64 149 78 480 30 356 35 423 49 771 11
141 20 6810 720 24 200 55 192 14 506 56 93 21 284 46 359 67 114 8 835 88 396 37 501 33 598 25 276 74 215 63 297 75 740 21 597 96 678 80 570 17 342 55
142 20 7873 622 8 609 50 302 46 664 5 849 12 375 13 78 64 714 28 457 96 600 98 46 73 800 2 539 79 579 98 486 10 547 92 322 56 156 84 512 78 585 17
143 20 7808 86 36 158 6 596 81 718 60 820 83 260 78 555 87 717 29 425 77 266 61 368 41 800 72 687 3 216 47 542 30 461 32 265 49 190 81 788 85 842 33
144 20 7217 449 5 624 13 556 57 703 56 19 31 188 21 784 7 508 2 28 58 850 32 348 47 701 17 397 93 822 58 326 19 291 7 571 28 383 10 372 89 102 63
145 20 7609 290 2 638 93 261 17 527 27 532 50 781 51 808 28 480 95 465 98 345 83 144 85 117 35 710 23 391 40 386 51 738 72 451 54 804 49 270 30 374 10
146 20 6546 81 21 485 27 277 70 231 17 510 38 688 94 473 1 25 60 33 60 586 99 95 74 559 30 838 57 425 48 133 71 832 33 625 16 237 6 566 58 484 60
147 20 5624 20 14 46 54 762 55 323 38 602 54 74 82 549 18 667 36 807 12 311 9 142 69 65 18 788 72 164 93 141 62 121 22 397 45 266 100 640 54 146 7
148 20 5764 791 82 243 5 70 58 483 24 364 6 275 81 849 27 310 4 103 69 410 4 498 34 496 1 202 77 405 12 834 7 53 27 87 60 179 74 131 87 422 30
149 20 7087 803 78 738 79 343 46 514 49 357 96 674 12 120 69 356 3 487 58 332 7 560 64 589 52 240 65 801 36 526 30 411 78 425 25 83 86 329 5 171 86
150 20 5992 125 62 324 82 36 73 570 16 79 4 672 10 151 26 805 27 407 36 158 95 830 31 151 78 704 27 603 22 80 81 757 84 492 74 77 82 98 23 371 41
151 20 7573 757 95 273 39 757 7 174 76 405 50 121 27 544 23 389 46 283 90 558 4 650 57 360 95 33 66 743 6 454 52 391 24 691 5 656 92 768 21 460 80
152 20 7781 775 52 189 76 70 42 793 70 758 65 352 8 63 76 825 6 719 51 741 47 765 57 466 62 717 51 538 18 297 56 367 58 170 17 4 41 370 66 748 22
153 20 6028 331 49 708 99 164 52 425 81 321 21 382 53 93 50 252 8 592 67 137 27 543 14 768 49 106 58 595 92 299 24 573 27 367 76 487 5 390 19 2 69
154 20 6593 131 21 425 58 87 64 427 73 649 33 704 97 568 19 645 99 107 4 541 94 460 44 146 72 841 25 708 81 85 64 203 24 817 46 218 63 341 67 139 18
155 20 6840 187 4 382 89 619 55 293 28 406 84 19 39 134 33 682 60 238 14 550 12 1 45 654 88 464 28 850 2 472 4 141 29 439 38 745 7 762 58 513 92
156 20 7177 511 37 308 9 53 71 161 45 565 9 738 25 677 50 610 45 802 25 633 52 441 93 7 35 387 69 648 68 26 86 498 56 844 38 291 17 735 4 37 6
157 20 7170 1 90 417 18 545 2 761 22 135 52 426 20 513 22 473 16 373 7 489 24 304 97 821 70 672 35 827 31 591 84 128 2 296 52 307 64 191 17 693 84
158 20 6607 568 5 725 1 27 94 240 18 800 44 417 10 288 12 646 46 465 20 296 5 404 11 229 8 194 98 252 49 115 32 527 98 733 44 490 98 34 74 809 29
159 20 6101 192 3 147 60 228 90 63 78 236 41 168 61 696 28 821 18 353 2 715 56 410 49 520 90 314 89 300 88 407 53 112 7 636 32 563 83 689 53 57 100
160 20 6346 234 100 26 91 523 87 169 26 444 18 736 95 428 65 398 79 391 69 483 87 122 37 261 47 191 98 221 50 4 75 667 36 765 14 647 33 576 25 647 38
161 20 7295 132 85 113 16 449 88 698 64 131 27 763 38 297 97 608 51 406 57 304 49 445 42 614 91 642 4 830 71 258 15 225 12 323 93 601 71 765 54 515 42
162 20 7752 25 41 394 83 673 57 426 31 564 90 718 48 201 56 762 21 345 60 334 97 601 77 742 52 83 85 665 11 214 84 782 69 672 34 643 9 50 47 796 97
163 20 6396 500 78 174 94 199 89 305 73 483 100 322 20 718 20 119 82 584 81 722 14 11 28 395 51 534 89 180 53 488 14 366 27 31 100 419 72 792 94 653 40
164 20 6213 68 10 365 11 195 5 205 70 585 62 240 64 612 12 491 71 486 3 102 31 828 35 715 80 78 47 30 47 636 79 226 36 608 100 681 15 163 21 453 23
165 20 5348 337 82 233 1 66 82 815 64 562 33 779 79 285 1 196 28 260 86 45 38 199 41 676 74 187 58 676 95 129 2 405 35 170 20 51 27 18 66 597 93
166 20 7340 119 24 650 3 820 98 548 14 376 30 383 82 586 6 432 72 694 28 4 42 448 10 724 67 372 76 197 87 326 100 748 47 82 66 783 41 359 93 524 64
167 20 7472 428 23 336 60 564 17 610 45 5 12 394 45 747 72 38 15 367 22 323 57 587 73 87 31 659 94 837 50 838 62 581 31 400 7 764 67 72 62 704 73
168 20 7532 788 27 193 96 532 2 845 45 608 26 95 93 456 73 830 8 705 48 330 71 539 18 716 92 13 87 696 49 434 88 74 39 51 12 607 21 841 96 63 47
169 20 5922 680 68 781 27 61 67 265 17 340 78 534 25 53 78 707 54 137 46 143 3 234 81 532 59 274 27 259 96 170 72 850 82 128 25 232 64 308 10 715 95
170 20 7094 735 69 293 78 134 96 699 60 780 91 292 36 199 67 45 90 824 49 349 62 613 45 261 71 655 14 113 57 51 45 541 63 756 52 678 51 267 56 583 25
171 20 5826 670 32 60 85 740 22 440 78 466 90 156 85 454 24 764 67 463 59 421 85 111 76 137 57 23 46 434 15 149 94 192 52 445 86 274 89 49 40 835 68
172 20 5678 107 11 14 59 22 67 326 89 15 11 821 32 197 19 774 75 240 55 289 35 330 68 209 42 622 82 49 37 684 16 757 26 144 66 688 43 139 10 671 20
173 20 7566 191 28 210 86 794 57 671 80 514 7 220 63 20 23 671 38 186 92 529 12 281 38 770 42 484 17 385 1 722 9 379 77 602 20 511 4 766 71 552 30
174 20 8282 760 89 517 18 832 86 517 56 506 57 543 53 573 7 593 56 299 33 850 3 289 40 470 61 605 92 814 21 722 20 270 25 370 94 712 2 53 41 58 64
175 20 4572 312 21 619 22 477 56 134 19 138 72 245 25 215 18 481 20 121 8 18 93 665 54 103 95 117 89 364 77 160 21 593 62 633 14 92 95 167 12 61 10
176 20 5587 121 84 769 55 281 78 269 79 785 58 545 65 522 85 452 71 523 57 169 31 20 20 156 54 353 92 753 95 368 57 53 16 97 56 277 100 130 33 341 99
177 20 6997 637 16 459 56 703 66 619 28 451 99 557 23 709 66 184 96 17 99 529 13 15 61 763 90 172 2 752 73 291 29 679 66 142 7 158 93 814 68 96 29
178 20 6142 523 25 173 70 328 78 847 94 303 42 316 60 69 52 371 76 738 71 640 75 608 35 299 1 820 2 211 41 351 33 95 77 348 87 186 46 156 9 296 40
179 20 5640 288 28 109 54 377 94 404 98 284 37 676 86 841 5 678 9 496 86 188 1 150 1 248 40 187 38 111 70 491 81 365 83 425 26 126 8 63 85 544 100
180 20 6868 237 48 780 68 413 10 55 3 314 75 410 55 120 94 594 52 114 7 102 25 320 64 753 38 706 9 711 2 152 32 530 9 462 95 257 53 842 79 714 15
181 20 7052 111 21 647 51 503 13 410 9 764 15 170 64 412 63 639 90 390 69 751 35 209 62 175 88 534 61 693 31 18 35 663 58 717 67 157 5 667 48 185 14
182 20 6454 539 1 84 76 110 26 238 90 518 45 848 77 805 42 24 33 594 18 316 39 814 52 434 90 179 61 167 44 601 70 107 92 457 5 623 6 232 78 378 63
183 20 5288 446 78 277 93 253 7 439 82 66 36 65 39 262 47 62 16 351 62 732 56 392 76 321 74 443 98 131 17 402 50 318 18 350 37 372 47 374 19 555 5
184 20 6799 121 15 177 28 571 86 829 58 181 59 321 10 760 65 432 98 110 61 563 5 492 54 506 98 820 75 67 26 560 46 684 25 838 50 81 8 105 7 281 29
185 20 6722 198 45 784 87 321 86 393 7 98 10 212 54 355 42 564 11 587 69 332 31 374 77 665 51 233 90 827 30 633 40 64 42 811 61 53 10 767 5 132 24
186 20 4254 23 33 22 48 28 81 138 53 166 99 39 51 711 95 447 46 658 6 418 91 108 83 311 94 16 89 669 98 231 73 224 92 14 70 214 37 817 99 64 64
187 20 6061 360 91 449 27 119 2 377 77 385 98 697 22 642 21 470 28 466 86 52 28 794 72 705 42 291 78 124 86 596 21 318 32 171 37 307 60 186 77 68 60
188 20 6683 216 51 733 73 765 82 308 46 691 28 447 54 475 81 86 86 58 28 320 45 772 9 606 71 550 50 540 22 350 22 647 92 174 83 159 13 200 67 257 91
189 20 7283 519 2 669 32 604 18 67 17 733 45 679 57 651 27 470 50 285 46 346 92 566 8 742 70 255 85 7 34 572 9 419 26 220 47 13 82 793 13 494 18
190 20 6476 708 60 600 100 132 63 551 12 121 35 219 19 270 78 442 14 61 35 547 15 336 59 475 84 665 15 36 54 373 45 760 93 271 8 558 53 792 44 179 80
191 20 6545 569 100 523 60 471 15 457 84 441 78 822 44 34 62 149 43 462 60 304 22 209 50 509 84 491 19 420 73 71 85 619 27 103 14 561 21 794 10 173 31
192 20 5387 63 67 252 79 28 4 330 32 433 75 149 76 612 59 13 62 56 42 44 94 380 64 647 39 208 44 730 52 634 32 341 23 341 82 456 45 709 82 308 78
193 20 8190 372 22 701 65 603 24 241 49 625 53 225 78 815 39 118 45 408 78 822 21 704 76 707 50 541 50 311 85 740 59 318 92 465 7 505 74 419 57 598 8
194 20 6364 428 84 717 10 733 36 131 65 32 96 421 61 639 12 167 38 22 73 43 13 791 80 534 96 223 28 590 21 763 23 321 59 512 56 393 19 288 15 207 2
195 20 6696 285 21 32 31 782 14 315 61 148 11 835 53 369 99 191 46 339 42 182 83 350 58 68 8 228 42 235 26 503 79 459 7 767 38 772 25 729 26 781 91
196 20 6916 615 88 817 43 60 62 443 59 263 59 755 65 64 47 676 18 361 15 397 62 817 46 109 5 659 17 378 54 721 14 190 1 175 29 317 40 255 72 574 37
197 20 6882 585 12 847 31 194 40 485 37 698 86 191 65 320 17 518 48 399 21 241 97 124 37 839 17 795 89 432 83 400 71 301 75 436 46 692 62 100 26 6 49
198 20 6940 431 62 587 81 686 24 496 69 361 63 101 31 414 84 80 35 663 16 474 94 358 89 681 7 327 57 145 31 696 87 55 77 431 75 694 74 590 32 405 4
199 20 7878 551 8 622 3 833 74 479 93 119 42 601 62 660 71 692 47 28 77 19 43 709 36 526 29 77 46 550 79 839 25 637 38 376 81 436 40 592 57 502 93
200 20 6341 535 7 95 20 578 55 538 28 608 68 98 23 425 43 395 36 262 23 313 22 745 95 787 90 178 50 394 48 139 90 20 74 475 66 184 76 698 45 460 30
201 20 6748 441 31 91 55 800 49 359 34 389 15 284 12 671 6 368 78 91 62 162 41 144 43 685 46 806 80 419 64 608 16 602 92 487 50 292 42 567 6 170 50
202 20 8664 263 51 800 78 839 18 776 36 58 43 173 49 818 80 785 95 530 31 285 89 300 23 408 72 702 46 847 77 794 99 481 86 328 6 810 22 254 54 580 81
203 20 6556 215 64 469 46 126 36 484 71 596 66 238 77 796 70 698 50 502 11 125 43 256 83 13 26 558 22 564 83 765 55 590 56 129 27 372 71 217 68 483 49
204 20 5773 512 56 327 47 103 74 272 73 64 42 793 97 60 62 697 61 288 40 750 57 781 46 214 33 386 86 274 24 190 86 146 84 52 81 275 31 473 35 560 47
205 20 7816 682 96 450 95 21 99 85 1 711 45 41 97 556 52 681 45 340 38 751 80 59 51 430 4 823 36 45 24 650 22 671 54 748 29 769 67 761 82 497 97
206 20 6401 704 60 500 55 207 59 636 8 122 36 222 97 635 19 87 53 299 62 540 49 586 94 473 5 230 89 756 6 589 91 19 12 673 92 480 82 95 18 149 20
207 20 8316 616 68 518 14 845 37 617 90 762 84 501 33 75 75 557 41 709 26 781 8 577 87 110 86 576 56 28 11 695 13 779 73 92 75 680 16 234 94 643 5
208 20 5032 35 69 370 61 422 56 31 65 825 29 374 55 242 45 544 7 22 98 671 22 567 97 20 41 597 19 72 83 427 27 162 62 36 18 192 80 308 45 373 26
209 20 7924 691 12 662 20 594 90 765 46 467 56 71 93 577 4 26 58 778 72 673 14 832 20 595 50 316 13 370 93 828 70 390 62 335 24 365 94 425 11 146 28
210 20 5824 292 35 464 64 498 3 351 2 694 54 1 18 305 81 5 86 358 88 555 25 808 50 591 83 93 68 549 76 220 59 385 12 13 1 236 88 252 1 610 67
211 20 7309 722 96 793 79 19 5 731 69 51 57 199 5 389 2 784 63 801 64 472 25 671 91 712 27 179 72 641 99 369 100 86 69 483 43 762 21 54 1 219 28
212 20 6116 260 60 245 98 295 56 150 85 216 92 82 100 836 67 56 66 755 61 466 20 841 61 622 8 809 20 328 85 712 69 14 25 394 5 355 13 122 1 88 33
213 20 6723 572 87 101 18 215 38 54 89 729 63 282 35 91 44 757 31 588 39 807 49 436 51 546 98 575 31 303 94 296 72 832 7 207 99 83 67 584 93 346 18
214 20 6827 289 93 408 61 485 92 532 34 449 25 765 74 186 91 71 41 505 68 524 28 683 32 285 3 563 29 550 52 198 35 503 40 259 44 232 78 712 25 335 46
215 20 4426 119 97 275 67 304 24 438 16 317 18 26 91 427 22 160 10 25 2 583 82 99 59 342 9 138 96 183 77 180 62 327 48 829 91 330 32 128 78 303 48
216 20 5297 83 63 350 78 530 44 128 88 32 22 321 43 90 37 815 37 632 100 492 19 271 27 62 45 54 11 765 19 714 32 6 85 465 78 493 22 153 75 166 84
217 20 5799 769 42 287 51 639 45 634 69 475 88 486 79 314 32 771 46 174 86 228 26 8 72 15 62 425 89 2 11 97 59 523 1 351 57 228 75 793 92 30 48
218 20 7764 214 29 249 64 2 79 92 47 558 62 443 62 685 77 589 26 690 12 819 18 768 43 326 72 450 49 526 53 538 44 694 12 454 42 472 22 709 60 428 83
219 20 6304 224 75 48 46 419 36 58 44 688 5 572 91 124 28 685 47 435 3 584 52 605 17 502 23 372 33 551 10 173 82 113 53 737 18 439 7 184 73 367 15
220 20 6857 243 82 143 34 347 94 380 54 525 49 673 60 513 96 204 74 615 52 321 73 837 96 308 77 546 31 224 59 438 40 644 44 607 69 3 68 440 7 561 99
221 20 5473 47 14 413 92 302 46 841 26 359 65 110 80 470 33 280 69 135 2 341 100 39 82 492 7 849 25 20 35 197 92 166 78 807 91 270 91 581 52 123 19
222 20 6946 436 73 2 63 639 92 545 33 839 55 600 27 703 91 436 6 572 18 244 20 385 68 540 51 436 22 403 44 27 77 64 62 811 77 317 65 1 40 683 99
223 20 6177 275 78 587 71 251 48 379 92 342 96 116 73 640 82 172 75 409 74 355 58 690 83 98 51 17 76 9 77 846 87 427 32 829 28 213 95 714 68 353 61
224 20 8588 786 89 821 45 607 10 687 24 285 75 738 73 567 84 391 69 706 58 302 21 718 77 743 51 250 16 438 58 643 37 332 58 171 8 464 6 519 99 568 3
225 20 5271 56 69 546 43 481 98 566 80 4 35 137 84 359 42 39 85 635 63 364 62 52 54 121 12 153 13 508 52 525 32 228 86 595 66 173 9 508 81 539 85
226 20 6728 510 91 291 28 722 1 164 36 293 17 253 4 845 72 411 50 71 15 35 80 2 43 489 41 662 5 24 53 561 25 707 22 447 58 836 100 446 22 641 23
227 20 6753 344 63 818 15 445 87 194 14 445 66 525 21 682 59 509 79 683 9 834 69 169 61 185 82 340 65 292 36 426 19 425 38 131 20 513 60 405 57 77 16
228 20 4869 188 50 176 12 66 33 27 89 148 88 732 90 144 54 54 83 670 88 297 39 418 14 7 32 636 55 66 100 714 21 101 23 504 28 362 91 425 26 352 55
229 20 8000 281 26 33 38 173 37 762 98 764 47 744 53 712 8 333 37 394 61 547 17 353 28 814 64 293 57 283 80 839 45 527 49 836 19 135 37 433 79 744 75
230 20 6902 622 32 630 2 704 95 330 37 244 55 88 44 115 50 163 80 389 81 674 54 206 47 813 56 849 14 780 76 473 88 76 32 202 86 416 32 424 70 430 54
231 20 6632 444 63 55 77 37 63 565 3 607 64 559 20 275 47 732 39 148 91 540 40 349 33 248 37 775 63 478 57 734 54 128 65 204 71 232 90 384 52 796 21
232 20 6372 207 26 304 80 225 87 214 56 647 100 324 81 825 87 776 80 773 3 87 2 167 76 591 93 332 71 638 15 37 23 579 1 521 27 292 69 71 100 356 75
233 20 6413 31 53 2 42 93 6 164 26 402 52 368 42 319 11 263 100 695 10 752 10 626 77 197 61 197 4 335 93 812 61 720 20 418 67 637 97 336 79 650 3
234 20 6647 532 37 479 83 635 38 169 82 507 51 108 1 651 86 166 38 192 84 820 82 112 58 424 61 602 55 449 24 572 72 546 42 114 20 525 55 574 42 132 36
235 20 6839 731 21 369 23 477 51 330 52 812 31 415 82 539 5 216 29 615 65 81 89 210 54 326 67 738 71 528 98 599 43 255 44 240 57 24 69 218 24 826 93
236 20 7548 442 63 709 53 74 73 814 60 483 79 72 52 758 80 49 8 60 70 648 3 778 24 714 41 596 6 475 9 5 53 694 28 135 85 799 62 373 26 758 62
237 20 6863 613 2 790 65 655 20 445 12 516 43 755 60 675 64 567 5 64 7 130 34 692 35 272 2 424 62 196 99 389 88 54 98 393 21 233 64 249 91 467 3
238 20 7453 602 79 47 83 570 60 796 71 437 17 670 23 322 21 793 4 623 66 545 45 272 44 191 49 222 81 412 5 471 53 107 3 312 78 656 12 574 100 695 20
239 20 6955 432 60 563 39 676 76 335 31 210 37 709 46 398 59 24 31 15 52 114 57 702 1 693 84 13 94 797 37 417 76 717 40 289 49 802 90 504 7 284 13
240 20 6653 550 51 8 81 328 86 714 30 668 22 247 37 260 51 677 10 508 99 395 43 280 78 10 15 758 22 533 42 248 7 89 65 90 75 535 82 845 99 574 45
241 20 8716 516 17 394 24 489 90 612 22 81 34 166 13 771 100 523 38 627 72 550 23 745 4 494 42 422 33 773 26 482 30 718 22 814 20 578 72 486 18 654 77
242 20 6116 732 5 267 40 146 33 56 25 459 69 14 25 634 30 123 53 797 28 197 19 135 56 443 67 340 68 553 78 569 59 331 48 376 79 634 76 612 7 227 78
243 20 5961 735 2 244 30 810 39 35 8 371 78 487 32 24 50 401 70 253 16 622 29 847 66 322 1 161 87 490 76 518 5 16 22 465 45 1 67 542 62 108 74
244 20 5538 512 92 66 100 274 75 348 54 30 19 150 91 687 38 431 79 64 47 826 34 490 61 4 17 61 70 110 5 240 24 740 35 245 29 449 66 354 54 842 20
245 20 6656 618 34 627 96 110 99 1 48 298 32 751 59 587 24 455 79 578 94 182 42 724 3 479 69 431 52 158 98 11 50 698 28 279 37 674 70 603 49 57 51
246 20 6884 363 79 543 66 428 57 662 81 484 95 217 81 33 31 837 22 403 98 700 8 601 33 196 77 718 8 376 20 3 44 356 30 34 31 694 31 656 96 302 85
247 20 7931 6 40 816 98 535 29 542 1 426 36 747 53 648 61 275 73 749 29 846 50 704 100 40 3 484 56 724 91 168 2 429 39 547 82 474 83 324 56 430 38
248 20 8134 525 45 360 46 650 75 597 65 659 64 793 68 807 11 653 1 357 36 463 28 265 31 338 13 185 59 650 66 600 54 469 98 202 63 630 35 365 95 600 59
249 20 5105 128 95 479 52 117 85 302 74 270 97 47 57 253 51 600 93 237 36 14 44 704 8 679 98 279 34 152 10 238 5 349 34 10 46 320 86 399 87 805 66
250 20 6032 303 19 174 95 176 73 168 46 613 57 504 67 801 66 38 96 137 58 96 54 101 97 744 48 293 48 186 48 341 38 614 88 628 26 701 47 658 2 264 35
251 20 5968 716 90 58 57 262 97 834 34 205 28 496 23 229 81 205 59 831 10 205 87 109 9 404 65 698 71 87 81 184 92 385 44 44 97 627 66 748 29 134 25
252 20 7541 337 87 46 67 606 20 830 27 821 66 634 24 299 45 792 9 261 39 603 98 95 83 592 2 35 33 710 41 170 28 546 84 772 13 320 67 163 82 795 93
253 20 6610 393 86 131 58 184 28 368 73 505 52 345 61 592 43 59 93 655 4 572 68 288 34 770 15 568 66 187 33 493 16 263 51 59 90 433 82 660 47 738 84
254 20 7468 609 3 403 44 597 10 586 53 655 87 82 87 658 68 59 14 754 91 435 56 471 93 169 66 500 40 289 35 549 11 505 85 479 81 697 77 822 7 16 82
255 20 6610 657 48 191 91 275 13 514 15 4 19 701 84 137 78 641 89 64 44 621 35 290 77 819 99 594 55 112 46 617 44 280 31 566 75 739 78 432 79 9 32
256 20 8560 466 90 498 82 829 33 262 63 660 45 691 23 545 39 351 17 430 42 485 52 472 42 765 6 34 71 819 65 716 35 845 31 448 7 286 85 578 43 520 25
257 20 7260 146 77 613 9 836 44 628 88 540 37 787 29 322 30 353 36 390 97 342 11 690 7 482 21 552 28 27 49 840 22 1 61 107 99 291 44 782 25 347 41
258 20 5400 318 34 194 26 736 36 386 80 133 10 107 67 561 45 430 18 73 15 216 75 567 46 407 62 392 59 7 9 555 68 291 55 319 12 33 10 440 47 586 35
259 20 5310 303 49 35 96 153 23 76 96 223 56 762 46 23 19 7 46 703 41 703 14 736 52 219 68 228 36 186 9 33 71 764 75 391 77 612 24 457 44 24 75
260 20 7712 821 47 526 29 128 69 285 23 183 54 171 55 839 92 667 28 571 78 646 53 810 70 630 68 91 40 574 27 666 62 274 60 418 79 111 52 752 43 477 77
261 20 6381 247 63 798 70 416 76 442 17 43 20 500 98 527 33 426 62 709 66 160 53 89 11 629 81 308 40 559 37 550 44 403 89 279 63 206 50 20 13 666 25
262 20 7021 576 5 782 11 30 18 647 85 289 3 107 52 654 91 54 3 160 78 451 20 726 74 475 26 692 65 162 3 246 62 66 30 825 92 821 10 188 87 826 26
263 20 7064 568 92 642 20 626 53 336 40 242 14 510 97 664 25 584 47 78 98 831 26 624 40 130 50 738 35 92 50 562 13 560 29 251 90 592 59 159 97 41 82
264 20 5942 440 48 295 11 557 13 190 78 489 58 265 42 68 25 64 62 599 18 798 52 313 12 707 20 103 38 111 100 270 40 294 50 788 20 222 50 749 6 106 17
265 20 7459 425 70 345 77 771 85 636 21 731 84 194 9 832 66 347 83 74 6 469 56 629 87 664 70 569 92 704 24 491 10 303 87 498 53 185 58 410 67 47 83
266 20 7024 33 67 190 85 227 12 95 72 374 68 465 94 764 78 826 64 384 4 487 8 295 90 667 27 62 24 693 72 504 67 593 82 515 68 129 21 692 94 786 93
267 20 5419 263 21 508 37 649 55 402 99 185 24 458 79 361 88 351 98 44 22 616 35 562 17 248 54 112 87 265 34 755 55 143 18 115 94 351 67 368 57 18 9
268 20 8979 228 22 521 36 425 36 735 100 656 64 478 76 848 65 478 26 534 28 586 80 684 91 544 47 522 33 485 49 41 81 649 37 568 67 805 90 653 82 784 67
269 20 6228 11 17 596 14 43 11 46 59 483 36 708 35 421 55 66 62 384 42 356 78 629 90 575 84 600 9 277 35 535 73 457 3 190 74 490 24 194 40 724 35
270 20 7976 616 36 62 54 250 84 758 64 174 31 738 74 606 71 772 22 302 32 735 77 461 88 340 62 86 19 474 26 686 22 631 32 826 94 280 57 460 4 713 90
271 20 7205 160 69 401 80 587 59 67 69 791 75 695 61 415 66 510 22 45 56 471 63 444 27 818 73 673 67 742 18 272 99 180 58 308 65 309 72 669 98 450 25
272 20 7596 582 36 299 11 61 66 386 25 233 81 293 99 164 89 725 82 568 74 746 78 810 86 506 81 257 40 141 68 703 25 676 1 433 24 347 13 754 84 812 27
273 20 7968 792 47 496 1 163 48 823 95 680 28 458 86 251 6 653 7 81 99 260 78 546 12 368 53 718 88 749 7 522 87 619 23 405 45 691 25 32 73 653 56
274 20 7468 673 27 677 72 438 66 587 59 354 11 431 66 297 55 569 88 547 52 582 83 728 3 21 27 488 37 490 99 537 87 341 69 143 35 700 38 212 39 521 2
275 20 6444 596 54 842 52 132 53 109 60 127 92 417 88 443 51 463 100 49 67 646 55 269 40 803 64 787 22 398 67 374 84 593 50 122 22 281 11 412 100 192 71
276 20 6506 24 98 262 16 64 13 479 76 55 73 595 13 408 27 552 45 170 94 781 40 177 71 86 26 540 55 380 77 218 68 677 64 570 63 650 58 625 58 820 91
277 20 7313 420 7 405 75 412 42 772 93 718 70 602 6 760 84 353 65 817 92 512 14 411 96 89 85 322 67 122 32 359 27 432 26 551 85 683 17 377 77 25 17
278 20 5282 633 23 366 34 84 84 709 34 387 89 128 24 573 47 90 87 599 85 748 13 96 42 42 22 59 42 781 18 550 60 125 54 124 55 137 84 318 71 54 5
279 20 6248 168 45 374 64 278 83 174 33 119 46 394 84 129 76 345 57 752 26 487 38 210 81 86 79 393 27 157 17 845 69 821 80 542 49 763 78 386 96 388 67
280 20 5703 264 46 289 96 647 19 594 10 255 80 168 19 28 13 73 50 420 97 831 10 99 91 248 8 773 85 569 82 113 96 211 46 277 83 794 23 462 82 14 11
281 20 6588 128 20 127 57 553 15 275 22 454 89 628 80 814 45 452 26 751 98 446 25 97 32 338 31 170 83 817 33 141 27 565 92 716 79 295 3 18 13 451 77
282 20 6881 525 76 692 11 201 49 446 45 307 24 331 90 775 53 83 35 534 98 108 69 620 17 703 1 684 18 818 77 436 43 192 16 294 1 361 79 461 37 31 49
283 20 7373 62 36 85 34 675 37 478 58 248 1 202 61 822 59 842 55 790 57 835 77 200 49 787 82 624 91 136 35 181 15 831 38 219 38 618 57 568 13 14 49
284 20 6473 848 39 97 38 476 95 559 52 732 53 11 2 265 10 18 9 642 67 798 83 41 83 645 64 140 47 217 100 458 73 97 18 141 76 264 85 831 11 812 72
285 20 5631 673 61 223 67 646 80 170 15 543 91 350 80 136 1 587 66 448 66 342 91 132 38 507 85 34 72 121 77 500 21 563 93 312 2 536 7 178 90 38 60
286 20 3865 58 9 46 73 441 33 100 33 249 73 23 3 156 31 75 3 25 72 77 91 59 90 582 75 27 93 217 11 362 96 332 51 495 64 792 83 442 82 274 58
287 20 6146 641 93 281 42 813 98 361 50 583 25 400 45 87 100 353 53 8 90 172 88 733 62 824 29 253 60 464 79 321 85 218 37 140 77 33 49 362 70 636 95
288 20 6545 108 18 490 30 201 44 443 4 442 68 575 87 545 37 701 51 685 63 848 95 711 74 79 83 810 49 107 41 114 46 569 6 388 38 221 57 22 16 123 19
289 20 5816 23 73 440 65 494 16 428 31 146 58 510 1 692 71 527 58 156 29 672 23 11 5 231 23 94 100 814 10 358 27 212 93 701 73 246 3 124 67 392 43
290 20 7770 171 65 657 47 68 92 652 60 357 98 246 47 693 83 406 86 276 65 498 87 334 57 727 82 763 12 244 59 737 16 549 10 628 49 294 51 819 32 594 95
291 20 6524 265 12 320 47 540 45 429 76 676 62 230 29 309 89 347 2 50 94 311 3 154 33 185 6 588 29 680 49 80 39 775 87 608 75 428 21 359 8 821 39
292 20 5424 608 22 561 17 169 74 342 55 175 31 132 48 168 69 200 23 714 70 778 84 146 60 663 87 54 45 33 25 462 1 455 21 25 48 349 64 226 23 521 49
293 20 7345 661 36 111 100 580 50 488 94 405 36 71 46 699 89 352 27 378 20 691 17 298 74 821 49 767 56 161 56 516 80 631 66 575 32 343 33 536 50 98 97
294 20 6126 525 15 113 16 108 35 799 9 168 97 234 1 37 81 39 98 265 37 2 14 757 30 609 44 555 55 644 99 391 82 429 83 401 98 699 79 377 43 506 3
295 20 7104 211 58 414 88 349 76 147 18 229 67 718 16 344 78 243 74 748 85 405 51 657 51 838 34 214 26 297 79 574 73 767 55 402 19 380 39 390 14 554 95
296 20 8372 723 85 222 8 623 76 519 10 441 87 754 43 68 73 781 59 795 96 611 24 54 33 89 79 702 26 777 45 717 34 155 79 501 84 650 37 501 44 783 91
297 20 6348 651 39 209 19 398 93 20 11 509 13 168 85 480 41 315 94 819 59 183 45 228 24 822 21 453 54 465 80 681 5 576 96 57 65 283 43 432 82 186 64
298 20 5286 675 28 6 72 218 100 67 69 623 96 145 77 314 57 317 83 672 95 650 97 406 44 136 61 29 99 22 8 570 4 121 2 456 74 313 4 325 38 543 80
299 20 7267 405 76 685 34 579 74 478 18 348 87 358 49 79 18 263 7 310 59 729 10 511 65 739 3 755 88 367 4 328 69 523 10 644 100 612 99 229 93 142 1
300 20 5616 259 79 131 28 324 13 166 12 123 14 206 64 263 40 430 34 299 50 650 91 72 31 717 93 132 77 504 59 62 16 419 89 450 60 689 90 801 71 323 32
301 20 4291 848 12 452 6 187 51 120 73 365 16 527 60 143 96 59 83 844 39 191 46 232 62 137 62 423 72 350 5 57 26 202 78 59 62 131 85 4 21 33 80
302 20 6220 363 71 244 71 141 86 118 60 339 26 294 21 373 5 421 80 339 62 605 88 757 2 472 25 76 62 203 87 593 69 120 36 657 47 828 30 460 56 372 93
303 20 6420 68 42 295 4 74 13 141 49 850 46 124 9 337 95 738 58 674 52 480 73 383 84 455 61 729 11 783 2 354 74 693 70 222 67 397 50 92 36 136 98
304 20 6880 290 93 422 94 106 63 354 69 663 65 366 55 663 45 57 44 99 74 727 15 279 38 475 47 465 55 659 65 458 77 439 48 261 2 702 24 304 95 811 32
305 20 6272 501 61 525 96 118 28 730 69 574 20 238 60 618 32 114 98 425 66 28 61 179 15 253 46 632 15 365 31 23 94 289 71 291 86 839 64 437 21 662 71
306 20 8162 547 93 712 74 193 87 796 52 813 13 801 33 331 14 663 45 536 15 75 33 639 13 849 100 423 30 626 97 271 52 544 61 301 7 332 90 5 46 746 85
307 20 6958 847 6 837 58 72 32 674 21 401 77 449 69 630 73 593 3 80 5 442 96 481 62 90 24 26 34 421 7 726 49 814 84 219 13 378 72 379 64 139 85
308 20 6716 430 26 126 8 90 58 667 55 332 25 103 92 411 28 848 81 776 74 84 23 295 33 287 99 410 5 358 29 314 85 441 40 715 32 779 34 474 12 455 85
309 20 7110 847 59 793 14 693 13 365 20 203 23 787 25 504 80 347 47 240 26 435 36 379 25 359 25 834 53 430 59 173 40 280 10 263 79 190 65 191 95 575 95
310 20 5342 246 2 612 57 451 2 149 57 255 25 256 97 339 97 280 35 241 24 684 51 445 98 39 86 68 24 247 75 409 92 574 16 809 62 467 1 24 74 83 69
311 20 7942 470 49 614 51 393 19 842 96 113 9 837 26 247 29 401 9 255 12 777 69 743 60 252 47 833 62 261 94 438 9 209 47 631 51 624 21 704 33 284 52
312 20 7549 515 31 509 31 612 90 454 6 158 10 36 32 546 86 180 89 98 100 250 100 755 27 449 1 786 61 711 1 609 74 116 8 457 87 795 34 569 69 832 84
313 20 6747 406 66 462 56 126 59 39 29 508 66 818 82 803 62 414 59 34 45 611 36 178 54 26 60 640 45 597 24 143 14 567 71 263 33 835 18 519 23 445 12
314 20 6776 287 28 816 67 586 87 454 9 566 20 594 32 481 48 421 31 193 20 600 71 135 9 565 80 566 37 616 48 168 23 433 52 628 25 339 73 18 71 4 82
315 20 6716 63 7 392 53 279 38 755 26 690 59 424 24 502 76 811 34 761 80 558 84 75 72 288 58 300 72 573 3 181 71 642 74 80 40 97 14 611 88 313 55
316 20 7093 677 93 426 74 696 32 468 99 614 4 205 34 133 52 425 2 694 89 637 91 385 49 65 88 39 55 692 40 142 3 228 15 309 75 810 4 783 1 439 95
317 20 6948 205 47 593 6 137 6 512 32 334 96 489 71 173 61 434 8 843 48 419 1 554 65 475 84 357 65 485 55 812 84 306 37 230 25 343 63 601 74 383 44
318 20 7372 503 41 445 4 719 35 671 47 48 58 33 41 812 43 498 37 753 93 85 78 573 17 475 58 621 82 663 8 367 16 709 80 55 46 595 7 382 90 209 45
319 20 6836 289 14 279 1 378 26 412 70 678 61 495 47 786 66 661 22 69 21 845 28 84 49 505 58 476 97 201 3 695 37 528 20 455 6 189 81 234 71 286 71
320 20 7119 726 80 287 26 240 18 408 32 406 10 176 43 445 54 637 43 606 12 444 32 261 33 542 70 688 26 184 78 172 89 344 33 800 19 85 38 761 63 687 88
321 20 6018 383 27 214 53 212 43 777 82 108 80 672 31 205 13 825 43 289 94 144 62 283 35 366 98 408 99 45 24 36 70 402 5 828 70 713 39 143 28 470 29
322 20 7594 680 57 777 44 522 24 630 6 303 50 463 41 256 28 832 39 309 91 191 64 354 22 282 16 470 40 799 13 561 7 558 48 742 65 39 35 565 84 160 99
323 20 5802 29 78 354 30 498 97 45 59 478 64 782 84 178 63 244 26 118 42 398 96 46 46 361 67 753 59 591 70 602 29 409 94 582 41 523 96 118 21 144 15
324 20 6220 441 28 171 20 77 25 754 98 524 35 722 35 307 54 705 82 279 17 271 24 554 83 216 46 228 95 741 63 330 70 602 4 643 19 54 91 39 69 117 89
325 20 7888 400 36 296 14 411 49 794 78 521 88 710 60 536 74 308 33 782 30 580 7 775 76 474 30 496 20 700 47 310 42 454 19 189 18 404 86 294 5 426 34
326 20 6800 32 80 794 84 349 73 122 46 791 46 203 30 171 53 259 63 743 29 646 28 811 52 690 61 613 100 834 24 119 31 202 82 242 10 45 82 115 15 720 68
327 20 5955 773 19 800 7 47 32 127 57 596 84 655 66 30 80 85 54 172 57 700 83 274 74 424 25 254 61 666 10 237 77 361 51 487 4 71 82 672 80 13 57
328 20 7247 695 13 239 50 728 12 667 83 719 2 612 33 510 100 230 5 846 80 224 26 223 32 416 93 373 13 472 88 185 47 453 51 52 28 370 9 659 65 386 83
329 20 7374 824 29 146 39 738 74 782 6 149 13 728 61 531 62 309 81 222 31 845 22 519 85 508 8 152 41 46 6 143 35 627 41 695 94 557 45 264 9 433 28
330 20 7641 448 23 93 72 803 15 322 35 528 32 837 59 671 70 15 55 757 37 7 57 793 87 656 16 607 29 352 44 476 70 688 18 304 89 603 98 399 32 193 62
331 20 6910 833 12 790 37 844 73 838 11 304 80 560 42 134 40 261 72 809 6 207 4 392 7 46 76 331 83 131 57 371 37 189 90 137 61 539 37 297 42 625 14
332 20 6599 427 99 497 2 694 58 745 72 150 38 127 30 744 99 242 2 130 22 489 12 104 96 619 67 627 29 497 18 431 2 767 63 74 40 378 14 157 49 350 21
333 20 6675 456 26 86 7 468 3 588 9 536 43 166 95 415 88 527 87 264 55 408 3 388 83 351 46 78 94 668 49 483 6 558 22 652 61 415 59 803 22 34 52
334 20 7416 223 98 221 34 838 14 567 44 820 91 696 83 23 55 402 65 739 81 491 98 218 93 281 52 216 12 605 2 190 36 116 43 562 48 837 24 793 59 433 15
335 20 6639 198 92 486 16 89 71 145 56 367 34 114 24 61 49 744 71 724 14 57 55 647 87 609 48 840 66 626 84 718 28 238 9 298 67 398 98 126 6 814 63
336 20 7744 484 8 472 71 103 100 234 22 462 60 271 99 368 73 524 87 790 51 260 92 502 54 657 83 679 47 54 19 181 3 807 31 532 79 773 1 716 22 811 1
337 20 6731 346 5 697 12 605 59 412 33 579 3 408 45 677 36 106 24 20 53 680 78 238 77 485 84 369 68 498 69 468 30 253 86 120 54 673 68 145 69 635 16
338 20 6972 760 41 404 54 649 19 616 62 156 89 469 41 604 37 850 69 487 17 214 42 277 66 164 98 749 37 536 23 368 5 420 63 19 17 308 34 260 9 405 15
339 20 6884 650 14 77 98 687 71 533 38 103 69 327 3 542 88 5 28 433 28 471 35 303 92 270 71 324 72 346 4 641 54 52 63 736 7 741 96 626 48 738 32
340 20 7561 804 44 782 75 703 72 266 96 398 44 719 1 96 70 494 68 529 32 844 5 424 30 300 86 709 100 441 18 37 2 340 1 170 46 593 78 645 98 158 98
341 20 8326 586 12 622 68 697 21 386 93 430 99 243 39 294 96 828 86 720 82 818 36 247 68 554 28 825 34 804 100 55 73 434 95 58 24 653 37 831 31 323 44
342 20 6907 654 90 267 65 483 96 663 87 116 62 638 21 296 25 824 17 35 44 551 70 283 19 824 24 21 24 82 32 824 4 254 64 436 67 219 28 583 54 581 78
343 20 6880 538 63 416 65 454 4 653 61 822 80 179 74 84 67 384 89 423 94 48 86 486 12 461 46 85 67 571 38 540 11 697 88 178 73 774 64 20 21 787 15
344 20 7092 638 96 766 37 186 93 327 58 772 38 125 6 438 31 213 14 42 45 805 15 155 78 416 10 788 15 819 71 265 56 314 20 3 24 646 42 770 36 377 18
345 20 7100 229 12 534 31 131 85 845 45 599 17 109 29 284 42 420 71 606 24 298 45 599 18 793 45 542 48 20 20 647 33 727 51 139 91 669 42 176 11 509 52
346 20 9223 829 48 590 17 829 49 316 50 670 5 497 90 758 83 615 71 693 4 746 88 531 90 817 84 591 44 718 82 758 15 561 71 312 1 64 19 440 61 194 10
347 20 7808 785 55 440 54 650 3 384 10 308 47 453 38 256 63 172 36 602 93 356 17 353 60 168 35 544 19 591 73 830 26 291 2 850 57 844 13 693 8 190 54
348 20 7602 401 45 741 10 593 38 484 21 312 54 475 79 720 100 758 48 141 20 738 81 405 99 8 30 362 68 353 46 625 99 239 12 467 48 688 6 719 76 274 3
349 20 6246 555 50 182 60 206 42 542 13 429 36 280 62 213 83 419 99 114 18 428 73 509 27 162 72 378 73 168 96 823 59 729 42 122 50 330 31 404 23 815 30
350 20 6632 759 61 322 26 182 49 192 87 392 91 589 15 779 83 40 49 147 17 199 50 765 13 79 83 385 40 709 62 33 33 457 76 731 85 199 24 613 37 719 61
351 20 6917 422 32 40 55 101 97 354 59 634 8 192 21 156 80 357 30 812 34 680 3 249 68 272 82 299 68 833 46 785 51 645 24 413 100 301 37 674 65 428 34
352 20 7310 121 13 511 47 224 49 593 91 641 59 116 66 363 57 774 24 389 27 16 57 763 13 673 52 702 72 775 17 631 6 188 49 113 35 650 51 257 41 638 7
353 20 6065 228 8 458 85 370 52 602 50 98 67 168 31 228 27 332 83 257 28 281 95 795 29 834 50 397 65 844 74 24 51 260 30 461 25 494 26 347 1 104 95
354 20 6180 533 68 93 2 831 92 162 74 79 73 740 81 809 79 106 6 165 23 630 92 566 72 51 15 595 70 154 18 377 50 705 29 431 81 24 34 56 51 618 19
355 20 6960 413 87 679 23 281 23 616 5 553 73 386 8 416 70 533 93 415 4 655 38 212 94 367 38 238 86 796 48 299 16 42 79 496 3 505 90 167 96 632 9
356 20 6580 765 47 222 16 820 2 498 52 716 60 352 41 534 45 446 83 103 81 53 79 320 1 456 48 564 100 462 10 144 7 669 68 171 98 95 99 359 14 477 44
357 20 7088 389 40 359 20 580 21 460 95 192 79 843 9 402 3 353 16 110 67 83 38 654 21 261 65 804 33 472 65 418 97 231 89 819 89 250 100 795 27 386 24
358 20 5776 737 95 642 70 609 75 147 82 180 94 126 26 43 79 134 48 134 71 455 37 445 57 675 81 487 37 58 24 441 43 335 20 511 87 70 64 636 56 355 83
359 20 5460 451 86 235 75 355 87 456 1 25 78 374 76 518 49 493 97 122 79 763 14 81 76 524 41 518 80 317 50 43 85 440 94 490 56 218 6 31 12 372 35
360 20 6959 656 40 496 11 517 66 822 42 740 36 499 53 10 8 557 6 108 42 344 62 418 28 221 45 504 55 344 95 667 99 109 69 280 6 834 56 558 32 15 93
361 20 6752 712 15 825 34 534 54 92 37 604 70 664 27 361 8 564 47 163 2 221 24 517 64 299 83 383 60 265 95 577 60 376 11 166 37 281 78 724 5 113 50
362 20 6984 507 98 126 37 282 27 353 35 733 77 292 8 636 58 30 99 206 75 724 37 442 17 4 86 604 67 551 57 232 16 339 67 724 39 549 100 603 23 794 16
363 20 6631 382 37 431 93 736 78 374 56 456 13 520 19 689 100 801 20 477 90 138 3 500 98 68 66 387 97 25 13 394 94 14 50 814 42 223 86 269 56 591 100
364 20 6965 357 34 199 80 616 63 781 81 283 23 701 76 395 86 218 8 192 16 434 5 764 39 373 50 371 25 178 6 385 71 752 33 393 34 352 74 252 7 711 27
365 20 7427 411 17 227 26 525 74 620 34 407 81 725 34 323 46 187 82 536 40 12 79 825 23 663 12 605 49 95 82 680 67 471 59 492 17 733 68 572 90 175 36
366 20 7049 786 88 341 100 743 75 262 29 240 31 573 44 52 64 456 81 186 30 627 70 771 15 291 55 77 79 849 9 516 53 339 63 433 84 564 25 266 60 440 22
367 20 5458 329 28 845 31 448 100 236 31 378 37 384 76 335 65 60 25 368 48 457 20 652 47 362 72 162 84 2 95 388 32 475 30 32 54 95 9 475 55 340 56
368 20 7525 395 9 227 51 308 82 450 73 681 78 821 47 564 46 123 47 534 61 23 61 706 26 751 62 399 45 259 7 483 22 278 85 561 5 413 35 588 12 843 50
369 20 6701 335 20 449 92 846 55 600 38 469 58 196 25 428 12 284 8 320 20 57 81 326 51 733 6 514 81 409 34 586 95 204 2 424 96 408 90 665 86 124 39
370 20 5516 118 26 39 38 193 92 200 30 172 64 191 7 305 5 391 12 385 69 709 94 346 62 286 70 487 28 720 45 154 2 443 65 720 77 343 4 547 15 146 16
371 20 5907 331 92 184 100 421 51 318 46 237 4 659 59 90 69 123 94 343 14 495 65 525 87 159 52 731 44 177 34 116 5 388 8 780 68 305 41 840 48 162 74
372 20 6141 630 57 296 34 406 43 456 37 373 60 21 56 199 39 381 96 474 74 819 72 465 10 587 31 300 72 245 100 411 32 257 95 596 49 210 68 170 32 381 32
373 20 5975 262 54 488 28 546 96 472 63 14 79 460 100 154 20 689 44 255 47 730 27 233 61 577 17 805 39 650 98 310 92 440 28 171 93 81 1 83 65 49 21
374 20 5365 86 17 831 59 170 55 575 58 201 27 58 87 1 59 306 72 423 29 654 82 205 55 332 74 487 97 32 28 531 12 742 49 143 41 189 71 604 81 137 60
375 20 6830 654 87 84 95 644 43 593 84 123 56 831 14 674 67 587 21 45 31 226 4 840 74 724 38 414 57 54 31 171 18 31 18 13 93 417 100 700 79 713 25
376 20 6920 440 41 414 33 609 53 75 47 536 24 55 30 243 85 782 84 464 70 645 90 779 30 662 26 177 52 189 77 118 51 692 86 463 82 844 28 298 65 165 7
377 20 6651 704 54 661 11 514 11 108 90 508 79 176 86 639 38 559 71 112 14 572 70 347 25 503 33 639 63 351 82 151 96 199 91 808 90 10 55 548 96 205 28
378 20 7488 288 45 477 2 658 30 452 41 779 11 770 32 829 91 519 37 432 51 329 30 473 10 280 53 138 96 261 62 431 24 441 61 458 92 655 95 318 87 372 66
379 20 8239 768 96 439 86 832 14 781 100 49 24 459 1 699 28 407 18 522 58 519 29 132 16 234 73 736 58 296 38 329 47 333 64 399 68 809 21 756 42 800 22
380 20 6690 497 74 666 57 153 5 228 53 274 80 217 26 845 46 211 85 611 46 291 9 584 81 527 87 244 15 697 58 496 52 680 12 245 20 265 19 243 57 389 66
381 20 7302 654 38 547 23 251 56 397 21 386 84 149 68 646 43 348 12 336 52 332 93 789 88 383 12 752 37 820 38 606 68 639 19 542 51 39 8 340 83 172 98
382 20 6262 279 80 679 9 60 36 158 8 198 88 447 92 429 32 67 23 312 55 351 94 387 17 609 96 744 58 830 58 385 33 352 72 672 91 662 89 174 73 33 1
383 20 6195 224 49 135 28 348 1 402 53 433 85 299 42 692 82 596 19 286 8 602 53 202 61 87 76 453 11 361 9 168 9 552 54 580 27 717 7 311 11 296 29
384 20 6295 55 62 577 19 479 74 689 3 526 7 33 50 58 28 134 60 644 62 721 62 513 30 24 59 18 27 130 96 395 56 572 42 526 13 821 68 194 55 760 47
385 20 7145 26 87 367 71 684 23 738 43 758 91 361 38 500 11 745 9 344 71 429 10 593 32 195 27 256 71 658 66 49 67 730 98 722 60 218 52 154 5 405 26
386 20 6705 222 33 483 72 516 57 299 93 313 7 87 20 544 57 208 68 219 41 681 26 550 13 784 68 638 36 504 62 519 52 180 47 251 89 443 53 136 46 805 50
387 20 7515 549 44 705 52 604 76 752 43 236 68 346 76 218 41 746 21 797 96 229 22 716 48 649 97 6 35 759 34 486 96 609 68 12 90 87 17 777 34 111 66
388 20 6954 832 45 158 9 344 81 509 73 811 55 141 67 4 51 714 50 367 22 324 72 827 45 308 59 601 56 287 45 481 49 282 83 733 47 611 75 101 97 258 52
389 20 7012 99 58 179 34 434 13 252 38 296 3 569 54 731 52 675 94 218 70 269 87 291 68 503 46 711 26 744 34 800 60 788 32 196 36 389 88 492 59 129 99
390 20 7777 121 39 692 38 392 30 585 73 622 32 79 87 751 29 535 39 285 85 419 85 687 98 6 96 740 16 646 74 625 32 839 59 684 11 373 23 142 99 499 93
391 20 7260 141 69 302 16 394 37 245 87 584 31 622 6 840 34 358 13 20 76 607 24 848 72 107 69 54 34 363 18 819 72 510 26 722 48 331 10 839 15 369 63
392 20 6199 693 98 291 93 720 92 775 67 310 15 292 30 402 72 222 34 268 14 123 91 88 73 40 62 216 80 300 87 483 63 677 58 657 67 255 89 479 81 458 40
393 20 7780 765 50 240 100 273 15 544 31 120 99 786 76 128 91 827 62 661 16 732 42 375 35 193 56 826 79 164 53 675 47 486 28 342 94 379 44 580 86 629 88
394 20 7756 545 53 444 73 646 98 407 14 425 81 722 97 639 28 256 30 536 64 672 43 309 22 758 88 697 97 459 41 513 87 461 40 116 66 464 54 14 16 613 75
395 20 6600 284 100 671 73 185 37 12 69 513 28 9 71 119 70 219 8 164 13 509 96 538 31 779 94 80 20 774 68 492 75 551 86 368 48 706 11 605 52 672 45
396 20 5082 55 100 320 91 42 84 486 22 20 46 297 66 738 28 791 50 66 59 421 26 280 49 349 71 38 95 428 66 697 31 741 80 367 3 37 91 154 33 26 19
397 20 6885 318 46 142 8 346 77 299 7 843 27 575 76 530 83 728 91 251 43 504 94 11 84 60 31 122 50 590 82 283 46 179 27 790 17 550 72 850 72 636 86
398 20 5093 434 33 720 43 845 60 233 26 159 13 122 82 138 26 325 27 761 33 240 78 12 41 156 64 49 94 177 66 130 32 250 80 566 65 315 86 7 13 728 24
399 20 6263 423 41 306 38 63 34 512 13 21 99 315 74 559 36 495 39 117 48 729 81 764 69 578 52 96 16 751 66 827 13 281 12 422 55 160 71 370 24 40 26
400 20 6163 34 60 17 71 437 59 753 97 672 43 475 24 559 74 460 15 293 48 71 11 377 64 564 60 413 47 75 64 203 56 45 28 836 53 485 98 363 27 572 31
401 20 5694 220 86 61 36 556 100 369 71 306 71 641 19 64 17 303 92 723 91 33 71 110 51 117 70 845 34 786 45 324 47 278 50 137 34 705 50 64 45 476 70
402 20 7897 663 8 260 48 816 3 500 49 371 8 55 82 786 21 101 58 755 99 372 24 220 71 366 69 628 15 782 22 437 78 39 81 665 47 602 86 799 71 655 10
403 20 5480 114 99 753 4 119 40 35 87 770 71 516 70 190 91 122 87 277 80 103 54 826 16 487 57 280 86 90 43 672 74 514 7 174 49 597 57 38 16 174 23
404 20 7492 582 8 571 50 382 75 738 83 674 72 175 96 324 15 606 70 508 100 690 96 195 33 392 92 614 53 597 74 95 88 94 93 608 32 711 72 82 98 727 56
405 20 6116 770 29 683 96 663 51 696 86 79 34 80 70 786 73 730 87 48 48 550 3 43 32 460 71 248 60 87 73 253 18 785 35 193 74 154 91 43 84 294 13
406 20 6897 621 7 222 50 641 66 167 20 806 84 68 54 250 27 605 54 220 56 563 39 573 42 594 47 443 88 808 27 167 25 183 98 298 93 128 71 442 40 823 96
407 20 6248 665 33 360 29 824 86 375 20 192 39 493 94 96 92 407 20 115 90 153 66 187 56 545 31 454 45 559 24 359 23 460 5 396 35 589 85 222 6 360 63
408 20 6297 292 39 131 67 122 76 715 49 415 43 437 5 23 51 516 88 472 64 542 76 683 80 395 58 362 47 271 38 560 27 10 32 565 16 602 29 98 1 661 6
409 20 6216 86 79 781 21 30 16 741 17 593 30 48 6 113 9 19 82 613 13 56 70 601 76 584 91 95 91 466 6 299 14 825 46 172 68 85 76 847 59 716 19
410 20 7162 789 46 835 29 412 47 121 79 365 57 820 14 334 97 39 42 1 46 837 76 92 18 610 20 392 28 122 43 704 17 321 73 699 67 267 36 397 66 796 68
411 20 5720 744 46 678 20 138 31 27 4 158 16 561 66 833 28 116 99 420 96 1 47 138 3 592 58 236 7 435 78 359 100 352 28 411 92 240 94 161 84 550 98
412 20 7369 413 59 294 5 323 17 702 86 394 70 714 9 835 11 765 93 416 53 673 68 510 53 179 16 16 62 554 86 208 72 445 83 173 36 369 42 618 2 611 86
413 20 7905 128 65 841 56 312 8 652 52 640 2 567 28 810 46 540 47 34 98 686 10 74 29 471 73 835 96 289 50 480 46 548 24 215 2 709 33 207 8 844 90
414 20 6948 248 76 736 3 198 48 149 87 576 68 623 83 408 39 798 41 185 43 559 62 23 71 62 50 65 62 835 73 138 41 338 45 543 31 664 51 799 80 739 38
415 20 6875 592 49 637 65 709 8 176 32 148 51 817 7 738 34 614 47 514 94 229 58 488 41 573 54 429 71 236 16 62 96 219 70 396 41 82 9 241 72 694 41
416 20 6989 137 49 703 31 538 54 3 35 194 76 773 5 585 29 740 98 650 22 639 31 223 43 383 40 601 34 501 1 294 3 737 63 86 26 230 48 577 86 143 87
417 20 4248 20 40 97 71 201 18 146 86 115 5 58 25 467 26 385 41 537 61 63 77 395 65 496 49 153 25 468 94 114 30 795 43 192 13 297 67 106 54 206 83
418 20 7981 402 37 244 82 111 23 20 39 295 75 530 2 704 43 382 44 465 5 827 7 669 3 643 18 536 21 625 91 494 27 308 22 772 95 724 44 780 74 446 63
419 20 6514 817 72 606 90 484 1 227 94 828 26 3 77 305 16 229 55 405 77 256 57 51 49 774 55 486 34 422 3 513 79 272 17 206 21 616 48 63 93 580 30
420 20 8741 750 59 413 62 582 94 773 34 524 34 436 16 232 59 483 53 764 60 497 54 222 42 157 63 811 19 383 48 670 82 685 84 505 59 452 92 773 37 815 71
421 20 5067 265 57 64 69 293 13 78 42 132 63 5 53 291 84 533 12 388 51 294 33 816 50 744 42 92 28 230 70 218 17 252 58 546 3 525 27 333 1 235 69
422 20 5397 511 3 343 35 207 2 536 46 681 95 416 43 118 24 185 69 395 24 70 69 382 50 161 20 688 93 48 66 46 47 300 56 745 67 114 6 538 83 263 94
423 20 6093 105 40 393 81 548 27 233 24 835 15 19 47 111 76 394 80 233 55 610 63 234 92 196 25 8 31 761 32 420 69 431 22 146 26 841 5 256 22 843 39
424 20 8010 501 80 311 79 490 100 337 88 56 2 148 49 640 34 448 46 328 39 831 78 780 81 177 20 787 67 274 3 836 75 581 18 771 58 674 92 485 25 558 37
425 20 5841 69 6 164 8 406 32 34 76 5 58 820 84 327 51 758 34 253 76 665 24 405 96 40 26 603 21 4 9 114 28 844 6 682 30 213 90 653 13 243 9
426 20 6469 449 27 196 57 147 23 734 62 6 49 692 53 689 14 597 87 459 13 156 43 819 65 405 71 369 38 181 78 431 17 354 80 233 67 140 13 300 34 730 14
427 20 5836 540 76 720 67 451 31 8 81 231 73 466 10 102 58 535 74 703 80 96 95 565 5 502 74 96 25 266 4 75 74 612 31 542 9 542 56 3 69 240 96
428 20 6922 315 63 343 92 591 17 335 71 606 46 206 65 567 21 15 100 595 77 787 80 208 70 308 27 846 6 403 52 648 65 82 49 536 4 130 11 403 53 729 100
429 20 6622 125 21 613 61 646 5 703 44 636 42 684 41 390 23 232 88 249 90 696 39 735 28 263 5 730 92 55 68 3 37 190 63 227 74 476 21 34 61 591 66
430 20 6458 335 5 169 71 601 40 327 69 701 54 18 69 638 12 19 83 384 63 802 48 449 64 45 90 441 72 199 36 226 86 648 11 494 99 839 94 296 17 442 98
431 20 7012 326 66 549 87 556 52 104 7 474 63 668 60 622 92 476 24 443 64 72 57 755 2 666 61 233 2 219 85 12 27 465 73 404 3 760 31 676 65 285 37
432 20 5980 432 32 486 65 93 92 123 46 680 56 22 99 287 66 701 55 39 57 229 62 832 96 179 39 642 36 471 40 135 53 324 88 812 9 405 32 10 21 574 3
433 20 6474 188 34 18 61 190 37 732 65 842 82 461 27 636 75 738 96 462 42 785 61 497 53 221 68 291 85 290 41 759 8 133 54 167 93 134 83 476 86 73 96
434 20 6022 664 52 454 73 8 94 298 18 204 19 226 98 260 36 341 84 758 39 656 41 500 67 450 88 238 98 96 65 183 56 298 14 433 12 586 58 241 81 634 81
435 20 5000 572 35 163 77 154 28 519 66 105 59 155 70 633 46 298 44 82 3 220 50 18 12 100 57 700 43 587 4 834 42 241 78 21 48 531 55 114 5 204 91
436 20 7224 656 25 722 42 492 73 675 18 428 19 794 14 115 3 541 22 146 89 482 77 45 78 649 42 61 86 670 65 101 79 806 98 18 63 749 56 107 9 774 57
437 20 8077 757 67 527 93 507 93 589 23 847 53 521 25 301 5 645 68 305 56 215 29 123 56 542 19 678 97 518 66 552 20 823 71 161 1 350 88 833 39 303 18
438 20 5888 146 81 409 68 626 42 656 93 795 79 214 31 606 51 744 28 408 55 124 53 826 28 534 29 230 63 102 18 69 58 32 72 337 34 248 67 165 74 89 38
439 20 6225 112 36 802 45 159 47 717 53 478 43 82 67 519 94 829 8 535 37 644 10 66 79 355 74 163 15 58 73 611 21 547 27 275 73 131 5 185 60 514 64
440 20 5647 194 29 30 80 53 63 249 69 233 86 253 22 363 65 522 2 397 94 385 21 585 10 819 74 819 26 671 47 300 82 383 98 104 20 2 60 335 35 362 75
441 20 6810 510 77 549 39 817 79 153 38 455 20 329 20 75 27 299 14 806 79 297 27 804 84 693 16 28 66 817 36 38 89 591 48 207 98 39 44 701 58 305 29
442 20 7407 551 51 477 54 276 49 305 64 718 35 539 54 188 2 719 80 325 81 404 17 513 81 623 23 744 18 502 33 330 100 769 97 7 9 563 28 363 38 343 9
443 20 6628 790 95 579 10 583 59 71 76 81 100 63 48 484 51 102 19 338 81 374 18 311 53 360 65 317 38 523 73 484 16 668 84 633 26 717 4 310 47 497 14
444 20 6909 155 1 24 35 359 73 762 34 372 20 92 53 460 44 829 76 760 45 611 45 809 25 2 39 137 80 818 80 26 21 394 53 368 23 320 10 779 38 560 14
445 20 5845 30 76 466 5 189 20 536 18 373 2 458 26 320 70 560 10 156 4 270 1 41 6 371 82 73 85 195 37 312 98 608 55 634 82 411 47 648 87 656 93
446 20 5677 187 65 68 42 272 64 186 43 335 29 663 3 275 94 104 46 420 98 327 89 39 53 279 36 678 4 187 35 166 34 597 20 590 43 647 51 782 65 295 36
447 20 7404 330 3 780 35 154 20 286 99 625 82 300 62 244 17 827 85 832 55 801 95 520 97 546 67 104 90 144 98 600 70 382 86 674 79 558 66 178 18 371 87
448 20 6916 88 60 764 51 344 80 350 39 271 31 56 70 670 88 775 13 401 23 439 27 649 63 426 98 588 45 619 91 371 46 364 10 592 60 211 84 204 81 463 100
449 20 6819 42 28 457 80 89 69 542 34 575 62 587 100 89 63 669 100 347 43 124 28 12 42 649 8 772 38 850 80 216 10 542 65 79 25 732 12 561 52 590 19
450 20 7647 340 20 665 1 649 66 342 17 638 61 249 16 242 97 677 18 701 41 483 42 72 76 714 88 301 32 710 11 755 32 667 95 703 53 124 16 200 70 327 59
451 20 6232 215 20 580 38 643 28 159 94 66 40 45 19 223 43 451 13 578 64 530 92 232 83 633 37 227 17 622 75 281 26 528 82 545 8 683 88 358 13 191 84
452 20 6488 391 85 623 58 64 96 714 8 199 27 522 80 247 92 772 72 99 97 536 12 728 73 503 94 16 75 393 20 347 50 332 43 701 93 529 20 60 75 334 21
453 20 7016 445 78 752 30 386 44 89 86 708 48 798 10 448 79 303 46 662 41 204 69 307 24 690 48 768 56 168 98 131 86 336 15 318 79 809 55 36 79 412 94
454 20 7844 489 75 733 37 410 69 693 97 631 16 791 20 279 91 456 44 212 86 746 39 5 16 569 9 494 81 474 35 729 78 162 3 664 3 508 43 671 43 89 28
455 20 5430 259 83 803 72 140 20 167 81 3 53 836 40 837 4 831 80 47 16 655 64 58 44 370 100 315 8 32 91 240 82 109 71 120 1 286 99 567 63 113 84
456 20 6649 284 28 489 82 776 54 518 88 734 87 689 97 446 6 160 83 77 29 124 36 505 34 738 39 14 13 112 23 111 96 633 90 702 18 555 70 551 63 94 68
457 20 5954 739 80 700 11 253 68 183 89 3 87 488 92 74 78 496 53 758 41 481 55 423 80 319 32 14 46 570 79 11 83 240 57 329 18 124 20 764 34 474 9
458 20 6071 558 44 626 91 231 99 811 89 274 22 322 48 747 54 47 27 124 82 647 60 819 83 42 12 784 42 106 89 396 13 8 52 429 7 1 47 35 58 582 10
459 20 6092 353 13 666 40 110 72 585 32 711 91 195 13 757 37 422 41 108 80 577 53 112 96 33 30 737 94 212 48 61 74 827 47 439 73 47 12 560 2 103 34
460 20 6002 375 90 802 18 651 20 759 20 436 7 230 30 404 12 145 76 273 91 238 35 494 40 633 30 142 39 158 90 324 36 82 10 224 38 326 96 203 40 604 90
461 20 7266 605 6 582 76 635 60 747 7 656 52 591 11 778 7 148 73 498 50 195 82 49 48 129 40 797 58 245 14 384 80 387 8 466 34 356 100 663 90 172 11
462 20 6733 130 83 796 11 335 9 668 52 430 38 455 27 668 28 72 83 397 6 179 66 667 9 725 2 272 94 127 4 560 96 527 56 496 79 334 20 255 68 324 96
463 20 5636 303 80 218 20 649 16 9 27 258 49 298 61 504 97 51 46 819 65 347 88 478 11 382 96 548 45 783 29 161 85 10 64 74 21 191 97 581 96 382 72
464 20 7517 24 49 850 85 454 80 451 76 400 54 79 87 637 65 662 54 473 32 783 59 651 49 390 88 301 68 47 55 555 76 452 91 799 72 602 74 177 16 610 88
465 20 6194 646 37 576 75 409 92 706 62 446 99 446 100 359 5 202 58 27 82 57 16 7 90 267 46 239 39 39 27 322 84 761 40 597 91 357 97 777 14 503 78
466 20 5163 679 82 304 50 23 20 107 67 190 81 46 65 95 54 21 29 597 15 319 89 686 15 695 96 839 7 77 38 7 39 134 72 219 14 100 2 538 3 778 17
467 20 8037 720 72 722 67 399 87 254 20 660 40 806 33 782 66 221 86 134 14 455 91 522 78 201 75 114 14 764 23 210 21 356 96 843 47 489 32 711 100 684 78
468 20 6655 374 38 10 63 250 94 518 20 420 27 660 66 47 36 546 86 523 97 733 18 655 8 109 52 483 2 316 72 251 79 616 40 789 19 520 99 363 68 136 8
469 20 6250 527 54 833 93 565 92 745 69 548 25 145 11 50 42 353 82 792 14 259 61 15 46 483 47 797 13 217 97 667 63 40 91 315 24 141 29 155 46 166 52
470 20 7140 13 38 223 61 751 11 655 37 144 3 799 33 659 85 373 21 91 62 119 48 543 87 833 91 7 27 847 73 414 17 827 98 769 32 176 77 537 97 146 53
471 20 7070 799 81 290 28 781 94 165 29 105 43 804 92 672 48 213 49 139 66 336 59 303 43 351 28 794 28 531 94 206 49 671 48 48 25 586 20 517 94 527 66
472 20 8000 53 82 683 29 351 28 691 1 512 4 772 36 499 78 750 78 534 28 662 75 13 57 145 64 587 14 341 46 248 84 444 61 828 63 813 75 459 5 616 39
473 20 6832 655 42 453 45 597 32 463 57 528 27 815 7 311 93 235 99 452 47 386 66 430 8 696 18 239 36 145 79 537 83 18 68 388 62 525 49 498 4 170 68
474 20 6144 506 43 142 83 396 17 69 39 673 77 463 10 107 29 85 77 462 82 333 16 364 76 609 80 842 74 80 47 479 57 253 69 190 13 306 69 571 4 750 29
475 20 7417 839 34 484 70 690 19 227 84 418 64 638 38 546 30 178 79 553 22 21 99 849 31 781 98 69 84 217 16 188 74 730 24 541 48 394 83 285 96 624 5
476 20 7594 567 24 237 10 541 39 610 91 445 82 240 47 832 23 115 64 750 29 385 55 38 9 768 36 270 34 680 80 266 78 534 92 341 9 374 2 729 61 771 43
477 20 8801 566 75 723 17 635 15 799 53 691 59 625 39 725 14 845 77 9 1 286 11 203 16 369 35 634 81 221 91 802 12 492 77 644 92 350 71 689 57 694 79
478 20 7870 456 86 599 64 835 66 54 85 844 44 550 66 260 85 585 50 137 28 583 84 557 77 785 2 771 1 827 2 66 49 805 26 234 38 220 67 131 72 539 14
479 20 6610 578 17 192 18 311 93 188 75 539 59 417 54 18 14 256 46 531 83 77 1 475 53 430 47 833 44 330 81 258 93 259 78 691 21 653 4 458 62 769 43
480 20 6815 279 91 628 88 467 77 246 12 78 39 278 7 183 54 706 84 321 82 239 99 587 62 295 36 585 48 750 93 281 40 571 97 663 75 532 39 445 97 385 42
481 20 8169 641 26 696 77 154 49 775 74 498 16 709 83 749 29 743 80 405 24 272 47 368 19 590 79 280 16 750 25 824 30 806 51 150 57 307 16 258 70 237 85
482 20 5626 256 17 71 93 224 99 74 70 313 42 496 58 822 66 386 91 161 28 827 35 203 31 109 39 295 48 430 56 483 35 444 44 82 25 544 27 122 31 691 85
483 20 7381 544 3 513 44 466 13 41 69 458 78 2 19 622 74 654 9 797 28 791 86 118 98 392 10 697 86 161 77 744 91 741 73 538 85 497 30 78 67 373 4
484 20 6580 160 90 410 31 515 69 722 28 523 24 140 7 419 41 182 77 67 55 706 99 407 45 218 40 573 20 140 24 792 63 218 24 263 90 836 43 88 95 846 64
485 20 5603 299 26 399 35 47 97 777 55 529 31 272 29 74 24 155 71 352 6 679 94 217 59 622 61 61 92 62 34 44 87 342 93 557 87 550 86 124 87 842 2
486 20 9298 663 59 805 25 780 63 776 15 550 43 678 22 722 43 768 80 545 69 749 66 508 76 504 90 346 15 469 88 587 79 105 9 659 7 14 26 688 60 707 2
487 20 7393 330 16 823 26 615 39 124 72 538 24 724 16 60 64 114 90 764 46 744 54 131 1 516 78 180 18 660 42 311 97 275 59 390 32 675 43 617 46 651 22
488 20 7147 147 23 586 6 570 12 492 97 28 16 652 56 82 25 393 61 356 19 557 60 791 17 809 8 545 9 246 47 677 17 388 91 444 95 244 88 319 36 608 52
489 20 6474 282 57 181 32 540 46 386 14 646 55 135 33 66 85 376 59 274 71 596 83 272 16 554 3 834 80 45 21 759 5 72 92 90 10 745 93 519 16 721 77
490 20 6476 392 58 376 70 432 15 574 59 635 45 22 63 106 93 810 18 665 30 233 12 677 82 741 85 2 75 6 54 389 21 256 15 640 1 779 69 268 42 92 71
491 20 6347 349 71 783 71 82 31 124 76 159 49 397 83 317 20 669 26 246 54 340 7 356 91 811 6 235 22 717 68 597 32 811 90 119 24 6 60 358 16 458 25
492 20 7384 126 17 109 94 206 54 543 17 231 57 685 32 786 6 637 100 313 44 473 14 357 94 730 40 590 76 720 4 775 24 11 85 550 65 129 42 597 70 662 5
493 20 6576 75 68 742 7 588 4 73 97 138 98 74 70 739 9 344 92 291 45 764 73 40 93 802 67 555 23 267 88 80 35 148 42 720 16 750 55 182 58 849 1
494 20 7165 311 37 410 96 325 90 307 94 522 55 349 98 687 82 403 71 522 76 266 61 642 97 585 37 368 77 431 1 102 7 568 43 229 26 495 46 827 70 608 74
495 20 5793 194 29 642 98 581 74 29 59 259 60 611 3 657 9 119 24 579 83 775 43 358 21 78 80 443 27 46 27 489 98 205 1 655 27 207 74 151 51 164 1
496 20 6387 846 27 622 60 230 40 211 26 819 81 108 66 331 82 228 50 648 49 446 29 284 91 365 76 587 96 181 50 32 79 155 19 541 8 324 31 641 45 385 80
497 20 7159 534 7 338 76 493 96 689 74 783 86 758 22 425 1 26 99 591 54 639 91 602 80 203 31 504 2 490 90 647 80 248 38 52 54 341 99 73 40 513 43
498 20 7944 655 56 115 39 417 3 666 43 633 96 818 99 741 65 359 10 366 31 94 56 651 13 614 34 668 63 600 82 510 38 339 19 485 63 500 52 499 19 201 94
499 20 7148 774 49 777 98 622 67 84 80 366 94 448 3 318 74 251 39 248 67 647 21 414 26 382 10 560 37 314 56 473 9 765 25 622 77 107 70 35 95 728 83
500 20 7756 745 72 421 86 120 57 105 97 698 93 845 83 646 55 429 21 424 27 601 47 651 80 595 30 97 47 152 9 665 86 644 74 390 93 569 22 522 47 377 19
