^D:\SCHOOL\NI-KOP\GITLAB\TASK04\NI-KOP - TASK04 - ITERATIVE\NI-KOP - TASK04 - ITERATIVE\X64\DEBUG\BAG.OBJ|D:\SCHOOL\NI-KOP\GITLAB\TASK04\NI-KOP - TASK04 - ITERATIVE\NI-KOP - TASK04 - ITERATIVE\X64\DEBUG\MAIN.OBJ|D:\SCHOOL\NI-KOP\GITLAB\TASK04\NI-KOP - TASK04 - ITERATIVE\NI-KOP - TASK04 - ITERATIVE\X64\DEBUG\TIMER.OBJ
C:\PROGRAM FILES (X86)\WINDOWS KITS\10\LIB\10.0.19041.0\UM\X64\KERNEL32.LIB
C:\PROGRAM FILES (X86)\WINDOWS KITS\10\LIB\10.0.19041.0\UM\X64\USER32.LIB
C:\PROGRAM FILES (X86)\WINDOWS KITS\10\LIB\10.0.19041.0\UM\X64\GDI32.LIB
C:\PROGRAM FILES (X86)\WINDOWS KITS\10\LIB\10.0.19041.0\UM\X64\WINSPOOL.LIB
C:\PROGRAM FILES (X86)\WINDOWS KITS\10\LIB\10.0.19041.0\UM\X64\COMDLG32.LIB
C:\PROGRAM FILES (X86)\WINDOWS KITS\10\LIB\10.0.19041.0\UM\X64\ADVAPI32.LIB
C:\PROGRAM FILES (X86)\WINDOWS KITS\10\LIB\10.0.19041.0\UM\X64\SHELL32.LIB
C:\PROGRAM FILES (X86)\WINDOWS KITS\10\LIB\10.0.19041.0\UM\X64\OLE32.LIB
C:\PROGRAM FILES (X86)\WINDOWS KITS\10\LIB\10.0.19041.0\UM\X64\OLEAUT32.LIB
C:\PROGRAM FILES (X86)\WINDOWS KITS\10\LIB\10.0.19041.0\UM\X64\UUID.LIB
C:\PROGRAM FILES (X86)\WINDOWS KITS\10\LIB\10.0.19041.0\UM\X64\ODBC32.LIB
C:\PROGRAM FILES (X86)\WINDOWS KITS\10\LIB\10.0.19041.0\UM\X64\ODBCCP32.LIB
D:\SCHOOL\NI-KOP\GITLAB\TASK04\NI-KOP - TASK04 - ITERATIVE\NI-KOP - TASK04 - ITERATIVE\X64\DEBUG\BAG.OBJ
D:\SCHOOL\NI-KOP\GITLAB\TASK04\NI-KOP - TASK04 - ITERATIVE\NI-KOP - TASK04 - ITERATIVE\X64\DEBUG\MAIN.OBJ
D:\SCHOOL\NI-KOP\GITLAB\TASK04\NI-KOP - TASK04 - ITERATIVE\NI-KOP - TASK04 - ITERATIVE\X64\DEBUG\TIMER.OBJ
D:\SCHOOL\NI-KOP\GITLAB\TASK04\NI-KOP - TASK04 - ITERATIVE\NI-KOP - TASK04 - ITERATIVE\X64\DEBUG\NI-KOP - TASK04 - ITERATIVE.ILK
C:\WINDOWS\SYSTEM32\TZRES.DLL
C:\WINDOWS\GLOBALIZATION\SORTING\SORTDEFAULT.NLS
D:\SOFTWARE\VISUALSTUDIOCOMMUNITY2019\VC\TOOLS\MSVC\14.29.30133\LIB\X64\MSVCPRTD.LIB
D:\SOFTWARE\VISUALSTUDIOCOMMUNITY2019\VC\TOOLS\MSVC\14.29.30133\LIB\X64\MSVCRTD.LIB
D:\SOFTWARE\VISUALSTUDIOCOMMUNITY2019\VC\TOOLS\MSVC\14.29.30133\LIB\X64\OLDNAMES.LIB
D:\SOFTWARE\VISUALSTUDIOCOMMUNITY2019\VC\TOOLS\MSVC\14.29.30133\LIB\X64\VCRUNTIMED.LIB
C:\PROGRAM FILES (X86)\WINDOWS KITS\10\LIB\10.0.19041.0\UCRT\X64\UCRTD.LIB
