142
126
113
105
130
122
108
93
94
95
88
88
99
226
121
95
98
95
96
99
107
80
116
108
88
115
113
99
108
95
96
107
105
108
104
88
102
84
140
123
90
89
107
118
128
89
117
137
118
94
123
109
116
111
93
70
83
115
104
104
86
104
98
93
107
80
97
117
93
99
100
106
99
80
116
112
84
116
105
121
99
124
81
150
170
120
113
112
94
92
127
110
110
112
84
103
167
111
118
98
107
97
92
87
101
92
98
117
82
108
130
153
149
155
183
162
137
147
154
168
182
184
221
179
120
160
169
182
144
155
189
172
161
148
112
143
198
158
157
143
159
160
172
109
153
152
150
125
170
161
125
92
92
124
101
145
124
101
104
118
107
111
118
79
95
98
87
100
103
117
185
85
107
91
84
126
145
171
177
141
164
137
94
88
85
156
175
206
86
93
100
230
180
124
116
115
137
146
136
128
124
156
146
157
149
134
135
137
135
131
138
153
195
175
168
177
174
133
103
168
144
144
243
185
175
124
162
186
163
182
175
135
153
172
173
145
84
150
163
129
76
107
112
107
110
106
131
99
115
110
111
96
105
104
108
88
83
79
98
106
200
123
155
115
180
135
146
153
85
106
121
108
92
102
115
107
102
95
115
100
93
92
91
102
112
105
128
88
85
120
82
89
107
95
107
107
98
117
95
97
98
136
102
115
196
184
98
89
100
99
81
98
91
87
98
100
94
98
91
85
100
84
115
100
84
104
102
86
79
96
84
80
87
103
100
100
90
84
97
101
113
95
106
79
79
94
75
94
101
100
95
82
94
98
93
113
141
120
112
90
82
101
115
83
98
105
96
90
95
79
102
104
104
109
101
101
113
95
86
92
96
104
70
88
93
98
109
109
114
113
112
125
116
113
105
107
106
94
89
101
112
90
107
129
162
108
94
88
84
96
119
96
83
106
91
84
93
79
96
109
83
94
86
104
76
87
105
105
92
113
93
103
119
112
89
95
95
104
90
102
95
89
97
78
84
93
124
111
97
86
92
124
145
91
136
115
110
101
95
97
90
91
116
134
123
95
114
100
106
103
111
94
99
101
116
133
131
100
122
121
92
101
99
98
109
91
86
79
92
95
90
90
98
121
86
104
208
99
106
112
