136
125
112
105
131
116
108
92
94
95
103
79
105
168
117
93
94
95
96
99
107
81
115
108
89
117
113
100
108
96
97
107
105
109
104
88
102
83
96
104
90
89
84
122
106
81
81
98
100
99
104
109
115
110
93
70
83
116
125
114
88
104
97
94
107
80
97
118
93
97
100
101
99
80
116
110
85
117
100
89
106
112
81
100
94
98
112
111
88
76
108
109
108
111
82
103
108
111
115
97
107
96
92
92
101
91
87
133
82
107
99
114
86
88
109
98
87
91
98
100
107
110
114
106
70
94
100
107
85
93
113
103
97
87
69
87
118
93
92
85
92
106
103
69
95
97
90
74
99
93
92
92
92
103
79
92
78
75
122
115
104
117
123
80
96
100
93
102
107
119
125
89
82
103
85
127
109
102
102
82
90
99
97
91
90
139
99
170
74
94
98
107
98
88
82
83
97
104
100
94
83
109
104
113
117
98
131
97
90
91
97
102
107
98
96
97
109
94
75
123
104
104
136
95
113
76
91
105
92
102
101
110
89
102
101
91
94
89
96
101
75
91
82
100
107
105
98
97
114
108
109
96
105
103
107
94
90
78
98
107
98
80
102
75
113
113
111
112
84
101
117
108
92
98
115
107
102
95
115
100
92
87
90
101
112
104
127
88
84
122
82
90
107
96
107
106
176
146
97
98
98
103
94
107
122
112
90
93
99
151
153
182
118
88
98
96
92
89
81
91
102
84
115
99
84
103
116
87
79
96
85
80
86
103
164
100
91
84
97
101
112
95
106
80
79
94
75
94
100
100
95
82
94
118
124
125
94
130
125
147
130
183
200
151
106
105
96
91
95
79
102
104
105
108
101
101
120
95
87
93
101
127
71
88
93
97
109
109
99
108
79
124
116
113
105
107
106
94
152
103
113
89
107
130
139
103
94
88
84
96
102
95
84
104
101
83
93
79
96
109
83
93
86
103
76
87
106
130
92
113
93
103
120
112
89
95
95
104
90
102
94
90
96
79
84
93
124
139
109
87
92
115
111
91
109
107
109
101
95
86
86
88
112
129
119
86
110
96
102
121
111
90
95
96
105
89
93
99
95
120
92
101
98
97
109
91
85
79
92
95
90
91
98
120
86
104
110
105
135
112
