137
114
153
135
67
91
173
155
118
473
116
156
218
281
90
100
133
98
173
95
143
182
111
87
88
51
114
139
74
99
98
207
116
178
70
75
185
167
95
70
114
150
145
136
109
84
84
109
201
78
106
124
128
134
148
75
140
115
321
295
102
108
168
88
112
88
89
104
108
119
152
127
110
263
112
127
102
92
159
245
163
71
111
117
138
110
99
122
123
116
99
67
85
70
111
279
59
74
101
110
119
253
89
100
93
184
195
100
140
104
100
158
241
118
94
72
154
96
153
112
107
79
204
390
155
150
91
321
85
87
150
91
131
106
93
106
112
144
126
95
160
74
137
108
120
114
116
162
104
153
107
80
110
141
121
90
190
135
144
120
221
94
126
113
157
98
279
79
118
106
77
128
131
90
95
174
125
77
119
150
85
75
107
110
82
96
137
107
80
134
93
238
80
77
143
192
83
77
68
310
101
106
178
217
220
80
92
116
97
85
147
112
89
238
288
163
102
126
117
170
90
216
134
95
255
121
83
119
124
74
99
99
158
217
97
170
80
148
78
125
183
74
65
196
91
131
177
123
153
89
126
108
114
70
201
154
127
259
141
176
162
123
112
86
128
206
123
745
76
136
155
106
112
66
85
194
95
65
221
112
124
113
216
122
75
415
115
86
110
87
159
77
166
58
145
183
100
127
144
800
51
148
82
132
128
152
84
169
125
68
289
119
104
175
97
107
146
82
116
127
130
98
169
90
166
166
64
95
123
83
98
125
108
84
139
85
64
97
89
135
199
112
80
188
159
80
92
69
119
104
91
92
92
142
98
87
113
227
74
125
87
151
147
234
102
101
101
104
175
149
207
151
103
100
138
112
89
103
146
156
188
211
135
71
122
203
134
154
165
99
119
292
182
230
180
93
116
101
88
226
101
69
66
132
68
158
122
76
219
105
163
73
106
105
63
100
179
128
105
168
83
153
66
293
95
95
99
90
136
61
111
59
110
152
89
154
181
112
76
121
222
141
83
122
223
86
135
144
112
83
112
72
84
143
109
139
61
91
76
109
94
155
85
316
82
121
266
124
89
180
211
84
71
89
80
155
213
111
107
423
177
217
77
227
71
82
152
107
107
97
131
94
65
264
83
91
88
251
128
207
