171
175
533
131
71
92
139
109
98
613
155
191
216
362
91
102
130
99
180
96
145
173
181
92
183
97
143
282
129
172
155
325
110
256
84
75
257
281
97
152
108
129
120
142
110
85
93
111
200
79
107
124
132
223
236
114
221
194
507
453
133
175
276
143
228
150
159
184
192
203
245
126
117
539
115
128
105
94
163
226
144
70
111
117
134
109
109
123
200
188
163
114
142
119
183
472
99
124
171
188
201
442
152
152
93
186
193
101
109
104
101
157
234
118
101
72
153
96
155
122
87
78
214
392
156
166
93
325
85
86
170
92
131
106
92
106
113
145
126
135
218
79
195
216
148
118
120
165
119
160
216
162
197
284
239
175
366
212
278
226
437
174
225
115
152
101
292
82
114
107
84
134
132
91
96
179
128
80
179
218
86
72
102
115
84
93
141
104
75
172
179
241
80
75
137
183
83
78
68
303
97
105
179
203
218
80
92
106
98
84
137
113
98
223
285
165
102
125
109
181
90
217
129
95
230
122
84
111
115
76
93
100
148
231
107
129
80
133
78
125
169
84
66
183
88
122
187
127
172
79
114
108
112
69
187
145
118
255
126
176
161
118
117
88
130
200
126
682
74
132
164
103
111
65
90
235
90
65
239
112
127
119
326
125
78
412
114
82
110
100
157
84
171
78
148
213
99
122
146
918
51
151
84
159
128
154
86
169
128
66
291
120
107
178
96
107
136
80
226
178
147
109
199
93
166
170
65
96
128
82
97
128
111
91
162
93
66
98
90
138
97
122
79
193
159
82
92
70
120
103
100
92
94
145
101
89
113
312
71
125
90
150
147
231
104
101
101
105
177
143
206
152
105
156
139
160
100
105
125
174
146
158
134
72
125
204
138
158
170
103
149
292
170
237
187
97
112
103
90
262
103
70
68
151
70
159
124
75
221
104
163
101
107
105
65
100
178
125
85
168
83
154
68
279
102
97
100
91
135
61
112
58
111
153
90
156
181
115
76
130
224
138
84
121
224
88
136
146
110
84
114
76
84
192
119
143
80
94
80
112
97
134
88
318
84
121
269
126
91
186
218
85
77
100
74
156
213
111
107
396
181
217
77
227
71
82
153
116
106
129
139
89
65
250
85
96
96
148
127
211
