141
105
155
118
69
93
113
107
115
682
191
294
382
406
97
105
134
105
197
107
147
186
112
84
90
52
114
144
75
99
93
208
108
168
67
77
186
156
95
71
138
151
117
135
108
85
84
110
200
78
106
124
127
135
148
74
140
116
316
291
100
109
167
89
112
87
90
105
108
120
152
126
109
263
113
126
104
92
187
226
145
70
109
118
137
110
98
120
123
110
97
68
84
70
110
276
59
73
100
109
119
254
89
100
98
183
195
100
121
104
99
158
241
119
95
72
155
96
181
113
88
80
200
388
155
150
92
319
85
85
149
90
131
106
92
106
113
143
127
95
160
74
136
109
120
114
117
161
105
154
107
81
101
147
122
91
222
109
146
115
225
89
128
113
148
100
274
80
114
108
77
122
132
89
93
179
122
76
119
143
85
66
103
111
82
94
137
97
73
133
93
224
79
74
141
176
82
77
100
316
98
106
190
202
211
80
104
107
98
95
137
113
90
223
307
181
103
143
111
179
91
224
131
96
270
127
84
111
120
75
91
100
179
230
98
128
81
139
78
126
167
74
65
180
114
122
175
119
159
79
114
107
112
69
196
142
126
250
126
174
183
118
107
81
126
204
123
665
73
160
156
114
111
65
88
193
86
63
213
111
123
112
200
120
74
426
112
91
108
87
188
77
169
56
142
183
98
125
143
760
51
174
78
140
126
152
83
166
129
65
291
129
108
173
97
105
134
83
114
127
132
95
167
87
162
178
63
94
132
82
96
135
108
83
151
85
64
104
89
135
112
108
79
196
159
80
92
69
124
104
90
97
91
141
104
87
112
238
74
128
87
151
159
241
103
101
117
106
178
149
209
151
104
100
126
113
89
103
150
157
160
165
135
70
121
208
134
158
163
102
119
296
169
245
188
93
110
109
88
230
101
68
68
132
68
164
123
75
236
106
173
78
109
114
64
100
191
128
107
176
103
183
67
326
105
95
99
98
136
62
119
59
113
157
88
157
181
112
85
120
227
140
85
121
227
87
136
188
123
144
120
75
89
149
115
144
63
115
106
110
96
131
85
320
82
120
265
124
88
179
212
84
71
89
74
155
213
111
107
423
176
217
77
229
72
82
153
108
110
96
130
91
64
287
84
92
92
148
126
225
