90
69
74
69
67
72
74
75
73
74
74
77
145
39
38
35
39
37
58
43
37
36
38
37
36
37
36
38
35
36
37
37
37
48
42
36
37
36
36
37
36
36
38
37
36
42
37
35
42
37
37
37
35
36
36
36
37
37
37
36
36
37
35
36
36
35
79
38
38
35
66
38
37
38
45
40
35
58
35
36
35
35
37
36
36
37
38
36
36
36
37
70
35
37
36
68
37
38
37
37
35
36
46
36
37
37
37
35
37
37
36
34
35
37
37
39
36
40
35
37
37
64
42
68
63
37
36
35
37
36
37
37
35
35
35
36
37
38
39
37
48
37
37
36
35
37
37
63
37
38
35
37
36
38
38
37
36
36
36
34
37
36
37
36
38
37
37
37
36
36
35
36
36
35
36
37
39
39
37
35
36
35
36
57
36
34
36
44
48
63
36
36
37
36
36
36
37
37
36
46
39
35
38
36
35
36
35
38
37
36
37
38
36
36
36
36
37
37
35
37
34
36
35
35
35
35
35
36
38
36
37
36
37
36
36
36
36
36
37
35
37
34
52
36
37
35
38
35
36
37
36
36
36
34
36
36
36
36
36
58
36
35
35
34
35
35
36
36
36
35
38
37
37
35
35
36
37
37
36
53
38
36
35
38
36
35
36
36
35
36
38
36
35
37
36
36
36
37
35
35
36
35
41
63
60
60
60
61
62
60
65
62
64
61
60
60
62
35
36
37
36
35
37
36
37
37
35
39
40
80
49
64
38
36
37
39
36
36
37
43
35
69
75
37
55
38
36
43
78
62
58
114
79
72
66
63
65
61
61
60
61
64
61
58
63
77
37
35
36
36
36
36
34
37
37
35
34
37
34
36
36
36
34
36
35
36
36
36
37
37
34
36
36
37
43
36
35
36
39
36
35
37
36
36
36
37
35
35
37
36
36
37
36
36
35
36
37
36
38
36
35
50
36
36
37
37
38
35
36
37
35
37
37
37
35
36
36
37
35
36
34
35
36
35
36
35
36
37
37
46
35
35
34
36
74
112
37
36
37
38
36
39
52
41
102
55
77
63
66
65
41
55
68
69
68
63
63
65
64
83
37
41
53
40
36
42
50
49
124
69
72
62
67
66
65
98
221
80
168
66
