1166
913
905
972
683
695
717
881
761
742
791
690
914
682
606
614
665
606
633
662
629
620
645
1201
790
937
682
607
586
651
671
638
661
709
574
578
591
687
597
645
656
656
608
644
613
690
662
801
661
609
727
581
674
687
690
614
613
634
578
622
667
607
611
658
620
640
632
731
637
632
632
573
624
608
626
685
697
659
628
608
623
705
615
733
636
590
576
727
617
669
725
764
639
669
690
653
641
655
1184
674
624
596
671
652
737
656
679
621
606
678
621
617
610
687
644
554
636
663
580
820
684
631
658
689
626
619
762
602
672
728
584
644
722
691
652
713
678
634
580
707
638
609
654
660
638
693
519
555
636
639
632
639
687
647
763
684
680
579
586
552
625
688
848
652
702
619
646
642
598
649
616
701
635
649
639
674
706
594
670
607
631
548
599
607
659
764
615
645
584
585
568
962
1284
1508
1533
1641
845
554
659
598
651
599
695
611
634
671
634
664
658
620
598
629
604
626
644
637
646
832
644
630
730
592
541
638
710
615
582
660
599
588
560
809
646
628
624
685
628
623
612
573
650
627
645
669
627
635
652
632
565
570
598
589
694
648
790
569
580
661
611
605
628
585
1035
874
619
640
614
1051
745
663
623
634
679
707
982
632
691
834
530
685
499
1081
1223
1253
642
739
1215
1244
1253
1041
595
657
592
547
614
686
605
742
672
593
587
890
1124
937
633
632
1194
945
875
753
590
619
707
604
637
624
933
577
632
544
574
690
648
676
630
644
594
583
739
546
692
634
738
678
672
759
608
604
706
612
504
630
722
729
717
547
551
678
650
595
659
839
928
759
789
618
740
921
845
1260
1220
686
938
669
888
696
800
635
828
643
604
638
590
613
580
671
1180
1050
1167
940
996
559
542
587
535
657
594
654
676
622
654
666
584
982
1227
1213
1279
1323
944
613
627
601
611
634
697
650
622
610
640
647
641
658
757
509
608
710
647
576
626
915
629
568
684
580
614
674
723
584
600
564
589
562
564
666
665
653
616
624
640
723
736
699
1112
633
964
1206
1193
1070
870
702
1168
1210
720
628
717
899
1046
598
1068
718
668
620
657
703
682
534
634
660
604
562
795
935
629
680
671
579
893
1265
1379
1282
954
701
736
651
641
625
707
756
640
635
553
689
721
597
1254
986
622
637
687
654
