7504
8529
7286
8178
7724
8472
6985
9250
7924
8462
7767
8184
8318
9079
9643
7312
7117
7017
7841
6812
8119
10022
7862
8594
6583
9034
9791
7279
7061
8980
8507
6845
6814
8738
7621
7564
7219
8547
6825
7294
7998
8082
7720
7507
7495
8168
6871
8032
9748
9497
8628
6761
8182
7889
8058
7623
8136
7765
6834
7578
7864
6928
7678
8304
7538
7996
7687
8185
7043
7771
7812
6724
7586
7399
7175
6990
8762
8083
7613
7349
7603
7870
7066
8287
6923
7445
7181
8040
7304
10505
8159
8386
7448
8067
7884
7595
7504
7923
8158
8352
7513
7187
8519
7959
8134
7400
8470
7895
8395
8396
7412
7755
6993
8791
7903
6795
7896
8232
7139
8304
7939
7621
7366
7564
7665
7537
7892
7407
7635
9079
5820
7953
8383
8318
7985
8839
9426
7602
7032
7819
7139
9708
7977
8106
7791
8695
6154
6255
7861
7836
9548
7801
8809
7982
8237
8696
8381
6807
7124
6577
7570
8461
8423
8057
9335
7430
8058
7940
7254
7542
7468
8792
7762
8048
8314
8380
9335
8231
9409
7723
8023
6987
7789
7754
8088
8117
7612
8058
7906
7511
7662
10438
8280
7689
8667
8881
10204
7892
8266
7384
6322
7562
9572
8202
7745
8780
7636
7264
7578
8201
7499
7768
7235
8810
8087
8503
8211
10929
8163
7848
10152
8526
6379
6272
8950
7676
7129
8367
7421
6924
6578
6952
7745
7858
7828
9061
8820
8059
7135
6655
7998
8025
7811
8694
7779
8248
7075
7658
6755
6990
8027
6931
8897
8119
8007
6793
6780
8445
7329
7708
7483
7228
6383
7564
7630
7700
7283
7298
7948
8055
8197
7130
6975
8516
7210
6418
8031
8115
6126
8474
5910
7355
7821
9192
7724
7734
7951
8422
9320
7583
6918
7027
6902
6168
7302
8247
7136
9003
8316
7053
6780
8468
8554
8685
6877
7260
8017
6645
9084
8835
8377
8242
8407
7759
8078
7198
7550
6738
8339
6509
7051
9942
7706
8577
7973
7476
6874
7031
7239
6533
8070
8028
7965
8897
7676
7808
8163
6733
7850
7648
7820
7772
8247
9360
7065
7111
6870
9460
7498
7260
9457
8502
8828
8174
8227
7619
7449
8343
7577
8512
7881
8591
7970
7600
7837
8886
8307
9326
8606
7384
7101
7714
8426
7743
7800
8364
7751
6564
7363
9169
8312
7307
7260
6981
6413
8348
7275
9470
8854
7385
8747
11665
7261
8254
8552
8059
8476
8718
9317
8005
8052
7261
7717
7896
8706
7518
8635
7498
8125
9601
7795
8080
9358
5855
7754
8958
8131
7291
8145
7873
7984
6715
9245
7064
7523
8487
7554
7931
7424
6992
7287
6934
6604
7686
6153
7945
7611
7841
7744
8202
9420
7738
7588
7592
8059
8248
7326
7738
7211
9112
9552
9092
8119
7794
8425
8056
7415
7122
6690
9032
6912
7399
8279
7953
8341
6196
8230
7946
7284
6527
9150
8319
7852
10203
9089
6865
8896
8055
8520
7620
8186
8823
8545
7585
8173
7562
9351
10384
7339
9193
7146
9466
9827
7400
7716
6855
7757
7615
8880
8332
