5506
6871
5890
5678
6610
6436
5900
6082
6521
6418
6451
6053
7010
6548
5686
5561
5095
5915
5604
5376
5854
5125
5603
5583
6060
6276
5273
6969
6221
5976
5496
4750
6238
5926
6022
5611
6825
6276
5146
5992
6231
6868
5582
6008
5693
6137
5767
6104
5860
6171
8829
5520
7258
5341
6344
6138
4956
7514
5764
6795
5475
6052
5852
4907
5875
6051
5458
5601
6022
6411
5673
6164
5845
6446
6026
4463
6426
5255
5395
5781
5485
6045
5797
5344
6705
5408
5382
5861
6060
5961
5587
6301
5262
5134
5547
5437
5708
6123
5646
6978
7355
5758
6251
6494
5735
6505
5493
5679
5207
5250
5175
5623
6340
5363
6423
6044
5924
6151
5377
6272
4922
5770
6136
5536
5884
6097
4710
6892
5463
5737
6678
5325
7825
5955
5370
5884
5887
5797
5959
6943
6191
6034
5541
5188
5911
6194
6244
6112
6940
11015
8386
5851
5392
11167
8450
5640
5595
5822
6136
7749
4415
5055
5413
6410
5703
6675
6252
6738
7131
6856
6835
7736
5266
5399
5469
4877
9008
6995
7440
6296
6199
5611
5875
5932
5212
6058
8396
7079
5941
5512
5670
6519
5815
5527
5276
6446
5192
6129
4885
5457
5653
6108
6235
6206
6083
5711
5306
5235
4611
5829
6101
5620
5474
6393
6333
7124
4847
5967
5734
4914
5102
6025
5471
5664
5919
6805
5494
4903
6333
5579
5472
6177
4941
6278
5790
5378
5884
6191
7037
5910
5712
6957
5770
4144
5253
6327
6847
4970
6145
6386
5032
5871
5090
5416
6451
5179
5719
5698
5982
5410
6194
4528
5641
5984
5739
5257
6903
5901
5197
6360
5254
6240
5446
5840
5943
4927
6486
6379
6214
5316
5347
5708
5840
4822
5839
5483
5259
4739
5135
6014
5765
4997
6498
5537
6203
6316
5039
5321
5009
6889
5368
4957
5423
6391
4845
5692
5336
4200
5664
7969
7524
5781
5863
5660
6489
6615
6072
5354
5406
5406
5066
4876
5844
5925
5270
6371
5902
5664
5379
5516
6499
6341
7200
5428
5101
5610
5867
5917
5678
5053
4684
5465
6385
5498
6225
5706
5747
4871
5909
5042
5243
5357
7074
5025
5708
5715
5936
5551
6078
5166
5906
4823
6403
5840
5641
6384
6183
6233
5694
4974
6261
5699
5084
5232
7237
7371
7347
5906
5259
5014
6546
5391
4941
5806
7159
5710
7059
6657
6862
7664
8131
9342
12483
15937
14651
12547
5818
6221
8502
6256
6104
7018
6051
5866
5696
6095
7151
5821
5841
5460
6472
5568
6298
5235
5490
7251
6335
6162
4252
7134
4594
6230
6369
5234
6589
5960
5866
5516
6510
6357
5446
7168
5357
6419
6127
6773
10199
7256
5721
5519
4909
6047
6373
4842
5206
5919
6510
5784
6274
6369
6152
6081
5696
6616
7902
6082
6337
5405
6247
6164
5883
5186
6297
5821
5747
6016
6178
5305
6048
5841
5392
5488
5791
4931
5473
4953
5869
5627
6360
5566
6421
6814
7271
6246
6451
4570
5949
5604
5481
5987
5823
5837
6273
6772
6216
5836
5753
6113
5894
5894
