3105
3242
3362
3608
3348
3654
3271
3934
3368
3639
3284
3750
3763
3242
3227
3565
3316
3391
3522
3032
3507
3401
3507
3966
3010
3957
4097
3324
3187
3683
3671
3230
3055
3906
2971
3231
3326
3894
3162
3685
3536
3539
3423
3453
3454
3944
3054
3745
3342
3239
3965
3188
3869
3579
3641
3548
3571
4027
3240
3577
3487
3345
2920
3741
3291
3421
3630
3712
3154
3405
3335
2879
3656
3400
3353
3359
3992
3475
3585
3240
3019
3210
3249
3767
3319
3287
2915
3441
2808
3835
3625
3699
3511
3806
3454
3536
3314
3331
3156
2999
3060
5262
3403
3915
3711
3377
3663
3301
3318
3705
3477
3427
3237
3586
3555
2872
3075
3615
3126
3681
3595
3469
3254
3537
3516
3120
3709
3230
3409
4136
2698
3404
4023
3395
3800
3931
3614
3499
3161
3422
3228
3226
3468
3503
3446
4084
2853
2977
3669
3483
3608
3576
3885
3713
3838
3791
3815
3062
2989
2924
3329
3701
3791
3642
4106
3491
3763
3882
3835
3546
3798
3888
3371
3315
3494
3744
3273
3299
3700
3229
3447
2782
3235
3141
3149
3744
3230
3554
3002
3018
3120
3227
3168
3236
3644
3679
3853
2961
3704
3373
2838
3827
3639
3459
3586
3901
3616
3250
3866
3508
3320
3536
3549
3716
3239
3587
3647
3967
3645
3124
4131
3314
2929
2908
4100
3380
3235
3823
3434
3203
3166
3236
3846
3727
3418
3624
3375
3400
3212
2906
3610
3461
3635
3610
3210
3491
3070
3480
3192
3005
3648
3350
4118
3629
3676
3063
3147
3705
3254
3442
3149
2978
2902
3323
3310
3176
3289
3366
3584
3851
3422
3216
2833
3949
3240
2880
3432
3546
2600
3721
2661
3282
3479
3804
3496
3462
3622
3736
4002
3559
3164
3208
3185
2772
3349
3871
3048
3869
3852
3347
3693
3797
3509
3725
3072
3316
3448
2983
4262
3602
2486
3405
3694
3506
3679
3341
3301
3104
2741
2983
3235
3519
2912
3671
3226
3165
3099
3198
3422
3123
3855
3504
3555
3610
3214
3257
3221
2997
3504
3343
2589
3459
3844
4110
3432
2925
3103
3903
3302
3606
3867
3449
3739
3766
3613
3458
3298
3489
3549
3864
3470
3488
4541
3393
3428
3855
3484
3694
3590
3397
2838
3592
3218
3437
3270
4018
3637
3628
3709
3923
3277
2998
3060
3084
2988
3564
3208
3597
3527
3056
3500
3790
3216
3404
3652
3572
3720
3909
3722
3200
3068
3128
3298
3535
2377
3448
3539
3492
3527
4119
3298
3522
4129
2791
3417
3891
3615
3175
3700
3559
3406
3079
3669
3019
3489
3822
3608
3414
3563
3151
3250
3097
3086
3408
2864
3588
3577
3564
3387
3704
4081
3375
3501
2926
3747
3570
3320
3542
3398
3680
3548
3918
3702
3475
3888
3535
3473
3129
2894
2880
3130
3402
3845
3579
3580
2717
3965
3738
3322
2966
3631
3665
3440
3673
3735
3300
4203
3610
3433
3421
3725
3841
3888
5514
3846
3481
3690
3748
3616
3783
3251
3941
4209
3243
3364
2980
3549
3461
3745
3431
