27791
29513
32487
30747
33221
31598
32042
33302
28509
27397
29001
28015
26356
29577
32397
28189
34109
29696
29053
31585
27645
33824
26458
30634
31491
30257
33785
29743
30026
30893
31415
30052
33445
30494
30975
29342
30452
31040
29998
26836
29996
28157
31737
32016
29533
27375
30975
29653
29183
31028
30318
30045
28565
30219
29435
29187
29008
33051
31645
31910
30491
30718
29684
25127
26940
32402
30034
29893
29413
31122
28157
28043
31767
27709
30400
31331
30917
30516
29480
29797
28008
31334
32984
25553
32639
28170
35399
32594
26716
30416
29586
29791
31834
27544
24826
29914
30646
33539
34142
33350
29007
27066
29835
34555
32788
30948
33975
29174
28693
34577
27820
32098
29595
30426
29565
28766
29253
27845
30493
31090
27275
27515
29852
26323
31015
32170
29760
26543
25267
32267
30258
31047
27856
30664
32719
26982
30843
28748
32467
32703
30919
29753
25978
33981
28167
31023
28175
27528
30182
31426
31250
28197
25821
30686
28317
32066
28658
30678
29609
25742
28575
32624
31018
26985
32797
27539
26826
25811
29021
28617
29989
32860
30281
28515
30806
27582
29178
27057
30054
27512
31059
31085
32804
31376
32562
28085
29504
26357
32168
32425
35681
30931
34179
38325
32035
27786
32238
34652
24693
31428
34474
29459
27885
28389
26645
32951
28342
30280
26137
28485
27768
32637
33370
34441
33745
28786
32049
27689
32963
34321
28758
29270
33043
33140
34617
32371
28761
31016
31637
35345
31850
31345
32556
31432
31911
34284
28279
32130
28050
34236
31645
26710
33593
28192
26958
26297
30969
31889
29398
30792
29636
29465
30127
34175
34625
29183
27599
31730
28518
27859
32088
30278
31924
30155
25358
33128
29479
31430
30626
29597
29362
30589
29344
30761
29956
29188
28431
26793
30065
28961
33436
33263
32632
31261
32540
31321
31103
31373
38406
35963
31116
31193
26831
26469
28409
31623
30231
27169
31362
26650
29242
30445
33879
29010
33088
33388
35706
33543
32764
41754
32909
31173
32339
27764
37894
35383
27258
37392
29286
32163
31531
33184
29653
32317
25871
34202
30325
28955
26253
32799
27889
30700
28104
32842
31177
31472
36291
30143
33284
30035
27162
30308
27664
30329
31944
38982
32719
37313
31667
29296
30928
29000
29301
32203
30170
30854
28127
32246
37537
27426
29764
29637
27610
29740
30166
28573
27779
30390
30260
31619
30041
28653
28988
29896
25971
32014
26592
27318
28816
31184
27137
31239
29034
32904
26415
30241
30005
36222
30134
28900
30596
26134
29847
33963
26805
30195
27479
30596
28486
30108
28676
26767
30189
30494
28866
26605
33983
31631
29965
28662
28308
28702
32401
29015
29884
31385
29061
27113
29415
28468
28506
25881
27249
29462
26998
29732
27904
32519
29382
31238
31620
29880
31670
30994
30401
29047
25941
31140
28697
31960
32202
29922
32390
32031
28210
29611
35618
33804
31373
30424
28182
28842
27941
28625
27721
28461
28306
31256
32603
33976
32483
29389
29584
28132
27068
30019
30293
26143
31314
30263
29445
31327
27945
26999
29144
29453
29805
31971
31700
24379
26877
29143
30102
27668
29310
27580
29633
28542
29350
32541
31666
28512
31047
30589
30621
27612
32735
31552
25680
28679
