7734
8517
8889
9093
9551
8352
8995
10788
8221
8127
8537
8193
7620
8749
10042
8508
11845
10001
8910
9573
7925
9328
7599
8761
8769
9150
9475
8425
8735
8772
9133
8548
8961
8162
8709
8430
8493
9004
8103
7973
8757
7851
10178
8925
8072
7475
11555
9471
8849
9522
9368
8075
8155
9142
9197
8120
7661
9392
9077
10777
9369
9002
8565
7104
7616
10669
9584
9013
8588
9201
8675
8510
9022
7786
7634
8768
9144
8937
8634
8562
8006
9887
9727
8895
10765
7808
10427
8911
7438
7659
8190
8257
9351
8462
7422
8557
8669
9481
9525
9509
9155
7327
8058
9958
9845
8888
9442
8077
8240
9478
8066
9432
8181
8844
7883
8358
7971
7217
8742
8694
7994
7260
8696
7282
9372
9821
8537
7866
7351
8961
9456
9134
8125
8904
8765
7796
8844
8177
9055
9604
8304
8537
7272
9861
7969
8737
8133
7899
8955
8727
8758
8101
7356
8677
8243
9622
8302
8328
8144
7378
8408
9192
9392
8489
9378
7922
8161
9418
8086
7898
8482
8466
10291
8315
8162
7502
8313
7700
8726
7601
8819
9671
9097
9050
9529
8147
7821
7332
9238
8280
10787
8055
9040
8945
8310
8022
8418
9425
6596
8352
9026
8168
11546
13146
11223
8923
10870
9775
7404
8863
8070
9768
9983
8876
8212
7859
9059
7478
8907
9397
7525
7740
8336
8385
8555
8615
8166
8249
7840
9557
8378
8422
8550
8839
8966
8531
7318
8972
7856
9255
8572
7486
10121
7744
7489
7507
8500
9063
8107
9661
8954
8335
8380
9374
8970
7724
7678
9255
7210
8033
9024
8722
8329
8607
7181
9418
8126
8842
8814
8608
8833
8483
8378
9160
7921
8029
8081
7829
8407
8606
9613
10720
9681
8310
8508
8261
8775
8179
9359
9882
8982
8961
7792
7237
7936
8863
8925
7648
8677
7580
8252
8682
9419
8943
9644
8621
9663
9016
9230
10193
8522
9256
9414
8077
10298
8193
6965
9157
7853
8420
8614
8904
8241
8720
6848
9063
10143
10702
7819
9538
8995
8736
7967
8672
8802
9400
9983
9890
8998
7508
7965
8731
7704
8397
8398
9174
8406
9383
9227
8150
9669
8247
8101
8706
8277
8936
8579
7849
10699
7664
8754
8216
7964
7792
8354
8295
8315
8854
8712
8638
9240
8169
8393
8856
8813
11729
7849
9769
8008
8970
7597
8911
8234
8677
7708
9049
9175
10823
8995
9043
8733
7708
8945
9870
7991
8847
8185
9962
7994
9616
8004
8977
8939
10772
9732
7626
9988
9155
8429
8336
8103
8234
9807
8357
7815
9079
8639
7521
8359
8679
9255
7586
7762
8781
7846
8581
8537
9893
8892
8984
9238
8270
8018
8854
8702
7585
7382
9228
8235
8928
9155
8502
8811
9246
8684
8662
10146
9584
9213
9099
8302
9608
8347
8569
7872
8646
8224
9283
9712
10473
9719
8571
8737
7876
7406
8552
8755
7721
8918
8836
8429
9002
7922
7525
7664
9932
8589
9310
9278
7593
9635
8762
8739
8102
8614
7714
8676
8350
8074
9588
8247
8410
8943
8796
7483
7929
9556
10051
8690
8460
