2011
2241
2342
2203
2354
2319
2306
2268
2452
1943
2080
2082
2044
2078
2259
1959
2336
2097
2042
2230
1948
2352
1862
2177
3615
4012
3310
2167
2255
2211
2267
2189
2214
2132
2091
2175
2135
2130
2084
1892
2309
1960
2318
2163
2045
1977
2166
2699
4205
2185
2114
2235
1984
2267
2056
2127
2108
2288
2236
2199
2246
2140
2164
1735
1959
2264
2198
2109
2044
2266
1963
1982
2205
1936
2133
2141
2228
2083
2091
2073
1988
2178
2253
1848
2219
2607
3259
2423
1895
2203
2081
2070
2202
1929
1898
2114
2099
2318
2470
2310
2131
1914
2028
2571
2298
2471
2358
2145
1981
2526
2006
2226
2149
2107
2049
2238
2094
2035
2158
2188
1915
2132
2112
1862
2642
2359
2188
1892
1954
2227
2090
2177
1988
2252
2227
1907
2343
2018
2296
2407
2237
2075
1808
2478
1964
2331
2006
2059
2143
2136
2241
1978
1945
2111
2009
2217
1981
2046
1942
1831
2006
2262
2159
1856
2331
1903
1990
1739
2013
2033
2097
2256
2098
1982
1989
1863
2006
2006
2466
1894
2150
2265
2146
2252
2229
2002
1893
1845
2173
2019
2303
1942
2181
2328
2034
2244
2107
2286
1726
2116
2245
1995
1978
1960
1884
2347
1991
2172
1959
1977
2286
2278
2107
2301
2363
1933
2193
1953
2264
2393
1903
2013
2105
2086
2234
2169
2029
2125
2038
2310
2188
2116
2103
2271
2177
2232
1827
2199
2030
2277
2202
1867
2423
1949
1911
2040
2206
2277
2080
2155
2136
2169
2234
2255
2251
1927
1919
2265
1910
1987
2199
2116
2365
2113
1899
2345
2206
2217
2134
2556
2188
2243
2050
2165
1963
2010
2010
1885
2089
2020
2248
2378
2253
2039
2091
2032
2154
2110
2361
2244
2218
2143
1955
1830
2070
2169
2119
1942
2158
1874
2122
2190
2458
2030
2263
2185
2356
2292
2177
2399
2190
2651
2423
2010
2492
2114
1789
2202
2038
2070
2123
2104
2303
2286
1903
2457
2638
2360
1972
3011
2820
2326
2207
2988
3718
2352
2460
3955
2707
2083
2255
3990
2160
2044
2034
2229
2016
2417
2256
2052
2108
1936
1962
2149
2000
2143
2005
2265
2482
2016
2217
2198
2026
2366
2085
2113
2178
2292
2551
2242
2145
2030
2098
2121
1963
2640
1963
2210
2062
2305
1894
2185
2034
2310
1868
2073
2169
2557
2200
2056
2202
1826
2041
3938
1957
2248
1935
2160
2104
2149
2027
1966
2192
2592
2105
1908
2413
2326
2383
2080
2729
3857
2318
2058
2202
2225
2405
2709
2515
2194
2089
1958
3414
3303
1971
2088
2047
2762
2187
2291
2535
3372
2259
2178
2232
2080
1816
2225
2100
2288
2226
2128
2249
2420
2049
2416
3553
3533
2304
3492
2709
2084
2258
2147
3009
2083
2268
2433
2029
2563
2358
2166
2228
2655
1985
2208
2296
2127
2396
2210
2184
2205
3072
2230
2081
2222
2275
2327
2352
2072
2019
2834
2237
1922
2119
1983
2147
2855
2096
2433
2155
2126
2205
3166
3370
2307
3242
2501
1884
2064
