11990
9230
9984
9564
9967
9951
9664
9882
9283
9151
8990
9231
8918
10349
9274
10665
9519
9116
9789
8622
12742
8858
9989
9161
9748
10646
9995
10168
9582
8966
10125
9093
9842
10039
10253
9763
9128
8601
9258
9765
9942
8552
9664
9800
10114
9311
10739
9943
8977
8656
9840
9743
8828
8557
12044
10228
10132
9789
9101
9025
7750
9512
10038
9931
10446
9305
9323
9399
9813
9798
8244
9619
10218
9620
9352
9601
9727
10132
10537
8535
9492
10348
10269
9508
8399
8950
9772
10252
9613
8562
9244
10087
10785
10257
10360
8583
9004
10961
10642
10876
9788
8980
9259
13457
9733
9951
9087
9706
9491
12536
10278
10553
9716
10360
8025
8929
8296
9459
9987
12189
9130
8127
9824
10431
10548
8696
9803
9536
8495
9414
9863
10717
9445
11066
8166
9252
9575
10242
8969
8633
9403
9193
9860
8911
8605
9980
9315
10063
8967
8859
8558
8604
9982
10177
9438
9055
9044
9361
8322
9559
9146
9442
9770
9678
8898
9453
8423
9909
8629
8869
8945
10747
9434
10593
10517
9225
8662
8213
9624
9829
10681
8754
10223
9988
8736
8881
10533
8660
8938
11329
10642
9101
8443
8473
9663
9258
8847
8368
8856
8638
10097
9318
9876
10052
8653
9763
8410
10991
9153
7814
10481
8846
10699
10632
9958
9599
9406
10552
11616
9770
9994
10333
10366
9812
9124
9144
9269
9968
8879
10841
9566
7983
8660
9262
9688
8404
9975
10368
9747
10218
10755
9398
8896
8537
9127
9008
9705
10029
9904
10360
8227
11198
9281
9821
12122
11456
9669
9909
10032
9850
8585
7903
8794
9647
9996
10013
10414
9987
8550
9486
9190
9691
9806
10032
9815
10020
9364
8602
8046
9990
10263
8627
9075
9041
8466
9838
10727
9013
10268
9371
9765
10492
10524
11022
10279
10072
9576
10520
10757
9072
11747
9184
9271
9185
9168
9266
9862
7754
10494
9405
8824
8405
10565
9637
9777
10227
8997
10078
10199
9606
10764
9018
9060
9849
8611
8957
10043
9798
9833
10629
9706
8685
9619
8954
9345
9567
10613
8615
8436
10727
8975
9405
9691
9203
9145
9495
8995
9207
9624
10366
9643
9591
9089
9360
9292
9851
10153
9126
8960
13127
9324
12740
8946
10757
8300
10418
9455
11247
8999
10058
8963
8585
11152
8048
10276
8851
9616
8695
9689
9021
8626
9145
9210
9182
9031
9722
9700
8344
9535
9310
10390
10673
8141
10524
9223
8534
9174
8999
8662
8536
9467
10734
8824
9776
9066
10293
10209
10377
9510
9587
9451
10005
8056
7941
9864
9469
10195
9958
9148
10161
10735
9655
10149
10411
10557
9416
9589
9373
9427
9006
8874
8906
9634
9901
9810
12325
12327
9591
9071
9710
8277
9937
9243
10132
9123
9411
9497
9194
9316
8205
9444
9140
10802
9725
8396
8942
9700
9507
8497
9321
9256
9704
9103
10111
9278
9519
9654
9821
9460
9585
10466
10407
8860
8347
9809
9052
10439
9627
9227
8336
8582
10739
10228
9976
9658
9131
10014
9848
10389
9125
9289
9924
10569
9824
9209
8615
9040
9297
9658
10488
