133
123
141
117
110
114
118
212
101
118
105
117
66
66
65
62
62
60
62
64
62
62
64
64
63
71
98
105
107
86
64
62
65
62
63
61
62
62
59
63
71
64
59
69
64
61
60
60
61
62
63
65
62
61
65
64
76
63
66
116
107
104
99
100
82
62
64
59
61
100
63
62
62
59
63
61
63
61
62
65
64
63
61
65
62
88
113
144
137
99
230
121
276
150
117
72
71
71
75
61
63
67
61
67
63
89
76
62
67
78
65
64
141
123
130
107
70
61
66
64
65
61
59
59
60
61
61
66
59
61
64
60
64
64
63
66
60
61
62
62
62
64
136
62
65
63
65
89
65
58
63
64
63
65
61
60
62
62
58
63
62
61
62
66
63
62
64
65
66
65
61
63
62
73
61
65
133
64
59
68
67
67
63
63
70
64
64
64
61
62
61
58
63
61
60
91
62
64
61
60
60
63
61
60
61
63
62
62
64
62
63
160
72
60
64
60
64
65
59
62
65
59
61
62
62
60
64
59
64
61
59
64
62
62
61
61
72
63
60
60
71
60
64
59
66
65
64
68
236
81
66
60
61
65
62
60
63
61
64
97
65
60
61
62
59
59
61
59
60
61
60
59
61
66
63
63
95
109
114
104
69
63
66
67
61
64
64
64
64
64
64
61
73
59
62
62
65
66
60
61
69
60
61
63
70
63
75
63
66
64
64
62
66
71
63
64
60
64
61
62
99
77
109
63
60
61
60
72
60
60
60
64
67
67
59
61
62
69
74
67
62
66
71
68
64
63
78
66
63
62
62
65
64
70
69
71
79
84
80
116
96
61
64
64
60
70
65
61
104
99
110
103
65
63
64
62
68
61
66
65
64
64
65
64
63
61
62
61
61
89
96
64
62
63
64
67
62
62
97
67
66
62
62
64
65
65
61
60
63
61
64
59
65
64
61
63
62
62
61
61
60
61
62
62
65
61
60
81
62
60
60
73
65
65
66
61
64
60
61
64
61
64
61
64
61
62
62
64
68
61
62
59
60
63
59
61
62
62
62
62
62
63
59
93
103
66
63
62
62
62
61
66
63
62
64
63
61
62
61
61
79
60
64
60
62
63
64
61
60
64
60
61
61
61
62
60
66
168
110
101
