^D:\SCHOOL\NI-KOP\GITLAB\TASK04\NI-KOP - TASK04 - ITERATIVE\NI-KOP - TASK04 - ITERATIVE\X64\RELEASE\BAG.OBJ|D:\SCHOOL\NI-KOP\GITLAB\TASK04\NI-KOP - TASK04 - ITERATIVE\NI-KOP - TASK04 - ITERATIVE\X64\RELEASE\MAIN.OBJ|D:\SCHOOL\NI-KOP\GITLAB\TASK04\NI-KOP - TASK04 - ITERATIVE\NI-KOP - TASK04 - ITERATIVE\X64\RELEASE\TIMER.OBJ
D:\SCHOOL\NI-KOP\GITLAB\TASK04\NI-KOP - TASK04 - ITERATIVE\X64\RELEASE\NI-KOP - TASK04 - ITERATIVE.EXE
D:\SCHOOL\NI-KOP\GITLAB\TASK04\NI-KOP - TASK04 - ITERATIVE\NI-KOP - TASK04 - ITERATIVE\X64\RELEASE\NI-KOP - TASK04 - ITERATIVE.IPDB
D:\SCHOOL\NI-KOP\GITLAB\TASK04\NI-KOP - TASK04 - ITERATIVE\NI-KOP - TASK04 - ITERATIVE\X64\RELEASE\NI-KOP - TASK04 - ITERATIVE.IOBJ
D:\SCHOOL\NI-KOP\GITLAB\TASK04\NI-KOP - TASK04 - ITERATIVE\X64\RELEASE\NI-KOP - TASK04 - ITERATIVE.PDB
