1 25 3031 298 84 86 46 108 30 489 57 272 9 404 4 366 20 253 30 428 46 15 9 31 57 274 52 45 41 14 78 55 26 293 12 330 47 400 71 345 4 476 62 72 1 329 94 135 91 301 25 243 61
2 25 2967 34 35 99 68 336 17 175 19 286 55 431 54 427 55 320 79 107 59 83 94 301 98 265 24 477 96 177 30 15 86 30 84 327 75 472 63 214 60 81 88 108 96 415 7 167 13 171 30 417 20
3 25 3282 310 35 370 11 233 87 372 16 391 76 372 46 341 82 54 33 43 97 88 77 23 45 166 20 361 54 69 48 475 67 286 31 317 71 354 82 347 78 346 31 453 32 351 25 239 61 135 65 69 55
4 25 3576 258 44 51 78 453 10 464 93 92 26 309 49 104 21 322 40 110 10 420 23 472 97 131 94 336 64 314 17 433 64 366 7 252 32 443 78 288 81 190 80 387 14 385 78 161 99 206 17 205 56
5 25 3551 330 18 293 7 132 80 238 19 444 80 392 64 33 10 445 65 346 48 116 64 385 14 319 46 133 13 288 58 264 92 323 88 162 6 367 77 134 39 436 40 452 56 142 44 192 95 398 61 338 5
6 25 3561 172 12 290 94 277 43 155 70 432 98 252 97 300 51 113 30 427 59 232 23 93 24 456 88 490 46 188 43 425 17 329 25 109 78 376 65 496 19 217 95 259 40 171 29 413 48 353 27 97 99
7 25 2779 404 11 256 29 112 45 102 99 148 53 92 71 84 49 316 16 38 91 123 95 351 10 181 54 395 9 280 34 5 7 144 45 83 8 421 46 316 54 463 36 413 38 151 39 459 86 160 67 62 79
8 25 3405 183 30 75 12 113 39 193 72 44 28 128 24 423 12 240 6 395 44 308 45 495 72 412 8 464 89 201 47 405 83 203 25 249 43 202 82 474 67 255 81 249 32 227 86 87 7 351 81 435 33
9 25 2967 55 27 290 92 49 1 135 33 170 32 250 5 464 25 129 100 193 97 467 17 174 68 150 58 117 88 473 57 145 82 426 6 311 47 302 41 321 32 330 1 189 94 455 30 47 6 71 29 222 99
10 25 3315 36 15 428 1 104 93 166 43 279 35 330 1 267 71 130 21 162 1 391 84 269 49 482 36 157 40 301 12 448 100 387 32 394 43 449 38 127 98 34 97 162 99 373 81 138 20 316 10 300 2
11 25 3059 94 23 188 100 452 48 125 53 71 65 298 64 241 66 279 16 442 66 434 98 42 68 418 48 296 89 224 16 365 20 82 96 161 77 88 60 316 90 438 48 251 23 86 50 151 96 384 59 193 28
12 25 3397 188 70 439 17 204 10 390 93 362 40 210 17 395 42 26 86 220 12 215 43 253 60 480 12 349 64 75 74 2 76 237 16 85 90 448 80 384 12 220 90 193 92 452 80 408 37 146 21 413 54
13 25 2960 430 1 205 42 420 60 30 79 206 30 394 17 81 78 434 2 208 87 188 24 458 32 99 66 20 20 225 79 466 8 167 82 28 42 197 24 463 17 158 69 100 91 149 30 470 94 206 10 119 72
14 25 3424 226 2 101 19 137 63 68 43 179 55 307 4 344 47 233 76 484 35 447 62 467 41 158 87 96 57 377 15 150 74 455 52 358 53 288 4 315 50 8 80 230 87 435 80 429 88 67 57 490 28
15 25 2927 72 51 390 57 284 52 183 52 310 53 226 10 88 13 22 98 71 63 362 11 121 4 410 46 466 32 375 36 235 85 59 77 263 19 331 93 142 22 20 87 454 96 263 14 463 53 38 60 206 28
16 25 2580 71 79 188 37 417 92 473 82 131 44 65 67 303 43 442 91 379 57 251 27 347 51 114 56 18 53 457 37 2 48 29 39 154 52 22 88 160 46 253 47 186 91 115 7 131 23 360 24 93 78
17 25 2875 119 16 29 68 62 47 408 95 210 87 34 25 155 17 487 27 123 54 437 75 78 43 247 74 80 66 495 66 59 84 306 13 475 60 498 69 243 34 265 70 140 57 440 85 286 90 39 66 36 85
18 25 3525 162 44 496 9 344 8 10 78 231 9 319 1 347 57 379 36 358 92 47 76 484 23 406 89 483 53 186 30 327 97 484 1 172 66 276 3 134 61 450 60 128 52 125 12 354 64 338 6 10 82
19 25 3375 310 49 67 53 193 64 472 29 5 52 371 14 382 3 229 93 50 90 287 100 144 74 158 72 388 12 446 77 368 87 205 73 188 94 490 14 324 50 294 30 204 58 315 63 357 49 38 4 466 68
20 25 3176 248 33 438 91 263 13 50 75 485 54 119 40 462 83 84 97 386 13 68 41 266 32 420 45 165 48 281 55 408 98 199 37 467 30 156 80 269 50 377 69 276 43 60 86 7 39 101 100 298 4
21 25 3478 434 80 83 26 410 52 185 9 67 31 455 39 392 79 195 2 500 83 486 12 10 54 19 95 467 16 442 98 144 14 419 9 233 65 121 100 62 45 224 87 383 88 168 9 399 22 432 77 226 37
22 25 3340 107 86 250 68 395 72 455 17 360 46 337 22 378 2 7 77 32 85 99 51 174 40 329 84 229 90 197 29 492 42 169 89 318 39 466 46 237 18 392 72 462 15 210 30 78 50 12 54 496 58
23 25 3515 227 14 63 36 464 66 254 84 65 68 151 92 436 8 27 92 460 97 201 84 476 6 448 12 450 9 319 9 420 39 473 53 150 66 175 35 215 9 100 91 425 67 234 74 242 12 203 44 353 86
24 25 3347 432 9 428 46 69 92 173 16 111 49 274 36 260 1 479 54 364 28 261 61 227 93 51 23 167 78 270 70 352 46 313 95 495 39 158 71 287 30 75 43 368 31 466 11 337 58 213 8 64 51
25 25 3501 394 8 57 12 238 97 254 37 413 38 71 28 91 74 339 65 362 11 150 43 278 59 235 64 244 49 403 65 402 50 428 23 57 100 488 12 94 3 191 36 497 44 299 76 473 62 350 34 195 84
26 25 3064 311 90 122 64 201 2 245 3 173 33 94 92 290 60 323 65 460 59 500 77 329 70 79 60 126 79 18 56 395 83 318 16 16 1 269 22 292 78 112 6 377 61 464 76 353 92 3 39 258 57
27 25 2843 279 23 186 49 152 55 45 84 365 71 55 16 404 75 440 60 94 4 124 27 136 79 48 52 484 40 216 5 497 100 90 26 312 19 341 90 488 67 258 6 199 17 50 98 100 76 233 32 90 76
28 25 3529 198 8 495 57 105 25 98 76 255 54 27 78 397 1 365 32 230 37 360 85 440 32 355 9 417 43 240 48 489 68 334 35 90 80 258 9 343 48 302 95 299 37 173 55 364 91 63 26 362 47
29 25 2626 33 76 322 26 73 36 474 38 11 38 185 46 459 92 2 45 182 58 396 98 335 58 63 40 369 98 94 45 234 21 94 54 357 56 293 31 124 80 485 17 104 28 20 55 259 83 122 64 163 68
30 25 3494 329 71 451 100 28 49 303 2 152 17 473 94 99 47 318 95 314 65 123 39 369 2 453 47 302 66 352 30 421 57 115 88 266 88 67 53 247 17 371 37 120 11 375 19 128 55 412 22 400 17
31 25 2685 183 4 321 88 78 97 361 64 375 55 352 49 479 62 8 63 481 35 407 43 457 43 138 96 27 85 30 42 135 65 206 81 178 98 35 94 88 98 273 96 163 63 52 1 116 54 21 15 406 38
32 25 2937 467 92 425 25 353 18 420 4 79 60 184 87 99 42 210 92 470 40 151 30 92 67 436 88 184 23 262 40 369 9 17 5 169 89 1 56 250 79 128 12 199 49 233 70 256 55 247 21 174 28
33 25 3178 69 50 400 38 76 64 162 68 405 16 458 99 344 22 443 38 492 14 106 72 90 57 227 22 217 64 259 62 320 73 66 20 204 56 11 55 312 64 382 99 164 6 401 44 367 14 25 26 356 34
34 25 3175 101 64 126 42 285 61 343 31 388 2 476 82 101 23 309 88 193 56 5 56 331 26 325 23 402 73 403 6 463 55 77 95 342 22 373 100 199 31 8 27 51 89 142 43 232 97 490 38 185 87
35 25 3001 6 39 282 95 308 86 197 76 237 4 239 45 457 75 292 83 245 60 311 18 377 38 42 54 250 59 58 41 16 90 175 51 25 50 157 85 109 70 371 22 386 71 407 91 224 38 468 35 363 5
36 25 3655 200 18 100 5 386 34 35 72 420 41 80 37 324 5 215 34 400 26 107 3 464 60 304 1 193 47 233 61 462 46 71 100 383 16 426 81 489 7 461 94 438 83 66 21 269 26 353 77 432 17
37 25 2797 382 19 11 38 35 59 141 26 305 64 214 89 396 51 5 45 317 82 217 50 425 43 326 32 202 37 165 28 449 13 140 40 123 59 399 54 23 35 258 34 198 48 302 38 412 61 145 33 4 66
38 25 2688 78 37 210 83 308 71 134 87 20 33 33 56 389 83 251 52 413 39 332 37 50 93 357 27 371 32 222 62 50 98 363 91 61 75 496 44 3 28 169 33 482 85 231 7 282 91 23 10 49 79
39 25 3007 147 71 308 16 48 96 261 19 486 20 495 66 92 11 448 58 65 97 108 85 135 6 108 85 289 70 333 63 319 12 447 60 331 77 435 51 6 48 5 35 172 55 420 56 96 73 80 15 380 38
40 25 2729 73 29 316 31 5 55 28 2 161 63 217 6 204 67 41 46 258 18 358 92 90 1 343 45 326 55 81 51 390 9 70 45 359 47 204 72 265 43 279 92 432 43 401 54 91 48 109 54 357 8
41 25 3518 180 77 440 25 100 4 406 31 19 84 199 74 481 74 327 68 30 13 129 61 349 80 195 89 496 22 433 81 48 26 269 8 324 59 425 8 46 71 480 65 468 75 469 12 174 17 147 22 403 99
42 25 3155 344 71 208 81 199 35 168 85 140 18 417 81 334 83 241 86 399 23 320 36 245 24 422 28 282 48 321 30 231 67 173 41 36 68 221 67 465 20 278 74 303 63 39 81 350 96 121 42 53 20
43 25 3284 407 2 289 26 5 46 388 59 376 59 179 58 437 88 356 84 282 87 215 59 408 1 2 94 384 4 61 55 165 85 273 32 213 39 280 94 101 15 275 83 191 57 201 32 181 13 408 57 491 89
44 25 3058 44 73 355 32 29 89 386 88 59 1 240 29 353 80 75 51 285 17 362 28 338 41 247 95 338 70 429 55 372 68 194 21 259 76 373 40 71 21 75 14 64 4 348 35 180 82 341 47 299 72
45 25 2648 53 30 47 16 275 96 345 13 310 40 330 87 473 53 312 86 169 38 194 21 125 57 493 85 156 15 169 89 359 19 212 34 309 15 32 98 10 37 126 89 299 70 279 52 124 52 25 80 70 18
46 25 2760 88 18 138 49 143 34 180 16 253 45 1 67 430 33 158 18 195 83 78 52 110 100 247 36 194 50 326 41 265 75 153 63 493 10 429 34 181 54 477 15 199 75 170 51 221 88 56 7 335 48
47 25 3294 355 70 88 65 228 43 10 45 422 77 355 86 172 13 250 14 293 72 487 72 140 55 460 37 468 94 397 37 149 38 286 22 1 16 285 86 42 23 406 4 62 32 325 38 498 63 189 19 221 91
48 25 3298 247 11 61 42 498 100 149 53 12 25 162 48 328 48 108 77 452 90 425 17 35 83 335 50 444 26 397 44 146 63 337 90 259 78 210 62 429 61 179 24 231 24 376 58 181 91 422 31 173 25
49 25 3084 1 9 453 64 155 59 447 21 379 28 123 19 152 65 272 89 202 34 107 75 444 8 268 4 119 33 71 44 213 29 482 44 127 83 79 49 462 99 235 47 217 64 359 25 300 1 152 65 350 82
50 25 2995 198 24 488 76 412 86 63 13 327 38 495 81 28 18 499 91 177 89 133 58 117 45 180 35 131 40 430 17 41 78 175 95 368 65 16 94 15 13 80 43 190 72 369 78 239 43 345 77 474 29
51 25 3045 325 26 142 100 238 27 182 25 431 77 333 11 223 2 261 24 409 43 440 59 210 49 82 19 324 61 490 23 138 3 89 23 9 8 21 96 285 56 354 65 58 57 257 94 333 86 188 14 268 73
52 25 3643 254 93 316 58 451 32 223 68 390 23 330 78 347 2 309 74 180 88 276 19 386 2 236 45 447 54 100 55 211 70 341 36 325 39 478 13 371 40 92 15 229 60 165 91 232 39 464 60 134 49
53 25 2305 405 85 205 44 169 11 92 29 62 10 167 44 309 4 61 8 156 24 338 14 343 84 138 43 153 46 113 85 273 34 244 83 251 10 107 16 110 16 238 58 62 84 180 76 26 79 331 63 77 60
54 25 3291 338 60 339 19 317 46 459 74 82 37 386 69 42 82 139 89 15 38 180 73 457 63 48 13 5 75 324 77 225 83 33 100 191 98 467 81 464 7 315 80 216 15 451 15 321 82 472 80 296 24
55 25 3394 497 81 433 27 37 14 473 76 486 44 133 86 176 10 355 6 42 47 379 50 196 73 187 15 50 14 416 79 298 34 148 43 102 96 472 99 201 50 177 33 450 48 361 16 51 81 418 62 251 24
56 25 3493 90 28 133 22 238 36 408 15 476 93 29 63 399 30 52 83 46 45 50 81 148 88 455 95 489 9 438 9 310 11 83 32 454 49 498 7 399 2 378 56 33 6 318 100 425 51 433 14 205 97
57 25 2780 134 3 128 90 450 32 345 14 23 67 279 96 194 94 323 5 410 24 261 64 3 72 172 89 176 33 313 67 348 67 74 49 98 56 144 54 374 12 381 38 206 40 116 26 30 77 170 11 408 19
58 25 3346 174 58 401 5 485 97 211 98 360 67 279 95 396 96 416 71 371 1 329 89 335 59 169 59 427 84 78 38 117 29 372 51 158 14 100 52 205 54 28 28 150 28 188 87 73 29 486 61 384 43
59 25 3059 20 29 407 97 275 60 385 95 121 40 75 7 268 78 296 68 37 14 382 22 141 64 437 65 488 11 183 2 490 95 227 4 235 19 387 97 38 66 254 91 226 49 16 28 428 51 105 12 197 25
60 25 4078 148 46 310 94 407 2 489 76 471 71 210 14 347 86 395 21 432 65 457 18 3 41 105 34 356 16 243 14 467 10 452 4 445 37 251 25 438 52 354 63 299 97 270 22 298 19 393 81 117 24
61 25 3260 202 15 91 7 144 16 285 49 78 14 388 79 354 40 289 76 453 33 20 14 404 61 350 100 308 80 412 30 240 89 347 73 93 62 270 54 175 57 474 65 244 13 62 70 48 37 452 62 337 63
62 25 2732 285 89 205 79 8 51 169 79 224 36 408 91 419 42 283 44 40 63 273 71 283 70 284 60 66 91 319 78 230 81 124 52 477 53 446 79 307 81 59 74 12 45 174 72 104 52 62 91 204 80
63 25 3294 393 23 221 8 275 36 7 40 348 15 279 67 485 1 82 5 324 13 201 82 83 11 150 30 466 39 242 28 405 77 470 51 22 15 442 73 130 47 156 89 201 10 355 53 280 55 192 21 380 44
64 25 2846 229 61 64 79 77 85 142 31 117 31 401 47 40 9 116 70 390 14 293 7 136 46 480 46 1 63 239 62 201 10 99 62 437 26 338 57 212 56 453 41 327 40 230 39 279 83 215 12 177 96
65 25 3113 479 29 237 64 362 33 236 32 164 43 332 69 177 96 116 28 349 88 346 91 365 22 328 26 159 16 171 49 341 72 243 39 476 3 42 65 433 77 16 46 96 52 57 92 374 18 205 65 123 28
66 25 3306 116 95 286 91 398 76 184 12 2 60 155 62 335 61 238 75 72 47 456 32 21 84 364 54 28 15 398 80 393 51 380 13 347 25 143 78 487 87 332 13 95 98 320 7 496 70 369 64 198 81
67 25 2533 329 67 57 18 22 31 14 26 396 9 395 42 142 100 500 9 304 96 2 13 112 46 247 18 19 7 25 40 389 1 120 99 119 35 392 61 137 6 470 58 180 83 433 31 184 12 57 27 22 75
68 25 3090 158 76 119 52 275 17 243 43 286 21 82 78 144 80 374 16 124 4 103 51 345 26 24 13 383 97 339 83 275 27 297 24 200 96 349 61 403 93 498 44 160 22 405 78 22 65 217 67 355 31
69 25 3504 419 20 163 39 380 20 307 34 429 73 176 76 451 70 5 77 154 52 311 37 458 77 224 57 102 57 97 5 347 9 139 32 430 92 487 29 88 78 364 83 172 8 410 76 363 45 203 91 330 96
70 25 3869 43 99 55 47 165 92 348 96 228 68 465 24 447 33 408 59 469 44 483 80 391 64 299 21 318 11 38 16 440 97 108 86 492 10 456 11 263 81 420 68 460 8 404 29 29 72 73 68 437 53
71 25 3405 124 51 455 96 409 54 2 69 360 50 384 17 299 9 383 81 322 54 437 44 89 77 278 58 78 6 295 30 253 11 53 58 366 81 433 51 434 95 339 5 329 64 189 53 255 87 16 84 228 74
72 25 2631 202 38 272 65 129 65 419 3 69 44 457 27 426 21 374 90 3 83 177 21 294 20 211 8 128 42 139 46 83 32 210 63 52 72 267 37 102 48 42 47 24 17 34 49 376 63 403 62 369 16
73 25 2941 469 70 54 82 27 96 149 38 165 6 474 61 47 48 430 16 413 72 92 71 300 67 80 67 453 83 150 90 451 72 106 14 109 91 161 95 303 85 146 15 120 24 115 64 415 24 401 47 253 6
74 25 3429 76 80 400 16 70 23 327 44 394 90 337 75 144 70 424 74 96 57 242 79 485 8 205 19 305 93 283 75 471 41 148 71 221 89 43 60 438 54 221 43 102 97 298 48 435 46 421 15 273 40
75 25 3475 95 67 33 67 455 26 58 92 162 62 100 51 470 40 137 39 436 44 372 98 189 100 436 93 189 72 12 74 332 7 74 40 489 57 375 19 475 97 386 81 442 28 5 1 423 24 490 72 316 63
76 25 2939 259 70 161 59 281 80 345 31 441 2 110 96 136 81 76 62 224 46 68 29 32 62 399 1 299 75 402 66 457 9 423 24 92 5 164 52 26 27 467 61 267 90 471 90 81 32 78 87 119 38
77 25 3505 385 8 211 32 499 54 206 4 311 71 499 31 229 58 173 79 50 29 392 78 298 23 84 67 132 24 333 5 418 49 113 18 79 97 110 76 400 52 236 60 479 84 212 44 471 28 467 82 223 64
78 25 3235 136 90 342 89 403 82 91 28 202 72 139 52 374 26 383 70 386 27 299 80 247 59 9 88 305 89 180 71 267 48 451 9 460 11 263 38 39 36 391 5 201 93 86 9 303 74 452 56 62 82
79 25 3664 268 26 494 30 149 88 409 45 231 83 38 35 307 11 318 8 424 96 238 25 411 66 237 65 397 47 453 63 355 81 64 8 26 69 334 11 317 98 431 11 342 74 201 99 347 36 114 26 423 6
80 25 3033 63 95 367 81 198 62 66 87 366 17 316 62 488 70 147 62 474 82 186 75 190 16 440 90 1 19 219 73 92 63 272 72 406 51 6 50 134 58 217 61 275 5 211 23 331 66 146 3 456 86
81 25 2563 267 46 40 8 270 81 61 51 224 17 469 24 17 92 247 35 391 83 322 77 27 81 24 93 60 86 138 48 418 40 500 38 198 49 187 33 186 76 200 73 340 62 91 10 115 15 310 98 24 56
82 25 2892 244 96 380 18 447 32 84 84 142 20 86 57 90 25 252 30 11 5 328 30 442 37 436 97 464 94 166 31 413 69 326 27 366 64 50 91 417 53 159 11 185 90 72 37 33 88 77 8 114 85
83 25 2753 144 37 48 7 197 92 84 20 280 33 129 46 139 71 452 87 459 12 213 30 177 45 424 57 49 50 44 62 171 29 249 19 93 9 324 82 292 80 307 56 394 35 66 86 45 52 343 85 384 13
84 25 3164 428 14 464 91 325 37 65 7 180 63 186 50 330 70 58 34 84 62 489 96 55 10 444 9 459 86 161 84 277 95 70 7 24 36 257 37 109 6 386 40 279 51 387 90 379 80 372 7 60 57
85 25 3272 195 95 312 37 411 24 326 89 144 36 317 76 133 44 324 26 236 77 389 5 357 22 38 80 191 97 269 56 471 76 169 12 410 58 204 94 180 63 285 18 318 38 43 64 467 1 66 56 290 55
86 25 2482 44 81 377 53 75 44 327 100 268 9 45 30 429 15 105 7 108 18 281 84 80 85 119 39 190 41 127 64 422 9 95 35 425 16 48 21 129 15 107 48 213 28 345 18 87 53 59 82 459 13
87 25 3124 45 38 405 62 84 13 39 30 389 32 302 19 101 26 284 63 46 44 108 59 31 43 405 87 416 15 358 79 278 98 3 7 230 56 451 48 341 12 321 8 498 38 40 48 393 71 391 78 290 27
88 25 3190 433 21 470 23 303 64 444 7 15 43 287 73 85 88 260 53 321 20 409 24 93 53 473 69 310 77 266 86 408 96 465 91 104 35 117 9 108 83 172 7 52 59 5 7 180 66 302 45 298 58
89 25 3558 39 74 383 56 410 65 231 67 373 84 188 47 210 58 105 94 482 86 105 70 110 4 291 14 307 43 322 90 237 35 305 45 345 68 137 81 419 28 463 65 193 35 195 13 493 9 273 11 500 27
90 25 3167 423 27 343 92 393 65 484 98 139 1 239 14 65 8 57 25 377 37 290 51 432 69 461 75 183 40 145 10 104 47 467 31 428 97 132 99 226 63 89 86 70 47 48 33 200 14 352 25 187 59
91 25 2513 56 9 238 47 264 99 472 10 240 41 144 56 326 66 196 30 67 10 83 61 19 18 489 93 118 35 177 73 396 32 60 32 148 69 42 35 202 92 385 67 297 96 166 1 193 2 163 36 86 11
92 25 3532 333 4 192 95 277 45 423 43 172 30 416 73 283 94 286 88 215 18 500 12 457 4 227 27 129 72 391 11 294 89 494 19 256 66 249 44 270 54 204 22 185 19 118 36 164 76 107 79 423 62
93 25 3279 191 100 206 25 85 99 395 88 408 45 258 82 255 33 209 63 52 54 421 25 126 49 33 75 491 90 349 61 495 88 132 33 217 16 105 71 472 21 487 5 261 97 228 13 204 73 202 99 277 18
94 25 2849 7 92 473 99 235 35 94 98 18 80 266 77 443 33 322 15 134 55 73 6 141 3 345 40 440 81 102 54 196 14 232 59 3 32 287 32 8 17 489 52 410 5 23 69 384 69 238 62 336 77
95 25 3273 71 98 243 73 289 57 421 2 401 58 160 28 73 32 38 54 291 96 483 44 253 40 75 72 35 80 475 9 168 29 12 80 455 64 148 9 333 69 325 18 381 4 437 10 446 79 68 12 466 49
96 25 3244 366 95 30 21 287 63 247 4 358 3 400 26 400 24 153 46 277 62 228 52 297 95 333 11 245 4 151 66 200 40 14 84 170 64 299 76 48 71 56 58 399 6 493 53 458 53 175 36 405 6
97 25 3091 361 4 339 28 101 78 57 98 87 7 395 26 119 46 48 81 380 86 460 32 401 37 436 87 41 66 197 67 159 55 217 2 119 60 427 6 261 48 276 74 428 69 341 62 310 14 123 74 99 98
98 25 3317 235 84 245 5 214 90 162 59 276 25 333 12 446 98 32 89 324 38 361 62 484 93 376 12 462 22 90 52 133 20 456 65 73 84 53 16 204 53 481 42 354 29 356 86 113 9 43 61 329 66
99 25 3524 480 45 67 7 419 24 109 42 416 92 241 87 479 75 49 61 496 100 162 10 300 96 221 71 262 56 408 87 110 85 380 3 296 84 416 50 63 33 33 97 378 48 306 49 240 69 460 29 257 29
100 25 3335 464 61 482 99 340 51 141 94 252 52 201 4 430 45 241 10 379 100 279 70 457 47 476 96 307 58 228 21 162 66 250 60 219 14 97 7 22 22 202 3 321 91 434 96 82 67 26 51 178 40
101 25 2873 202 11 459 99 432 62 28 29 323 23 56 8 334 21 77 11 82 48 65 75 22 96 67 5 43 23 79 30 498 15 38 8 294 33 499 19 492 30 205 8 372 15 384 5 130 94 462 64 103 25
102 25 3808 344 77 460 5 360 83 483 51 210 90 133 37 482 24 387 41 179 86 282 97 249 94 191 76 136 2 179 51 245 17 446 7 145 92 164 79 406 15 446 39 405 55 338 47 371 48 327 10 248 85
103 25 3427 475 36 273 86 7 2 271 69 471 28 494 52 383 6 77 91 171 16 186 53 135 96 225 49 340 49 443 93 352 9 306 80 331 5 135 81 118 40 212 98 325 32 152 83 453 11 275 63 245 12
104 25 3007 26 1 262 32 484 3 270 91 80 60 455 70 102 97 497 11 139 12 29 70 418 5 12 65 195 9 288 30 341 24 290 74 72 37 151 56 14 16 199 49 411 74 167 78 448 76 354 77 310 63
105 25 2923 131 34 485 49 146 39 193 85 201 27 469 2 262 21 354 1 61 8 82 19 315 84 54 23 393 55 74 9 275 19 238 37 348 91 102 16 257 28 431 96 20 33 132 95 400 94 346 98 77 98
106 25 3049 201 68 266 73 283 90 345 47 164 12 255 58 23 15 330 5 91 23 468 25 137 77 124 91 395 15 189 41 496 39 359 18 25 47 11 54 377 72 207 3 322 54 120 94 479 12 208 82 223 40
107 25 3434 342 11 359 16 364 85 61 64 496 69 322 17 266 56 184 76 387 78 73 88 398 63 313 22 252 28 332 3 402 97 234 60 295 20 103 37 86 95 256 33 93 8 421 77 448 43 132 40 250 83
108 25 2595 138 18 72 71 148 91 383 86 191 30 11 9 267 95 310 4 72 51 485 18 168 52 26 16 166 24 384 100 197 60 70 78 57 38 162 34 310 11 265 75 280 53 372 89 365 15 86 11 206 7
109 25 3452 250 45 151 38 296 77 246 11 326 53 43 75 418 54 330 53 341 11 456 63 294 51 21 77 160 13 459 7 282 25 311 65 312 49 101 4 75 37 429 24 235 1 40 93 428 100 411 40 490 37
110 25 3706 415 93 406 23 89 18 378 16 170 14 178 58 72 36 500 50 434 14 264 60 401 27 298 92 4 54 216 83 378 83 497 75 289 49 246 8 361 80 485 57 442 96 125 100 245 68 326 91 194 13
111 25 2765 185 25 146 23 366 18 378 37 304 89 413 94 308 51 248 88 135 98 197 97 424 7 392 7 187 39 92 68 289 84 257 28 246 50 186 89 192 53 71 20 8 6 100 21 317 88 67 47 23 53
112 25 3087 78 45 228 36 446 52 142 17 93 34 294 50 382 44 109 62 128 44 441 52 10 26 484 58 196 29 156 24 220 69 97 73 336 43 163 42 310 56 126 100 360 15 478 78 457 7 418 65 22 90
113 25 2531 119 69 387 48 171 50 245 91 195 19 211 67 55 21 184 52 174 81 118 55 167 46 100 24 38 14 424 24 295 33 52 17 298 56 146 42 233 37 113 14 389 57 318 18 67 8 491 88 73 3
114 25 3691 471 2 286 10 371 87 391 5 84 41 359 50 341 98 105 71 221 13 479 80 178 46 27 73 46 64 317 79 420 28 322 92 369 26 123 33 315 35 353 98 271 9 500 12 269 96 366 8 398 68
115 25 3671 272 32 404 3 250 77 495 33 127 47 93 6 156 49 351 81 280 19 327 87 426 53 422 60 112 81 319 30 85 17 389 69 471 72 157 61 483 83 153 78 422 29 416 61 51 36 217 41 464 85
116 25 3027 131 63 247 92 412 17 299 2 484 58 171 7 111 21 500 32 81 62 60 63 234 93 219 89 327 57 17 58 367 13 79 35 336 28 225 10 8 75 461 7 414 56 464 31 11 31 205 47 192 19
117 25 3312 296 69 187 81 3 3 467 56 400 10 434 72 230 40 274 98 69 35 473 49 495 12 350 28 102 58 81 60 203 83 220 10 475 28 283 95 227 51 265 54 297 4 418 23 85 85 132 33 159 30
118 25 3213 285 60 359 20 189 71 490 33 176 95 250 48 307 15 248 3 368 16 69 6 493 57 333 58 329 30 343 8 409 65 268 90 60 37 464 17 90 79 79 71 270 9 140 6 275 38 87 93 45 17
119 25 2346 86 7 118 43 370 16 32 94 342 49 401 100 409 29 60 99 147 77 434 50 157 100 132 37 20 13 18 59 27 33 234 45 2 24 169 59 297 21 25 9 34 7 132 11 377 54 382 48 288 57
120 25 2879 21 73 289 39 429 88 258 29 228 61 14 58 342 42 24 21 427 39 47 4 390 87 178 62 388 50 245 42 124 10 335 16 191 82 316 70 479 80 393 41 150 49 324 95 74 62 35 66 58 15
121 25 3081 49 18 102 76 152 18 114 44 367 10 229 46 132 71 71 27 179 19 201 43 161 39 420 58 134 48 446 95 320 23 472 98 403 90 446 7 386 83 329 4 106 10 127 95 410 12 167 90 239 50
122 25 3610 485 6 284 43 274 62 456 52 37 76 41 42 422 51 467 70 475 4 207 8 175 56 22 78 119 82 328 88 436 47 28 54 397 67 317 18 112 76 457 91 423 51 446 65 104 55 450 57 259 46
123 25 2722 330 88 201 44 250 81 81 1 189 21 176 24 417 99 1 69 350 92 216 76 97 52 108 2 62 58 452 49 148 8 286 5 319 14 230 19 81 27 348 67 225 53 55 50 290 20 337 27 195 49
124 25 3061 272 35 129 63 119 24 335 19 271 44 63 4 51 64 77 21 495 25 82 18 86 72 414 97 250 58 417 81 445 73 136 48 380 99 50 64 481 46 251 73 318 94 201 67 17 45 382 33 401 22
125 25 2885 449 58 282 61 83 29 140 14 79 33 43 87 121 75 500 2 385 88 273 28 355 19 1 45 439 7 259 38 401 60 42 7 248 72 302 92 224 95 278 4 185 37 125 80 11 39 324 12 221 67
126 25 2427 260 93 172 17 293 56 16 86 381 68 51 1 22 6 497 38 109 56 119 36 90 65 35 58 151 70 171 98 485 97 4 35 78 44 433 4 257 51 106 16 97 61 228 69 446 49 348 80 6 90
127 25 2620 488 87 25 86 5 4 157 62 75 2 113 17 89 95 220 50 230 55 216 58 181 64 488 30 100 35 51 27 49 34 490 4 480 67 370 96 59 76 38 23 408 84 21 48 244 14 470 29 174 52
128 25 3062 448 8 308 87 412 81 16 91 389 28 34 75 6 85 263 7 299 27 15 18 449 37 205 20 160 67 438 48 187 23 442 36 278 49 88 42 305 82 497 95 245 62 99 26 140 97 138 100 263 14
129 25 3205 70 77 342 57 325 47 434 15 186 54 124 77 358 51 87 87 77 27 472 51 231 23 178 90 78 85 411 64 183 31 449 38 67 16 175 97 163 68 374 79 247 1 486 26 239 57 264 88 391 46
130 25 3267 118 56 391 11 241 53 422 48 197 97 452 76 18 98 351 31 56 38 49 85 15 41 355 90 462 71 354 77 209 73 203 60 267 61 396 57 437 52 251 31 448 21 71 27 207 16 232 83 332 90
131 25 3003 117 89 344 81 19 100 233 51 287 14 70 82 234 94 314 89 215 27 102 94 294 78 422 20 246 72 425 14 106 53 190 20 466 94 284 100 481 79 344 80 7 28 180 73 44 6 416 92 167 76
132 25 2826 421 80 18 47 487 35 115 5 40 10 215 11 96 21 410 96 133 36 286 3 289 71 1 8 408 28 121 70 200 66 401 15 344 62 360 12 60 40 267 23 46 47 142 64 358 100 374 79 60 31
133 25 2388 398 74 110 58 27 38 116 28 30 51 100 20 153 86 66 14 149 46 459 79 356 82 238 35 490 65 68 45 352 93 331 33 406 69 11 97 118 41 398 95 116 77 168 1 11 66 30 27 76 2
134 25 2831 211 93 192 100 112 40 116 87 224 88 48 66 365 11 106 38 461 41 225 1 60 47 440 47 71 44 426 67 219 76 151 78 299 67 85 72 308 64 284 69 164 51 264 10 3 42 469 99 360 5
135 25 3307 450 67 127 12 225 72 478 63 236 7 37 83 90 85 460 2 414 73 464 54 243 51 190 93 364 98 240 39 43 62 433 82 436 9 6 100 355 64 194 6 101 99 134 23 493 62 59 72 342 31
136 25 3214 172 78 386 80 356 100 79 96 292 33 387 63 124 7 433 69 403 63 123 28 229 17 37 47 409 16 472 10 49 85 11 28 134 31 268 17 477 20 336 92 335 32 82 40 316 37 386 84 133 8
137 25 3422 267 24 451 35 332 6 394 32 223 31 277 69 436 22 296 92 92 85 274 90 259 78 243 41 125 33 255 32 222 64 449 67 315 89 284 6 351 77 259 80 447 97 70 14 180 24 35 85 308 73
138 25 3074 198 99 9 11 258 53 443 6 483 32 116 19 13 67 74 18 456 75 141 55 170 35 9 59 425 13 380 17 295 50 226 51 283 3 63 11 192 89 366 82 468 23 194 68 427 33 123 42 336 92
139 25 2935 302 7 124 86 226 1 166 38 49 79 129 63 425 9 109 92 130 17 77 89 12 23 183 81 285 17 223 77 112 28 395 80 467 57 212 17 395 38 311 12 301 4 355 20 100 76 453 42 329 81
140 25 3484 447 89 159 25 425 20 319 53 106 57 489 86 167 37 304 18 298 57 218 94 104 73 304 56 35 64 351 65 337 7 356 92 176 33 500 3 31 41 419 2 479 21 277 61 349 56 149 98 170 40
141 25 2731 99 12 144 25 71 8 387 32 273 33 283 20 61 95 215 77 391 93 391 54 425 54 349 62 373 14 36 10 54 95 419 91 81 72 322 62 94 21 79 19 422 15 127 18 11 93 69 89 286 65
142 25 2811 330 22 100 31 77 54 217 57 57 56 446 21 480 2 276 83 201 99 139 53 330 73 167 75 77 33 492 66 31 16 163 100 208 92 63 2 115 84 92 54 308 57 495 63 443 95 12 20 303 90
143 25 3165 383 41 258 44 122 21 431 22 479 68 206 38 163 12 93 93 371 72 376 87 2 97 399 66 470 36 10 25 351 76 56 29 84 7 347 39 300 9 389 100 171 36 51 62 171 29 205 42 443 73
144 25 2993 140 48 401 43 187 14 175 40 422 64 128 15 430 99 269 45 182 80 200 22 5 30 22 80 412 50 470 48 11 34 137 13 38 8 426 23 500 28 92 9 489 34 42 59 3 18 346 58 459 68
145 25 2663 46 7 473 31 32 12 374 49 296 13 8 18 469 70 11 37 242 63 319 89 394 84 190 84 242 9 121 38 260 14 450 15 65 21 274 15 45 55 43 84 381 51 100 64 264 99 156 63 72 9
146 25 3210 140 90 479 52 286 85 21 79 350 18 173 25 152 3 14 33 317 1 308 21 302 82 499 77 437 63 186 39 236 22 175 78 50 76 70 28 65 26 342 89 474 42 305 45 450 46 334 19 255 90
147 25 2603 37 16 163 93 387 45 261 98 39 36 187 18 29 28 189 74 206 37 38 39 237 50 77 17 259 82 231 76 23 74 263 78 207 62 304 20 312 61 149 7 431 56 347 13 219 71 457 54 154 47
148 25 3020 40 26 189 10 464 24 48 8 329 46 21 24 94 66 447 65 493 50 254 98 234 44 166 29 483 75 223 93 65 61 332 5 298 98 336 86 62 7 105 28 106 59 289 54 403 25 71 15 488 58
149 25 3239 493 5 451 5 209 42 38 42 293 3 391 51 264 20 220 77 138 90 189 86 477 61 373 40 251 84 487 30 195 31 125 54 164 3 345 69 78 24 231 7 332 11 240 4 404 17 32 10 58 10
150 25 2775 38 64 64 83 346 43 137 55 108 76 452 53 429 7 10 89 9 70 489 82 394 98 132 92 139 94 356 83 105 56 382 46 183 94 387 6 263 46 126 37 136 73 246 91 481 99 132 14 7 45
151 25 2752 221 91 352 65 230 82 43 72 40 60 109 77 73 86 249 64 351 21 139 38 362 90 181 60 101 37 401 11 127 26 136 53 428 7 108 77 460 21 171 78 268 56 409 37 108 42 251 87 187 32
152 25 2441 234 2 151 91 228 41 118 67 170 68 127 26 224 80 61 59 88 8 94 13 88 88 158 72 38 88 423 1 409 94 6 79 284 77 459 67 45 50 85 87 249 61 349 30 417 60 246 34 132 56
153 25 3212 387 52 172 65 73 5 60 15 175 26 295 56 38 66 261 94 399 44 278 15 335 100 66 8 462 32 268 44 218 21 259 78 500 16 71 40 311 65 418 79 269 84 484 44 308 60 93 32 225 90
154 25 2187 360 59 94 50 151 7 248 60 417 58 224 64 70 66 102 94 214 55 88 76 37 67 110 25 299 36 255 75 17 4 33 42 195 32 365 9 135 13 48 21 26 94 423 73 148 79 307 18 8 62
155 25 3610 183 85 416 50 436 59 69 45 413 65 408 37 191 25 219 22 318 50 157 41 133 78 256 75 414 76 217 86 479 39 355 24 115 41 225 84 187 92 407 54 389 70 368 53 240 78 484 21 142 49
156 25 2817 122 2 347 21 376 12 302 56 77 65 38 41 170 15 431 36 367 50 284 71 449 23 19 96 252 84 31 60 314 96 422 10 13 73 131 28 231 19 248 61 231 34 189 59 466 80 26 13 99 38
157 25 3283 491 53 19 31 440 97 309 53 296 79 211 8 265 73 429 26 454 25 113 46 217 99 292 89 460 14 460 91 138 26 107 83 40 8 270 7 206 58 134 42 87 11 292 31 451 38 200 42 186 61
158 25 3030 104 29 222 54 183 83 112 1 213 15 483 15 236 47 187 40 388 17 59 100 38 47 64 5 150 72 338 37 398 18 481 46 234 62 84 61 460 69 152 23 429 23 198 58 103 29 321 38 424 14
159 25 3441 177 75 417 10 466 43 444 81 254 83 433 7 4 49 313 12 59 26 257 46 155 49 32 39 408 62 494 17 153 82 173 78 80 56 235 71 283 18 343 43 306 70 120 59 404 51 468 89 405 81
160 25 3297 347 32 200 70 462 38 394 99 171 65 125 75 186 45 309 78 404 52 409 74 381 3 213 84 253 75 209 71 351 82 14 98 235 4 238 4 367 57 176 62 141 9 284 60 36 74 464 14 226 65
161 25 3059 106 88 449 21 246 47 259 31 379 83 471 49 212 47 211 34 177 31 336 12 54 55 99 68 146 36 447 3 32 12 326 22 370 56 223 55 229 15 238 17 111 37 115 50 140 72 271 64 472 93
162 25 3272 400 50 389 11 316 72 213 81 76 71 312 31 56 79 208 67 494 18 457 36 481 80 29 44 168 89 471 78 462 95 102 49 35 43 246 49 27 20 155 51 309 20 202 17 228 95 458 58 250 35
163 25 3288 276 46 140 77 411 50 492 57 151 83 27 96 450 55 328 22 295 11 74 36 405 11 381 94 227 100 468 70 357 83 427 39 74 43 113 48 351 66 110 30 285 71 8 26 127 64 332 83 267 69
164 25 2798 353 26 61 74 86 84 112 86 160 73 277 16 442 57 228 86 330 47 169 40 460 46 31 81 245 18 162 31 161 24 339 57 36 62 466 97 410 61 131 44 193 47 302 56 126 33 279 35 38 42
165 25 3348 294 75 395 54 448 82 327 52 24 97 265 95 27 24 401 96 453 67 292 97 401 45 13 99 253 4 36 15 419 45 272 25 383 22 35 51 484 36 440 29 200 38 297 59 442 80 50 1 46 83
166 25 3109 278 5 136 89 56 18 450 90 346 91 201 84 374 19 67 100 345 94 466 73 416 59 340 61 164 9 51 53 131 97 396 92 445 6 282 82 127 92 11 12 176 62 374 66 181 73 88 20 318 49
167 25 3386 65 86 223 64 482 3 409 13 202 71 400 16 339 87 138 94 54 75 278 4 323 97 92 9 17 11 31 3 489 79 339 56 341 44 107 67 305 50 472 5 274 29 141 44 458 73 415 51 379 5
168 25 2606 98 82 99 70 219 26 113 80 290 92 229 55 470 50 64 44 306 40 465 98 346 46 99 70 60 78 53 18 96 62 17 3 119 43 69 98 277 9 181 45 22 18 250 38 359 80 465 68 447 90
169 25 3224 467 79 59 2 2 28 3 72 404 1 338 65 122 96 425 96 171 55 15 42 436 66 436 30 413 11 376 26 430 69 295 46 319 59 250 70 269 1 11 5 426 43 357 35 8 82 331 79 86 36
170 25 2755 49 100 357 76 153 60 343 57 135 22 213 90 144 98 319 56 10 93 140 54 88 85 25 46 281 24 174 56 122 79 313 95 4 26 444 61 33 66 127 92 492 67 451 84 493 44 104 7 497 11
171 25 2618 179 94 1 11 32 89 127 38 421 84 338 31 62 15 166 35 337 87 164 69 53 44 429 63 59 18 321 98 100 39 342 2 304 74 122 47 256 51 346 39 22 42 96 99 475 49 446 31 39 96
172 25 3294 313 34 332 29 285 92 42 41 34 25 168 3 296 40 297 68 137 78 109 91 332 69 265 25 402 32 356 98 461 41 324 52 450 74 170 93 87 99 491 10 240 61 419 25 153 44 117 35 309 28
173 25 2389 70 97 162 67 258 16 314 42 343 82 369 10 192 48 94 10 179 24 230 54 387 63 187 18 108 77 252 22 59 59 15 2 219 15 75 78 179 48 194 32 81 96 488 91 202 9 16 91 106 62
174 25 2848 160 91 189 43 479 37 392 37 4 85 222 75 251 76 160 27 274 78 200 91 228 21 290 22 32 11 290 19 206 34 450 19 19 22 36 45 344 56 90 75 420 32 437 58 53 37 372 100 98 84
175 25 2520 206 57 467 92 215 39 5 72 135 75 18 48 231 66 57 59 309 81 88 91 9 62 384 70 58 97 134 26 306 53 308 1 1 11 277 26 145 30 242 62 250 89 317 1 358 53 394 11 126 82
176 25 2679 261 87 278 22 259 72 15 69 252 83 84 60 374 6 408 12 409 14 231 52 46 21 317 44 267 42 115 44 103 27 87 52 455 15 417 60 164 65 176 7 140 81 230 50 32 22 21 68 217 81
177 25 3580 243 80 362 99 466 45 153 27 248 29 258 38 166 41 476 37 216 15 479 24 28 14 199 76 342 1 370 73 219 72 491 80 269 62 385 65 32 66 243 92 292 52 297 61 410 17 178 46 339 52
178 25 3583 353 27 414 91 130 43 497 5 6 41 35 100 257 73 396 56 174 24 162 33 124 3 94 12 321 33 451 69 387 95 257 6 323 13 408 58 453 32 456 20 376 92 2 63 493 55 256 15 341 16
179 25 2867 336 64 10 76 58 51 306 96 216 4 101 75 253 52 382 38 321 1 68 73 98 46 162 78 223 92 383 8 377 82 199 81 209 58 107 48 90 29 241 74 346 71 493 94 201 96 406 83 148 48
180 25 3950 230 69 383 100 437 51 462 89 415 58 178 21 258 58 139 26 432 51 273 6 147 16 337 42 168 75 303 27 158 98 357 10 378 37 404 24 434 73 334 84 483 45 196 58 101 8 471 84 423 77
181 25 2702 309 32 429 60 23 85 333 80 2 35 492 67 350 66 299 81 317 85 283 98 455 35 214 62 71 12 81 84 33 69 31 54 322 43 134 86 299 52 102 9 212 42 90 13 374 63 136 85 14 35
182 25 2875 435 23 377 23 295 60 74 53 492 100 314 97 390 5 330 62 21 80 416 22 330 25 263 58 173 17 262 22 497 72 105 81 76 41 14 53 242 50 149 4 96 36 69 53 42 15 288 41 1 43
183 25 3014 246 21 250 38 172 36 100 61 438 35 302 60 109 82 57 8 62 23 238 57 191 50 441 18 438 87 161 4 450 17 77 20 200 65 159 75 491 69 414 79 66 1 267 7 46 16 402 9 251 19
184 25 2818 38 40 359 33 398 99 207 55 137 96 420 21 60 23 213 91 190 21 183 47 285 34 297 28 93 16 85 42 316 35 183 90 302 65 130 4 39 100 262 84 486 90 245 99 233 88 225 62 250 26
185 25 3294 268 69 268 25 70 92 271 11 160 50 402 80 7 83 185 29 160 24 396 46 216 14 427 49 235 96 246 20 277 100 218 74 377 56 157 75 473 39 438 75 33 77 261 63 348 51 440 9 255 79
186 25 3069 14 72 126 56 455 64 98 33 270 15 104 18 122 26 312 57 381 100 320 66 312 67 233 87 179 80 282 87 322 24 486 87 163 30 192 18 183 92 133 87 198 41 353 28 450 46 191 81 260 94
187 25 2726 12 11 135 35 97 26 155 100 1 62 7 20 352 75 236 52 378 70 116 61 19 53 188 11 1 42 398 91 368 77 462 40 375 98 216 42 409 10 55 6 499 42 345 9 112 69 443 10 73 5
188 25 3134 66 58 265 24 12 74 99 50 299 51 113 84 98 38 64 1 483 82 99 82 302 85 67 20 481 40 17 40 282 83 313 37 321 42 250 61 383 86 395 77 355 55 332 75 374 38 336 72 463 96
189 25 3035 141 57 192 67 434 71 48 89 311 98 124 54 362 65 129 24 210 16 128 29 217 23 15 69 315 84 194 52 150 44 244 82 478 31 430 21 62 52 486 93 179 72 281 51 271 68 352 43 317 5
190 25 3128 409 28 43 52 420 41 383 73 284 79 351 6 296 80 29 8 470 62 382 3 80 85 446 62 44 73 280 9 458 24 479 60 96 53 214 89 323 78 3 53 7 93 35 70 59 61 219 26 446 80
191 25 2693 355 52 232 21 147 91 218 23 407 35 297 94 415 67 38 7 229 88 326 65 160 2 334 5 104 94 391 6 250 62 77 34 412 71 81 79 222 32 137 64 19 74 116 99 113 38 275 3 32 98
192 25 3208 377 40 409 20 184 78 380 85 3 82 338 100 63 3 313 51 191 80 243 5 260 14 196 34 420 2 153 25 228 47 151 2 284 83 277 53 294 3 470 94 185 50 131 81 297 67 386 12 183 84
193 25 3337 304 17 224 93 251 80 278 65 388 2 213 33 493 47 374 63 181 31 167 13 254 1 48 60 110 30 428 84 206 30 148 79 321 11 107 63 402 39 491 68 296 7 75 90 408 100 35 11 472 90
194 25 2377 107 96 270 69 111 88 88 77 108 10 165 91 65 91 130 57 360 65 8 25 498 62 431 5 449 72 100 68 33 25 119 58 360 58 188 74 169 20 86 33 206 50 147 85 157 40 18 59 382 33
195 25 3273 236 70 390 1 432 2 148 15 31 27 94 16 21 8 477 39 144 30 139 24 237 45 392 75 389 67 280 53 332 40 219 78 498 66 287 32 366 29 376 72 338 65 292 39 14 50 265 94 149 16
196 25 2568 1 19 65 5 377 61 404 38 141 24 436 35 301 92 22 2 307 13 368 45 205 54 36 70 221 1 109 55 254 79 288 61 3 17 486 34 39 100 335 64 433 58 161 75 88 91 38 47 18 19
197 25 2987 65 99 176 32 397 70 327 42 426 3 242 43 282 69 340 94 266 99 355 49 142 53 369 96 7 50 442 59 346 24 268 79 254 52 96 38 411 28 34 51 107 42 1 48 93 98 164 37 364 34
198 25 3065 115 77 178 88 252 57 143 64 221 20 386 96 489 63 210 30 20 31 423 8 197 96 270 1 389 81 412 8 20 31 128 81 2 44 408 31 492 22 354 33 320 66 178 85 285 95 1 51 237 98
199 25 3333 140 32 24 3 463 62 5 42 322 82 223 43 340 95 372 71 253 38 316 94 51 77 426 91 229 77 498 50 441 29 162 73 99 2 285 56 191 56 279 83 322 78 253 39 414 100 176 55 382 61
200 25 3511 483 6 109 59 50 28 180 2 424 36 463 28 353 59 276 98 371 35 480 15 199 13 256 14 167 18 215 95 489 33 383 66 282 30 252 71 21 42 216 83 40 80 368 32 119 63 353 54 474 57
201 25 3249 234 78 236 35 474 66 439 74 91 21 483 88 228 73 172 27 188 73 330 5 238 22 189 86 476 17 6 46 10 31 91 36 269 12 130 83 235 87 238 41 333 95 289 12 285 60 362 20 472 21
202 25 3615 356 20 122 29 47 25 136 59 488 27 456 46 328 88 483 66 41 48 483 99 351 11 27 67 323 83 403 22 295 98 282 31 434 13 448 7 115 27 218 6 482 74 402 25 198 87 144 16 169 25
203 25 2956 45 31 140 65 77 58 231 86 119 36 486 12 108 28 348 43 62 38 203 61 337 68 35 93 193 71 222 94 205 20 297 52 411 70 6 5 385 4 217 73 409 94 462 22 334 20 163 84 417 91
204 25 3292 232 87 358 3 237 44 420 85 35 14 256 56 446 51 48 87 387 68 72 67 278 93 294 40 352 10 386 87 162 58 323 11 345 53 80 31 255 7 407 78 328 22 170 35 444 91 99 66 170 91
205 25 3256 482 99 162 13 165 31 302 15 386 48 66 46 254 79 377 89 81 78 5 32 383 97 363 44 349 55 38 44 112 91 366 35 435 78 405 82 34 2 333 75 421 57 412 84 409 18 2 19 171 77
206 25 3768 381 73 168 85 450 6 293 82 321 39 274 90 45 99 207 17 488 33 407 23 388 45 264 7 497 31 286 52 20 71 421 35 340 43 482 65 157 18 278 42 216 74 439 64 253 42 306 25 155 63
207 25 2902 460 25 179 46 72 26 130 87 284 21 63 99 230 97 189 30 204 41 1 61 171 44 88 9 16 49 332 66 49 13 224 51 201 11 463 29 399 16 208 36 406 7 447 38 170 23 494 22 325 28
208 25 2752 240 62 226 83 256 26 111 9 231 59 4 9 180 22 259 47 333 46 243 5 338 27 188 12 42 4 327 68 94 1 203 83 66 87 19 10 172 55 228 3 276 90 477 18 345 35 167 36 480 27
209 25 3362 393 13 347 75 337 11 211 57 257 89 115 22 297 50 15 75 300 97 196 68 136 68 230 77 459 79 269 44 270 21 450 75 389 76 133 79 261 96 235 62 344 34 272 99 141 16 360 24 308 33
210 25 3235 121 15 404 37 99 59 81 6 183 65 263 11 314 25 339 5 381 85 310 84 52 74 219 48 445 33 380 52 327 19 65 79 18 18 313 94 490 62 253 29 460 11 196 66 347 49 163 51 247 3
211 25 3038 147 98 378 20 433 98 130 7 198 40 98 86 143 14 12 19 46 23 11 29 325 19 256 77 451 7 368 53 127 82 300 97 456 97 390 54 369 56 46 98 391 25 344 47 334 92 15 13 309 8
212 25 2889 416 20 174 11 288 58 61 38 328 13 246 67 294 19 40 25 353 18 112 78 145 30 38 62 259 48 65 100 64 66 174 11 482 5 247 87 156 42 469 52 196 16 409 17 184 12 449 70 130 74
213 25 3183 250 93 26 13 391 70 200 35 44 6 204 83 250 70 248 89 454 85 109 58 414 24 374 21 241 67 203 77 179 87 98 27 430 84 276 56 370 87 335 92 114 9 85 92 293 53 289 10 490 66
214 25 3114 20 67 184 77 407 94 56 72 274 48 287 8 76 21 220 68 449 78 349 82 36 24 408 72 297 67 134 12 413 20 86 31 303 68 103 60 462 93 112 85 274 94 393 27 486 64 226 4 174 90
215 25 2759 207 98 66 87 11 9 444 55 331 17 26 22 323 57 180 50 270 79 207 67 84 18 217 57 130 63 213 88 499 78 363 35 481 27 109 24 68 94 156 34 379 100 146 54 110 62 320 57 179 87
216 25 3383 70 5 83 71 420 71 273 8 206 42 310 46 387 74 402 91 320 47 474 90 461 67 42 33 307 33 335 67 384 82 345 80 52 6 117 2 286 49 291 57 382 37 172 50 446 68 24 81 178 84
217 25 3294 317 21 420 90 355 91 266 30 114 40 306 11 179 8 112 74 126 81 108 36 156 98 426 35 285 55 155 87 156 87 315 73 288 24 438 40 108 75 379 73 382 55 95 56 468 33 269 3 366 72
218 25 3684 36 66 365 80 305 49 315 53 88 32 342 36 176 11 396 69 321 37 122 27 359 79 294 8 345 48 420 90 278 56 493 22 333 88 328 60 324 19 286 37 344 94 372 82 486 53 135 97 106 6
219 25 3694 120 41 135 52 292 1 409 67 337 83 400 28 493 20 417 96 427 60 384 7 401 31 390 96 443 86 269 86 196 17 123 80 65 89 466 47 148 6 96 48 125 28 484 95 1 51 367 88 401 35
220 25 3484 263 85 254 66 335 88 280 1 258 66 342 83 322 52 287 37 124 4 223 82 433 73 491 31 396 27 387 65 439 89 175 55 428 3 34 62 208 11 114 48 13 27 398 72 362 77 56 44 346 59
221 25 3106 433 41 165 11 345 17 171 83 159 40 29 67 75 92 188 25 234 67 463 22 261 51 64 60 493 64 273 100 351 54 72 22 349 50 220 84 245 88 495 52 78 53 191 62 380 55 472 64 7 98
222 25 3128 498 23 240 27 460 40 353 74 350 13 154 16 224 77 51 26 325 45 105 71 210 50 372 49 32 73 398 64 483 91 282 76 14 98 38 13 318 55 368 58 34 48 383 58 100 94 335 63 129 68
223 25 3393 324 85 481 92 52 85 119 68 402 17 190 67 167 10 447 84 170 46 231 11 254 26 72 32 420 84 423 70 114 43 242 96 454 93 212 27 445 15 15 17 466 75 301 14 208 65 222 77 355 6
224 25 3075 74 54 187 71 282 89 471 20 35 42 32 5 73 55 377 41 460 18 225 44 126 58 230 47 324 60 414 21 161 14 395 47 353 85 440 13 403 11 57 42 81 84 189 25 317 33 25 22 420 16
225 25 3670 229 67 91 4 248 50 227 34 227 33 227 96 64 9 453 30 319 49 426 31 449 78 48 30 476 77 50 12 399 20 479 25 483 80 482 98 409 14 93 17 412 94 93 70 36 91 423 67 497 69
226 25 3091 486 15 272 82 73 33 14 3 441 74 152 20 125 12 100 15 309 76 412 97 395 35 8 11 460 85 285 65 399 96 381 67 106 54 156 40 486 53 130 89 164 17 407 11 135 67 221 54 65 53
227 25 2742 181 4 172 63 398 37 245 53 3 43 385 52 50 34 146 1 282 58 484 59 487 13 222 37 265 10 80 35 90 97 116 39 83 83 37 36 215 23 446 92 393 55 2 81 241 23 119 61 343 73
228 25 3135 410 74 24 83 499 39 378 67 380 64 7 2 190 26 451 16 11 9 62 2 189 73 280 95 281 99 431 53 57 38 242 93 329 52 281 67 245 64 71 98 275 93 469 83 156 10 381 24 172 22
229 25 3051 378 32 299 85 72 77 496 54 184 2 358 37 20 72 78 38 396 61 80 1 202 91 424 98 100 15 206 80 346 66 234 26 380 80 89 17 264 66 55 96 365 12 331 93 131 67 320 91 294 21
230 25 2156 92 31 446 5 34 9 59 33 342 75 45 91 15 72 466 83 44 3 300 80 147 73 213 96 228 76 35 90 291 64 128 11 260 82 13 3 27 73 16 93 161 58 463 34 195 51 259 33 34 21
231 25 2742 435 65 485 29 374 95 82 77 208 53 338 68 213 70 273 79 217 53 20 49 18 52 262 13 5 90 235 45 51 100 478 98 431 62 189 85 148 24 343 25 149 60 101 88 213 50 129 37 88 58
232 25 2687 361 52 84 3 143 79 76 51 335 6 477 49 63 41 353 62 289 60 2 82 13 16 287 19 47 83 403 63 323 59 499 95 114 2 22 28 130 57 155 18 419 74 72 19 67 46 228 38 413 51
233 25 3373 125 93 412 73 234 8 73 67 231 43 296 42 215 21 487 29 323 59 292 87 80 65 285 86 211 27 434 40 58 29 56 100 48 74 428 33 235 82 145 3 479 10 456 77 406 90 412 48 325 78
234 25 2934 332 32 12 19 26 70 191 92 374 51 10 6 306 27 173 51 194 92 350 95 38 97 221 51 358 22 441 41 141 80 432 72 161 22 141 37 243 10 59 38 482 32 468 37 377 80 105 43 234 64
235 25 2897 239 42 287 94 433 7 370 41 112 62 153 16 417 18 274 21 66 100 225 4 341 50 296 78 241 29 316 27 238 36 84 20 1 54 239 20 389 36 101 3 124 55 345 24 115 84 346 92 42 46
236 25 2745 249 12 444 42 64 35 309 15 134 45 67 16 161 64 446 30 369 97 396 75 241 91 276 61 96 82 157 41 2 14 278 19 22 81 84 35 99 97 23 98 482 90 156 37 470 9 138 1 328 68
237 25 3560 238 51 175 79 135 67 494 46 205 76 124 58 440 85 387 51 244 88 413 48 423 16 393 45 493 34 13 39 217 66 406 51 203 78 451 55 126 26 338 73 273 76 87 18 143 74 489 83 211 60
238 25 3542 191 46 93 45 305 10 102 77 295 84 40 73 32 33 471 78 457 45 444 43 461 91 367 76 460 59 131 8 383 37 425 85 53 79 468 96 259 87 359 24 295 44 413 26 66 66 92 79 422 34
239 25 3241 382 80 274 80 134 24 140 1 108 45 12 11 484 21 123 19 282 41 266 54 34 65 401 5 167 43 482 59 185 94 339 96 357 26 109 64 344 74 496 8 234 93 99 85 254 82 300 13 477 17
240 25 2641 191 38 35 37 239 44 17 99 88 31 72 2 268 74 170 69 184 4 336 4 87 41 382 97 320 80 378 81 369 57 431 43 185 57 187 83 80 61 13 8 46 61 245 10 295 86 270 48 395 95
241 25 3253 66 25 83 1 248 77 444 88 394 16 455 9 308 10 216 4 58 15 151 85 294 8 193 69 461 16 77 50 383 60 435 3 316 31 135 93 487 31 197 51 167 36 360 99 379 100 136 39 63 20
242 25 3403 414 100 76 62 265 60 390 7 59 54 396 72 363 43 229 28 299 17 26 22 127 24 422 1 310 17 406 90 344 100 479 7 254 15 359 42 101 4 308 50 190 32 21 7 191 23 471 71 306 16
243 25 3092 500 46 344 15 127 35 150 55 83 49 307 24 234 98 9 56 44 13 276 44 174 4 40 42 352 17 103 44 179 78 437 90 298 40 21 50 307 72 427 14 351 29 465 51 124 9 434 70 398 40
244 25 3186 52 93 390 65 63 63 34 44 390 45 348 27 171 93 216 55 178 16 208 69 248 94 418 54 428 15 361 45 260 57 302 86 368 82 41 40 489 85 290 80 334 47 472 87 7 42 58 74 246 11
245 25 2762 236 31 105 15 215 31 149 46 14 94 309 96 372 15 364 32 472 96 232 55 189 56 157 21 17 61 9 83 295 61 140 60 250 66 116 36 69 28 382 52 338 20 274 78 430 69 324 54 67 98
246 25 3781 44 33 439 85 479 13 195 14 316 15 177 7 317 52 376 13 3 46 430 99 368 97 500 100 355 35 249 30 390 45 322 93 471 33 320 61 104 78 113 87 419 74 159 52 469 52 196 90 351 63
247 25 3158 47 5 492 58 82 85 289 79 283 62 498 6 223 72 53 24 223 64 129 13 397 21 264 69 272 40 260 96 473 51 16 34 427 49 479 84 248 7 236 77 349 3 371 73 37 11 42 32 126 15
248 25 2865 113 93 169 99 459 34 421 32 279 12 240 100 399 41 96 24 66 82 211 29 126 52 185 85 293 94 499 81 63 43 174 33 234 29 457 74 241 5 242 28 124 60 268 85 260 40 50 23 61 92
249 25 2994 102 40 123 31 204 29 254 53 116 29 484 40 155 79 112 65 174 29 339 95 113 95 253 59 371 49 283 30 427 8 489 5 491 53 282 53 211 25 165 10 6 18 119 81 482 33 10 72 223 25
250 25 2782 93 100 308 31 480 56 479 14 275 1 476 62 300 30 233 98 49 69 244 73 41 99 143 48 130 30 468 52 105 83 42 25 44 30 344 88 254 74 338 16 251 47 164 34 56 92 14 74 233 75
251 25 2979 343 98 499 30 74 59 46 5 133 53 156 65 153 60 293 61 448 54 29 19 151 72 239 66 1 72 23 29 367 14 441 12 432 94 168 67 2 93 37 54 428 22 303 84 420 34 272 56 500 89
252 25 3036 222 72 308 49 294 4 248 31 350 32 66 67 269 4 224 71 480 67 345 87 86 61 169 28 165 99 353 31 283 48 114 20 116 17 267 9 178 21 297 76 407 95 113 53 326 97 59 51 333 20
253 25 3323 362 3 444 26 396 67 353 16 329 84 45 67 184 73 337 3 353 1 258 74 164 38 231 53 448 80 406 59 170 58 250 24 177 72 240 20 295 76 410 17 121 40 477 34 44 72 115 51 37 7
254 25 3329 361 4 121 34 375 91 250 2 78 52 461 1 134 15 275 99 353 76 407 40 227 49 370 10 251 74 437 37 23 55 198 12 398 93 182 75 39 88 409 89 409 32 477 4 271 91 84 3 69 72
255 25 2996 478 84 255 8 210 65 225 44 285 55 496 48 102 61 201 53 301 32 197 96 349 6 17 85 326 65 121 47 81 6 202 63 280 84 136 25 180 37 473 6 247 1 14 60 288 71 175 79 354 74
256 25 2957 478 43 50 78 279 58 326 78 390 8 225 90 33 46 216 16 106 9 365 82 20 41 350 7 234 93 337 17 359 34 417 80 66 33 28 58 293 37 443 93 126 49 2 45 346 80 303 59 123 45
257 25 2733 57 53 280 97 268 6 400 34 49 49 130 29 161 64 130 22 409 37 159 48 346 81 445 86 89 48 311 20 214 72 118 3 215 53 138 71 112 81 497 28 266 75 49 21 158 31 297 58 168 71
258 25 3324 310 34 202 33 493 6 469 17 151 25 346 84 184 45 487 48 21 98 213 92 131 26 406 13 174 44 50 38 262 25 63 97 211 34 191 17 448 63 118 5 101 89 396 80 404 88 346 48 471 19
259 25 2774 109 34 249 55 175 67 116 75 277 29 208 30 281 92 27 36 423 80 64 66 318 42 219 62 492 14 293 97 199 94 204 31 420 19 193 37 452 23 77 56 18 78 237 88 325 5 138 98 34 66
260 25 3506 470 69 75 71 208 47 348 71 103 17 202 62 259 28 313 29 227 43 294 70 318 92 480 6 444 98 181 54 335 89 128 14 46 25 293 57 419 21 415 82 142 49 101 20 309 35 478 14 425 35
261 25 3745 454 5 312 39 236 36 242 49 350 71 229 27 443 46 92 7 182 33 16 76 414 26 116 66 460 30 471 88 279 30 83 32 418 60 341 7 456 76 292 20 307 88 341 14 467 78 174 14 315 74
262 25 2876 72 46 361 100 437 29 87 48 101 53 467 84 167 78 208 54 232 37 466 46 427 35 478 52 19 80 153 63 491 24 25 51 119 82 143 10 91 23 205 73 27 82 120 30 380 28 406 61 70 31
263 25 2740 246 86 28 32 455 19 139 77 62 29 392 10 149 61 102 57 395 80 75 85 249 25 376 82 412 83 351 84 18 80 212 51 286 4 50 54 8 57 385 66 340 100 162 74 42 82 471 7 75 57
264 25 3121 135 5 368 92 132 32 300 100 31 28 64 86 193 87 227 83 393 83 245 93 481 97 498 80 267 51 278 88 388 65 141 18 301 63 30 18 132 26 218 9 360 33 220 13 109 47 423 2 309 37
265 25 3013 349 2 284 94 357 95 328 45 77 72 27 6 173 63 369 41 155 9 111 11 160 99 84 35 433 78 299 8 308 53 271 90 184 1 90 41 255 28 497 22 295 79 131 31 75 38 306 85 409 94
266 25 2968 17 47 235 32 400 66 207 44 280 70 184 23 364 99 284 44 26 25 415 16 56 93 301 64 360 96 260 98 376 39 183 100 51 36 179 89 405 18 206 16 449 17 114 62 197 31 33 6 355 98
267 25 2691 241 42 145 59 331 74 51 7 110 58 9 82 495 29 105 95 149 88 356 18 9 16 59 13 288 88 268 26 200 45 90 51 175 42 6 91 491 59 70 19 387 51 480 73 368 14 187 15 313 9
268 25 3173 293 95 273 48 303 49 43 63 109 77 471 49 106 4 241 57 214 20 14 55 227 10 493 14 483 91 260 3 470 79 132 98 30 66 409 83 130 34 14 70 334 44 439 62 14 46 414 42 431 32
269 25 2804 59 72 323 87 438 71 426 14 358 48 67 24 10 23 34 55 213 67 239 99 256 26 286 16 291 51 116 94 403 58 36 49 86 56 52 71 72 99 381 87 179 14 216 34 487 26 463 33 117 92
270 25 3218 417 85 272 60 335 47 285 8 488 15 278 71 313 79 327 74 465 51 138 22 216 73 387 83 28 96 475 31 295 54 400 47 313 32 153 92 160 99 44 35 32 19 107 3 309 87 61 100 138 28
271 25 2776 410 12 217 68 240 45 374 16 356 59 396 68 12 53 286 84 242 33 149 86 204 5 341 3 201 48 108 96 398 36 140 77 285 90 85 69 276 30 2 15 293 69 400 78 3 85 71 54 63 24
272 25 3036 163 66 353 63 217 5 12 17 287 17 356 37 488 81 92 89 66 10 187 13 97 98 174 77 126 42 15 64 247 63 238 15 276 41 181 34 153 9 441 37 315 23 362 62 382 19 500 69 344 39
273 25 3136 159 71 336 63 23 50 218 92 480 47 178 92 347 59 374 83 3 12 216 85 158 100 434 32 359 32 368 48 31 63 3 28 147 36 191 72 255 28 377 54 277 35 266 95 204 4 433 7 436 96
274 25 3664 200 1 340 66 58 74 410 97 22 2 138 98 495 29 427 85 340 82 498 7 101 46 380 98 176 30 364 52 381 69 170 95 417 100 259 18 474 7 480 98 93 98 462 51 349 78 100 46 195 35
275 25 3249 82 5 94 97 123 97 347 34 489 31 302 77 320 52 389 21 335 26 104 35 317 63 310 75 116 3 447 32 119 10 323 57 478 78 190 44 266 69 431 14 158 97 218 65 138 69 17 30 385 37
276 25 3445 396 22 16 77 335 68 52 82 109 93 451 37 318 3 443 50 322 54 376 96 454 38 192 58 75 84 361 92 335 46 227 10 105 93 437 21 304 97 367 10 74 6 427 58 469 6 187 64 58 55
277 25 2540 177 45 74 19 247 71 167 42 75 97 120 76 222 95 175 45 65 29 387 49 135 12 96 1 89 20 151 26 278 37 353 18 314 31 354 32 356 24 497 45 206 91 77 85 353 17 66 5 46 93
278 25 4071 256 79 439 88 446 83 330 71 488 49 223 64 423 82 348 17 54 60 209 21 481 84 488 48 446 15 292 90 395 5 408 4 452 79 348 44 255 17 164 86 100 77 186 50 362 71 237 3 312 90
279 25 3283 151 63 226 10 302 23 376 48 208 60 171 2 112 54 383 3 497 13 99 35 259 54 354 93 210 17 489 26 267 38 348 73 320 19 101 36 408 8 91 52 3 8 462 55 500 57 47 30 182 47
280 25 3327 285 21 141 12 162 3 275 48 280 79 83 20 213 68 179 33 368 99 209 64 298 25 208 46 436 10 434 81 297 66 239 99 64 51 349 38 247 22 405 6 424 100 446 48 184 54 423 76 5 30
281 25 3126 96 72 479 30 99 96 125 83 238 23 414 5 195 31 67 18 429 42 243 18 248 90 451 70 75 92 129 22 72 50 484 59 222 73 241 23 246 99 300 27 252 73 328 90 305 38 83 24 432 47
282 25 3063 430 85 160 5 340 32 13 30 423 61 398 42 410 36 227 93 227 40 169 50 146 96 102 19 38 23 275 12 482 42 269 76 47 83 339 98 294 75 253 76 417 62 118 24 168 80 20 33 361 37
283 25 2604 243 100 34 29 177 37 357 92 232 27 135 2 284 91 61 80 175 77 245 14 330 43 81 75 453 76 252 31 252 34 241 70 29 23 119 46 7 15 397 65 205 76 65 61 257 83 293 14 285 90
284 25 2908 55 2 143 99 47 73 489 92 367 3 135 40 5 13 96 74 255 31 148 55 412 31 472 64 314 68 122 59 247 47 128 41 136 34 36 54 247 12 324 100 421 44 155 27 474 94 331 20 258 71
285 25 3245 405 3 403 96 314 93 362 5 459 67 349 19 92 83 143 51 72 70 115 75 227 8 245 70 254 73 399 23 30 20 386 38 243 87 357 6 169 7 89 45 244 4 326 73 165 23 395 13 247 83
286 25 3288 332 100 263 83 239 36 314 45 269 48 31 79 293 52 272 10 483 2 479 75 85 7 392 59 44 23 450 47 61 81 470 44 421 60 187 28 11 60 207 41 448 20 427 94 131 16 80 5 188 1
287 25 3410 237 3 496 9 278 65 154 65 341 21 482 89 468 27 217 46 147 100 271 95 473 33 494 43 211 20 49 38 338 21 385 21 488 12 113 79 246 97 227 24 65 67 229 40 208 16 136 89 68 57
288 25 2783 209 83 41 64 435 54 79 71 74 26 374 56 397 81 268 37 259 43 426 28 434 95 87 82 287 37 372 42 359 75 81 53 378 70 197 20 262 57 106 94 79 48 2 3 26 79 301 87 34 24
289 25 2494 187 50 305 80 220 76 29 13 290 97 206 87 208 41 263 2 259 94 128 6 219 35 48 76 199 59 449 14 72 79 309 41 26 85 19 12 40 66 305 49 53 61 288 56 361 78 327 97 179 59
290 25 2902 185 71 297 32 414 45 409 84 72 98 9 93 232 20 491 56 130 45 472 68 38 67 131 43 116 61 318 36 165 6 246 28 296 55 328 32 350 79 8 26 393 99 270 11 203 95 64 69 167 63
291 25 3239 181 52 191 65 492 25 80 40 373 86 38 75 81 1 282 28 286 4 67 50 335 86 221 11 132 42 496 71 165 78 427 72 426 5 171 87 383 35 112 94 488 15 184 34 435 60 98 37 335 65
292 25 3760 117 80 246 96 64 47 467 2 463 87 210 34 98 57 499 64 13 59 427 32 93 82 208 27 450 17 277 54 389 44 460 81 330 46 65 62 490 8 483 3 184 51 278 70 350 45 362 63 497 95
293 25 2599 315 40 134 26 110 82 22 90 195 44 36 23 377 47 248 44 365 34 132 67 427 26 165 47 368 30 115 83 77 52 32 84 27 46 168 42 353 89 240 81 190 46 125 21 309 74 427 34 242 17
294 25 3282 337 44 291 58 462 88 110 30 454 15 112 78 201 100 407 80 180 26 45 79 437 75 337 68 369 70 172 55 269 81 391 97 141 31 447 21 242 12 31 64 84 87 60 72 332 56 500 9 154 29
295 25 2674 56 9 217 48 228 32 419 67 384 47 194 28 223 37 95 84 264 100 198 65 279 30 297 52 315 51 265 40 125 32 226 76 497 31 1 95 280 55 110 74 19 54 213 72 35 25 139 31 269 20
296 25 3522 400 40 133 51 442 62 346 12 243 35 72 47 330 5 332 46 459 100 496 50 181 82 285 22 273 71 401 78 235 45 278 61 483 47 232 9 152 7 99 53 14 61 265 73 415 26 164 85 314 61
297 25 2692 240 90 128 5 167 8 188 23 73 39 250 96 34 81 57 46 303 81 391 86 189 20 252 12 458 24 318 23 431 6 241 34 115 25 24 46 192 51 147 21 276 58 35 36 345 95 120 2 411 14
298 25 3383 417 94 169 70 23 39 423 45 295 11 203 62 458 22 86 16 67 59 261 65 344 15 424 77 252 38 226 28 498 50 431 19 91 2 17 78 470 41 202 4 322 15 325 62 286 28 260 86 217 21
299 25 3445 69 5 245 25 357 29 479 56 272 75 228 8 166 48 471 71 367 97 159 31 279 24 191 45 211 54 500 49 285 35 359 55 495 48 340 20 459 68 155 36 296 3 184 44 49 70 95 74 179 41
300 25 3137 322 6 51 17 192 77 234 86 224 32 131 28 480 56 489 59 137 21 2 10 219 30 139 65 499 19 313 2 104 32 268 58 487 37 461 10 395 55 81 95 97 81 457 52 304 68 89 31 100 55
301 25 3665 489 14 286 24 396 67 241 17 403 17 410 25 367 58 482 4 385 87 352 71 346 21 202 23 300 54 144 77 138 63 50 95 132 7 356 50 73 56 292 36 271 40 431 1 349 84 57 88 379 43
302 25 3139 244 33 104 52 32 30 461 50 380 90 143 85 392 84 18 99 188 49 88 2 460 84 259 41 123 70 273 70 389 26 358 53 369 86 316 24 499 83 45 47 285 7 458 30 153 21 155 27 87 4
303 25 3211 139 35 429 55 33 56 475 90 6 55 296 33 389 11 104 86 303 11 325 20 376 38 64 90 89 96 204 25 117 91 383 14 66 14 376 63 207 82 414 54 329 71 299 79 410 100 252 82 337 70
304 25 3551 270 92 219 66 476 25 386 95 281 2 387 30 279 10 165 53 488 91 427 98 254 51 81 96 259 61 458 11 453 32 254 24 70 91 187 87 306 37 194 30 154 62 140 96 266 41 479 52 170 45
305 25 3466 433 58 29 24 459 100 138 73 305 29 445 42 476 21 129 100 471 22 229 25 307 58 411 28 399 26 78 16 270 1 174 38 235 68 378 59 196 64 240 18 264 33 21 27 367 79 194 47 284 18
306 25 3037 400 12 143 57 360 46 229 66 292 52 336 76 101 46 259 40 278 47 461 93 416 18 115 30 186 65 50 77 310 87 438 46 344 81 59 89 212 41 59 40 156 19 172 9 144 15 145 20 410 58
307 25 3362 376 19 483 38 357 68 37 24 480 88 157 8 274 42 42 8 360 80 290 98 468 46 439 53 319 51 200 83 102 98 81 72 289 46 454 78 184 33 397 80 112 37 179 19 162 42 23 8 460 51
308 25 2188 424 36 52 43 136 41 377 54 32 62 40 71 20 1 340 19 54 35 141 25 264 24 93 34 302 11 263 51 410 71 35 37 210 82 42 65 42 20 131 85 102 73 266 69 241 16 3 48 357 27
309 25 3086 276 68 271 90 216 71 446 91 206 62 16 87 247 7 139 16 366 82 298 76 306 61 212 38 402 23 149 3 309 85 293 3 12 62 34 4 480 47 63 97 295 11 337 23 231 98 435 43 133 16
310 25 2916 320 57 129 85 330 6 47 70 296 26 184 7 160 23 490 85 123 68 25 48 131 33 285 72 324 13 334 86 51 20 461 68 401 26 304 57 257 19 42 41 129 41 352 51 176 93 131 31 351 78
311 25 3557 415 52 358 68 204 76 128 41 286 96 178 60 135 22 355 76 439 21 4 35 264 16 139 68 306 62 382 97 234 30 442 53 469 96 260 22 443 43 447 34 421 48 248 4 227 95 7 90 323 44
312 25 3085 83 67 188 12 82 92 93 9 182 59 60 97 478 55 487 45 3 51 354 56 490 45 283 49 191 72 420 50 166 83 203 81 167 13 326 90 216 22 169 45 300 73 431 47 360 75 286 21 152 52
313 25 3243 335 54 430 52 471 60 464 32 438 34 171 68 255 13 128 70 229 88 290 59 296 46 158 87 189 47 149 38 418 26 116 36 76 99 8 15 194 82 156 10 433 89 174 3 397 94 362 74 150 69
314 25 3286 342 36 219 23 4 96 379 72 435 69 79 47 356 13 403 11 151 74 30 99 168 85 368 32 493 59 169 43 380 74 315 39 405 98 247 85 84 99 182 29 294 93 436 16 449 17 65 3 119 100
315 25 3844 331 37 300 26 214 18 195 10 482 72 458 92 425 48 315 80 494 15 167 32 217 63 465 85 487 35 213 82 364 5 358 27 67 15 32 34 150 48 432 57 452 11 310 26 74 35 400 36 286 78
316 25 3676 263 80 150 89 454 98 378 15 206 45 466 45 498 33 393 20 80 87 437 19 321 53 276 98 219 69 282 81 171 23 138 41 269 40 493 93 231 58 307 78 154 15 248 29 430 74 417 90 72 64
317 25 3259 197 14 488 48 107 90 404 85 363 76 139 31 109 37 69 50 267 2 202 61 6 71 481 54 375 69 302 28 439 82 395 73 327 55 434 55 316 79 146 63 485 76 167 100 213 37 80 73 7 69
318 25 2812 248 26 40 20 39 59 434 28 165 49 240 84 175 66 51 72 347 26 428 44 479 64 33 100 25 84 153 92 221 77 189 91 465 50 62 60 466 10 340 58 286 22 12 46 259 80 371 65 96 92
319 25 2914 204 77 7 84 176 7 106 27 72 50 188 46 35 31 84 8 148 43 496 27 297 94 347 82 328 82 429 91 151 88 352 5 167 46 451 19 95 98 14 5 161 3 338 76 396 44 474 51 312 83
320 25 2570 72 82 93 13 497 60 191 27 430 88 29 94 81 26 333 65 83 65 77 32 141 78 7 41 360 100 428 24 185 86 358 75 92 64 147 80 256 33 424 43 448 33 105 66 137 26 163 50 4 13
321 25 3182 298 2 12 99 355 52 186 74 449 69 442 66 166 12 482 79 38 34 180 38 429 81 340 52 24 26 57 16 95 71 363 4 218 24 69 48 213 56 486 13 329 36 301 13 293 89 291 39 248 55
322 25 3380 176 66 119 56 460 85 337 31 329 74 332 60 93 8 214 27 243 47 285 98 27 28 42 11 452 4 351 36 172 48 271 15 382 26 355 76 84 36 492 53 498 44 222 64 44 64 353 13 427 8
323 25 2926 105 12 462 45 73 92 492 44 37 31 343 74 415 50 241 44 119 26 164 50 290 89 40 7 410 93 191 47 240 96 106 52 389 5 401 78 497 34 355 44 69 70 280 70 15 59 81 34 38 45
324 25 3587 111 27 59 14 285 33 426 11 19 14 197 5 432 33 453 15 493 89 269 98 243 71 212 80 399 13 355 86 386 10 347 23 353 61 35 21 282 5 435 91 392 47 470 71 370 61 76 21 76 58
325 25 4217 366 12 456 73 264 71 390 51 409 86 247 45 347 60 490 86 158 84 360 21 497 82 38 68 411 80 72 72 402 96 47 34 439 12 161 47 357 10 280 98 375 87 461 72 478 23 477 39 453 29
326 25 3284 331 39 367 19 435 6 131 50 296 11 416 35 237 65 377 66 63 51 451 6 159 55 12 6 474 84 356 54 40 54 352 30 362 30 173 23 99 20 349 93 129 56 361 86 147 27 365 7 87 93
327 25 3260 57 92 486 35 329 24 234 53 200 97 212 29 351 52 125 22 90 66 221 20 321 31 134 20 485 86 240 20 476 50 110 56 267 45 68 90 439 95 113 39 208 70 391 33 463 16 290 94 211 23
328 25 2797 257 5 423 27 58 1 304 88 213 47 6 32 278 64 14 51 402 80 354 29 312 95 333 16 233 58 21 47 28 43 330 27 174 70 72 76 77 67 389 6 421 49 244 43 172 39 160 38 319 76
329 25 3034 353 76 67 9 492 93 50 76 498 59 33 70 343 91 485 46 18 16 436 17 274 6 229 99 394 43 29 6 11 82 422 19 361 13 235 15 56 91 101 68 349 30 176 14 460 21 51 79 145 49
330 25 3131 469 88 157 36 189 73 328 98 136 14 227 80 233 66 492 50 99 17 414 17 155 4 1 46 23 42 18 19 411 67 482 14 359 20 468 68 231 28 478 1 76 66 55 18 197 97 493 76 72 43
331 25 2786 44 99 348 58 427 25 82 83 81 3 337 60 95 84 110 49 428 47 324 98 207 28 295 35 256 78 139 7 76 2 264 22 25 38 265 80 51 90 309 66 350 84 212 100 242 92 463 49 142 94
332 25 2705 487 81 47 9 262 83 233 4 277 37 139 96 39 77 275 15 325 99 144 56 102 36 364 2 230 64 259 76 37 100 360 86 247 57 120 26 7 67 478 34 217 42 165 25 364 99 227 65 6 84
333 25 3412 336 74 351 8 380 87 246 8 201 22 348 49 308 99 151 79 213 66 307 3 365 17 224 64 204 40 11 24 190 75 375 65 434 68 195 94 104 32 156 30 255 94 399 87 415 48 417 8 240 18
334 25 3260 345 29 253 97 358 82 317 54 35 87 382 22 166 73 354 28 232 61 414 31 266 51 201 87 2 35 436 98 455 5 346 47 114 76 43 29 203 10 202 68 81 49 468 27 80 8 288 58 480 26
335 25 2204 12 40 1 35 169 59 37 77 130 27 119 18 34 25 292 49 435 55 57 71 238 68 12 87 68 5 275 26 227 41 151 27 215 46 313 11 197 71 276 94 90 25 232 65 316 61 86 86 426 17
336 25 3524 412 67 174 75 487 7 312 2 181 22 454 95 212 23 316 21 274 5 335 13 368 91 378 18 144 82 62 35 12 39 459 74 66 23 237 37 225 44 394 3 414 43 291 27 426 44 266 25 149 94
337 25 3185 30 49 122 21 151 57 37 93 249 3 134 94 196 89 362 48 239 77 286 34 357 90 481 72 291 49 285 1 341 30 2 77 306 69 160 17 135 55 456 55 314 99 180 16 487 26 302 79 467 91
338 25 3676 93 63 297 59 311 1 292 54 403 84 206 16 226 48 281 8 416 63 480 71 477 19 263 35 256 16 309 34 284 53 462 32 344 35 394 82 56 46 65 10 266 92 455 37 131 42 449 60 137 59
339 25 2784 120 22 213 14 196 1 173 25 135 70 206 61 173 33 309 27 119 9 438 42 461 6 343 45 344 47 138 69 230 81 13 41 249 19 128 17 97 81 149 58 54 28 472 49 480 50 321 3 7 63
340 25 2688 27 47 75 3 342 51 116 99 311 28 68 6 198 47 271 72 125 1 439 67 23 31 399 28 131 28 456 24 403 65 128 99 157 50 317 83 106 18 176 56 154 90 155 94 186 13 235 14 379 47
341 25 3167 140 59 392 58 8 18 90 91 13 99 496 39 388 92 457 58 243 76 195 98 99 93 438 7 398 37 287 80 402 21 229 39 334 33 169 53 374 69 239 32 499 40 125 66 181 69 97 8 41 6
342 25 2843 26 81 380 1 288 97 118 48 407 53 377 79 432 62 264 27 87 23 417 39 4 49 170 30 478 5 129 71 104 1 116 57 251 90 146 25 64 29 137 100 351 87 449 77 405 14 45 14 41 73
343 25 2796 68 14 190 22 61 36 386 51 414 80 83 42 265 31 213 97 322 48 60 58 318 76 136 73 351 44 335 17 333 5 315 74 57 25 296 74 57 95 170 86 274 10 424 67 62 19 5 81 398 28
344 25 3054 9 100 121 65 348 17 368 72 123 70 477 34 152 64 350 77 463 80 334 21 276 1 77 11 49 49 357 46 186 63 344 29 498 6 197 71 237 52 181 27 43 64 18 9 382 65 202 92 316 4
345 25 3168 24 20 33 68 137 88 147 90 320 40 433 28 361 61 499 52 20 61 380 5 2 37 354 71 348 66 410 39 155 5 230 23 262 86 403 41 134 74 430 92 414 44 74 21 374 42 280 21 112 63
346 25 3331 260 13 375 12 264 64 260 98 174 17 494 94 27 90 291 99 436 39 192 69 259 72 117 36 11 83 314 79 459 56 35 56 300 74 133 86 11 69 431 66 472 48 328 65 382 11 226 63 412 54
347 25 3393 261 64 274 73 277 3 43 57 444 2 282 27 479 22 226 80 327 83 137 2 48 51 325 11 448 31 129 85 392 61 158 58 457 15 272 5 238 3 310 98 493 34 398 65 8 27 168 37 192 76
348 25 3481 262 26 166 3 277 40 238 32 409 55 266 20 464 16 80 53 191 88 37 16 337 35 478 55 302 59 6 21 424 35 338 3 375 87 183 87 210 93 205 90 325 99 303 23 478 9 135 75 474 23
349 25 3400 405 75 466 36 280 86 364 1 286 29 195 78 43 96 280 35 333 53 60 69 324 22 86 24 405 56 96 77 176 41 489 31 420 90 489 12 69 51 437 28 95 27 205 59 203 79 257 54 337 35
350 25 3124 24 24 390 3 290 73 206 29 347 75 227 35 252 19 398 18 282 83 451 33 59 12 16 99 68 3 211 69 238 63 330 13 14 26 386 25 467 14 136 61 219 10 425 42 292 19 248 3 273 14
351 25 3768 127 29 380 68 298 93 319 19 430 79 180 56 499 53 324 12 395 95 281 45 307 25 207 8 313 89 310 93 486 3 445 67 387 77 108 18 177 5 279 13 382 6 441 57 73 56 346 23 43 92
352 25 3015 468 79 73 53 19 72 438 28 5 42 368 42 41 58 193 36 86 81 136 63 98 97 386 93 126 31 89 45 198 34 241 68 439 98 330 65 315 29 355 19 486 28 356 51 60 18 485 61 240 55
353 25 3019 96 15 472 45 145 4 488 8 162 73 303 64 422 23 109 60 322 27 209 74 315 37 281 43 78 5 359 21 422 53 39 79 186 42 333 20 94 47 34 73 379 10 370 11 66 36 49 67 306 94
354 25 2826 32 63 149 22 193 97 307 2 97 39 383 65 344 10 137 86 392 18 395 47 62 20 100 9 234 94 226 98 482 74 1 60 188 54 227 21 197 35 177 82 273 60 147 69 214 65 482 26 213 75
355 25 3206 23 89 412 58 252 57 122 98 286 65 316 85 176 14 481 36 401 74 399 39 408 16 8 85 348 48 23 44 174 64 402 48 17 66 244 36 81 61 269 33 473 84 474 79 175 27 268 23 180 29
356 25 3451 5 9 214 38 324 38 48 69 497 8 438 18 452 97 296 33 186 62 202 9 363 93 331 28 472 69 76 79 295 9 265 43 194 100 380 10 89 37 416 75 240 57 405 44 365 57 254 12 95 40
357 25 2698 188 66 104 47 112 38 365 90 18 76 100 11 261 44 191 17 121 1 377 90 396 97 3 3 263 55 50 92 480 19 223 96 171 43 183 47 166 44 224 72 422 4 400 4 293 14 67 48 219 98
358 25 2557 433 78 30 44 96 64 273 75 24 23 232 77 47 19 8 54 3 5 110 43 464 18 422 23 19 32 129 38 88 44 410 49 198 29 40 42 390 3 185 37 160 64 410 9 346 66 488 72 110 65
359 25 3422 144 17 442 5 168 99 488 39 177 62 212 77 226 50 459 35 178 80 99 70 168 71 195 3 471 95 91 20 255 92 489 55 486 85 321 35 16 22 306 97 262 33 469 13 175 20 368 82 180 69
360 25 3755 346 45 236 23 347 45 395 88 432 63 392 66 33 70 90 44 218 46 382 63 214 10 52 60 202 80 486 71 365 91 449 51 429 80 206 39 450 17 456 13 258 27 160 31 251 98 331 13 330 21
361 25 3485 402 55 500 80 382 8 204 43 330 52 346 100 319 34 52 69 497 57 73 28 127 10 298 25 319 65 454 38 338 40 53 63 47 25 394 100 347 19 269 80 7 42 431 12 338 62 25 28 419 24
362 25 3405 73 16 202 17 392 1 136 19 382 66 414 53 43 76 200 6 193 59 100 69 177 32 412 41 393 95 118 70 470 8 418 11 376 61 444 32 291 26 186 76 398 18 146 16 285 42 142 97 420 88
363 25 3444 131 43 312 92 311 82 39 24 265 13 359 12 165 26 321 8 211 13 423 74 366 75 482 63 402 88 399 30 480 84 137 83 286 8 112 84 58 86 189 46 134 17 372 37 340 64 135 62 460 91
364 25 3094 218 11 430 84 391 36 427 40 202 24 147 46 296 94 488 16 10 75 120 82 204 50 412 93 48 53 388 89 311 20 239 91 276 20 197 21 115 53 195 43 226 78 231 20 343 37 35 75 239 94
365 25 2849 80 67 193 1 214 79 41 59 96 33 187 79 248 58 214 11 12 79 220 25 345 82 77 93 405 56 481 75 11 60 476 55 172 86 185 49 427 88 372 87 243 94 454 54 21 79 136 48 388 20
366 25 3697 39 4 19 98 318 7 1 34 412 95 500 37 408 13 200 99 288 82 457 54 455 29 405 1 493 67 419 69 353 15 432 87 312 14 100 20 167 28 396 6 262 99 78 77 305 88 219 44 356 17
367 25 3126 485 53 292 53 312 11 61 14 142 15 194 2 166 87 178 60 2 87 44 78 88 66 112 13 149 68 340 43 435 80 283 55 347 65 446 41 447 83 29 19 478 75 108 89 414 10 288 92 412 11
368 25 3057 43 1 166 56 283 39 482 83 369 91 162 22 392 2 157 2 73 82 189 48 25 12 381 60 28 27 229 67 63 89 396 38 136 99 90 15 328 44 414 29 98 90 233 13 477 89 440 54 461 42
369 25 2674 61 34 340 53 392 40 115 13 419 91 231 5 35 1 345 32 50 33 330 2 248 41 28 12 20 30 63 80 65 72 487 47 445 37 258 73 36 74 66 96 208 13 434 94 259 51 125 48 289 69
370 25 2693 376 75 291 40 140 35 191 36 356 90 93 90 234 72 257 7 192 96 221 90 120 40 26 69 132 38 84 39 298 88 86 76 161 91 447 20 49 10 238 12 472 18 135 30 383 20 32 78 372 30
371 25 2764 210 100 140 9 88 73 29 48 76 40 413 94 51 40 469 58 409 16 41 79 102 11 134 79 29 22 414 47 228 8 259 51 188 54 145 14 293 50 226 80 390 90 274 34 348 11 115 82 458 7
372 25 3313 399 26 302 60 427 2 135 31 160 94 52 45 438 57 321 41 99 77 310 56 393 9 142 19 75 4 222 93 229 97 150 68 477 65 191 96 481 6 329 96 197 20 80 2 242 35 484 36 292 79
373 25 3636 113 97 269 56 434 75 294 77 397 54 451 94 436 36 245 46 356 71 325 78 44 21 428 3 377 47 339 6 274 66 269 10 423 54 379 54 368 21 156 93 342 96 80 72 225 72 243 100 6 64
374 25 3530 389 17 230 29 192 5 456 84 484 92 420 90 69 60 79 1 309 53 185 68 196 71 493 53 277 76 134 38 22 24 14 20 452 42 399 82 63 67 409 7 179 50 375 49 500 43 289 4 446 32
375 25 2957 192 16 71 38 9 64 189 1 474 33 33 9 66 12 15 92 130 86 424 72 235 87 150 20 401 6 460 66 389 40 325 12 79 14 75 82 441 81 425 67 267 3 479 99 142 71 85 48 358 26
376 25 3289 284 2 499 81 308 97 28 36 389 81 115 25 66 90 389 66 305 20 385 8 234 58 432 18 220 38 147 94 390 24 6 63 105 42 64 52 186 72 451 62 247 27 159 84 372 14 321 86 477 100
377 25 3029 333 92 86 11 91 46 393 73 30 42 284 47 493 43 24 91 39 64 466 14 439 69 393 63 323 25 208 82 469 13 95 62 9 46 83 29 185 24 128 97 153 61 490 93 336 16 310 54 198 93
378 25 3292 85 3 402 35 470 33 316 97 136 92 385 37 490 91 257 93 442 11 453 32 131 61 4 27 320 87 220 21 8 38 244 17 66 94 388 85 468 20 498 73 487 98 104 77 54 62 86 53 70 48
379 25 2937 178 43 2 61 177 59 304 94 198 59 143 42 313 94 29 25 395 48 210 7 473 92 137 82 82 66 467 28 62 43 345 20 310 66 406 81 388 89 125 49 207 28 386 63 20 91 121 49 396 48
380 25 3082 135 96 8 57 275 78 235 46 178 18 87 29 207 54 346 14 492 54 487 63 158 55 34 37 85 64 146 84 461 28 201 46 261 61 36 82 224 71 363 39 326 51 478 75 270 5 281 63 390 75
381 25 3119 193 80 381 55 233 57 284 30 227 60 406 40 293 4 229 62 412 47 309 49 345 68 62 36 397 99 76 43 316 83 379 72 50 13 11 68 385 55 143 10 343 23 367 10 214 17 100 68 83 9
382 25 3411 334 24 319 39 151 92 238 47 317 75 23 19 107 3 487 9 479 74 441 29 150 21 94 27 392 65 348 82 418 50 140 10 420 26 411 34 119 64 140 99 79 23 190 65 491 100 169 57 366 86
383 25 3721 111 14 44 44 304 91 374 15 390 63 460 41 215 59 398 32 166 80 333 75 41 91 454 53 497 77 406 59 10 86 426 17 274 5 368 39 176 32 406 29 232 98 141 46 427 14 319 89 470 53
384 25 3607 3 34 355 81 452 95 343 84 268 86 352 64 56 58 328 77 81 28 345 50 496 44 53 24 404 26 391 1 32 85 282 82 324 66 491 66 384 76 153 85 462 2 77 44 171 75 454 1 458 42
385 25 2740 280 53 46 1 70 75 335 16 245 95 152 93 253 47 153 78 340 17 129 28 406 21 313 83 317 59 111 75 151 46 190 26 490 44 245 54 10 8 194 81 183 93 384 4 359 64 11 14 113 18
386 25 3235 346 62 164 91 145 12 369 88 262 97 214 85 344 48 336 97 46 39 227 42 189 82 141 99 390 75 275 77 165 40 126 82 164 7 416 84 108 54 385 19 313 39 441 93 422 76 174 36 309 91
387 25 3803 239 24 437 80 485 30 139 85 328 46 217 19 152 70 207 59 417 83 347 79 264 31 492 9 165 16 160 47 456 74 475 51 346 37 290 97 442 25 462 27 293 16 83 9 181 16 88 57 441 29
388 25 2780 253 56 42 94 406 85 386 1 119 31 345 64 61 5 72 31 345 54 284 35 95 28 11 61 370 77 487 35 261 44 174 48 48 25 95 74 64 39 320 27 427 14 139 94 218 55 490 47 49 82
389 25 3002 447 49 438 91 315 26 220 4 436 73 292 30 120 31 341 85 492 48 48 19 46 67 154 61 317 85 95 77 225 26 200 68 34 50 271 84 100 17 117 17 139 62 119 94 450 99 204 22 385 8
390 25 3817 483 92 126 47 154 32 169 6 118 19 295 74 390 59 457 8 470 26 473 36 464 66 435 100 498 64 145 9 304 8 354 42 433 41 434 65 474 25 172 6 52 95 6 80 427 15 26 80 275 63
391 25 3060 362 39 214 80 72 56 440 69 43 78 8 73 194 16 74 65 129 81 211 91 36 64 485 26 299 84 109 85 396 65 317 24 327 60 311 92 379 60 73 72 393 13 447 41 342 89 426 16 34 2
392 25 3165 108 21 49 25 328 60 227 88 87 23 1 61 230 77 231 61 295 46 269 16 476 8 290 97 206 37 448 90 90 78 388 22 345 6 384 56 210 19 481 33 465 17 157 80 213 73 17 16 335 12
393 25 2878 79 33 178 72 380 55 53 10 221 59 455 53 166 57 42 92 491 80 351 83 258 55 84 46 161 71 472 29 318 46 326 3 160 16 233 80 447 5 227 14 42 29 39 85 27 21 440 38 107 32
394 25 3083 78 85 376 1 381 28 4 54 229 21 254 15 465 61 151 15 338 59 138 12 436 85 221 70 123 41 391 30 2 75 354 93 158 42 458 69 398 82 374 45 231 58 54 71 477 18 13 63 62 93
395 25 2840 70 24 48 31 268 64 73 76 200 7 270 25 138 22 81 13 352 32 284 81 211 16 333 15 159 93 4 60 477 90 394 26 422 68 187 20 477 6 468 25 210 91 82 28 145 54 234 83 94 49
396 25 3804 465 95 76 42 44 41 375 100 223 90 363 5 460 35 347 76 7 85 184 44 324 65 489 9 424 4 389 5 210 94 490 9 430 40 20 9 349 87 32 70 352 70 456 24 484 17 337 88 279 14
397 25 3709 107 58 184 49 380 32 424 16 213 27 275 41 183 44 87 42 238 37 47 35 480 39 353 62 442 55 469 62 448 37 157 88 327 23 382 51 410 48 303 76 484 69 487 81 4 12 500 1 35 67
398 25 3020 132 25 6 23 251 20 486 69 2 77 292 46 43 14 131 58 120 69 14 78 399 53 1 24 498 27 486 70 298 72 135 6 214 43 358 74 103 10 412 92 368 18 143 76 366 4 489 25 294 31
399 25 3681 396 5 155 76 377 70 36 39 290 96 314 7 394 19 126 97 329 39 297 27 225 46 248 4 480 22 405 74 461 86 196 25 407 27 453 43 95 64 446 22 402 13 141 34 244 53 246 77 199 76
400 25 3615 68 39 392 43 386 56 270 76 188 7 372 96 481 99 152 60 5 4 491 9 198 61 9 58 399 24 212 10 447 77 245 3 269 41 215 31 383 13 436 65 493 70 211 6 56 56 455 71 397 30
401 25 3342 456 49 216 94 278 9 166 79 264 3 329 37 381 21 93 24 50 80 315 71 225 10 244 26 189 40 408 60 148 39 457 98 366 67 185 56 450 25 468 96 93 58 259 59 312 59 187 74 146 67
402 25 3758 62 97 253 21 411 93 350 30 439 72 391 86 380 55 350 5 190 52 222 19 381 13 248 86 229 93 308 47 379 74 412 91 354 47 474 86 57 47 71 57 497 83 335 22 250 27 90 9 383 80
403 25 3858 187 46 146 28 275 53 221 58 421 97 446 98 425 73 432 95 264 10 404 57 316 30 324 91 379 3 374 64 395 78 146 92 462 91 333 70 89 39 269 47 284 88 206 71 435 46 353 5 130 6
404 25 2914 447 5 381 23 129 56 367 18 407 7 288 34 105 16 338 13 174 63 108 41 11 69 217 69 45 56 146 19 141 14 91 72 123 6 380 47 414 49 319 56 8 71 420 40 4 77 371 79 394 2
405 25 3255 305 1 412 16 496 9 459 69 114 72 1 85 382 56 397 84 413 89 65 40 433 68 499 32 182 66 311 69 52 18 369 71 363 91 58 19 173 12 141 36 213 58 76 93 68 83 480 14 48 38
406 25 2842 40 68 246 88 311 90 312 90 261 32 448 46 351 20 138 13 227 46 273 31 142 30 269 53 86 65 87 98 33 88 410 15 248 84 83 40 453 98 363 18 405 41 109 96 62 15 204 25 123 47
407 25 3335 285 80 375 66 332 27 372 3 407 60 130 42 472 35 231 5 292 7 158 45 131 14 158 41 142 54 432 94 11 90 184 11 261 68 465 4 356 73 327 55 165 32 218 84 441 83 174 23 151 85
408 25 3048 276 49 404 79 59 90 351 97 424 93 355 55 197 92 308 96 197 5 460 79 312 26 110 4 5 44 233 22 159 45 295 8 389 48 53 28 208 99 312 54 294 58 385 79 108 9 49 85 154 67
409 25 3495 406 25 46 79 396 7 255 24 201 5 162 87 137 11 394 33 160 50 32 81 478 7 389 32 93 83 409 93 378 11 498 31 134 23 177 53 348 45 370 13 448 25 50 79 438 54 119 46 473 96
410 25 2623 17 53 426 43 447 68 237 23 39 1 186 78 48 15 179 9 77 63 94 17 257 12 453 94 272 27 51 5 185 11 235 11 96 61 356 88 335 17 468 31 35 65 325 56 54 44 137 85 238 80
411 25 2983 424 39 270 11 464 17 240 74 2 97 19 34 476 70 326 14 397 87 102 10 88 56 156 55 194 40 483 100 305 10 62 100 237 38 402 88 5 47 192 34 12 5 141 95 228 54 326 39 416 60
412 25 2904 278 29 356 35 163 73 433 18 59 32 67 77 214 3 389 76 450 10 350 4 53 23 177 96 325 62 58 30 355 81 213 44 19 53 237 19 196 17 31 77 68 43 284 54 367 35 281 57 386 25
413 25 3702 453 53 205 91 364 57 389 24 427 30 192 75 86 19 426 62 256 51 420 92 164 88 43 83 256 84 362 75 359 27 458 59 443 10 321 62 177 15 207 24 77 64 54 68 378 10 433 44 454 85
414 25 2664 41 39 241 91 50 84 489 95 311 38 127 25 287 54 361 15 9 1 33 36 325 93 409 28 49 91 56 39 308 27 206 71 304 81 354 20 256 16 12 15 281 60 89 9 431 35 141 26 159 32
415 25 3765 217 24 415 69 498 26 281 88 155 44 269 66 69 99 390 64 494 63 471 68 228 36 276 80 431 43 122 59 149 32 462 51 336 36 240 81 481 95 244 63 304 51 97 69 121 29 360 1 421 60
416 25 3775 268 35 128 88 269 28 429 21 458 45 264 60 436 47 265 54 113 20 278 67 266 39 57 88 392 10 492 87 418 82 450 18 226 25 105 27 66 73 268 97 484 59 298 84 455 63 311 10 355 84
417 25 3078 34 28 294 51 341 85 153 26 177 6 146 91 284 7 360 49 58 35 111 14 234 91 487 41 127 42 360 95 470 48 344 19 407 79 369 66 171 55 451 73 341 33 49 69 153 9 13 28 222 2
418 25 2972 289 74 21 46 105 11 424 23 226 54 350 2 149 68 471 40 94 24 204 95 53 66 422 10 208 30 335 18 185 37 381 54 88 6 89 9 342 55 162 17 160 22 424 18 121 12 468 14 173 67
419 25 3294 139 57 241 7 107 54 212 68 484 68 479 46 312 37 349 80 165 56 20 89 283 20 427 64 422 84 75 39 202 6 227 20 316 80 272 32 402 97 486 28 131 61 362 100 71 66 92 27 313 81
420 25 2581 74 78 488 10 61 29 86 84 273 31 308 76 77 65 243 24 401 97 149 31 140 73 308 49 289 51 271 55 125 20 64 4 14 74 266 3 18 16 381 82 297 3 350 61 16 28 65 2 398 86
421 25 3518 441 53 485 75 421 57 317 36 26 92 312 25 28 53 495 93 197 35 203 86 284 10 306 54 471 38 12 16 32 93 279 84 244 14 288 38 420 71 385 8 344 79 191 94 367 58 133 10 355 77
422 25 3399 230 74 266 76 356 97 15 96 381 99 440 13 393 100 191 99 338 16 40 72 201 26 188 19 99 36 463 91 349 29 231 33 362 11 29 50 284 5 487 88 205 47 314 79 257 82 331 27 348 82
423 25 3214 442 57 45 39 356 11 485 78 237 56 362 91 2 3 9 71 481 89 300 98 183 44 342 91 19 23 77 75 373 32 428 77 331 36 436 44 83 65 44 49 399 2 389 2 337 90 121 10 148 70
424 25 2144 122 38 46 99 3 57 179 76 455 11 136 51 57 87 251 63 221 27 74 66 158 41 161 5 59 17 290 30 133 78 385 82 127 83 187 57 337 19 182 78 374 91 16 6 235 48 31 1 70 57
425 25 3281 139 79 239 95 388 36 453 87 22 22 325 85 302 99 381 71 187 91 156 16 46 29 476 63 273 94 479 47 118 25 35 81 438 83 407 19 78 81 115 95 332 65 368 40 410 75 264 46 132 94
426 25 2469 46 54 57 19 63 17 174 87 29 80 104 41 254 68 175 26 142 13 247 28 173 56 350 28 92 76 227 92 270 41 268 30 197 49 469 45 287 6 34 37 300 55 174 57 443 70 23 36 340 4
427 25 3228 113 64 286 50 72 38 356 75 213 88 253 89 206 48 379 57 34 9 352 87 469 79 287 26 432 28 413 11 31 64 499 91 307 71 189 89 123 30 56 32 376 100 445 75 192 48 344 36 29 79
428 25 3624 285 79 150 77 386 92 73 61 30 17 342 61 154 70 370 45 354 65 345 43 321 33 64 70 437 61 222 21 173 46 334 57 417 12 378 13 483 34 474 22 300 3 339 64 274 36 109 68 435 90
429 25 3360 292 83 21 47 297 86 161 72 148 46 142 52 227 88 492 50 166 21 445 14 378 86 201 57 43 49 358 38 384 11 73 97 330 99 329 41 290 65 284 54 327 45 395 44 355 52 313 97 270 81
430 25 2792 111 71 219 9 333 44 43 35 11 59 130 51 367 2 17 99 48 3 447 37 499 3 338 95 176 18 60 5 97 41 214 38 356 32 268 26 141 41 209 13 486 91 218 41 355 82 396 60 46 68
431 25 2814 147 82 208 14 306 29 49 63 252 85 311 100 358 44 493 43 132 94 91 79 364 79 437 76 420 79 195 72 277 94 64 31 190 9 31 19 333 34 330 58 65 24 284 43 172 49 44 27 75 30
432 25 3110 113 90 178 55 149 82 290 88 211 23 298 20 446 86 496 43 255 98 60 91 312 21 289 34 237 10 3 98 115 36 31 2 356 59 100 92 336 12 403 38 391 16 277 97 121 48 319 57 435 24
433 25 2939 167 81 430 81 484 38 244 51 341 32 218 32 388 76 429 48 385 68 4 28 409 73 151 43 25 65 368 68 48 21 70 76 55 78 366 30 391 43 78 35 116 82 108 45 114 71 312 76 178 6
434 25 3175 85 93 57 100 349 91 446 7 360 1 423 3 490 5 317 30 262 72 362 30 231 72 363 23 286 54 25 90 58 81 264 23 317 21 229 75 157 39 67 69 204 7 103 37 321 40 204 70 371 6
435 25 3054 393 98 386 30 488 61 108 46 253 9 170 42 323 95 51 16 130 45 50 11 385 69 227 93 239 18 41 40 219 83 103 58 380 14 409 15 298 75 223 39 4 41 175 14 271 96 481 38 302 92
436 25 3490 490 11 16 33 345 70 463 48 223 84 415 6 431 86 265 58 59 51 319 46 123 37 318 14 273 44 296 46 318 13 411 61 233 36 500 71 130 52 264 30 463 30 1 81 359 41 5 61 260 94
437 25 2819 119 84 242 7 497 20 365 94 320 86 204 59 435 37 211 18 10 61 28 96 42 50 290 44 317 100 465 73 450 59 32 12 111 48 88 22 108 87 248 70 189 22 115 53 372 90 259 77 121 23
438 25 3368 225 37 282 15 88 70 273 4 185 85 360 81 79 92 400 82 406 100 91 22 281 99 281 34 414 64 150 33 139 16 311 93 349 27 493 100 382 4 367 68 385 46 256 39 193 20 330 34 17 96
439 25 2712 500 58 320 6 241 36 375 43 75 73 9 12 449 45 335 53 333 9 201 86 243 87 216 61 450 95 298 46 289 57 64 19 104 9 146 92 95 73 37 51 188 4 2 64 108 96 297 29 50 3
440 25 2903 130 37 363 9 7 25 56 68 33 7 413 18 191 41 122 75 31 93 317 48 367 75 48 46 217 27 48 67 416 64 408 33 47 55 248 68 95 89 481 8 418 4 200 32 281 100 430 51 439 55
441 25 2924 325 9 148 1 311 18 336 47 295 90 56 88 177 23 313 91 287 58 173 16 425 40 19 2 108 48 261 1 459 32 263 8 178 100 239 37 203 76 220 32 168 2 24 1 328 25 330 66 203 12
442 25 2617 309 47 48 63 117 29 446 14 200 5 470 63 45 14 145 40 283 3 193 94 86 7 34 77 45 5 113 8 318 16 47 97 9 68 215 79 140 77 404 80 305 67 487 36 405 94 105 26 265 64
443 25 3702 123 57 371 57 271 91 75 20 258 55 423 26 457 6 254 49 477 41 38 100 286 94 342 70 208 49 384 54 425 86 43 15 477 83 386 33 467 73 198 25 373 21 240 83 413 12 413 35 2 48
444 25 3409 189 32 259 95 269 98 346 76 178 83 294 78 174 89 467 79 99 69 458 2 317 58 228 71 324 56 283 85 101 61 110 22 285 23 422 63 209 9 475 19 181 93 377 25 140 22 313 48 320 92
445 25 3289 299 43 269 97 381 68 448 85 259 85 351 1 164 98 322 94 19 8 210 31 476 21 226 70 317 76 246 24 170 37 223 19 498 65 403 76 27 95 100 6 57 59 402 66 313 34 192 74 206 3
446 25 3223 424 50 425 63 385 30 484 3 170 99 63 57 171 26 172 75 159 13 342 82 336 43 252 26 227 20 140 20 436 22 27 93 59 86 444 98 355 7 288 93 447 22 13 56 106 87 374 75 148 34
447 25 3739 463 28 304 31 490 20 314 47 170 94 71 47 231 30 380 62 319 47 277 51 339 89 140 18 125 45 467 59 257 84 323 73 493 6 332 17 205 56 203 55 382 61 275 57 71 8 389 24 458 65
448 25 3222 312 3 29 40 48 27 17 29 205 71 343 78 306 74 291 31 124 25 94 16 71 40 482 95 284 57 340 98 350 67 344 7 477 58 92 30 264 17 36 61 477 50 498 11 256 3 218 42 487 75
449 25 3031 198 25 197 85 112 4 180 9 455 63 20 93 456 13 329 22 122 13 493 71 19 52 10 1 495 30 486 1 117 26 350 21 313 98 391 65 34 71 55 5 419 7 240 17 181 7 157 54 234 44
450 25 3919 311 44 144 50 260 2 406 24 382 16 135 54 35 17 421 41 387 23 484 32 286 7 132 15 276 67 426 93 384 49 251 80 288 58 383 75 427 13 268 51 373 33 297 32 351 9 377 16 355 30
451 25 3202 354 78 260 77 51 6 165 24 105 4 482 24 77 1 70 44 485 90 393 19 331 2 397 44 31 15 3 12 409 42 285 5 55 85 368 67 34 82 383 46 393 89 402 75 312 88 401 60 159 14
452 25 3336 489 1 68 14 240 82 50 62 83 61 272 1 310 42 228 91 459 13 51 46 251 23 378 65 338 82 494 93 337 17 50 5 293 99 401 98 82 66 172 5 122 54 310 19 229 96 491 97 475 52
453 25 3399 117 22 272 4 236 49 459 10 158 8 169 86 267 47 338 90 57 87 69 48 278 92 276 10 425 34 241 50 244 26 364 37 439 84 134 83 209 3 195 44 351 33 317 42 284 59 436 5 463 82
454 25 3089 414 92 126 31 430 38 412 76 30 80 350 94 302 59 193 27 252 57 178 31 403 1 314 29 135 75 304 91 158 75 323 90 427 57 30 3 449 65 243 43 196 24 21 12 44 45 195 89 250 61
455 25 3083 377 24 29 19 56 64 232 60 469 30 330 98 382 38 47 72 138 39 469 5 437 12 258 100 366 31 88 4 98 11 200 43 85 8 404 27 290 99 424 7 232 71 23 14 336 64 361 40 35 94
456 25 2474 11 94 165 30 92 93 209 30 92 14 141 63 255 5 393 32 328 57 38 47 418 74 415 88 115 19 351 93 237 26 167 30 156 18 137 82 82 95 105 46 436 37 12 47 87 21 60 67 447 43
457 25 3654 419 5 366 65 413 51 278 10 194 19 173 38 382 96 14 18 119 56 265 24 54 74 446 19 190 9 207 47 464 63 154 80 440 4 136 18 491 12 188 7 159 33 420 33 384 91 456 70 496 32
458 25 3086 279 15 207 82 466 67 412 41 391 98 251 47 219 100 174 63 129 59 411 56 180 46 392 12 406 14 71 86 413 93 233 47 118 74 21 98 344 4 274 86 27 91 9 50 364 43 372 50 9 68
459 25 2885 493 59 289 60 248 75 253 20 171 55 90 99 33 31 494 28 296 34 232 10 114 67 2 54 62 96 462 24 61 35 205 86 238 23 252 62 81 29 296 92 443 29 102 83 258 69 489 20 106 15
460 25 3025 67 89 47 57 314 63 51 5 95 63 289 82 451 48 328 4 137 95 21 90 411 81 284 16 427 68 387 2 48 23 279 83 192 85 194 51 442 79 285 40 390 20 81 45 75 15 289 17 466 34
461 25 3155 376 95 497 13 28 70 84 37 465 63 310 21 164 78 257 10 263 63 49 11 222 97 39 31 264 83 278 42 463 22 396 37 32 3 323 44 457 5 309 98 71 94 121 57 365 77 108 84 370 50
462 25 3102 27 84 319 5 259 24 143 98 72 2 49 98 158 7 146 26 487 87 206 67 27 89 332 75 214 33 299 98 379 5 403 60 457 74 312 30 325 93 410 45 417 4 70 32 218 15 245 20 230 85
463 25 3090 155 65 441 46 314 68 395 79 483 7 76 11 433 84 463 81 86 59 476 51 277 97 134 27 52 80 347 20 455 93 91 11 262 82 303 75 36 80 160 31 254 94 8 91 202 61 238 87 40 19
464 25 3039 398 68 400 12 6 7 146 6 320 32 487 35 121 40 499 24 202 50 350 89 365 20 281 29 228 39 478 8 69 66 26 14 140 72 259 55 179 67 57 47 302 33 370 39 162 29 52 56 181 11
465 25 3247 442 62 126 45 407 22 150 84 370 47 213 25 338 13 348 44 190 57 369 81 91 82 377 2 322 58 376 12 174 21 67 50 362 36 415 1 306 57 228 72 122 45 19 70 156 99 466 8 61 96
466 25 3149 198 94 283 79 301 63 266 61 210 37 389 40 384 91 209 83 25 37 107 77 8 10 239 28 69 94 412 95 213 64 338 67 408 54 111 4 421 72 323 21 94 89 435 33 297 37 244 7 315 22
467 25 3799 66 87 307 11 464 90 345 41 294 88 49 7 245 86 397 97 32 91 471 7 464 92 146 12 229 22 487 71 373 73 473 94 371 35 365 78 426 31 322 30 91 52 484 74 295 100 68 11 335 100
468 25 3243 151 22 290 91 344 45 249 99 72 42 59 58 61 85 55 71 157 86 384 1 275 85 459 77 221 38 435 26 406 99 467 66 477 58 480 31 176 91 224 85 196 82 313 23 48 39 128 60 359 76
469 25 2264 246 17 370 55 286 14 126 44 33 40 14 35 295 20 205 19 335 73 138 79 6 26 220 63 31 5 101 28 186 56 26 43 196 99 240 48 221 22 231 97 238 13 307 18 69 61 111 30 298 13
470 25 3261 299 98 161 40 438 10 250 12 180 52 15 62 425 18 397 10 489 20 53 51 174 69 403 70 54 71 449 7 197 42 157 97 446 74 183 75 326 84 455 77 146 13 50 48 13 56 275 78 488 62
471 25 3591 62 71 419 25 465 8 464 33 99 94 232 65 297 27 92 72 415 3 25 86 297 91 356 76 157 77 447 57 299 85 299 79 469 27 301 37 81 6 14 49 333 32 440 32 379 23 410 68 331 97
472 25 2998 331 92 215 91 241 54 273 86 25 60 46 54 323 24 478 64 219 95 211 14 115 34 466 78 236 52 377 93 275 50 241 42 196 6 194 32 386 16 50 5 239 84 210 90 147 25 44 53 459 73
473 25 2714 272 14 9 15 107 54 250 59 449 12 180 63 227 98 168 31 356 88 186 2 159 80 470 67 231 2 313 12 104 11 169 41 432 84 60 30 33 54 142 3 127 52 276 27 43 65 463 38 202 39
474 25 3458 232 97 33 15 412 82 50 32 246 21 22 99 139 52 498 12 268 14 332 85 382 33 462 25 184 99 311 22 308 47 395 2 432 8 314 96 392 75 31 83 293 37 382 20 69 48 389 34 340 41
475 25 2722 449 100 337 46 55 29 104 56 479 81 63 53 72 87 13 20 160 70 192 18 247 3 275 85 13 38 161 95 254 71 177 73 456 58 494 55 413 74 317 48 184 7 73 31 360 95 62 44 35 66
476 25 2627 45 39 88 29 311 83 447 47 81 81 177 61 353 52 175 2 298 55 168 93 128 18 216 100 15 29 422 85 10 38 158 4 27 100 482 78 385 90 480 22 285 71 40 24 211 23 51 23 201 66
477 25 3008 172 2 21 51 175 9 144 2 183 39 266 64 367 27 499 36 144 72 207 27 221 79 125 91 97 90 314 62 464 42 317 66 283 60 157 6 168 25 224 58 154 32 365 86 128 56 402 85 419 19
478 25 2517 297 98 51 46 174 33 47 36 269 65 226 66 182 24 230 22 98 36 497 94 267 60 166 53 88 99 208 89 78 94 43 4 135 39 364 84 247 77 423 57 9 44 107 50 367 32 373 21 89 4
479 25 3367 313 32 114 16 478 17 416 13 485 47 316 9 101 91 229 10 121 5 199 58 286 38 212 39 112 89 9 52 360 60 37 45 401 57 446 56 177 46 371 1 288 51 375 32 306 92 445 63 138 39
480 25 3654 455 67 181 58 378 1 311 50 149 10 245 8 121 32 372 39 485 96 394 20 287 64 334 67 337 59 162 18 493 68 170 55 147 21 278 34 264 71 164 77 196 7 433 39 245 16 493 66 215 25
481 25 3364 493 76 458 99 407 46 342 37 111 56 263 11 68 65 143 63 312 29 380 49 365 85 134 93 285 2 105 31 327 41 238 36 277 62 297 67 240 22 419 99 55 86 470 43 487 76 8 3 45 63
482 25 3170 222 58 293 55 11 76 103 54 219 60 130 82 352 40 1 24 336 27 283 37 371 82 415 5 399 63 495 82 199 53 202 30 21 31 352 61 290 57 233 19 266 40 175 36 422 92 265 53 286 65
483 25 2996 120 17 423 58 52 38 55 55 125 68 312 82 129 19 132 62 318 56 130 52 449 56 231 21 85 14 347 34 284 52 240 84 116 28 485 99 429 77 148 76 376 29 428 15 416 58 86 83 77 50
484 25 3662 275 5 97 84 476 29 184 60 462 33 122 78 182 54 170 23 167 86 218 28 399 91 136 32 389 87 342 67 357 72 356 9 459 6 471 91 205 100 173 96 382 65 361 4 151 56 385 74 405 89
485 25 3327 69 26 434 57 488 35 21 9 343 25 445 54 377 32 4 77 194 36 219 64 439 19 49 9 215 18 258 49 226 56 381 91 404 52 228 80 489 34 319 18 152 69 136 35 172 68 103 68 489 54
486 25 3440 341 83 278 7 26 72 477 88 65 53 242 93 156 19 485 86 400 99 186 62 242 6 407 2 258 19 459 73 274 96 273 17 177 80 103 20 234 64 347 82 78 33 273 98 417 99 251 100 431 45
487 25 3422 296 94 418 3 96 46 314 14 175 20 34 24 178 73 343 93 190 40 424 6 436 16 317 36 17 93 282 42 491 4 226 5 147 41 378 76 69 26 301 90 453 71 491 24 1 65 379 62 388 27
488 25 3241 212 69 415 5 373 92 316 22 225 56 148 96 130 86 488 42 482 69 171 48 177 61 21 17 124 24 153 38 379 63 336 55 406 36 21 59 381 39 41 95 112 86 252 78 438 4 383 42 299 72
489 25 3145 264 7 85 21 118 16 206 8 119 34 154 77 7 96 470 38 62 96 275 46 498 27 244 44 404 54 192 71 358 49 92 49 309 9 258 65 473 6 226 31 484 7 136 87 393 75 236 12 228 50
490 25 2667 303 48 255 1 145 57 164 18 120 88 30 3 32 37 219 15 335 65 157 22 145 60 86 28 167 45 443 61 463 34 276 57 370 61 68 52 333 89 382 23 254 65 38 82 116 47 401 88 33 92
491 25 2673 27 54 132 12 79 28 84 71 40 26 228 77 48 79 451 1 210 14 124 60 59 45 280 26 370 42 226 41 59 16 197 37 486 87 374 52 145 15 363 36 273 95 151 11 398 95 111 68 432 62
492 25 2393 167 64 219 19 93 22 366 74 93 80 46 1 28 16 308 44 359 91 18 48 123 2 176 73 329 73 190 66 437 32 373 16 224 70 93 32 77 17 163 26 91 94 202 51 487 66 116 85 8 64
493 25 3298 382 3 339 93 375 2 75 40 454 46 59 29 364 92 79 69 395 82 328 18 292 14 452 79 137 56 254 1 136 28 466 95 105 68 286 10 153 63 280 49 96 84 294 89 402 95 275 25 119 72
494 25 2972 371 2 226 51 170 63 90 72 1 71 20 85 262 28 351 45 89 44 119 65 82 7 55 17 451 30 346 6 1 14 260 40 355 1 436 89 17 51 191 25 489 12 456 12 406 80 270 12 431 22
495 25 3097 133 21 171 22 305 42 81 25 409 30 59 45 125 99 449 16 96 70 251 10 371 78 404 86 448 17 462 43 17 68 68 70 204 17 290 72 297 77 459 26 214 18 202 62 154 48 236 49 290 53
496 25 3429 241 83 209 21 419 41 463 53 140 97 382 23 126 64 133 15 354 22 378 99 153 87 242 61 256 55 407 63 149 78 227 54 449 63 164 14 289 39 273 81 211 20 410 18 454 86 99 19 231 66
497 25 3593 472 81 74 23 216 3 309 42 287 46 34 57 13 39 215 16 197 15 336 91 500 52 92 3 474 50 417 98 297 37 200 69 126 23 488 53 169 66 403 65 202 92 472 29 493 31 452 30 248 25
498 25 3232 449 54 266 68 218 95 409 50 136 36 458 27 71 40 159 49 373 89 203 100 136 60 47 81 213 40 303 67 411 10 203 77 166 24 167 20 352 70 243 93 127 70 380 56 431 85 79 69 464 64
499 25 3002 332 17 176 3 9 35 283 72 12 46 37 83 153 92 318 37 205 29 371 4 25 8 406 32 145 93 314 63 436 43 238 54 27 59 381 18 407 55 464 55 145 18 446 78 104 66 225 37 346 24
500 25 2893 57 39 408 2 157 15 455 19 313 2 272 90 133 21 2 51 351 15 201 28 179 49 201 88 72 17 500 28 127 41 287 40 428 29 439 98 60 41 449 42 48 66 277 27 204 91 11 49 155 49
