20736
5315
14040
30576
41596
25314
11845
73304
2650
5933
14456
16774
1327
17242
15854
9111
29982
1357
6863
8656
11057
7985
3638
5671
29454
66153
12717
29048
10626
4762
2598
5616
4764
8412
16818
21600
25659
7670
11245
22274
16035
28529
25005
48380
10009
7965
29263
22511
9078
54795
39892
16527
37748
15249
28470
1971
1103
39418
20764
18874
60684
24447
34174
16756
6018
28549
3956
26252
59293
7859
30071
4888
6074
10724
12219
6403
33038
5866
7194
36864
7311
7772
27211
38114
4198
1368
24890
5782
13009
15104
17551
7490
5234
19682
5345
3558
4796
14407
15806
24985
9869
5838
3207
22172
62471
4746
14631
10166
24162
28829
4337
55312
45291
3592
64352
2096
4590
2299
15224
33798
15495
25564
14685
25604
4003
19260
11143
9991
17936
14808
29081
14688
11395
8241
6107
16520
22452
8528
4387
9173
8459
24430
40484
36071
7830
25952
31376
22619
610
5686
6711
12499
53968
6132
48818
4546
6610
8451
29481
4391
25245
9438
17633
22736
12692
14306
8213
106214
10512
11039
17111
9192
19631
17658
6635
2817
44178
14805
63864
108295
10482
1695
5173
49848
22063
64768
3230
202548
30383
5335
3046
13260
26836
7261
64943
14444
6354
6278
155323
18523
12367
3839
25350
26142
40808
21572
6342
25554
23818
7635
14054
4143
58430
51948
34284
126035
9790
96483
12285
40805
23804
27086
20100
2896
107569
25739
19619
29807
23713
5575
9702
26823
36214
14145
11096
6696
38736
16541
5298
56917
6279
16813
22912
25137
40159
35066
5489
9666
5227
3931
15500
26686
2376
2427
10937
16356
18865
17827
2595
20280
40761
5174
6360
9345
42261
7312
8842
15299
7397
5465
5391
48777
13714
21903
15097
1878
13611
13030
8579
42641
24365
23301
41268
44841
1131
11770
2064
14086
48883
13329
11373
22558
11474
7058
17551
13515
3535
17646
21731
18441
6574
9844
39258
8011
14736
12481
29907
6037
8437
25941
19660
24635
28569
4041
15157
41763
33912
4392
21416
6823
29218
18224
8951
17742
22071
6172
24661
6657
3670
9879
45100
14455
20577
3585
29495
13002
37345
57380
11939
18796
4242
9379
11004
3907
19512
12794
3335
11195
6493
4797
5344
19123
2432
13508
29862
14746
6708
11032
7715
15377
12032
11221
42188
9031
22783
3959
13341
47557
27183
1601
10369
8025
23402
13485
17792
17451
12710
9265
35753
51926
7141
59788
15443
8378
6325
127686
8489
11392
10895
7867
3081
3197
2288
10873
7570
3028
41835
10254
6911
27877
33751
35702
45823
4572
1991
8352
25332
33630
8230
19641
13550
4843
10114
8076
35387
52020
11297
4384
31219
19013
34536
29833
4506
9551
43165
14807
55659
28260
48725
24690
9449
9540
13912
1339
14673
14058
15350
18750
2019
7669
5916
24661
15179
19521
14350
6848
30029
22361
3634
17405
69742
21484
14839
21088
5176
12729
18531
4296
3473
5413
10901
6327
16183
7608
1804
15336
52591
8347
5239
6259
5251
37987
6331
7147
16183
16855
28538
22321
19348
59474
30953
154618
37022
29075
32080
55838
5758
10887
3007
37360
60877
22249
14991
2984
10185
23376
49528
51490
16394
4825
