19259
7845
18003
13257
56536
25146
4571
37929
1328
9996
14151
3451
825
5175
7541
22688
15239
1143
12082
25745
29780
9504
7489
7762
11609
34592
11588
15256
14123
20855
2607
2018
5384
6805
22814
22042
16462
9866
12779
22386
22274
21885
24937
22027
20180
7587
38876
45815
11667
24523
21204
14124
7733
10837
41678
2280
1161
80864
48583
4565
59011
48591
25634
5061
23185
12814
1638
11691
59901
5003
12386
7364
9377
17361
3394
4371
9653
3560
15252
15413
30065
9281
25490
15849
15677
1432
8876
23416
15334
5524
19378
6738
8276
7173
4927
440
3243
6851
80525
43620
3789
4896
7686
3604
9460
3172
21361
6171
9590
15159
24437
30891
25978
3353
75233
6988
7122
6150
13825
12123
14232
27163
8532
20790
5538
6163
23491
11140
10542
11875
17109
7068
9749
3837
16972
6016
23020
5693
2672
10278
36350
23523
80801
120280
13443
16228
7362
54326
2221
4517
3371
8366
38541
8456
36171
7167
7708
5375
5520
18598
7505
8449
15102
15247
22128
20912
1778
5033
23320
16121
19754
16049
4824
16639
14417
4352
27523
12555
24699
80608
25659
3781
2548
13452
16853
108115
6299
105347
34806
5912
1965
2717
27443
12752
55246
5680
14159
2213
106706
8652
27372
11226
13527
19215
55164
19431
4090
8552
58139
4468
12798
3490
83439
31505
25436
166863
9819
117161
23054
42735
28854
51476
16853
4582
24562
47050
7739
10522
23760
26802
14949
27696
19078
17517
12931
7929
56249
26978
3819
54307
8965
29513
8462
9747
32002
12352
17583
10973
17507
6116
12777
27210
10466
3818
18000
17988
24594
3833
4148
18156
39509
5062
5476
54133
35263
14448
4360
6539
3506
24940
6332
9033
6272
33141
10539
3608
7023
6295
9839
30532
20648
16921
54746
20239
2468
30817
2955
29074
14805
18359
12818
13828
27592
16075
37546
7551
2300
16683
38530
16307
7216
116040
14648
7507
15464
34060
57078
10841
7014
22349
20608
30639
31874
5798
19271
49725
14835
6918
7853
13392
13898
18963
11453
14541
54245
7125
9899
13960
3742
12421
20442
14521
8348
7961
9454
10681
21307
57042
5467
51164
8450
10786
16046
8680
17646
27366
5871
3989
7039
4450
17560
15181
5383
10545
33700
53179
5813
1578
22896
31786
30121
5983
57117
11254
11717
5926
7889
26468
26611
2413
5643
7847
27616
23860
23858
20255
18283
7236
23823
18605
36351
81402
37982
8322
9809
187774
21551
5012
5088
15464
4728
3714
11393
11182
2899
2284
19210
51802
8320
15316
14875
42885
167352
1369
8633
11028
15883
44178
13540
3796
22821
4978
17372
16229
45966
17413
6086
8348
12316
20712
69665
24904
4627
6506
24056
12653
49528
20321
20180
1676
78421
6300
14604
891
11939
19650
29886
11686
6512
6507
26865
10825
16704
28702
25675
5658
41873
12255
3998
31492
45088
5393
14273
81152
2172
13763
2814
14167
2272
9647
5358
3897
34298
6304
2503
16182
63563
6891
12955
3771
14331
8335
7296
6609
20562
28127
11653
32595
6683
132157
32373
117771
49743
48811
33203
65466
1602
9387
3014
18680
13759
34955
9957
2425
11473
38383
36211
19005
11630
3463
