1 25 859 0 1 1 1 1 0 0 1 1 1 0 0 1 1 1 0 0 1 1 1 0 1 0 1 0 
2 25 1136 1 1 0 0 1 1 1 0 1 1 0 1 1 0 1 1 0 1 1 1 1 0 0 0 0 
3 25 1031 0 0 1 1 1 0 1 1 0 0 1 1 1 1 1 1 1 1 0 0 1 0 1 1 0 
4 25 977 0 1 0 1 1 0 1 0 0 1 1 1 0 1 1 0 1 0 1 1 0 1 0 0 1 
5 25 898 1 1 1 0 0 1 0 1 1 0 1 0 0 1 1 0 0 0 0 1 1 1 1 0 1 
6 25 1004 1 1 0 0 1 1 1 0 0 1 1 1 0 1 0 1 1 0 1 0 0 0 1 1 1 
7 25 997 0 1 0 1 1 1 0 1 1 1 1 1 1 0 1 1 0 1 0 0 1 1 1 0 1 
8 25 842 1 1 0 0 1 1 0 0 1 0 1 0 1 1 1 1 1 1 0 0 1 1 1 0 0 
9 25 1012 1 1 0 1 1 0 1 0 0 0 1 1 0 1 1 1 1 1 0 0 0 0 1 1 1 
10 25 954 1 1 1 1 0 1 0 0 1 0 1 0 0 1 1 1 1 0 1 0 1 1 0 1 0 
11 25 1154 1 1 1 1 0 1 1 1 0 1 1 0 1 0 0 1 1 1 1 1 0 1 0 0 0 
12 25 1052 0 1 1 0 0 1 1 0 1 0 1 1 1 0 0 1 1 1 0 0 0 1 1 1 0 
13 25 1045 0 0 0 1 0 1 1 1 1 0 1 1 1 0 1 1 1 0 1 1 1 0 1 1 1 
14 25 1031 1 0 0 0 1 1 1 0 1 0 1 1 0 1 0 1 1 1 1 1 0 1 0 1 1 
15 25 987 0 1 1 1 1 1 1 1 0 0 0 0 1 1 1 1 0 1 1 0 1 0 0 1 1 
16 25 1043 0 0 0 1 1 0 1 1 1 0 1 0 1 1 1 0 0 1 1 1 1 0 1 1 1 
17 25 1130 0 1 1 1 1 1 1 0 1 0 0 0 1 1 1 1 0 1 0 1 1 1 0 1 1 
18 25 984 1 1 1 0 0 0 0 1 1 1 1 1 1 1 1 1 1 0 1 0 0 0 1 0 0 
19 25 1122 1 1 1 1 0 1 1 1 1 0 0 1 0 1 0 1 0 1 0 1 0 1 0 1 1 
20 25 1063 0 1 0 1 1 1 0 0 0 0 1 1 0 1 1 1 0 1 1 1 0 1 1 1 1 
21 25 1008 1 0 1 0 1 0 0 1 1 1 0 1 0 1 1 0 1 1 0 1 0 1 0 0 1 
22 25 1052 0 1 1 0 1 1 1 1 0 1 1 1 0 0 1 1 1 0 0 1 1 1 1 0 0 
23 25 1082 1 1 0 1 1 1 1 0 0 0 1 0 0 1 0 0 1 0 1 1 1 1 1 1 0 
24 25 928 1 1 0 1 0 1 1 1 1 1 0 0 1 0 0 0 1 1 0 1 1 1 0 1 1 
25 25 927 1 0 1 0 1 0 1 0 1 1 1 1 0 1 0 1 1 1 1 1 1 0 0 0 0 
26 25 986 0 1 1 1 0 0 1 1 0 0 1 1 1 0 0 0 1 1 1 1 0 1 1 0 1 
27 25 980 1 1 1 1 1 1 1 0 0 1 1 1 1 0 0 0 1 1 0 0 0 1 1 0 0 
28 25 913 0 0 1 1 0 0 1 1 1 0 0 0 1 1 0 1 1 1 1 0 0 1 1 1 1 
29 25 1058 1 1 1 0 1 1 1 0 1 0 1 1 1 1 1 0 0 1 0 1 0 1 1 0 1 
30 25 967 0 1 1 0 0 1 1 0 0 1 0 0 1 1 1 1 0 1 0 1 1 1 0 1 0 
31 25 1261 1 1 0 1 0 0 0 1 1 1 0 1 1 0 1 1 1 0 1 1 1 1 1 1 0 
32 25 966 1 0 0 1 1 1 1 1 0 0 0 0 1 0 1 0 0 0 1 1 1 0 1 1 1 
33 25 973 0 1 1 1 0 1 1 1 0 1 1 0 0 1 1 1 1 0 1 0 1 1 0 0 1 
34 25 1091 1 1 0 0 1 1 0 1 1 1 1 0 0 1 1 0 0 1 1 0 1 0 1 1 1 
35 25 1101 1 1 1 1 0 0 1 0 0 0 1 1 0 0 1 0 0 1 1 1 1 1 1 1 1 
36 25 826 1 1 1 0 0 1 0 1 1 0 0 1 0 1 0 1 0 0 1 1 1 1 0 0 1 
37 25 870 0 1 1 1 0 0 0 1 1 0 0 1 1 1 0 1 1 0 1 1 1 1 1 1 1 
38 25 1152 1 1 1 1 1 1 1 1 1 0 0 0 0 1 0 1 1 0 1 1 1 1 1 0 0 
39 25 1015 1 1 0 1 0 1 1 1 0 0 1 1 1 0 1 0 0 1 0 1 1 1 1 1 0 
40 25 868 0 0 0 1 0 0 1 1 1 1 0 1 1 1 0 1 1 0 1 1 0 1 1 1 1 
41 25 996 1 0 1 1 1 1 0 0 1 0 1 0 0 1 0 1 1 1 0 1 1 0 1 1 1 
42 25 1025 1 0 1 1 1 1 0 1 1 0 1 0 1 0 0 1 1 1 0 1 1 1 0 0 0 
43 25 1033 1 0 1 1 0 1 1 1 1 1 0 0 0 1 1 0 1 0 0 0 1 0 1 1 1 
44 25 916 0 1 0 1 1 1 0 0 0 0 1 0 1 0 1 0 1 1 1 1 1 1 0 1 0 
45 25 1016 0 1 1 1 1 1 0 0 1 1 0 1 1 0 1 1 1 1 1 1 0 0 1 1 0 
46 25 952 1 1 1 0 0 0 1 0 1 1 1 1 0 1 1 1 1 1 1 0 0 0 1 1 0 
47 25 906 1 0 0 1 1 0 0 0 1 1 1 1 1 1 1 1 0 1 0 0 1 1 0 1 1 
48 25 1001 1 1 1 1 0 1 0 1 0 0 1 1 0 0 1 0 1 1 0 1 1 1 1 0 1 
49 25 946 1 1 0 1 0 1 1 1 0 0 0 0 1 0 1 1 0 1 1 1 1 1 1 1 0 
50 25 1025 1 0 1 1 0 1 1 0 0 1 1 1 1 1 0 1 1 0 1 1 0 1 0 1 1 
51 25 889 1 1 1 1 1 1 1 1 0 0 1 0 1 1 1 0 0 0 1 1 1 0 0 0 0 
52 25 947 1 0 1 0 1 1 1 1 1 0 1 1 0 0 0 1 1 0 1 0 0 1 1 0 1 
53 25 866 0 0 0 1 0 1 1 0 1 0 1 1 1 1 1 1 0 0 1 1 1 0 1 0 0 
54 25 1157 1 0 1 0 0 1 1 1 1 1 1 1 1 0 1 1 0 1 1 0 1 0 0 1 0 
55 25 922 0 1 1 1 0 0 0 1 1 1 1 0 1 0 1 1 1 0 0 0 0 1 1 1 1 
56 25 1003 1 0 1 1 1 0 0 0 1 1 1 1 0 0 1 1 1 1 0 1 1 0 1 1 0 
57 25 1052 1 1 1 1 1 1 0 1 1 0 0 0 1 1 1 1 1 1 1 1 1 0 0 0 0 
58 25 1004 0 0 0 1 1 1 0 0 0 1 1 1 0 1 1 0 1 1 1 1 1 1 0 1 1 
59 25 897 0 0 0 1 1 1 0 0 0 1 1 1 0 1 1 0 1 1 0 1 0 1 1 0 0 
60 25 831 0 1 1 1 0 0 1 0 1 0 0 1 1 1 1 0 1 1 1 0 0 0 0 1 0 
61 25 903 0 1 1 1 1 0 0 1 0 0 0 1 0 1 1 1 0 0 1 1 0 0 1 1 1 
62 25 1242 1 0 0 1 0 1 0 0 1 1 1 1 1 1 1 0 1 1 1 1 1 0 0 1 1 
63 25 729 0 1 1 1 1 0 1 1 1 1 0 0 0 0 1 0 1 0 1 1 1 0 0 1 0 
64 25 970 0 1 1 1 1 1 1 1 1 0 1 1 1 1 0 0 1 0 1 0 1 1 0 0 1 
65 25 997 1 0 0 1 1 1 1 0 1 0 0 0 1 0 1 0 1 1 1 1 1 1 1 0 0 
66 25 1121 0 1 1 0 1 1 1 1 0 1 0 1 0 1 1 0 0 1 0 1 1 0 1 1 1 
67 25 888 0 1 0 1 1 1 0 1 1 1 0 1 0 0 1 1 1 1 1 1 1 1 1 1 0 
68 25 999 1 1 0 0 1 1 1 0 0 0 1 0 0 0 0 1 1 1 0 1 0 1 1 1 1 
69 25 999 0 1 0 1 1 1 0 1 1 1 1 0 0 0 0 0 0 0 1 1 1 1 1 0 1 
70 25 1114 1 1 0 1 1 1 0 1 0 0 1 0 1 0 0 1 1 1 1 1 1 0 1 0 1 
71 25 1034 1 0 0 1 1 1 1 1 1 0 1 1 0 0 1 0 1 0 0 0 1 1 1 1 0 
72 25 909 1 1 1 1 1 1 1 1 0 0 1 1 0 0 0 1 0 1 1 0 1 1 0 1 1 
73 25 1121 0 1 1 1 1 0 1 0 0 1 1 0 1 1 1 0 0 1 1 0 0 1 1 0 1 
74 25 1124 1 0 1 1 1 1 0 0 1 1 1 1 1 1 0 1 0 1 1 0 0 1 0 1 0 
75 25 1141 1 1 0 1 0 1 1 1 0 1 1 1 1 1 1 1 0 1 0 0 0 1 1 1 0 
76 25 1076 0 1 0 0 1 1 1 0 1 1 1 1 1 1 0 0 1 1 1 1 0 0 1 1 1 
77 25 963 1 1 1 0 1 1 1 1 1 0 0 1 1 0 1 1 1 0 1 0 0 0 1 0 1 
78 25 1133 1 1 1 0 0 0 1 1 0 1 1 1 0 1 1 0 1 0 1 1 0 1 1 0 1 
79 25 979 0 1 1 0 0 1 0 1 1 0 1 0 0 0 1 1 0 0 1 1 1 1 1 0 1 
80 25 1039 0 1 0 1 1 1 0 1 1 0 0 1 1 1 1 0 1 1 0 1 0 0 1 1 0 
81 25 1098 1 1 1 1 1 0 1 0 1 0 0 1 1 1 0 0 1 0 1 1 0 1 0 1 1 
82 25 1021 1 1 1 1 0 0 1 1 1 1 0 0 1 0 0 1 0 1 1 1 1 0 1 0 1 
83 25 933 1 0 1 0 0 0 1 1 1 1 0 1 1 1 1 1 1 0 1 1 0 0 1 1 0 
84 25 918 1 0 0 0 1 0 1 0 1 0 1 0 1 1 1 0 1 1 1 1 0 0 1 0 1 
85 25 1070 1 1 0 1 1 1 1 0 1 0 0 0 1 1 0 1 1 1 1 0 0 0 1 1 1 
86 25 906 0 0 1 0 1 1 0 1 1 0 1 1 1 1 1 1 1 1 0 1 1 0 1 1 0 
87 25 863 1 1 1 1 0 0 1 1 1 0 1 1 0 1 0 0 1 0 0 0 0 1 1 1 1 
88 25 997 1 0 1 0 1 0 1 1 1 1 0 0 1 0 1 1 0 0 0 1 1 0 1 1 1 
89 25 975 1 1 0 0 1 1 0 0 0 1 0 0 1 1 0 0 1 1 1 0 1 1 1 0 1 
90 25 920 1 1 1 0 0 0 1 1 1 0 0 1 0 0 1 0 1 1 0 1 0 1 1 1 1 
91 25 852 0 1 1 1 0 1 1 1 1 0 1 0 0 1 1 1 1 1 1 0 0 0 0 1 0 
92 25 973 1 1 1 1 1 1 0 1 0 0 0 0 1 1 0 0 1 1 1 0 0 1 0 1 0 
93 25 1161 1 0 0 1 1 1 0 1 0 1 0 1 1 1 0 1 0 1 0 1 0 1 1 0 1 
94 25 1027 1 1 1 0 0 1 0 0 1 1 1 1 0 0 1 0 0 1 1 1 1 0 1 1 1 
95 25 993 1 1 1 1 1 0 1 0 1 0 0 0 0 1 0 1 0 1 1 0 1 1 1 1 1 
96 25 982 1 1 1 1 0 0 1 1 0 0 1 1 0 1 1 0 1 1 1 1 0 0 0 1 1 
97 25 1108 0 0 1 0 1 0 1 1 0 0 1 0 1 1 0 1 1 1 1 1 1 1 1 0 1 
98 25 1016 1 0 1 0 0 0 0 1 1 0 1 1 1 1 1 0 1 1 1 0 1 1 1 0 0 
99 25 1089 1 0 1 1 0 0 0 1 1 0 1 0 1 1 0 1 0 1 1 1 0 1 1 1 0 
100 25 966 0 1 1 0 1 0 0 1 1 0 0 1 0 0 1 1 1 0 1 0 1 0 1 1 1 
101 25 735 1 0 1 1 0 1 0 1 0 1 1 0 1 0 1 1 1 1 1 0 1 0 1 1 0 
102 25 1097 0 1 0 1 1 0 0 1 1 0 1 1 1 0 0 0 1 0 1 1 1 1 1 0 1 
103 25 1049 0 0 1 0 1 0 1 1 1 1 0 0 1 1 1 0 1 1 0 1 1 1 1 1 0 
104 25 984 1 1 1 1 1 0 1 0 1 1 0 1 0 0 0 1 0 1 0 1 0 1 1 1 1 
105 25 926 0 1 1 0 0 1 0 0 0 1 1 0 0 1 1 0 1 1 1 1 1 1 0 1 0 
106 25 991 1 0 1 0 1 1 1 1 1 1 1 1 1 1 0 0 1 1 1 0 1 0 0 0 1 
107 25 999 0 0 1 1 1 1 1 0 1 1 1 0 1 0 1 0 0 1 0 0 1 0 1 0 1 
108 25 922 1 1 1 0 1 0 0 1 1 0 1 1 0 1 1 0 0 0 1 1 1 1 1 0 0 
109 25 881 0 1 0 0 0 1 1 1 1 1 0 1 0 1 1 1 0 0 1 1 1 0 0 1 0 
110 25 1061 1 0 1 0 1 1 1 0 0 1 1 0 1 1 0 0 0 1 1 0 1 1 1 1 0 
111 25 1014 0 1 1 0 0 1 1 1 1 1 0 1 0 0 1 1 1 0 1 0 0 1 1 0 1 
112 25 911 1 1 0 0 0 1 1 1 1 0 1 0 1 1 1 0 1 1 1 0 1 1 1 1 0 
113 25 759 1 0 1 1 0 0 0 1 1 1 1 1 0 1 0 0 1 0 1 1 1 0 0 1 0 
114 25 1043 0 1 1 0 1 0 0 1 1 1 1 1 0 1 1 0 1 0 1 1 1 0 0 0 0 
115 25 936 1 0 1 0 1 0 0 0 1 0 1 1 1 0 0 1 0 1 1 1 1 1 0 1 0 
116 25 928 1 0 0 1 1 1 0 1 1 0 0 0 1 1 0 1 1 1 1 1 1 0 0 1 1 
117 25 963 1 1 0 0 1 0 1 0 1 1 1 1 0 1 1 0 0 0 1 1 1 1 0 1 1 
118 25 885 1 1 0 1 1 1 1 1 1 0 1 0 0 1 0 1 1 0 1 0 1 0 0 1 0 
119 25 917 0 1 0 1 1 0 1 1 1 0 0 1 1 1 1 0 1 1 1 1 1 1 1 1 0 
120 25 954 0 1 1 0 1 0 0 0 0 1 1 1 1 0 0 1 0 1 1 1 1 1 0 1 0 
121 25 931 1 1 0 1 1 1 1 0 0 1 1 1 1 0 0 0 1 0 1 0 0 0 0 1 1 
122 25 1051 0 1 1 1 1 1 0 1 1 1 0 0 1 1 0 0 1 1 0 1 1 1 0 0 1 
123 25 862 0 0 0 1 1 1 1 0 1 0 0 1 1 1 1 1 1 1 1 0 0 0 1 0 0 
124 25 992 0 1 0 1 1 1 1 1 1 0 1 0 0 1 0 1 1 1 1 1 1 0 0 1 1 
125 25 974 1 1 0 1 0 1 1 0 1 0 1 0 0 0 1 0 1 1 1 0 1 1 1 1 1 
126 25 1071 1 0 1 1 1 0 0 1 1 0 1 1 0 1 1 1 1 0 1 1 1 1 0 1 0 
127 25 969 0 1 1 0 1 0 1 1 0 1 1 1 0 1 1 1 1 1 1 0 1 1 1 0 1 
128 25 1084 0 0 1 1 0 1 0 0 1 0 1 1 1 1 1 0 1 1 0 1 1 1 1 0 1 
129 25 1074 0 0 0 1 1 1 1 0 0 0 1 1 1 1 0 1 0 1 1 1 1 0 1 1 1 
130 25 1105 1 1 1 1 1 1 0 1 0 0 1 1 1 1 0 0 0 0 0 1 1 1 1 0 1 
131 25 1209 1 1 0 1 0 1 1 1 0 0 1 1 1 0 1 1 1 1 0 0 1 0 1 0 1 
132 25 866 1 1 1 0 0 1 1 0 0 0 1 0 1 1 1 1 1 0 1 1 0 1 0 1 1 
133 25 985 0 1 1 1 1 0 1 0 0 0 1 1 1 1 1 0 0 1 1 1 1 1 1 1 0 
134 25 1157 1 1 1 1 1 1 0 0 0 1 0 1 1 1 1 0 1 1 1 0 1 0 0 1 1 
135 25 1140 1 1 1 1 1 0 0 0 1 1 1 1 0 1 0 1 0 0 0 1 0 1 0 1 1 
136 25 938 0 1 1 1 0 1 1 0 1 0 1 1 1 1 0 0 1 1 0 0 1 1 0 1 0 
137 25 1026 0 0 1 0 0 1 0 0 1 1 1 0 1 0 1 0 1 1 1 1 1 1 0 0 1 
138 25 946 1 1 0 1 1 1 1 0 1 1 1 1 1 0 1 0 1 0 0 0 0 0 1 1 1 
139 25 992 0 0 1 1 1 0 1 0 1 1 0 1 0 1 0 1 1 1 1 0 0 1 1 1 0 
140 25 998 0 1 1 1 0 1 0 0 1 1 1 0 1 0 0 1 1 1 0 0 1 1 1 1 0 
141 25 981 1 1 1 0 0 1 1 0 0 1 0 0 0 1 1 1 1 1 0 1 1 1 1 1 0 
142 25 1108 1 1 1 0 1 1 0 1 1 1 1 1 1 1 1 1 1 0 1 0 0 0 0 1 0 
143 25 903 0 1 1 0 0 1 1 1 1 0 1 0 1 1 1 0 1 1 0 1 1 0 0 0 1 
144 25 781 1 0 0 0 1 1 0 0 0 0 1 0 1 0 1 1 1 1 0 1 1 1 1 1 1 
145 25 897 1 1 1 1 1 0 1 1 0 1 0 1 0 1 0 0 1 1 1 0 1 1 1 1 0 
146 25 980 1 1 0 0 1 1 0 1 1 1 1 0 1 1 1 0 0 0 0 0 1 1 1 0 1 
147 25 962 1 1 0 1 0 1 0 1 0 1 1 1 0 1 1 1 1 1 1 0 1 0 0 1 0 
148 25 881 1 0 1 1 1 1 1 0 1 0 0 1 1 1 0 0 1 0 0 1 1 1 0 1 1 
149 25 771 1 0 0 0 0 0 0 1 1 1 1 1 0 1 1 1 0 1 1 0 1 1 1 1 0 
150 25 1299 1 1 1 1 1 1 1 1 0 0 0 0 1 0 1 1 1 1 1 0 0 1 1 0 1 
151 25 1126 0 1 1 1 0 1 1 0 1 1 1 0 1 0 0 1 0 1 1 1 1 0 1 1 1 
152 25 1156 1 1 0 1 1 0 1 1 0 1 0 1 0 1 1 0 0 1 1 1 0 1 1 1 1 
153 25 932 0 0 1 0 1 0 1 1 1 1 1 0 1 1 0 1 0 0 0 1 1 0 1 1 1 
154 25 1007 0 1 0 1 1 1 1 1 0 1 1 1 0 1 0 1 1 1 0 1 1 0 1 0 1 
155 25 1028 1 1 0 1 0 1 1 0 1 0 1 0 1 0 1 1 0 1 1 0 1 1 1 0 1 
156 25 955 0 0 0 1 1 0 1 1 0 1 0 1 0 1 1 0 1 1 0 1 1 1 1 1 1 
157 25 944 1 1 0 0 1 0 1 1 0 0 0 1 1 1 1 1 0 1 1 0 1 1 0 0 0 
158 25 832 1 1 0 0 1 1 1 1 0 1 0 1 1 0 0 1 1 1 0 1 1 1 1 0 1 
159 25 1034 1 1 0 1 0 1 1 0 0 1 1 1 0 1 1 1 1 1 1 0 1 1 0 0 0 
160 25 1117 1 0 0 1 1 1 1 1 0 1 1 1 0 1 1 0 1 1 1 0 0 0 0 0 1 
161 25 872 1 0 0 1 0 1 1 1 0 1 1 1 1 0 1 0 0 1 0 1 0 1 1 1 1 
162 25 1043 1 1 0 0 1 0 0 0 1 0 1 1 1 0 0 0 0 1 1 1 1 1 1 1 1 
163 25 1085 1 1 1 0 1 1 0 1 0 0 1 0 1 1 0 1 1 0 1 0 0 1 1 1 1 
164 25 1007 0 1 1 0 1 0 1 1 1 0 1 0 1 0 1 0 1 1 1 1 1 1 1 0 1 
165 25 1059 1 0 0 1 0 0 0 1 0 0 1 0 1 1 1 1 1 1 1 0 1 1 1 1 1 
166 25 1149 0 1 1 0 1 1 1 0 1 1 1 0 0 1 0 1 0 1 0 1 1 1 0 1 1 
167 25 966 0 0 0 1 1 1 1 0 0 1 1 1 1 0 1 1 1 0 1 0 1 1 1 0 1 
168 25 1053 1 1 1 0 1 0 1 0 0 1 1 1 1 1 0 1 1 1 0 0 1 1 1 0 0 
169 25 945 1 1 0 1 1 1 0 1 0 0 1 1 0 1 1 1 0 1 0 1 0 1 0 1 1 
170 25 1257 1 0 1 1 0 0 0 0 1 1 1 1 1 1 0 1 1 1 1 1 1 0 1 0 1 
171 25 1079 0 0 1 1 1 1 0 1 1 0 0 1 1 1 1 1 1 0 1 0 1 1 1 1 1 
172 25 1020 1 0 1 0 0 0 1 1 0 1 1 0 0 1 0 1 1 1 1 0 0 1 1 1 1 
173 25 984 1 0 1 1 1 0 1 0 0 1 1 1 1 1 1 0 0 0 0 0 1 0 1 1 1 
174 25 1032 1 1 0 0 1 0 1 0 1 0 1 1 1 1 0 0 1 1 1 0 1 1 1 1 1 
175 25 1100 0 1 1 1 1 1 1 0 1 1 1 1 1 0 1 0 1 1 0 1 1 0 0 0 1 
176 25 994 1 1 1 1 1 1 0 1 0 1 1 1 0 0 1 1 0 1 0 1 0 1 0 1 1 
177 25 941 0 0 1 1 0 1 0 0 1 0 1 0 0 1 1 1 1 1 1 1 1 1 0 1 0 
178 25 871 1 1 1 0 1 1 1 1 1 0 1 1 0 0 1 1 1 0 0 0 0 0 1 0 0 
179 25 1155 1 0 1 1 1 0 0 1 0 0 1 1 1 1 1 0 1 1 0 0 1 1 1 1 1 
180 25 923 0 0 1 1 1 0 0 0 1 1 1 1 1 1 0 0 0 0 0 1 1 1 0 0 0 
181 25 1080 1 1 1 0 1 0 0 1 1 1 1 1 1 1 1 0 0 1 1 0 1 0 0 1 0 
182 25 927 0 1 1 1 1 1 0 1 1 1 0 0 0 0 1 0 1 1 1 1 1 1 1 1 0 
183 25 780 0 0 1 0 0 0 1 1 1 0 1 0 1 1 0 1 0 1 0 1 1 1 0 1 1 
184 25 1081 1 1 0 0 0 0 0 1 1 1 1 1 1 0 1 1 1 0 0 0 1 0 1 1 1 
185 25 1088 0 0 1 1 0 0 1 1 1 1 0 0 1 0 1 1 0 1 0 1 1 1 1 1 0 
186 25 1069 0 1 1 1 1 0 1 1 0 1 1 1 1 0 1 1 1 0 0 0 0 1 0 1 0 
187 25 922 0 1 1 1 0 1 0 1 1 1 1 0 0 1 0 1 0 1 1 0 1 0 1 1 1 
188 25 1021 0 1 1 1 1 1 0 1 0 0 1 1 1 1 0 0 1 1 1 1 0 0 1 1 0 
189 25 1034 1 1 0 0 0 1 1 1 1 1 1 1 1 0 0 0 1 1 1 1 1 0 1 0 0 
190 25 1115 1 0 0 0 0 1 0 1 1 0 1 1 1 1 1 1 0 1 1 1 1 1 1 0 1 
191 25 1092 1 0 1 1 0 0 1 0 0 1 0 1 0 1 1 0 1 1 1 1 0 1 1 1 1 
192 25 984 1 1 1 1 0 1 0 1 1 1 0 0 1 0 1 0 1 0 0 0 0 1 1 0 0 
193 25 961 0 1 0 1 1 1 0 1 1 0 1 1 0 0 1 1 0 1 0 1 0 0 0 1 1 
194 25 1151 0 1 1 1 1 1 1 0 0 0 1 1 1 0 1 1 0 0 1 1 1 1 1 1 1 
195 25 774 0 0 1 1 1 0 0 0 1 0 1 0 1 1 1 1 1 0 0 1 1 1 1 0 1 
196 25 935 1 1 1 1 0 1 1 0 0 1 1 1 0 0 1 0 0 1 1 1 1 1 1 1 1 
197 25 1081 0 0 0 1 1 1 0 0 1 1 0 1 0 1 1 1 1 1 1 1 0 1 1 0 1 
198 25 1171 1 1 0 1 1 0 0 1 1 0 1 0 1 1 1 1 1 1 0 0 1 1 1 1 0 
199 25 1015 1 0 0 1 1 0 0 0 0 1 0 1 1 1 0 1 1 0 1 1 1 1 0 1 0 
200 25 917 0 1 0 1 1 0 1 1 0 0 0 0 1 1 1 0 1 1 1 1 1 0 1 0 1 
201 25 972 1 1 1 1 1 1 1 0 0 0 0 0 0 0 1 1 1 1 0 1 1 0 0 1 1 
202 25 906 1 1 1 1 1 0 1 0 0 0 0 1 1 0 1 1 1 1 0 0 1 0 0 1 1 
203 25 1060 1 1 0 0 1 1 1 1 1 1 0 0 0 1 1 0 0 1 1 1 1 1 1 0 1 
204 25 1026 1 0 1 0 1 0 0 1 0 1 1 0 0 0 0 1 1 1 1 0 1 1 1 1 1 
205 25 1002 0 0 1 1 1 1 1 1 0 1 0 0 0 1 1 0 1 1 1 1 0 0 0 1 1 
206 25 959 1 1 1 1 0 1 1 0 0 1 0 0 0 1 1 0 1 1 1 0 1 0 1 0 1 
207 25 818 1 1 1 1 0 1 1 1 1 1 0 1 0 1 1 0 1 0 0 1 1 1 0 0 1 
208 25 761 1 0 1 0 1 1 1 0 1 0 0 0 1 0 1 1 1 1 0 1 0 1 0 1 1 
209 25 1071 1 0 1 1 1 1 1 1 0 1 0 1 1 1 1 0 0 0 0 0 0 0 1 1 0 
210 25 886 1 1 0 1 0 0 0 1 0 0 1 1 0 0 1 0 1 1 1 1 1 1 0 0 1 
211 25 1019 0 1 1 0 1 1 1 1 1 1 1 0 0 0 1 0 1 0 1 1 1 1 0 1 0 
212 25 897 1 1 1 1 1 0 1 1 1 0 1 0 1 0 0 0 1 1 1 0 1 0 0 1 0 
213 25 1044 1 1 0 1 0 0 1 1 0 0 1 0 1 1 1 1 1 1 0 0 1 1 1 0 0 
214 25 1072 0 0 1 1 0 0 0 1 0 0 0 1 1 1 1 1 1 0 1 1 1 0 1 1 1 
215 25 1093 1 1 1 1 1 1 1 1 1 0 1 0 0 0 1 1 0 1 1 0 1 1 0 1 1 
216 25 908 0 1 1 0 1 1 1 0 0 1 0 0 1 1 1 0 0 0 1 0 1 1 0 1 1 
217 25 1088 1 0 1 0 1 1 1 1 0 0 1 1 1 0 1 1 1 0 1 0 0 0 0 1 1 
218 25 926 0 0 1 1 1 0 0 1 0 0 1 0 0 1 1 0 0 0 1 1 1 1 0 1 1 
219 25 1058 0 1 1 1 0 1 0 1 0 0 0 1 1 0 0 0 0 0 1 1 1 1 1 1 1 
220 25 961 1 1 0 0 1 0 0 0 0 1 1 0 0 1 1 1 1 1 1 1 1 0 1 0 1 
221 25 1110 1 1 0 1 1 0 1 1 0 1 1 1 1 1 1 1 0 0 1 1 0 0 0 1 1 
222 25 1041 0 0 1 1 1 1 1 1 1 0 1 1 0 0 1 1 0 1 1 0 1 0 1 1 0 
223 25 988 1 0 1 1 0 0 1 1 0 1 1 0 0 0 1 1 0 1 0 0 0 1 1 1 1 
224 25 871 0 1 0 0 1 0 1 1 1 0 1 0 1 1 1 1 1 1 1 0 1 1 1 1 0 
225 25 910 0 1 0 0 1 1 1 1 0 1 1 1 0 0 1 1 0 1 0 0 1 0 0 1 0 
226 25 905 1 1 0 1 1 1 1 0 1 0 0 1 0 0 1 1 0 1 1 1 1 0 0 0 1 
227 25 940 0 1 0 1 0 0 1 1 1 0 1 1 1 1 1 1 0 1 1 0 1 0 0 1 1 
228 25 1019 1 0 1 1 1 0 0 0 1 1 0 0 1 1 1 1 0 0 1 0 1 1 1 1 0 
229 25 1067 0 1 1 1 0 0 1 1 0 1 0 1 1 1 1 0 1 1 1 1 0 1 0 1 0 
230 25 1093 0 0 1 0 1 1 1 1 0 0 1 1 1 1 1 1 1 1 0 1 0 1 1 0 1 
231 25 1165 1 1 1 1 1 0 1 0 1 1 1 1 0 1 1 1 1 1 0 1 0 1 0 1 0 
232 25 871 1 0 1 0 1 0 1 0 0 1 1 1 0 0 1 0 0 1 1 1 1 0 1 1 1 
233 25 1074 1 1 0 1 1 1 1 0 0 0 1 0 1 0 0 1 1 1 0 1 0 1 1 0 0 
234 25 1009 1 1 0 1 1 0 1 1 1 1 1 1 1 0 1 1 1 0 0 1 0 1 1 0 0 
235 25 870 1 0 1 0 1 1 1 1 1 0 0 1 0 0 1 1 1 0 1 0 0 1 0 1 1 
236 25 1037 1 1 0 1 0 1 1 0 1 1 1 0 1 0 0 1 1 0 1 0 1 1 1 1 1 
237 25 1071 1 1 0 1 1 1 1 0 0 0 1 1 0 1 1 1 0 0 1 1 1 0 1 0 1 
238 25 1095 1 1 1 1 0 1 0 0 0 0 1 1 1 1 1 1 1 1 0 0 1 0 0 0 1 
239 25 1031 0 1 0 1 0 1 1 0 0 1 1 1 1 1 1 0 1 1 0 1 1 0 1 1 0 
240 25 981 1 1 1 0 0 1 1 1 1 1 1 0 0 1 1 0 1 1 1 0 1 1 0 0 0 
241 25 908 0 0 1 1 1 1 1 0 0 1 1 0 1 0 1 0 1 1 0 0 1 1 1 1 1 
242 25 772 1 0 1 0 1 1 1 0 1 1 1 0 1 1 1 0 1 0 0 0 1 0 1 0 0 
243 25 860 1 0 0 1 1 1 1 1 1 0 1 0 1 1 1 0 1 1 0 0 0 1 0 1 1 
244 25 1124 1 0 0 1 1 1 1 1 1 0 1 1 0 1 1 1 0 1 0 0 0 1 1 1 0 
245 25 1035 1 1 1 0 1 1 0 1 1 1 0 0 1 1 0 1 1 1 0 1 1 0 0 1 0 
246 25 1058 1 0 1 1 1 1 0 1 1 1 1 0 0 1 0 0 1 1 0 0 0 1 0 1 0 
247 25 902 0 0 1 1 1 0 1 1 0 0 0 0 1 1 1 1 0 1 1 1 0 1 1 1 0 
248 25 1087 0 1 0 1 0 1 1 1 1 1 0 0 1 1 0 0 0 0 1 1 1 0 1 1 1 
249 25 902 0 1 1 1 0 1 1 1 0 1 0 1 1 1 1 1 0 1 0 1 0 1 1 0 1 
250 25 1170 1 1 1 1 1 0 0 1 1 1 1 1 1 0 0 1 0 1 0 1 1 1 1 0 1 
251 25 1107 0 0 1 1 1 1 1 1 1 1 1 1 1 0 0 1 0 1 1 0 1 0 1 1 1 
252 25 946 0 1 1 0 1 0 0 0 1 0 1 0 1 1 1 1 0 1 1 0 0 1 1 0 1 
253 25 936 0 1 1 0 0 0 0 0 1 1 0 1 1 1 1 1 0 1 1 1 1 1 0 1 1 
254 25 1056 0 1 1 1 1 1 1 1 1 0 1 0 1 1 0 0 0 1 0 1 0 1 1 1 0 
255 25 999 1 0 1 0 1 0 1 1 1 1 0 1 1 0 0 1 0 1 0 1 1 1 1 1 0 
256 25 1015 0 1 1 1 0 0 1 1 1 1 0 0 0 0 1 1 1 1 1 0 1 1 1 0 1 
257 25 971 1 1 0 1 1 1 0 1 1 1 1 0 0 1 1 0 0 1 1 0 0 1 1 0 1 
258 25 959 1 1 1 0 1 1 1 0 1 1 0 0 0 1 0 1 1 1 0 1 1 1 0 0 0 
259 25 1147 1 0 0 1 0 1 1 1 1 1 1 1 0 0 1 1 1 1 0 0 0 1 0 1 1 
260 25 904 0 0 0 0 1 1 0 0 1 1 1 0 1 1 1 0 1 1 0 1 1 1 0 1 1 
261 25 830 1 1 0 1 0 0 0 1 0 1 0 1 0 1 1 1 1 1 1 1 0 0 0 0 0 
262 25 1053 1 0 1 1 1 0 1 1 1 1 1 1 0 1 1 1 1 1 0 0 1 0 0 1 0 
263 25 1180 1 1 0 1 1 0 0 1 0 1 1 1 1 1 1 0 0 1 1 0 1 0 1 1 1 
264 25 985 1 1 1 1 1 1 0 1 0 1 1 0 1 0 0 0 0 1 1 0 0 1 1 0 0 
265 25 950 1 1 0 0 1 1 1 0 1 0 1 1 1 0 1 1 1 1 0 1 0 1 0 0 0 
266 25 1052 1 0 0 1 1 1 1 1 0 1 0 0 0 1 1 1 1 1 0 1 0 1 1 0 0 
267 25 952 1 0 1 1 1 1 0 1 1 0 1 1 1 1 1 1 0 1 0 1 1 1 0 0 0 
268 25 1031 1 0 1 1 1 1 0 1 0 1 0 0 1 0 1 1 0 1 1 1 1 1 0 0 1 
269 25 1131 1 0 1 0 1 1 1 1 1 1 1 1 1 0 0 1 1 1 1 1 0 1 0 0 0 
270 25 1081 0 1 0 1 0 0 1 0 1 1 0 1 0 1 1 0 1 1 0 1 1 0 1 1 1 
271 25 1064 1 1 1 1 0 0 1 1 0 0 1 1 0 1 1 1 0 1 0 0 1 0 1 1 1 
272 25 846 1 1 0 0 1 1 1 1 1 0 1 1 1 0 1 0 0 1 0 0 1 1 0 0 1 
273 25 1097 1 1 0 1 0 1 1 1 1 0 1 1 0 0 0 1 1 1 1 1 1 1 0 0 0 
274 25 1130 0 1 1 0 1 0 1 1 0 0 1 0 1 1 1 1 1 0 0 0 0 1 1 1 0 
275 25 968 1 1 1 0 0 1 1 1 1 1 1 0 1 0 1 1 1 0 0 0 1 0 0 1 1 
276 25 1127 1 1 0 1 0 1 1 1 1 1 0 0 0 1 1 1 1 0 1 1 1 0 0 1 0 
277 25 906 1 1 1 1 1 1 1 1 1 0 0 0 1 0 1 0 1 0 0 1 1 1 0 1 0 
278 25 1075 0 1 1 1 1 1 0 1 0 1 0 1 0 1 0 0 1 0 0 1 0 0 1 1 1 
279 25 763 1 0 0 1 1 1 1 1 1 0 1 1 1 0 0 0 0 1 1 1 0 1 0 1 1 
280 25 905 1 0 0 1 1 1 1 0 1 1 0 1 0 1 1 1 1 0 0 0 1 0 1 0 0 
281 25 1030 1 0 1 1 1 0 1 1 0 0 1 1 1 1 1 0 1 0 0 0 1 1 0 1 1 
282 25 1003 1 1 0 1 1 0 0 1 0 1 1 1 1 1 0 1 1 0 0 0 1 1 0 1 1 
283 25 1022 1 1 0 0 1 1 1 1 0 0 0 0 0 1 0 1 1 1 1 1 1 1 0 0 1 
284 25 967 1 1 1 0 1 1 1 0 1 1 0 1 0 1 0 0 0 1 0 0 1 1 1 0 1 
285 25 1009 1 1 0 1 1 0 1 1 0 0 1 1 0 0 0 0 1 1 1 0 1 1 0 1 1 
286 25 861 1 1 0 0 1 1 0 0 0 1 1 0 1 1 0 0 0 1 0 1 1 1 1 1 1 
287 25 1014 1 1 0 1 0 1 1 1 1 1 0 0 0 1 1 0 0 1 0 1 1 1 0 1 1 
288 25 1042 1 1 1 1 1 0 1 1 1 1 1 0 0 1 1 0 0 1 1 1 1 1 0 0 0 
289 25 1091 1 1 1 1 1 1 1 0 0 0 0 1 1 1 0 1 1 0 1 0 1 0 0 1 1 
290 25 1084 0 1 0 1 1 1 1 0 1 1 0 0 1 1 0 1 1 1 0 1 1 0 1 1 0 
291 25 1000 0 1 0 0 0 1 1 0 0 1 1 1 1 1 1 1 0 1 0 1 0 0 1 1 1 
292 25 1064 1 1 1 1 0 0 1 0 1 0 1 1 1 1 1 0 1 1 1 1 0 0 0 1 0 
293 25 1020 1 1 1 1 0 1 0 1 1 1 1 1 1 1 1 0 1 1 1 0 0 0 0 1 0 
294 25 1097 0 1 1 1 1 0 1 0 1 1 0 1 1 1 0 1 1 1 1 0 0 0 1 0 1 
295 25 932 0 0 1 1 1 0 1 0 1 1 0 1 1 1 0 0 0 1 1 1 0 1 1 1 1 
296 25 949 1 1 0 1 1 1 0 1 0 0 0 1 1 0 0 1 1 1 0 1 1 1 0 1 0 
297 25 874 0 1 1 1 1 1 0 0 1 1 0 0 1 1 0 0 1 1 1 0 1 0 1 1 0 
298 25 840 1 0 1 1 1 0 1 1 1 0 0 0 0 0 1 1 0 1 1 0 0 1 1 1 1 
299 25 814 1 0 0 0 1 0 1 1 1 0 1 1 1 0 0 0 1 0 1 1 0 1 1 1 1 
300 25 879 1 1 1 1 0 0 1 1 1 1 1 1 1 1 0 1 1 0 0 1 0 0 0 1 1 
301 25 933 0 1 1 1 0 1 0 0 1 1 0 0 0 1 0 1 1 1 0 1 0 1 1 1 0 
302 25 935 1 0 1 0 1 1 0 0 1 1 1 1 1 0 0 1 1 0 1 0 0 1 0 1 1 
303 25 1125 1 1 1 0 1 1 1 1 1 1 1 1 0 1 0 0 0 0 0 0 1 1 0 0 1 
304 25 1125 0 1 1 0 0 1 1 0 1 1 1 1 0 1 1 0 1 0 1 1 1 1 0 0 0 
305 25 844 0 1 0 0 0 0 0 1 1 1 1 1 0 1 0 1 0 1 1 0 1 1 1 1 1 
306 25 915 0 1 1 1 0 0 1 1 1 0 0 1 1 1 1 0 0 1 1 1 0 1 0 1 0 
307 25 902 0 0 1 1 1 1 1 1 1 1 0 0 0 0 0 0 0 1 0 1 1 1 1 1 0 
308 25 916 1 1 0 1 0 1 0 1 1 1 1 1 0 0 0 1 1 1 1 1 1 1 1 1 0 
309 25 1034 1 1 1 0 0 1 1 0 0 0 0 0 0 1 1 0 1 1 1 1 1 0 1 0 1 
310 25 931 0 1 0 1 1 0 1 1 0 1 1 1 0 0 1 0 0 1 0 1 1 1 1 1 1 
311 25 1026 1 1 1 1 0 1 1 0 1 1 1 0 1 0 0 1 1 0 0 1 1 0 0 1 0 
312 25 1055 1 0 0 1 1 1 1 0 1 0 1 1 1 1 1 0 0 1 1 1 1 1 0 0 0 
313 25 1031 1 0 1 0 0 1 1 0 1 1 1 0 1 1 0 1 1 1 1 0 1 0 1 0 0 
314 25 1173 1 0 1 1 1 0 0 1 1 1 1 0 0 0 1 0 1 1 1 0 1 1 0 0 1 
315 25 821 0 0 1 0 1 0 1 1 1 1 0 1 1 0 1 0 1 0 1 0 0 1 0 1 1 
316 25 1071 1 1 0 0 1 1 0 0 1 0 0 1 1 0 0 1 0 1 1 1 0 1 0 1 1 
317 25 1091 1 0 1 1 0 1 1 1 1 1 0 0 1 0 0 1 1 0 1 1 0 1 0 1 1 
318 25 1221 1 1 1 0 1 1 1 1 0 0 1 1 0 1 1 1 0 0 1 1 1 1 0 1 1 
319 25 1027 1 0 0 1 1 1 0 0 1 1 0 1 1 0 0 1 1 1 1 1 1 1 0 1 0 
320 25 1079 1 0 1 1 0 0 0 1 1 1 0 1 1 1 1 1 1 1 1 1 0 0 1 1 1 
321 25 887 0 0 0 1 1 1 0 1 0 1 0 1 1 1 1 1 0 1 1 1 0 0 1 0 1 
322 25 857 0 1 0 0 0 1 1 1 1 1 1 1 1 1 0 0 0 1 1 1 0 1 1 0 1 
323 25 1013 0 1 1 1 1 0 0 1 0 1 1 1 0 1 1 1 0 1 1 1 0 1 1 0 1 
324 25 863 1 1 0 1 0 1 0 0 1 1 0 0 1 1 0 0 1 1 1 1 0 1 0 1 1 
325 25 1096 1 0 0 0 1 1 0 1 1 0 0 1 1 1 1 0 1 1 0 1 1 0 1 1 0 
326 25 883 1 0 0 0 1 0 0 1 1 1 1 1 1 1 0 1 1 0 1 0 1 1 1 1 0 
327 25 986 1 0 0 1 1 1 0 0 1 1 0 0 1 1 1 1 1 1 1 0 1 0 0 1 0 
328 25 971 0 0 1 1 1 1 1 0 1 0 0 1 1 0 1 1 1 1 1 0 1 0 1 1 0 
329 25 1015 0 0 0 1 1 0 1 0 1 0 1 0 1 1 1 1 1 0 1 1 1 1 0 1 1 
330 25 933 1 1 1 0 0 1 0 1 1 0 1 1 0 1 1 0 1 0 1 1 1 1 0 0 1 
331 25 1163 1 0 0 0 0 1 0 0 1 1 1 0 1 1 1 1 1 0 1 1 1 0 0 1 1 
332 25 1123 1 0 0 1 1 0 1 0 1 1 0 1 1 1 0 1 0 1 1 0 1 1 0 1 1 
333 25 983 1 0 0 1 1 0 0 1 0 0 1 1 0 1 0 1 1 1 1 0 0 1 1 0 1 
334 25 1015 0 1 0 0 1 1 0 1 1 1 1 1 1 1 0 0 1 0 0 1 1 1 0 1 1 
335 25 951 1 1 1 1 0 0 1 0 0 0 1 1 0 0 1 1 0 1 1 1 1 1 1 1 0 
336 25 830 0 0 1 0 1 1 1 1 0 1 0 1 1 0 1 1 1 0 1 0 1 0 0 1 1 
337 25 1091 1 0 1 0 0 0 0 0 0 1 1 1 1 0 1 0 1 0 0 1 1 1 1 1 1 
338 25 826 1 1 0 1 0 0 0 0 1 0 1 1 0 0 0 1 1 1 0 1 1 1 1 0 1 
339 25 790 1 0 0 1 1 1 1 1 1 0 1 1 0 1 1 0 1 0 1 0 1 1 0 0 1 
340 25 918 1 1 0 1 1 0 1 1 0 0 1 1 1 0 1 1 0 0 1 0 0 1 0 1 1 
341 25 1079 0 0 1 1 0 1 1 1 0 0 1 1 1 1 1 0 0 1 0 0 1 1 1 0 1 
342 25 1030 1 1 1 0 0 1 1 0 1 1 1 0 1 1 0 1 1 0 1 1 1 0 1 0 1 
343 25 997 1 1 1 1 1 1 0 1 0 1 1 0 1 0 1 0 1 0 1 0 0 1 0 1 1 
344 25 1004 0 1 1 1 1 0 1 0 1 0 0 1 0 0 0 1 1 1 1 1 1 1 0 1 1 
345 25 980 1 1 1 0 1 1 1 1 0 1 0 1 1 0 1 1 1 0 1 0 1 1 0 0 0 
346 25 1197 1 0 1 0 1 1 0 1 0 1 1 0 1 1 1 0 1 1 0 0 1 1 1 1 0 
347 25 946 1 1 1 0 1 0 1 1 1 1 0 1 0 0 1 0 1 0 0 1 1 0 1 0 1 
348 25 950 0 0 1 0 1 0 0 1 1 0 1 1 0 1 1 1 0 1 0 1 0 1 1 1 1 
349 25 1015 1 1 1 1 1 1 1 1 1 1 0 0 1 0 1 0 1 0 1 0 0 1 1 0 0 
350 25 735 1 0 0 1 1 0 1 0 1 1 0 1 1 0 1 1 1 1 1 0 0 1 0 1 0 
351 25 947 0 1 0 1 0 1 0 1 0 1 0 1 1 1 1 1 1 1 0 0 0 0 1 1 0 
352 25 1036 0 1 1 0 1 1 0 1 1 1 1 1 0 1 0 1 1 1 0 0 0 1 1 0 1 
353 25 884 0 1 1 1 1 0 0 0 1 1 1 1 0 1 1 0 1 1 1 0 0 1 0 1 1 
354 25 1062 1 0 0 1 1 0 1 1 1 1 1 1 1 1 1 1 0 1 0 0 1 0 0 0 1 
355 25 1028 1 0 0 1 1 1 0 0 1 0 0 1 1 1 1 0 1 0 1 0 1 1 0 1 1 
356 25 906 1 0 0 0 1 1 1 0 1 1 0 1 1 1 0 0 1 1 1 0 1 1 0 1 0 
357 25 1004 1 1 1 1 0 0 1 1 1 0 0 0 0 1 1 0 1 0 1 1 0 1 0 1 1 
358 25 899 1 1 0 1 0 1 1 1 1 1 1 0 1 0 1 0 1 1 1 1 1 1 1 0 1 
359 25 1071 1 1 0 1 0 1 1 0 1 1 1 0 1 1 1 0 1 0 1 0 0 1 0 0 1 
360 25 927 0 1 1 1 0 1 1 1 1 0 0 0 1 1 1 0 1 0 0 1 1 0 1 0 0 
361 25 894 1 0 1 1 1 0 0 1 0 1 1 1 1 1 0 1 0 0 1 0 0 0 1 1 1 
362 25 903 1 1 0 1 1 0 1 1 0 1 0 1 0 1 1 1 0 0 0 1 0 1 0 1 0 
363 25 994 1 1 1 1 0 1 0 0 1 1 1 0 0 1 1 0 0 0 1 0 1 0 1 0 1 
364 25 1061 0 1 1 1 0 1 0 0 0 1 1 1 1 0 0 1 1 1 1 1 0 1 1 1 0 
365 25 1188 0 1 1 1 1 1 1 0 1 0 1 1 1 0 1 1 1 0 0 0 1 1 1 0 1 
366 25 1013 1 0 0 1 1 1 0 1 1 1 1 0 0 0 1 0 1 1 0 0 1 1 0 0 1 
367 25 1018 0 0 1 1 0 0 1 1 1 1 0 0 1 0 1 1 1 1 0 1 1 0 1 0 1 
368 25 937 0 1 0 1 1 0 1 0 1 1 0 1 1 1 1 0 0 1 0 0 0 1 1 1 0 
369 25 924 1 1 1 1 0 1 0 1 0 0 1 1 1 1 1 1 0 1 1 1 0 1 0 0 1 
370 25 1097 1 0 1 1 0 0 0 1 1 0 1 1 1 1 1 0 0 1 0 1 1 0 1 1 1 
371 25 996 1 0 1 1 1 1 1 0 1 0 0 1 0 1 0 1 1 1 1 1 0 0 1 1 0 
372 25 1003 1 1 0 0 1 1 1 1 1 0 0 1 1 1 1 1 1 0 0 1 0 1 0 0 0 
373 25 1132 1 1 1 1 0 1 1 0 1 1 0 0 0 1 1 0 0 0 0 1 0 1 1 1 1 
374 25 905 1 0 1 1 0 0 1 1 1 1 1 1 1 0 0 0 1 1 1 0 1 0 0 1 1 
375 25 942 0 1 0 1 0 1 1 0 1 1 1 1 1 1 1 0 0 1 0 1 1 1 1 0 0 
376 25 1084 1 0 1 1 1 1 0 1 0 1 1 1 0 1 0 0 1 1 1 1 1 0 1 0 0 
377 25 1094 1 0 1 0 0 1 1 1 1 1 0 0 1 1 0 1 1 0 0 1 1 1 0 1 1 
378 25 1127 1 0 1 1 1 0 0 1 0 1 0 0 1 1 1 0 1 1 1 1 0 1 1 1 1 
379 25 1062 0 1 0 0 0 1 1 1 1 1 0 0 1 1 0 1 1 0 1 1 1 1 0 1 1 
380 25 1027 1 1 0 0 1 1 0 1 1 0 1 0 0 1 0 1 0 1 1 1 1 1 0 1 1 
381 25 873 0 0 0 0 1 1 0 0 0 1 1 1 1 0 0 1 1 0 1 1 1 1 1 1 1 
382 25 932 0 0 1 0 1 0 1 0 0 1 1 1 0 1 1 1 1 1 0 1 0 1 1 1 1 
383 25 1029 0 1 0 1 1 1 1 0 0 0 1 1 1 1 1 1 0 0 1 0 1 0 0 1 1 
384 25 1099 1 1 1 1 1 1 1 0 0 1 1 1 0 1 1 0 0 1 1 0 0 1 1 1 0 
385 25 959 1 1 1 0 1 1 0 1 0 0 0 1 0 1 1 1 1 0 0 1 1 0 1 1 0 
386 25 1120 0 1 0 1 1 1 0 1 0 0 1 1 1 0 1 1 1 1 0 0 1 0 0 1 1 
387 25 861 0 0 1 1 1 1 0 0 0 1 1 1 1 0 0 0 1 1 0 0 0 1 1 1 1 
388 25 988 1 1 1 0 1 1 1 0 0 0 0 1 1 1 0 0 1 1 1 1 1 1 1 0 1 
389 25 1007 0 1 0 1 1 1 1 0 1 1 1 0 1 0 1 0 1 1 0 1 0 1 1 1 0 
390 25 936 0 0 1 1 0 0 1 1 0 1 1 0 1 1 0 1 0 0 0 1 1 0 1 1 1 
391 25 1197 1 1 0 1 1 1 1 1 0 0 0 0 1 1 1 1 1 1 1 0 1 1 0 0 1 
392 25 952 1 0 1 1 0 1 1 0 1 1 0 0 1 1 0 1 1 0 0 1 1 0 1 1 1 
393 25 951 0 1 1 1 0 1 0 1 0 1 1 1 1 1 1 0 1 0 0 1 1 1 0 1 1 
394 25 1055 1 0 0 1 0 0 0 1 1 0 1 1 0 1 1 0 1 1 1 1 1 0 1 1 1 
395 25 927 0 0 0 0 1 0 1 1 1 1 1 1 0 0 1 1 1 1 1 1 1 0 1 0 1 
396 25 1096 0 1 0 0 1 1 1 0 1 1 1 0 1 1 0 0 0 1 1 1 1 1 1 1 0 
397 25 853 1 1 1 1 1 0 1 0 1 0 0 0 1 0 1 0 1 1 1 1 0 1 1 1 0 
398 25 885 0 1 1 1 0 0 1 0 1 1 1 0 1 1 1 0 0 1 1 0 1 1 1 0 0 
399 25 956 1 1 1 1 1 1 1 1 0 1 1 0 0 0 1 0 1 0 1 0 0 1 0 1 0 
400 25 859 0 1 1 0 0 1 1 0 0 0 1 1 0 0 1 1 1 1 1 1 1 0 1 0 0 
401 25 1002 1 1 1 1 1 0 1 1 0 0 1 1 0 0 1 0 0 1 0 1 1 0 1 1 0 
402 25 1014 0 0 0 0 1 0 1 0 1 1 1 1 1 1 0 1 0 0 0 1 1 0 1 1 0 
403 25 989 1 1 0 0 1 1 0 0 0 0 1 1 0 1 0 1 0 1 1 0 1 0 1 0 1 
404 25 874 0 1 1 0 0 1 1 1 1 1 1 1 1 1 0 1 0 1 0 1 1 0 0 1 0 
405 25 1068 0 1 1 0 1 0 1 0 0 1 0 1 0 1 0 1 1 1 1 1 1 1 1 1 1 
406 25 1096 0 1 1 1 0 0 1 1 0 1 1 0 1 0 1 1 1 1 1 1 1 0 0 0 1 
407 25 937 1 0 1 0 0 1 0 1 1 1 0 0 0 1 0 1 0 1 1 1 0 1 0 1 1 
408 25 1043 1 1 0 0 1 0 1 0 1 0 0 0 0 1 1 1 1 1 0 1 1 1 1 0 0 
409 25 937 0 0 1 1 1 1 1 0 1 1 1 0 1 1 0 0 1 0 0 0 1 1 1 1 1 
410 25 872 1 0 1 1 1 1 0 1 1 1 0 1 0 0 1 0 0 0 0 1 1 1 1 1 0 
411 25 1014 0 0 1 0 0 1 1 1 0 1 1 0 1 1 1 1 1 1 1 1 1 1 0 1 0 
412 25 913 1 0 0 0 1 0 1 0 0 1 1 1 1 0 1 1 1 0 0 1 1 1 1 1 1 
413 25 1056 1 1 0 0 0 1 0 0 1 1 0 1 1 0 1 1 1 1 1 1 0 1 0 0 1 
414 25 906 0 1 1 1 0 1 0 1 1 1 0 1 1 1 0 0 1 0 1 1 0 0 1 0 1 
415 25 998 1 1 1 0 1 1 0 1 0 0 1 1 1 1 0 0 0 0 1 0 0 1 1 1 1 
416 25 993 0 0 0 1 0 1 1 1 1 1 1 1 0 1 1 1 0 1 1 0 0 0 0 0 1 
417 25 888 0 1 1 1 1 1 0 0 1 1 1 0 1 1 1 0 1 0 0 0 1 0 0 0 1 
418 25 741 1 1 1 0 1 1 1 0 0 1 1 0 1 1 1 1 1 1 0 0 1 0 0 1 1 
419 25 1039 1 1 1 1 0 1 0 1 1 0 0 0 1 0 0 1 1 1 0 0 1 0 1 1 1 
420 25 894 0 0 1 1 0 0 1 1 1 0 1 1 0 0 1 1 1 0 1 1 0 0 1 1 1 
421 25 1012 0 0 1 1 0 0 1 0 0 0 1 1 0 1 1 1 1 1 0 1 1 0 1 1 1 
422 25 1133 0 1 0 1 1 0 1 0 1 1 0 0 1 1 0 0 1 0 1 1 1 0 0 1 1 
423 25 1032 1 1 1 0 0 0 1 1 1 1 1 1 0 0 0 1 1 1 1 0 1 1 1 0 0 
424 25 1028 1 0 1 1 1 0 0 1 0 1 1 0 0 1 1 0 0 1 1 0 1 1 1 1 1 
425 25 1205 1 1 0 1 1 1 1 0 0 0 1 0 1 0 0 1 1 0 1 1 1 0 1 1 1 
426 25 894 1 1 0 0 1 1 0 1 1 1 0 1 1 1 0 0 1 1 1 0 1 0 0 1 1 
427 25 1061 1 0 1 0 1 1 1 1 1 1 0 1 0 1 0 0 0 1 1 1 1 0 1 1 1 
428 25 962 0 1 1 1 1 1 0 1 1 1 1 0 0 1 1 0 1 1 0 0 0 1 0 0 1 
429 25 1126 1 1 0 1 1 0 1 1 1 0 1 1 0 0 1 0 1 1 1 1 0 1 0 0 1 
430 25 890 1 1 1 1 0 1 0 1 1 1 0 1 0 1 0 1 0 0 1 0 0 1 1 0 1 
431 25 1007 0 1 1 0 0 1 0 1 0 1 1 1 0 0 1 1 1 1 1 1 1 0 0 1 1 
432 25 1113 1 1 1 0 0 0 0 1 0 0 1 1 1 1 1 1 0 1 0 1 1 1 1 0 1 
433 25 1014 1 1 1 1 1 1 1 0 0 1 1 1 0 0 1 1 0 0 1 1 1 1 0 0 1 
434 25 1043 1 1 1 0 1 0 1 1 1 1 1 0 0 0 0 0 0 1 1 1 1 1 0 1 1 
435 25 989 0 1 1 1 1 1 1 1 1 1 1 1 0 1 1 0 1 0 1 0 0 0 0 0 0 
436 25 950 0 0 1 0 1 0 1 1 1 1 1 1 1 1 1 0 1 1 0 0 0 1 0 1 1 
437 25 1090 0 1 0 0 1 1 1 1 1 1 1 1 0 1 0 1 1 0 0 1 1 0 0 1 1 
438 25 1037 0 1 1 0 1 1 1 0 0 0 1 0 1 1 1 1 1 0 1 0 0 0 1 1 0 
439 25 974 1 0 0 1 1 1 1 1 1 1 1 0 1 1 1 1 0 0 0 0 0 1 1 0 1 
440 25 1017 0 0 0 1 1 1 1 0 1 0 1 1 1 1 1 1 1 1 1 1 1 0 1 1 0 
441 25 772 1 0 1 1 1 1 1 0 1 1 0 0 0 0 0 1 0 1 0 1 1 0 0 1 0 
442 25 981 0 1 1 1 0 0 1 1 0 1 1 0 1 0 0 1 1 1 1 1 0 1 1 1 1 
443 25 983 1 1 1 0 0 1 1 0 0 0 1 1 0 1 0 1 1 1 1 0 0 1 1 0 1 
444 25 1104 1 1 1 1 1 0 1 0 0 1 0 1 0 1 1 1 0 0 0 1 0 1 0 0 1 
445 25 1022 0 0 0 0 1 1 1 0 1 1 0 0 1 0 1 0 1 0 1 1 1 1 1 0 1 
446 25 1070 1 1 1 1 1 1 1 1 1 0 0 0 0 1 0 0 1 1 0 1 1 0 1 1 0 
447 25 876 0 0 0 0 1 1 0 1 1 1 1 0 1 1 1 0 1 1 1 0 0 1 0 1 1 
448 25 867 0 1 0 0 1 1 1 0 0 1 1 0 1 1 1 1 1 1 0 0 1 1 0 0 1 
449 25 778 0 1 0 1 0 0 1 1 0 1 1 1 1 0 1 0 1 0 1 0 1 1 0 1 1 
450 25 727 1 1 0 0 1 1 0 1 0 0 0 1 1 0 1 1 1 1 1 1 0 0 0 1 0 
451 25 862 0 1 0 1 0 0 0 0 0 1 1 1 1 1 0 0 0 0 1 0 1 1 1 1 1 
452 25 1046 0 1 0 1 1 0 0 1 1 0 1 1 1 1 0 0 1 1 1 0 1 1 0 0 1 
453 25 923 0 1 0 1 1 0 1 0 0 1 0 1 1 0 0 0 1 1 1 1 0 1 1 0 1 
454 25 982 0 0 1 0 1 0 1 1 1 0 0 1 1 0 1 1 1 1 1 0 0 0 1 1 1 
455 25 926 1 1 0 1 1 0 0 0 1 1 1 0 1 0 1 0 1 1 0 0 1 1 1 1 1 
456 25 997 1 0 1 1 1 0 1 1 1 0 1 0 1 0 0 1 0 0 0 1 1 1 1 0 1 
457 25 806 0 1 0 1 1 0 0 1 1 1 1 0 0 1 1 0 0 1 1 1 1 0 0 1 0 
458 25 1211 1 1 0 0 1 0 1 1 1 0 1 1 0 0 1 0 1 1 0 1 1 1 1 1 0 
459 25 1067 1 0 1 0 1 1 1 1 0 0 1 0 1 1 1 1 1 0 1 1 0 1 1 0 1 
460 25 1041 1 1 0 0 1 1 1 1 1 0 1 0 0 0 1 1 1 0 1 1 1 1 1 0 0 
461 25 1070 0 1 1 1 1 1 0 1 1 1 1 0 1 0 1 0 1 1 1 0 0 0 1 1 1 
462 25 1041 1 1 0 0 0 1 0 0 1 1 1 1 1 1 0 1 1 1 0 1 0 1 0 0 1 
463 25 1130 0 0 0 1 1 0 0 1 1 1 1 0 1 1 1 0 0 1 0 1 1 1 1 0 1 
464 25 772 0 1 1 1 0 1 0 1 1 0 1 1 1 0 0 1 1 1 1 0 1 1 1 0 1 
465 25 1030 0 1 1 0 0 1 0 0 0 1 1 1 1 1 0 1 1 1 0 1 1 0 1 1 1 
466 25 1041 1 0 1 1 1 1 0 1 0 1 1 1 1 0 1 0 1 0 0 0 1 0 1 0 1 
467 25 1085 1 1 1 0 1 1 1 1 1 1 1 1 0 1 0 0 0 0 0 1 0 1 1 0 0 
468 25 1226 0 1 0 0 1 1 1 1 1 1 1 1 1 0 0 0 1 1 0 1 1 0 1 1 0 
469 25 844 0 1 1 1 0 0 1 1 0 0 1 1 1 1 1 0 1 0 0 1 1 1 1 0 1 
470 25 1102 1 1 1 0 1 1 1 1 0 1 1 0 0 1 0 1 1 1 1 0 0 1 0 1 0 
471 25 1110 0 0 1 0 1 0 0 1 1 1 0 0 1 0 1 1 1 1 1 0 1 1 1 1 1 
472 25 1013 1 0 1 0 0 0 1 1 1 1 1 1 1 1 0 0 0 1 0 1 0 1 0 1 1 
473 25 864 0 1 1 0 1 1 0 0 0 0 1 1 1 1 0 0 1 1 1 1 0 1 1 1 1 
474 25 1009 1 1 1 0 1 1 1 0 1 1 0 1 0 0 1 0 1 0 1 1 0 1 0 1 1 
475 25 1061 1 1 1 1 1 1 0 1 1 0 0 0 1 0 1 1 1 1 0 1 0 1 1 0 1 
476 25 1012 1 1 1 1 1 1 0 1 0 1 0 1 0 0 1 0 1 0 1 1 1 0 1 0 1 
477 25 931 0 1 0 0 0 1 1 1 0 1 1 0 1 0 1 0 1 0 0 1 0 1 1 1 1 
478 25 989 1 0 1 1 0 1 0 1 1 1 1 1 1 0 1 1 0 1 0 0 0 1 1 1 1 
479 25 854 1 1 0 1 1 0 1 1 1 0 1 1 1 1 1 0 0 0 0 0 0 1 0 1 1 
480 25 764 0 0 1 1 1 0 0 1 0 0 0 1 0 1 0 0 1 1 1 1 0 0 0 1 1 
481 25 997 1 0 0 0 1 1 1 0 1 0 0 0 1 0 1 0 1 1 1 1 1 1 1 1 0 
482 25 888 1 1 1 1 1 1 0 1 0 0 1 0 1 1 1 0 1 0 1 0 0 0 1 0 1 
483 25 962 1 1 0 1 1 1 1 1 0 0 1 0 1 0 0 0 1 1 1 1 0 0 0 1 1 
484 25 1111 0 0 0 0 0 1 1 0 1 1 1 1 1 1 1 0 1 1 0 1 1 1 0 0 0 
485 25 866 0 1 0 1 0 1 1 1 1 1 0 0 1 1 1 1 1 1 1 0 1 1 1 0 0 
486 25 1134 1 0 0 0 1 1 1 0 1 0 1 0 1 0 1 0 1 1 0 1 1 0 1 1 1 
487 25 956 1 1 1 0 1 1 1 1 1 0 1 1 0 1 1 0 0 1 1 0 0 0 1 0 1 
488 25 1095 0 0 1 0 1 1 0 0 0 1 1 1 1 1 1 1 1 1 0 1 1 1 1 1 0 
489 25 930 0 1 1 1 0 1 0 0 1 1 0 1 0 1 1 1 1 1 1 0 1 0 1 0 1 
490 25 956 0 1 1 1 0 1 1 0 1 0 0 1 1 1 0 1 0 1 1 0 0 1 1 1 0 
491 25 900 1 1 0 0 1 0 1 1 1 0 1 0 1 1 1 0 1 1 0 1 1 0 0 1 0 
492 25 956 0 0 1 1 0 0 1 0 1 1 1 1 0 1 0 1 1 1 0 1 1 1 0 1 1 
493 25 1055 0 0 0 1 1 0 1 1 1 0 1 0 1 0 0 0 1 0 1 1 1 1 1 1 1 
494 25 852 1 1 1 1 1 1 1 0 0 0 0 1 1 1 0 1 1 1 0 1 1 0 1 1 0 
495 25 945 1 1 1 1 0 1 0 1 1 1 0 1 0 1 1 0 1 0 1 1 0 0 0 1 1 
496 25 993 1 1 0 1 0 0 1 0 0 1 1 1 0 0 1 0 0 1 1 0 1 1 0 1 1 
497 25 854 1 1 0 0 0 1 1 0 1 1 0 0 1 1 1 0 1 1 0 1 1 0 1 0 1 
498 25 1119 0 1 1 0 1 1 0 1 1 0 0 1 1 1 1 1 1 0 0 1 1 0 0 1 1 
499 25 907 0 0 1 1 1 1 0 1 1 1 1 0 1 1 0 0 1 1 1 0 0 1 1 0 1 
500 25 900 0 1 1 0 1 1 0 0 1 0 0 1 1 0 1 1 1 1 1 1 1 1 1 1 1 
