1 25 850 1 1 0 1 0 1 1 0 0 1 1 0 1 1 1 0 1 1 1 0 0 0 1 1 1 
2 25 1133 0 1 0 1 0 1 0 1 1 0 1 0 1 0 1 1 1 0 1 1 0 1 1 1 1 
3 25 1031 1 1 1 1 1 0 1 0 1 0 0 1 1 1 0 0 0 0 1 1 1 1 1 0 1 
4 25 977 0 1 1 1 0 0 1 1 0 1 1 1 0 1 0 1 0 1 1 1 0 0 0 0 1 
5 25 898 0 0 0 0 1 0 0 0 1 1 0 1 1 1 1 1 1 1 1 1 1 0 0 1 0 
6 25 1004 1 1 0 1 0 1 0 0 1 1 0 1 1 0 1 1 1 1 0 1 0 1 0 1 0 
7 25 997 1 1 1 1 0 1 1 0 1 0 0 0 1 1 0 1 1 1 1 1 1 1 1 0 0 
8 25 842 1 1 1 0 0 0 1 1 1 1 0 1 1 0 0 0 1 0 1 0 1 1 1 1 0 
9 25 994 0 0 1 1 1 1 1 1 1 0 1 1 1 1 1 1 0 1 0 0 0 0 1 1 1 
10 25 947 0 1 0 1 1 1 0 0 0 1 1 0 1 0 1 1 0 1 1 1 1 0 1 1 1 
11 25 1154 0 1 0 0 0 1 1 1 0 1 1 0 1 1 1 1 1 0 1 1 1 0 1 0 1 
12 25 1036 1 1 1 0 0 1 1 0 1 1 1 1 1 0 0 0 0 1 0 1 1 1 1 0 0 
13 25 1045 1 1 1 1 1 1 1 1 0 1 0 0 1 1 0 1 0 1 1 0 1 0 1 0 1 
14 25 1031 0 1 1 1 1 0 1 1 1 0 1 0 1 0 0 0 1 1 1 0 1 1 1 1 0 
15 25 987 1 0 0 1 1 0 1 0 1 1 1 1 1 1 0 1 1 1 0 0 0 1 1 0 1 
16 25 1031 0 1 0 0 1 1 1 1 1 0 1 0 1 1 1 1 0 1 1 0 0 1 1 1 1 
17 25 1130 0 1 0 1 1 1 1 1 0 1 0 1 0 0 1 1 1 1 0 1 1 1 0 1 1 
18 25 969 1 0 0 1 0 1 1 1 1 0 0 1 0 1 0 0 1 1 1 0 1 1 1 1 1 
19 25 1103 1 1 0 1 1 1 0 1 0 1 1 0 0 0 0 1 0 1 1 0 1 1 1 1 1 
20 25 1049 0 0 1 0 1 1 1 1 1 0 0 1 1 1 1 1 0 0 1 0 1 1 0 1 1 
21 25 1008 1 1 0 1 1 1 1 0 1 0 0 0 0 0 1 1 1 0 1 0 0 1 1 0 1 
22 25 1041 0 1 1 1 1 1 0 1 0 0 1 0 1 1 0 1 1 0 0 1 1 1 1 1 1 
23 25 1082 1 0 0 1 0 1 0 0 1 1 0 0 0 1 1 1 1 1 1 0 1 1 0 1 1 
24 25 920 0 1 1 1 1 0 0 1 1 1 0 0 0 0 1 1 1 1 1 0 1 1 1 0 0 
25 25 923 1 1 1 0 0 1 0 1 0 1 0 1 0 0 1 1 1 1 1 1 0 1 1 0 1 
26 25 986 1 0 0 1 1 1 0 0 1 0 1 1 1 0 0 0 1 1 1 0 1 1 1 1 0 
27 25 978 1 0 1 0 1 1 1 0 1 1 1 1 0 1 1 0 0 0 1 0 1 1 1 0 1 
28 25 913 0 0 1 1 1 0 1 1 0 1 0 1 1 0 1 1 1 0 1 1 1 0 0 1 0 
29 25 1043 0 1 0 1 0 0 0 1 1 1 1 1 1 1 1 1 1 1 1 1 0 1 0 1 1 
30 25 967 1 1 0 1 0 0 0 1 1 1 1 1 0 0 1 1 1 0 1 1 0 0 0 1 0 
31 25 1255 1 0 0 1 1 0 1 1 1 1 1 1 1 1 1 1 1 0 1 1 1 1 0 0 0 
32 25 961 1 0 1 0 1 1 0 1 1 0 0 0 1 1 1 1 0 1 0 0 1 0 1 1 1 
33 25 973 0 0 1 0 1 0 1 0 1 0 1 1 1 1 1 1 0 1 1 1 0 1 0 1 1 
34 25 1083 1 1 0 0 1 1 0 1 1 1 0 0 1 1 1 1 0 1 0 1 0 0 1 1 1 
35 25 1075 1 0 1 1 0 1 0 1 1 0 1 0 0 1 1 1 1 1 1 1 1 0 1 0 0 
36 25 818 1 1 0 0 1 0 1 1 0 1 0 1 0 1 0 1 1 0 1 0 1 1 1 0 0 
37 25 860 1 1 1 1 1 0 1 1 1 1 1 0 1 0 1 1 1 1 0 0 0 1 1 0 0 
38 25 1129 1 1 0 1 1 0 1 1 0 0 1 1 1 1 1 0 1 0 1 1 0 1 0 1 1 
39 25 1013 0 1 1 0 1 1 0 1 1 1 0 1 0 0 1 1 1 1 1 1 1 1 0 1 0 
40 25 868 1 1 1 1 0 0 0 0 0 1 0 1 0 1 0 1 1 1 1 1 1 1 0 1 1 
41 25 996 1 1 1 1 1 0 1 0 0 1 1 1 1 0 1 0 0 1 1 1 1 0 1 0 0 
42 25 1025 1 1 1 0 1 1 0 0 0 1 1 0 0 1 1 1 1 0 1 0 0 0 1 1 1 
43 25 1033 1 0 0 0 1 0 0 0 1 1 0 1 1 1 0 1 1 1 0 1 0 1 1 1 1 
44 25 912 0 1 1 1 1 1 1 1 0 0 1 1 0 1 0 1 0 0 1 1 0 1 0 0 1 
45 25 1016 0 1 1 1 1 1 0 0 1 0 0 1 1 1 1 1 0 1 0 1 1 1 1 0 1 
46 25 947 1 1 1 1 1 1 1 0 1 1 0 0 1 0 1 0 1 0 0 1 1 1 1 1 0 
47 25 906 1 0 1 1 0 1 0 0 0 1 1 1 0 1 0 0 1 1 1 0 1 1 1 1 1 
48 25 985 0 0 0 0 0 0 0 1 1 1 1 1 1 0 1 1 1 1 1 1 1 0 1 1 0 
49 25 945 1 1 0 1 1 1 1 0 1 0 0 1 1 0 1 1 1 1 1 1 0 0 0 1 1 
50 25 1025 0 1 0 1 1 0 1 1 0 1 1 0 0 1 1 1 1 1 1 0 1 1 1 0 1 
51 25 889 1 0 1 0 0 1 0 1 1 1 1 1 0 1 0 1 1 1 1 1 0 0 0 0 1 
52 25 943 0 1 0 1 1 1 1 0 0 1 0 0 0 1 1 0 1 1 0 1 0 1 1 1 1 
53 25 849 1 1 0 1 1 1 0 0 1 0 1 1 1 0 0 0 1 1 0 1 1 0 1 0 1 
54 25 1137 0 1 1 1 1 1 1 1 1 0 1 1 0 0 0 0 0 1 1 1 1 1 0 0 1 
55 25 922 1 1 0 1 0 0 0 1 1 1 1 0 1 1 1 1 1 1 0 0 1 0 0 1 0 
56 25 987 1 0 1 1 1 1 1 1 1 0 1 0 0 0 1 0 1 0 1 1 1 1 1 0 1 
57 25 1052 0 1 1 1 1 1 0 1 1 0 1 1 1 1 0 1 0 0 1 1 1 0 1 0 1 
58 25 993 0 0 0 1 1 1 0 0 1 0 1 0 1 1 0 1 1 1 0 1 1 0 1 1 1 
59 25 895 0 1 1 1 0 1 1 1 0 0 1 1 0 1 1 1 1 0 0 1 1 1 0 0 1 
60 25 830 1 1 1 1 0 0 0 0 1 0 0 1 0 0 1 1 1 1 0 1 1 1 0 0 0 
61 25 891 0 1 1 0 1 1 0 0 0 0 0 1 1 1 1 1 1 1 0 1 0 1 1 1 1 
62 25 1221 1 0 1 1 0 1 0 1 1 1 1 0 0 0 1 1 1 0 1 1 0 1 1 1 1 
63 25 724 0 1 1 1 0 1 1 1 0 1 1 1 0 0 1 1 1 0 0 1 1 1 0 0 0 
64 25 970 1 0 1 0 1 1 1 1 1 1 1 0 0 0 1 1 0 1 0 0 1 1 1 1 1 
65 25 987 0 0 1 0 0 1 1 1 1 1 0 1 1 0 1 1 1 0 1 1 0 0 1 1 1 
66 25 1102 1 0 1 0 1 1 1 1 1 0 1 1 1 1 1 1 0 1 1 0 0 0 0 0 1 
67 25 888 1 0 1 1 1 0 1 0 1 1 0 0 1 1 1 1 1 1 0 1 1 0 1 1 1 
68 25 994 1 0 0 1 0 1 1 1 1 0 1 1 0 0 0 0 1 1 0 1 0 1 1 1 1 
69 25 992 1 1 1 1 1 0 1 1 0 1 1 0 0 1 0 1 1 0 1 0 1 0 1 1 0 
70 25 1114 1 0 1 1 1 1 0 0 1 0 0 1 1 1 1 1 1 1 0 1 0 1 1 0 0 
71 25 1034 0 0 0 1 1 1 1 0 0 1 0 1 0 1 1 1 0 1 0 1 0 1 1 1 1 
72 25 901 1 0 0 1 1 1 1 1 1 0 1 1 0 0 1 1 0 1 0 1 1 0 1 1 1 
73 25 1102 1 1 1 1 1 1 1 1 0 0 1 0 1 1 1 1 0 0 1 1 1 0 0 0 1 
74 25 1124 1 1 0 0 0 1 1 1 1 1 0 1 0 0 0 0 1 1 1 1 1 0 1 1 1 
75 25 1141 1 0 0 1 1 1 0 1 1 1 1 0 1 1 0 1 0 0 1 1 1 1 1 1 0 
76 25 1076 1 1 1 1 1 1 1 1 1 0 1 0 1 1 1 0 0 1 0 1 0 1 0 1 0 
77 25 963 1 1 1 1 1 1 0 0 1 0 0 1 0 1 1 0 0 0 1 1 0 1 1 1 1 
78 25 1133 1 1 0 0 1 0 1 0 1 1 1 1 0 1 1 1 1 1 0 1 0 1 0 0 1 
79 25 976 1 1 1 0 1 1 0 0 1 0 1 1 1 1 0 0 0 0 1 1 1 1 0 1 0 
80 25 1037 0 1 1 0 1 1 0 1 1 1 0 1 1 0 0 0 1 1 1 0 1 1 0 1 1 
81 25 1095 1 1 1 1 1 1 1 0 0 0 1 1 1 1 0 0 1 1 0 1 0 1 1 1 0 
82 25 1021 1 0 1 1 1 1 0 1 0 1 1 1 0 1 0 0 0 1 1 1 0 1 1 0 1 
83 25 931 1 0 1 0 1 0 0 1 1 0 1 1 1 1 1 1 0 0 0 0 1 1 1 1 1 
84 25 918 0 1 1 1 1 0 0 0 1 0 0 1 0 1 1 0 1 1 0 0 1 0 1 1 1 
85 25 1070 1 0 1 1 1 0 1 0 1 0 0 1 0 1 1 0 1 1 1 1 0 1 1 0 1 
86 25 906 0 0 0 1 0 0 1 0 1 1 1 1 1 0 1 1 1 1 1 1 1 1 1 0 1 
87 25 840 1 0 1 1 0 1 1 0 1 1 1 0 0 1 1 1 1 0 0 0 0 1 1 1 1 
88 25 983 1 0 1 0 1 0 0 1 0 1 1 1 1 0 1 1 0 1 1 1 1 0 1 1 0 
89 25 958 0 1 1 1 1 0 0 1 1 0 1 1 0 1 0 1 1 0 0 0 1 1 1 1 0 
90 25 910 0 1 1 0 0 0 1 1 0 0 0 1 1 1 1 0 0 1 1 1 1 1 0 1 1 
91 25 845 1 0 1 0 0 1 1 1 1 1 1 1 0 0 1 1 0 1 1 0 0 1 1 1 1 
92 25 968 1 0 0 1 1 1 1 1 0 1 0 1 0 1 0 0 1 1 0 1 0 1 1 1 0 
93 25 1161 1 1 1 0 1 1 1 0 0 1 0 1 1 0 1 0 1 1 1 1 0 1 0 0 0 
94 25 1027 1 1 1 0 1 0 0 1 1 1 1 1 1 1 0 0 0 1 0 1 1 0 1 0 1 
95 25 966 1 0 1 1 0 1 1 0 1 1 1 1 0 1 1 0 1 0 1 0 1 1 1 0 1 
96 25 982 1 0 0 1 1 1 0 0 1 1 1 1 0 0 1 1 1 0 1 0 1 1 0 1 1 
97 25 1089 1 0 1 0 1 0 0 0 1 0 1 1 0 1 1 1 1 1 1 1 1 1 0 1 1 
98 25 1013 1 1 0 0 1 1 1 1 1 0 0 0 0 0 0 1 0 1 1 1 1 1 1 1 0 
99 25 1089 0 1 1 1 1 1 0 0 1 1 1 1 1 1 0 1 1 0 0 1 0 0 1 0 0 
100 25 966 1 1 0 0 0 1 0 1 1 1 0 1 0 1 0 1 0 0 0 1 1 1 1 0 1 
101 25 733 1 1 0 1 1 1 1 1 1 1 0 1 1 1 0 1 0 0 1 1 0 1 1 0 0 
102 25 1097 0 0 1 1 1 0 1 1 1 1 0 1 1 0 0 0 1 1 0 0 1 0 1 1 1 
103 25 1049 1 0 0 1 1 0 0 1 0 1 1 0 0 1 1 1 1 1 1 1 1 1 1 0 0 
104 25 984 0 0 0 1 0 1 1 0 1 1 0 1 1 1 0 1 0 1 1 1 1 1 1 1 0 
105 25 922 1 1 0 1 1 0 1 0 0 1 1 0 1 1 0 0 0 1 1 1 1 1 1 0 1 
106 25 991 1 1 0 0 0 1 0 0 1 1 0 1 1 1 1 1 1 1 1 1 0 1 0 1 1 
107 25 999 1 1 1 1 0 1 0 0 0 0 1 1 1 1 0 1 1 0 0 0 0 1 0 1 1 
108 25 922 1 0 1 1 1 1 1 1 1 0 0 1 0 0 0 1 1 0 0 1 1 0 0 1 1 
109 25 880 1 1 0 1 0 1 1 1 1 1 1 0 0 0 1 0 0 1 1 0 0 1 1 0 1 
110 25 1061 1 0 1 0 0 0 1 0 1 1 1 1 0 1 1 1 0 0 1 1 1 1 0 1 0 
111 25 995 1 0 1 0 0 1 1 0 1 0 0 0 1 0 1 1 1 1 0 1 1 0 1 1 1 
112 25 911 1 0 1 0 1 1 0 0 1 0 1 1 0 1 1 1 1 1 1 0 1 0 1 1 1 
113 25 744 1 1 1 0 0 1 1 0 0 1 1 1 0 1 0 0 1 1 1 1 1 1 0 1 1 
114 25 1039 1 0 1 0 1 1 0 1 1 0 1 1 0 0 1 1 1 0 1 1 0 1 0 1 0 
115 25 924 1 0 1 1 1 0 1 0 1 1 0 0 0 1 0 1 1 0 1 0 1 0 1 1 1 
116 25 926 1 1 1 0 1 0 1 1 1 0 0 1 0 1 1 1 1 1 1 1 0 0 1 0 1 
117 25 957 1 1 1 1 0 1 0 1 0 1 1 1 0 1 0 1 1 1 1 1 0 1 1 0 0 
118 25 885 1 0 1 1 0 0 0 0 1 1 1 1 1 1 1 0 1 1 1 1 0 1 0 0 0 
119 25 916 1 1 0 1 0 1 0 1 0 1 1 1 1 1 1 0 1 0 1 1 1 1 0 1 1 
120 25 945 0 1 1 1 1 0 0 1 1 0 0 1 0 0 1 1 1 1 1 1 1 1 1 1 0 
121 25 925 1 1 1 1 1 0 0 0 1 1 1 1 0 0 0 1 1 0 0 1 1 1 1 1 0 
122 25 1051 1 0 1 0 1 1 0 1 1 0 1 0 1 1 1 1 1 0 0 1 0 0 1 1 1 
123 25 862 1 0 1 0 0 0 1 0 1 0 0 1 1 1 1 1 1 0 1 1 0 1 0 0 1 
124 25 992 1 1 1 1 1 1 0 0 0 1 0 1 1 1 0 1 1 0 1 1 0 1 0 1 1 
125 25 967 0 0 1 0 1 1 1 1 1 0 1 1 0 0 1 1 1 1 1 0 1 1 1 0 0 
126 25 1061 1 1 0 0 1 1 0 0 0 1 1 1 1 0 1 0 1 1 1 1 1 1 1 1 1 
127 25 968 1 1 1 1 0 0 1 1 0 1 1 1 1 1 1 1 0 1 0 1 1 1 0 1 1 
128 25 1080 1 0 0 1 0 1 0 1 1 1 1 1 1 1 0 1 1 1 0 1 0 1 0 1 0 
129 25 1054 1 1 0 1 1 0 1 0 1 0 0 1 1 1 1 0 0 1 1 1 0 0 1 1 1 
130 25 1105 0 1 1 0 1 1 1 1 0 0 1 0 1 1 1 1 0 1 1 0 0 1 1 1 0 
131 25 1195 0 1 1 1 1 0 0 0 0 1 1 1 0 1 1 1 1 1 1 1 1 0 0 1 0 
132 25 866 1 1 0 0 1 1 1 1 1 0 0 1 0 0 1 1 1 0 1 0 1 1 0 1 1 
133 25 966 1 0 0 1 1 1 1 0 1 1 1 0 1 1 0 0 1 1 1 0 1 1 1 1 1 
134 25 1157 1 1 1 1 1 0 0 1 0 0 1 0 0 1 1 1 1 1 0 0 1 1 1 1 1 
135 25 1114 1 1 1 1 1 1 0 1 0 0 0 1 1 1 1 1 1 0 0 0 1 0 1 1 1 
136 25 938 1 1 1 0 1 1 0 0 1 0 1 0 1 1 1 1 0 0 0 1 0 1 0 1 1 
137 25 1026 0 0 0 1 0 0 1 0 0 1 1 1 1 1 0 1 1 1 1 0 0 1 1 1 0 
138 25 904 1 1 0 1 0 1 1 1 1 0 0 0 1 1 1 1 1 1 0 1 0 1 1 1 1 
139 25 984 1 1 0 1 1 0 1 0 1 1 1 0 0 1 0 0 1 1 0 1 0 1 1 1 1 
140 25 982 1 1 0 0 1 0 1 0 0 0 1 1 1 0 1 0 1 1 1 0 1 1 1 1 1 
141 25 981 1 1 1 1 1 0 0 0 1 0 0 0 1 1 1 0 1 1 0 1 1 0 1 1 1 
142 25 1072 1 1 1 0 1 0 0 1 1 1 1 1 1 0 1 1 1 1 1 0 1 0 0 1 1 
143 25 870 0 1 1 1 1 1 0 0 1 0 1 1 1 1 1 0 0 1 1 1 0 1 1 1 0 
144 25 781 1 1 1 0 1 1 0 1 0 1 0 0 0 1 0 0 1 0 1 1 0 1 1 1 1 
145 25 897 1 0 1 1 1 1 1 1 0 0 1 1 1 1 0 1 1 1 1 0 0 1 0 0 1 
146 25 964 0 0 1 1 0 1 0 1 1 0 1 0 1 1 0 1 1 1 0 1 1 0 1 1 1 
147 25 948 1 1 1 1 0 0 1 0 0 1 1 0 1 1 0 0 1 1 1 1 1 0 1 1 1 
148 25 871 1 1 1 1 0 1 0 0 1 1 1 0 0 1 1 1 0 1 1 1 1 0 0 1 1 
149 25 771 1 0 0 1 1 1 1 1 1 1 1 0 0 1 1 0 0 0 1 0 0 1 1 1 0 
150 25 1299 1 1 0 1 0 1 1 1 0 1 1 0 0 1 0 1 1 1 1 0 1 1 0 1 1 
151 25 1120 0 1 1 1 0 1 1 1 1 1 1 1 0 1 1 0 0 1 1 0 0 0 1 1 1 
152 25 1156 0 0 0 1 1 1 0 1 1 1 1 0 1 0 1 1 1 1 1 1 1 0 1 1 0 
153 25 932 0 1 0 1 0 1 1 0 0 0 1 1 0 1 0 1 0 1 0 1 1 1 1 1 1 
154 25 1007 1 1 1 1 1 1 1 1 1 1 0 1 0 0 1 1 1 1 1 0 0 0 1 0 0 
155 25 1015 0 1 0 0 1 0 1 0 1 1 1 0 1 1 1 0 0 1 1 1 0 0 1 1 1 
156 25 955 1 1 0 1 1 1 1 1 0 0 0 0 1 0 0 0 0 1 1 1 1 1 1 1 1 
157 25 936 1 1 1 0 1 1 0 1 0 0 0 0 1 1 1 0 1 1 1 1 0 0 1 1 1 
158 25 832 0 1 0 1 0 1 1 1 1 1 1 1 1 0 1 1 0 1 0 1 1 1 0 1 0 
159 25 1034 0 1 0 1 0 0 0 1 0 1 1 1 1 1 0 1 1 1 0 1 1 0 1 1 1 
160 25 1112 0 0 1 1 1 0 0 1 1 1 1 1 1 1 1 1 0 1 1 0 1 0 1 0 0 
161 25 872 1 1 1 0 1 1 1 1 1 0 1 0 1 1 1 0 0 0 1 0 0 1 1 0 1 
162 25 1037 0 0 1 1 0 0 1 1 1 1 1 1 1 0 1 1 1 1 0 1 0 1 0 1 1 
163 25 1069 1 1 0 1 0 0 1 0 1 1 0 0 1 1 1 1 0 1 0 1 1 1 1 1 0 
164 25 993 1 1 0 1 1 0 1 1 1 0 0 0 1 1 1 1 0 1 1 1 1 0 1 0 0 
165 25 1044 0 1 1 0 0 0 1 1 1 0 1 0 0 1 0 1 1 1 1 1 1 1 0 1 1 
166 25 1149 1 0 1 1 1 1 1 1 1 1 1 0 1 1 0 0 1 0 1 1 0 0 0 0 1 
167 25 966 0 0 1 1 1 0 0 0 1 0 1 0 1 1 0 0 1 1 1 1 1 1 1 1 1 
168 25 1036 1 0 1 1 1 0 1 0 1 0 1 1 1 0 1 1 1 1 1 0 1 1 0 1 0 
169 25 935 0 0 1 1 0 1 1 1 1 1 1 0 0 1 1 0 1 1 1 1 0 1 1 0 0 
170 25 1256 0 1 1 1 1 1 1 0 1 1 1 0 1 1 0 1 0 1 0 1 1 0 1 1 0 
171 25 1079 1 0 1 1 1 1 1 1 1 0 0 1 1 1 1 1 0 0 1 0 1 0 1 1 1 
172 25 1020 1 1 0 1 0 1 1 0 1 0 0 1 1 1 0 0 0 1 0 1 1 1 1 0 1 
173 25 984 0 1 1 1 1 0 0 0 1 1 1 0 1 0 1 1 1 0 1 0 1 0 1 1 0 
174 25 1030 1 1 0 1 1 0 1 1 1 1 1 1 1 1 1 0 1 0 1 0 1 0 0 1 0 
175 25 1100 0 1 0 1 1 1 0 1 1 0 1 0 1 0 1 1 1 1 1 1 1 0 0 1 1 
176 25 976 0 1 0 1 1 0 1 1 1 1 0 1 1 0 0 1 1 1 1 1 0 0 1 1 1 
177 25 926 0 0 0 1 0 1 1 0 0 1 0 1 1 1 1 1 1 1 1 1 0 0 1 0 1 
178 25 865 1 0 0 1 1 1 0 1 1 0 0 1 0 1 1 0 1 1 0 1 0 1 0 1 1 
179 25 1155 1 1 1 1 0 0 1 0 0 1 0 1 0 0 0 1 1 1 1 1 1 1 1 1 1 
180 25 920 0 1 1 1 0 0 1 1 0 0 1 0 0 0 1 1 1 1 1 1 1 0 0 1 0 
181 25 1072 0 0 1 0 1 1 1 1 0 1 1 1 1 1 1 1 0 1 1 0 1 1 1 0 0 
182 25 927 1 1 0 1 1 1 1 1 0 0 0 0 1 0 1 1 1 0 1 1 0 1 1 1 1 
183 25 761 1 0 0 1 1 0 0 1 1 1 0 0 1 1 1 1 1 1 0 1 1 1 0 0 1 
184 25 1081 1 1 0 0 0 1 0 0 1 1 1 0 1 0 0 1 1 1 1 0 1 1 1 1 0 
185 25 1066 1 1 1 0 1 0 0 1 0 0 1 1 0 1 1 1 0 1 0 0 0 1 1 1 1 
186 25 1069 1 1 1 1 1 0 0 1 0 1 0 1 0 1 0 0 0 0 1 0 1 1 1 1 1 
187 25 920 1 1 1 1 1 1 1 1 0 1 1 0 0 1 1 0 0 1 0 1 0 1 1 1 0 
188 25 1005 1 0 1 1 1 1 0 1 0 1 1 0 1 0 0 1 1 1 0 0 0 1 1 1 1 
189 25 1034 1 0 0 1 1 0 1 0 1 1 0 1 0 1 1 1 1 0 0 1 0 1 1 1 1 
190 25 1115 1 0 0 1 0 1 1 1 1 1 1 1 1 1 1 0 1 0 1 1 1 0 1 0 0 
191 25 1090 0 1 1 1 1 1 0 0 0 1 1 1 0 1 0 1 1 1 1 0 1 1 1 0 0 
192 25 984 0 1 0 0 0 0 1 1 0 1 0 0 0 1 1 1 0 1 0 1 1 1 1 1 0 
193 25 952 1 1 1 1 1 0 0 0 0 0 1 1 1 0 1 1 1 0 1 1 1 0 0 1 0 
194 25 1151 1 1 0 0 1 1 1 1 0 1 1 1 1 1 1 0 0 1 1 1 1 0 1 0 1 
195 25 774 1 1 1 0 1 1 0 1 1 1 0 1 0 1 0 0 1 1 0 0 0 1 1 0 1 
196 25 935 1 1 1 0 1 1 1 1 0 0 0 1 1 0 0 1 1 1 1 1 1 1 1 1 0 
197 25 1080 0 1 1 0 1 1 1 0 1 1 0 1 1 0 0 1 1 1 1 0 1 0 1 1 1 
198 25 1171 1 0 1 1 1 1 1 1 1 0 1 0 0 1 0 1 1 1 0 0 1 0 1 1 1 
199 25 1003 0 0 0 0 1 1 1 0 1 1 1 0 1 1 0 1 0 0 1 1 1 1 0 1 1 
200 25 916 1 1 0 1 1 1 0 1 1 0 1 0 1 1 0 0 1 1 1 1 1 1 0 0 0 
201 25 972 0 1 1 1 1 1 0 1 1 0 1 1 0 1 1 1 1 0 1 0 0 0 0 0 1 
202 25 897 0 1 0 1 1 1 1 1 0 1 1 0 1 0 0 1 0 1 1 0 1 1 1 0 1 
203 25 1060 0 1 0 0 1 1 1 1 0 1 1 1 0 1 1 1 1 1 0 1 1 1 0 1 0 
204 25 1026 0 1 0 1 1 0 0 1 1 0 1 1 0 0 0 1 0 1 0 1 1 1 1 1 1 
205 25 994 1 1 1 0 1 1 1 0 1 1 1 0 1 1 1 1 0 0 0 0 0 0 1 1 0 
206 25 945 0 1 0 1 0 1 1 0 1 1 1 0 0 1 0 1 1 1 1 0 0 1 0 0 1 
207 25 817 1 0 1 1 1 1 1 1 1 1 0 0 1 1 1 0 0 0 1 1 1 0 1 1 1 
208 25 761 0 0 1 0 1 0 1 1 1 0 0 1 1 1 1 1 0 0 1 1 1 1 0 0 1 
209 25 1056 1 0 1 0 1 1 0 1 1 0 1 0 0 1 1 1 1 0 0 1 1 1 0 1 0 
210 25 886 1 0 0 0 1 1 1 1 1 0 1 0 1 1 0 1 0 1 0 1 0 0 0 1 1 
211 25 1019 0 0 1 0 1 1 1 0 0 1 1 1 1 1 1 1 0 1 1 0 0 1 1 0 1 
212 25 897 0 1 0 1 0 1 1 1 0 0 1 1 0 0 0 1 0 1 1 1 1 1 0 1 1 
213 25 1044 1 0 1 1 1 1 1 1 0 0 0 0 0 1 1 0 1 1 1 0 0 0 1 1 1 
214 25 1072 0 1 1 0 1 0 0 1 1 1 1 1 1 1 0 0 0 1 1 1 1 1 0 0 1 
215 25 1093 1 1 1 1 1 1 1 1 1 0 0 1 1 1 1 1 0 1 0 0 0 1 1 1 0 
216 25 908 1 1 1 1 1 0 1 1 1 0 0 1 0 0 1 0 1 0 1 0 1 0 0 1 0 
217 25 1088 1 0 0 0 1 1 1 1 0 1 0 1 1 1 1 1 0 0 0 1 1 0 1 0 1 
218 25 926 0 1 1 0 0 0 1 1 1 0 1 1 1 0 1 0 1 1 0 1 0 0 1 0 1 
219 25 1036 0 1 1 0 0 0 1 0 1 1 0 1 1 1 0 1 0 0 1 1 0 1 1 1 1 
220 25 955 0 1 1 0 1 0 1 0 1 0 0 1 0 1 1 1 1 1 1 0 1 1 0 0 1 
221 25 1101 1 1 0 1 0 1 1 1 0 1 1 1 1 1 0 1 1 0 1 0 1 0 0 1 1 
222 25 1041 0 1 1 0 1 1 1 0 0 0 1 0 1 1 0 1 1 1 1 1 1 0 1 1 0 
223 25 977 1 0 0 0 1 1 0 1 1 1 0 1 1 0 0 1 1 0 1 0 1 1 0 1 1 
224 25 871 1 1 1 1 1 0 1 0 0 1 1 1 1 1 1 0 0 1 1 0 0 1 1 0 1 
225 25 909 1 1 1 1 1 1 1 0 0 1 1 1 0 1 0 0 0 0 0 0 0 1 0 1 1 
226 25 905 0 1 1 1 0 1 0 1 0 1 1 1 1 1 1 0 1 0 1 0 0 1 1 0 0 
227 25 940 0 0 1 0 1 1 0 0 0 1 1 1 0 1 1 0 1 1 1 1 1 0 1 1 1 
228 25 1019 1 1 1 1 0 1 1 0 1 0 1 1 0 0 1 1 0 0 1 0 1 1 0 1 0 
229 25 1067 0 1 1 1 0 1 0 1 0 1 1 0 1 1 0 0 0 1 1 1 1 1 1 1 0 
230 25 1065 0 0 0 1 1 1 1 0 0 1 1 1 1 1 1 1 1 0 1 1 1 1 0 1 1 
231 25 1164 0 1 1 1 1 1 1 1 1 1 0 0 0 1 1 1 1 0 0 1 1 0 1 0 1 
232 25 870 1 0 1 0 0 0 1 1 1 1 1 0 1 0 0 0 1 1 1 1 0 1 1 1 1 
233 25 1068 1 1 1 1 0 1 0 1 1 1 0 1 0 0 1 1 0 1 0 1 0 0 1 1 0 
234 25 1009 1 0 1 0 0 1 1 1 0 0 1 1 0 1 1 1 1 1 0 1 1 1 1 1 0 
235 25 861 1 1 0 0 0 1 1 1 0 1 1 0 1 1 0 1 0 1 0 1 0 1 1 1 1 
236 25 1037 1 1 1 0 1 1 0 1 0 1 1 0 0 1 1 1 1 1 1 1 0 1 0 0 1 
237 25 1065 1 1 1 1 0 1 0 1 1 1 1 1 1 0 1 1 1 1 0 0 1 0 0 1 0 
238 25 1095 1 1 0 1 1 1 1 1 1 0 0 0 1 1 0 0 1 1 0 1 0 1 1 0 0 
239 25 1010 1 1 1 0 1 0 1 1 1 1 0 1 1 0 1 1 0 0 1 1 1 0 1 1 0 
240 25 981 0 0 0 1 1 1 1 1 0 1 1 0 1 0 1 0 1 1 1 1 0 1 0 1 1 
241 25 908 1 0 0 0 1 0 1 1 0 1 1 1 1 1 1 0 0 0 1 1 1 1 1 0 1 
242 25 772 1 1 1 1 1 0 1 1 1 1 0 1 0 0 1 0 0 0 0 1 0 0 1 1 0 
243 25 860 1 1 1 1 1 1 1 1 0 0 1 0 0 1 0 0 1 1 1 0 1 0 0 1 1 
244 25 1124 1 0 1 1 1 1 1 0 1 0 0 1 0 1 1 1 0 1 1 0 1 0 1 1 0 
245 25 1029 1 1 1 0 0 0 0 1 1 0 1 1 1 0 0 1 0 1 1 1 1 1 1 0 1 
246 25 1058 0 0 1 0 1 1 1 0 1 0 0 1 1 1 0 1 1 0 1 1 0 0 1 0 1 
247 25 902 0 0 1 1 0 0 1 0 1 0 1 0 0 0 0 1 1 1 1 1 1 1 1 1 1 
248 25 1086 1 1 1 0 1 1 1 1 0 0 1 1 0 0 1 1 1 1 1 1 0 1 0 0 0 
249 25 902 0 1 0 0 0 0 1 1 0 1 0 1 1 1 1 1 1 1 1 1 1 1 1 1 0 
250 25 1170 1 0 0 1 1 1 0 1 1 0 1 1 1 1 0 1 0 1 1 1 1 1 0 1 1 
251 25 1107 0 1 1 1 1 1 0 0 1 1 1 0 0 1 1 1 1 1 1 0 1 0 1 1 1 
252 25 942 1 0 0 0 1 1 0 1 1 1 1 1 1 0 1 1 1 0 0 0 1 1 0 1 0 
253 25 936 1 1 1 0 1 1 0 1 1 0 1 1 1 1 0 0 1 0 1 0 0 1 1 0 1 
254 25 1056 1 0 0 1 1 0 1 0 0 1 0 1 1 1 0 1 1 1 1 0 1 1 1 0 1 
255 25 990 1 1 0 0 0 1 1 1 1 0 1 1 1 0 0 0 1 0 0 1 1 1 1 1 1 
256 25 978 1 0 1 0 1 1 1 0 1 1 1 0 1 1 1 1 1 0 1 0 0 0 0 1 1 
257 25 966 1 1 1 0 1 1 1 1 1 0 0 0 1 0 0 1 1 1 1 1 1 0 1 1 0 
258 25 953 1 1 1 1 0 1 1 0 0 1 0 0 1 0 1 1 0 0 1 1 0 1 1 1 1 
259 25 1132 0 1 0 1 1 1 0 1 0 1 1 1 1 1 1 1 0 1 1 0 1 0 0 1 1 
260 25 904 1 1 1 1 0 1 1 0 0 1 0 0 1 1 1 1 1 0 0 1 0 0 1 1 0 
261 25 827 1 0 1 0 0 1 1 0 1 1 0 1 0 0 0 1 1 0 0 0 1 0 1 1 1 
262 25 1025 1 0 1 1 1 1 1 1 1 1 1 1 0 1 1 0 0 1 1 1 0 1 1 0 0 
263 25 1173 1 0 0 0 1 1 1 1 1 1 1 1 1 0 0 1 1 1 1 1 1 1 0 1 0 
264 25 977 1 0 1 1 0 1 0 1 1 0 1 1 1 1 1 1 0 0 0 0 1 1 0 1 0 
265 25 950 1 0 1 0 0 1 1 0 1 0 1 1 0 0 1 0 1 1 1 1 0 1 1 0 1 
266 25 1027 1 1 0 1 0 1 0 1 0 0 0 0 1 1 1 1 0 1 0 1 0 1 1 1 1 
267 25 943 1 1 0 0 1 1 0 0 1 0 1 1 1 1 1 0 1 1 1 1 1 1 0 1 0 
268 25 1031 1 0 1 0 0 1 0 0 1 1 1 1 0 1 0 1 1 0 1 1 1 1 1 0 1 
269 25 1131 1 1 0 1 0 1 1 0 1 1 1 0 1 1 0 1 1 1 1 0 1 1 1 0 0 
270 25 1081 1 0 0 1 0 1 1 0 1 1 1 1 1 1 0 1 0 1 1 1 0 1 0 0 0 
271 25 1046 1 1 0 1 0 1 1 1 1 0 1 1 0 1 1 1 1 0 1 1 0 0 1 0 1 
272 25 846 1 1 1 1 1 1 1 0 0 0 0 0 1 1 0 1 0 0 0 1 1 1 1 1 0 
273 25 1097 0 1 0 0 1 1 1 1 1 1 0 0 1 1 1 1 0 1 1 1 0 0 1 0 1 
274 25 1130 0 0 0 0 1 0 1 1 1 1 0 1 0 1 0 1 0 1 0 1 1 1 0 1 1 
275 25 968 0 1 1 0 1 0 0 1 1 1 1 1 1 0 1 1 1 1 0 1 0 1 0 0 1 
276 25 1123 1 1 1 1 0 1 1 1 1 1 0 0 1 1 1 0 0 1 0 0 0 1 1 0 1 
277 25 902 1 1 1 1 1 0 0 1 1 1 1 0 1 1 1 0 0 0 0 0 1 1 0 1 1 
278 25 1070 0 1 0 1 1 0 0 0 1 0 0 1 1 0 1 0 1 0 1 1 1 0 1 1 1 
279 25 763 1 1 0 1 0 1 1 1 1 0 1 1 0 1 0 1 0 1 0 0 1 1 0 1 1 
280 25 890 0 1 0 1 1 0 1 0 1 1 0 1 1 1 0 0 0 0 1 1 1 1 1 0 0 
281 25 1021 0 1 1 1 1 1 1 1 0 0 1 0 1 1 1 1 1 0 0 1 0 1 0 1 0 
282 25 986 0 1 0 0 0 1 1 1 1 1 0 1 0 1 1 1 1 1 1 1 0 0 1 1 1 
283 25 1010 1 1 1 1 1 1 0 1 0 1 0 1 0 0 0 1 1 1 1 0 0 1 1 0 1 
284 25 951 1 0 1 1 1 1 1 0 0 0 1 0 1 0 1 0 1 1 1 0 1 1 1 1 1 
285 25 1009 1 1 0 1 1 1 0 1 1 1 1 1 0 1 0 1 0 0 0 0 1 0 1 1 0 
286 25 859 0 1 0 0 1 1 1 1 1 0 1 1 1 1 0 1 0 1 0 0 0 0 1 1 0 
287 25 1014 0 0 0 0 1 1 1 0 0 1 1 0 1 1 1 0 1 1 1 1 1 1 0 1 1 
288 25 1042 1 1 0 1 0 1 0 1 1 1 1 1 0 0 1 1 1 0 1 1 1 0 1 0 1 
289 25 1091 0 0 1 1 1 0 1 0 0 1 0 1 1 1 1 1 0 1 0 1 0 1 1 1 1 
290 25 1076 0 1 1 0 0 1 1 0 1 0 1 1 1 0 1 0 0 1 1 1 1 0 1 1 1 
291 25 991 0 1 1 0 1 1 0 1 1 0 1 0 0 1 0 1 0 1 1 1 1 1 1 1 0 
292 25 1064 0 1 1 0 1 0 1 0 1 1 1 1 0 0 1 0 1 0 1 1 1 1 1 1 0 
293 25 1020 0 1 1 1 0 1 1 1 0 0 1 1 1 1 0 1 1 1 1 0 0 1 1 0 1 
294 25 1097 1 1 1 0 0 1 1 1 0 0 1 1 0 1 1 0 1 1 1 1 0 1 0 1 0 
295 25 909 0 1 0 1 0 1 0 1 1 1 1 1 0 0 1 1 0 1 1 0 1 1 1 1 0 
296 25 949 1 0 1 1 0 0 1 1 1 1 1 1 0 1 0 1 0 1 0 0 0 1 1 1 0 
297 25 874 1 1 1 1 0 1 1 0 1 0 1 1 0 0 0 1 1 1 0 1 0 1 0 0 1 
298 25 840 1 1 0 1 1 0 0 0 0 1 1 1 1 1 0 1 0 0 0 1 0 1 1 1 1 
299 25 814 1 1 1 0 1 0 1 1 0 1 1 0 0 0 1 1 1 1 0 1 1 1 0 0 0 
300 25 847 1 0 0 1 1 1 0 1 1 1 1 1 1 0 0 1 1 0 1 1 1 1 0 1 1 
301 25 933 0 0 1 0 1 0 1 1 1 1 0 1 1 1 0 0 1 0 1 1 0 1 1 0 1 
302 25 935 0 1 0 1 1 1 1 0 0 0 0 1 1 0 1 0 1 1 1 1 1 0 1 1 0 
303 25 1122 1 1 1 0 1 0 1 0 1 1 1 1 1 0 0 1 1 1 1 0 0 1 0 1 0 
304 25 1114 1 1 0 1 0 0 0 1 1 0 1 1 0 0 0 1 0 1 1 1 1 1 1 0 1 
305 25 844 1 1 0 1 0 1 0 1 0 1 0 0 1 1 0 1 1 1 0 0 1 1 1 1 0 
306 25 900 1 0 0 1 1 1 0 1 0 0 1 1 1 1 1 0 1 0 1 0 0 1 0 0 1 
307 25 897 1 0 0 0 1 0 0 1 1 1 0 0 1 1 1 1 1 0 1 1 1 0 1 1 0 
308 25 913 1 1 1 0 1 1 1 0 1 1 0 1 0 0 0 1 1 1 1 1 1 1 1 1 0 
309 25 1034 0 1 1 1 1 1 0 0 1 1 0 0 1 0 1 0 1 1 0 1 1 0 1 0 0 
310 25 903 1 0 1 0 0 1 1 0 1 1 0 1 1 1 0 1 1 0 1 1 1 1 0 1 0 
311 25 1026 1 1 0 0 0 1 0 1 1 1 1 1 1 1 1 0 1 1 0 0 0 0 1 0 1 
312 25 1051 0 0 1 1 1 1 0 1 0 0 1 1 1 1 1 1 0 0 1 0 1 1 1 0 1 
313 25 1025 0 1 1 0 0 1 1 1 1 1 1 0 1 0 1 1 1 1 0 0 0 1 1 1 0 
314 25 1166 0 1 1 0 1 0 1 1 1 0 0 1 1 1 0 1 1 1 0 1 1 1 0 1 0 
315 25 821 1 0 0 0 1 1 1 1 1 1 1 0 1 1 0 0 0 0 1 0 1 0 0 1 1 
316 25 1071 1 1 0 0 0 0 1 0 1 1 1 1 1 1 0 1 0 1 1 1 0 1 0 0 0 
317 25 1077 1 0 0 1 0 1 1 1 1 1 1 0 1 1 0 1 1 0 1 1 0 1 1 0 0 
318 25 1221 1 1 0 1 1 1 1 1 1 0 0 1 0 1 1 1 1 1 1 1 0 1 0 0 1 
319 25 1020 1 1 1 1 1 1 1 1 1 0 1 0 0 0 1 1 1 0 1 1 0 0 1 0 1 
320 25 1079 1 1 0 1 1 1 0 0 1 1 1 1 0 1 0 1 1 1 0 0 1 1 1 1 1 
321 25 887 0 1 0 1 1 1 1 0 0 0 0 0 1 1 0 1 1 1 1 1 1 0 1 0 1 
322 25 848 0 1 1 1 0 1 0 1 1 1 1 0 0 1 0 1 0 1 1 1 0 1 1 1 0 
323 25 1013 0 1 1 1 1 1 0 1 1 1 1 1 1 1 1 0 1 1 1 0 0 0 0 0 1 
324 25 863 1 0 1 1 0 0 1 0 1 0 1 1 1 1 1 0 1 0 0 1 1 0 1 1 0 
325 25 1096 1 1 1 1 1 0 1 0 1 1 1 1 0 0 0 0 1 0 1 1 0 0 0 1 1 
326 25 883 0 1 0 1 1 1 0 0 0 1 0 1 0 1 1 0 1 1 1 1 1 0 1 1 1 
327 25 977 1 1 1 1 1 0 0 1 0 1 0 0 1 1 1 1 0 1 0 1 1 0 0 1 0 
328 25 971 0 1 1 1 1 1 0 1 1 1 1 0 1 0 1 0 0 0 1 0 1 0 1 1 1 
329 25 1007 1 1 1 0 1 1 0 1 0 1 1 1 1 0 0 1 1 1 0 1 1 1 0 0 0 
330 25 932 0 0 1 1 0 0 1 0 0 0 1 0 1 1 1 1 1 1 1 1 1 1 1 0 1 
331 25 1163 1 0 1 1 1 1 1 1 1 1 1 0 0 0 0 0 1 1 0 1 1 0 0 1 0 
332 25 1123 0 1 1 1 0 1 1 0 1 0 0 1 1 1 1 1 0 1 0 1 0 1 1 1 0 
333 25 967 1 1 0 0 0 1 1 1 0 1 0 1 1 0 0 0 1 1 1 1 1 0 1 0 1 
334 25 1013 0 0 0 0 1 1 1 1 0 0 1 0 1 1 1 1 1 1 1 0 1 1 1 0 1 
335 25 942 1 1 1 1 0 0 0 1 1 0 0 1 1 1 1 1 1 1 1 0 1 1 1 0 0 
336 25 826 1 0 1 1 0 0 0 1 1 0 0 0 1 1 1 0 1 1 0 1 1 1 1 1 0 
337 25 1089 1 0 1 1 1 0 1 1 1 0 1 0 0 0 1 0 1 1 0 1 1 0 1 0 1 
338 25 826 0 0 1 0 1 1 0 1 0 1 1 1 1 1 1 1 0 1 1 1 0 0 0 0 0 
339 25 790 1 0 0 1 1 1 1 1 1 0 1 1 0 1 0 0 0 1 0 1 1 1 0 1 1 
340 25 907 1 1 1 1 0 1 1 0 1 0 1 1 0 0 0 1 1 1 0 1 0 1 0 1 0 
341 25 1074 1 1 1 1 0 0 1 1 1 1 1 0 1 0 1 0 1 0 0 1 0 1 1 1 1 
342 25 1030 1 1 1 1 1 1 1 0 1 1 0 0 0 1 1 1 0 1 1 0 1 0 0 1 1 
343 25 997 0 1 1 1 0 0 1 1 1 1 1 1 1 0 0 0 1 1 1 1 0 0 1 0 1 
344 25 1004 0 0 0 1 1 1 1 1 1 0 1 1 0 1 0 0 1 0 1 1 1 0 1 1 1 
345 25 980 0 1 1 0 0 1 0 1 1 1 1 0 1 1 0 0 1 1 1 1 1 1 1 0 0 
346 25 1197 1 0 1 1 0 1 0 1 1 1 1 1 1 1 0 1 1 0 1 0 0 0 1 1 0 
347 25 944 1 1 0 1 1 0 0 0 1 1 0 1 1 0 1 0 1 1 1 1 0 0 1 1 1 
348 25 950 0 1 0 1 0 1 1 0 1 1 1 1 1 0 0 0 1 1 0 1 1 0 0 1 1 
349 25 1015 1 1 1 1 0 0 1 0 0 0 1 1 1 0 1 1 0 0 1 1 1 1 1 1 0 
350 25 732 1 0 0 1 1 1 1 1 1 1 1 1 0 0 1 0 1 1 1 1 0 0 0 1 0 
351 25 947 1 0 1 0 1 0 1 0 1 1 0 0 1 1 0 1 1 0 0 0 0 1 1 1 1 
352 25 1009 1 1 1 1 1 1 1 0 1 0 1 1 1 1 0 1 1 1 0 0 0 0 1 0 1 
353 25 884 0 1 1 1 0 0 1 1 1 1 1 0 0 1 0 1 1 0 0 1 0 1 1 1 1 
354 25 1062 1 1 1 0 0 0 1 0 0 1 1 1 1 1 1 1 0 1 0 1 0 0 1 1 1 
355 25 1021 0 1 1 0 1 0 1 1 1 1 1 1 1 0 1 0 1 1 1 0 1 0 1 0 0 
356 25 894 1 0 1 0 1 1 0 0 1 0 1 1 1 1 1 0 0 1 1 0 0 1 1 0 1 
357 25 968 0 1 0 1 1 0 1 0 1 0 1 0 1 1 1 1 0 1 1 1 1 0 1 1 0 
358 25 899 1 1 1 1 1 1 1 1 1 1 1 0 1 0 0 0 0 1 1 1 1 1 1 0 1 
359 25 1071 0 1 0 0 0 1 1 0 1 1 1 1 0 1 0 0 1 1 1 1 0 1 0 1 1 
360 25 927 0 0 1 0 1 1 1 1 0 1 0 0 0 1 1 0 0 1 1 1 0 1 1 0 1 
361 25 892 1 0 0 1 1 1 1 0 1 1 1 1 0 0 1 1 1 1 1 0 0 0 0 1 0 
362 25 899 1 0 1 1 1 1 1 0 1 0 1 1 1 0 0 0 1 1 1 1 1 1 0 0 0 
363 25 994 1 1 1 1 1 1 1 1 0 0 0 0 0 1 0 0 0 1 1 1 0 1 1 0 0 
364 25 1061 1 0 1 0 1 1 0 1 1 0 1 1 1 1 0 1 1 0 1 0 1 1 1 0 0 
365 25 1188 1 1 1 1 1 0 1 0 1 1 0 0 0 1 1 1 0 1 0 1 1 1 1 1 0 
366 25 991 0 0 1 1 1 1 1 1 1 0 0 1 1 1 0 1 0 0 0 1 1 1 0 1 0 
367 25 1009 0 1 0 1 1 1 0 0 1 1 0 1 1 1 0 1 1 1 0 0 1 0 1 1 1 
368 25 931 1 1 0 0 1 1 1 1 0 0 1 0 1 1 1 1 1 0 1 1 0 0 1 0 1 
369 25 912 1 1 0 1 0 1 1 0 0 0 1 0 1 1 1 0 1 1 0 1 1 1 1 1 1 
370 25 1068 1 1 0 1 1 1 1 1 1 1 0 0 0 1 1 1 1 1 0 0 0 1 0 1 1 
371 25 993 0 1 1 1 1 0 1 0 1 1 0 0 0 1 1 1 0 1 1 0 1 1 1 1 0 
372 25 996 1 1 1 1 1 1 1 1 1 0 1 0 0 0 0 1 0 0 0 1 1 0 1 0 1 
373 25 1103 0 1 0 0 1 1 0 0 1 0 1 1 1 0 1 0 1 0 1 1 1 1 0 1 1 
374 25 905 1 1 0 1 1 0 0 1 0 0 1 0 1 0 1 1 1 0 1 1 0 1 1 1 1 
375 25 942 1 0 1 1 1 1 1 1 0 0 0 1 0 1 1 1 0 1 1 1 0 0 1 0 1 
376 25 1084 0 1 1 1 1 1 1 1 0 0 1 1 1 1 0 0 1 1 0 1 0 0 1 1 0 
377 25 1083 1 0 1 1 1 1 0 1 1 0 0 1 0 1 0 1 1 1 0 1 1 1 0 1 1 
378 25 1127 0 1 0 1 1 1 1 1 1 1 1 1 0 0 0 0 1 1 1 1 1 1 1 0 0 
379 25 1040 1 1 0 0 1 1 1 1 0 1 1 1 1 1 0 1 1 0 1 0 0 1 1 1 0 
380 25 1016 0 1 0 1 1 1 0 0 1 1 1 0 1 1 1 1 0 0 1 1 1 1 0 1 1 
381 25 867 1 0 1 1 0 1 1 0 0 0 1 1 0 1 0 1 1 0 1 0 1 1 0 1 1 
382 25 932 1 1 0 0 1 1 1 1 0 0 0 1 1 0 0 1 1 1 1 0 1 0 1 1 1 
383 25 1009 1 1 1 0 1 1 1 1 1 0 0 0 1 0 1 1 1 0 0 1 0 1 1 1 0 
384 25 1080 1 1 1 0 0 1 1 1 0 1 0 1 1 1 0 1 1 1 0 0 1 1 1 0 0 
385 25 954 1 1 0 1 0 0 0 0 1 1 1 1 1 0 1 1 1 0 1 1 1 1 1 1 0 
386 25 1115 1 0 1 1 1 1 1 1 1 0 1 1 0 1 0 0 1 0 0 1 0 1 0 0 0 
387 25 854 1 1 1 1 1 0 0 1 1 0 1 1 1 0 0 1 1 1 0 0 0 0 0 0 1 
388 25 988 1 1 1 1 1 1 0 0 1 1 1 1 1 1 0 1 0 1 0 0 1 1 0 0 1 
389 25 1007 1 1 1 1 0 1 1 1 1 0 1 1 1 0 0 1 0 1 0 1 0 1 0 1 0 
390 25 936 0 1 1 0 1 1 1 1 1 1 0 0 0 0 0 1 0 1 1 0 0 1 1 0 1 
391 25 1197 1 0 0 0 1 1 1 1 1 1 1 0 1 1 1 0 1 1 0 1 1 0 1 0 1 
392 25 933 1 1 1 0 1 0 0 1 1 1 1 1 1 1 1 0 0 0 0 0 1 1 1 0 1 
393 25 951 1 0 1 1 0 1 0 1 1 0 1 1 1 0 1 1 0 1 0 1 0 1 1 1 1 
394 25 1055 0 1 0 1 1 0 1 1 0 0 1 0 1 1 0 1 0 1 1 1 1 1 1 1 0 
395 25 927 1 0 0 0 1 1 1 1 0 0 1 1 1 1 0 0 1 1 1 1 1 1 1 0 0 
396 25 1096 0 1 1 0 1 1 1 1 1 1 1 1 1 1 0 1 1 0 1 0 0 0 1 0 0 
397 25 839 1 0 1 1 0 0 0 1 1 1 0 1 1 0 0 1 1 1 0 1 1 1 1 0 1 
398 25 872 1 1 1 0 0 1 1 1 0 1 1 0 0 1 1 0 1 1 1 1 1 0 0 1 0 
399 25 952 1 1 1 0 1 0 0 1 1 1 0 0 0 0 1 1 1 1 1 0 1 1 1 0 0 
400 25 859 1 1 1 1 0 1 1 1 0 1 0 1 0 0 0 1 1 1 0 1 1 0 0 0 0 
401 25 994 0 0 0 1 1 0 0 1 0 1 1 1 1 1 0 1 1 1 0 0 1 1 1 0 1 
402 25 1014 0 1 1 1 1 0 1 0 0 1 0 0 1 1 1 0 1 0 0 1 1 0 1 0 0 
403 25 976 0 0 0 1 1 1 0 0 0 1 0 1 0 1 1 1 0 0 1 1 1 1 1 0 0 
404 25 874 1 0 0 1 0 1 1 0 0 1 1 1 0 1 0 1 0 1 1 1 1 1 1 1 0 
405 25 1068 1 1 1 0 0 1 0 1 1 1 1 0 1 0 0 1 0 1 1 1 1 1 0 1 1 
406 25 1096 1 1 1 0 1 1 1 0 0 0 0 1 1 1 1 1 1 1 1 0 0 1 0 1 0 
407 25 937 0 0 1 1 0 0 0 0 1 1 1 0 1 1 1 1 1 1 1 1 0 0 1 0 0 
408 25 1031 1 0 0 1 1 0 1 1 0 1 1 0 1 0 1 0 0 1 1 1 1 0 1 0 1 
409 25 937 1 1 0 1 1 0 1 0 1 1 0 1 0 1 0 1 0 0 1 1 1 1 0 1 1 
410 25 872 0 0 1 0 1 1 1 1 1 1 0 0 0 1 1 1 1 0 1 1 1 0 0 1 0 
411 25 1014 1 1 1 0 1 0 1 1 1 1 1 1 1 0 1 1 0 0 1 0 1 1 0 0 1 
412 25 907 1 0 1 0 1 1 0 1 0 1 1 1 1 1 1 1 0 1 1 0 1 1 0 0 0 
413 25 1056 0 0 1 0 1 1 1 0 1 0 1 0 1 1 0 1 1 1 0 1 0 0 1 1 1 
414 25 906 1 0 1 1 1 0 1 1 0 1 1 0 0 1 1 1 1 0 1 0 0 0 1 1 0 
415 25 989 1 0 1 0 0 1 1 1 0 0 1 1 1 1 0 0 0 1 0 1 1 1 1 0 1 
416 25 985 1 1 0 1 0 1 1 1 0 1 1 1 0 1 1 0 0 0 1 0 0 1 0 1 1 
417 25 864 1 1 1 1 0 0 0 1 0 1 1 1 0 0 0 1 1 1 1 1 0 1 0 1 1 
418 25 741 0 1 1 1 0 1 0 1 0 1 0 1 1 1 1 0 1 0 0 1 1 1 1 1 1 
419 25 1039 1 1 1 0 0 1 0 0 1 1 0 0 0 1 1 0 1 1 1 1 1 1 1 0 0 
420 25 894 0 0 0 1 1 1 1 0 1 0 0 1 1 1 1 1 0 1 1 1 1 0 0 1 0 
421 25 995 1 1 1 1 0 1 1 1 0 0 0 0 1 1 1 0 1 0 1 1 1 1 0 0 0 
422 25 1122 1 1 0 0 1 0 1 1 1 1 1 0 1 0 1 1 0 0 1 1 0 0 1 0 1 
423 25 1031 1 1 0 0 0 0 1 1 0 0 1 0 1 1 0 0 1 1 1 1 1 1 1 1 1 
424 25 1003 0 0 1 1 1 1 1 0 1 1 1 0 0 1 1 1 1 1 1 1 1 1 1 0 0 
425 25 1205 0 1 1 1 1 0 1 1 1 0 1 0 1 0 0 1 1 1 0 1 0 1 1 0 1 
426 25 894 1 1 0 0 1 0 1 1 1 0 1 1 1 0 0 1 1 1 1 1 0 0 1 0 1 
427 25 1061 1 1 0 1 1 1 1 1 0 0 1 1 1 0 0 0 1 1 1 0 1 1 1 1 0 
428 25 953 1 1 1 1 0 1 0 1 1 1 1 1 0 0 1 0 0 1 0 0 1 0 1 1 0 
429 25 1126 1 1 0 1 1 1 1 0 0 1 1 1 0 0 1 1 0 1 0 0 1 1 1 1 0 
430 25 890 0 1 1 1 0 0 0 1 1 0 1 1 1 1 1 0 1 1 1 1 1 0 0 0 0 
431 25 1007 0 1 0 0 0 0 1 1 1 1 1 1 0 1 1 1 1 1 0 0 0 1 1 1 1 
432 25 1113 1 1 0 0 1 0 0 1 1 1 1 1 0 1 0 0 1 1 0 1 1 1 1 0 1 
433 25 1009 1 0 1 1 1 1 1 1 0 1 1 0 1 0 0 0 1 1 0 1 1 1 1 1 0 
434 25 1036 0 0 1 0 1 0 1 1 0 1 0 1 0 1 0 1 1 1 1 1 1 1 1 1 0 
435 25 970 1 0 1 0 1 1 1 1 0 1 0 1 1 0 1 1 1 0 0 1 0 1 1 1 0 
436 25 940 0 1 1 1 1 0 1 0 0 1 1 1 0 1 1 1 0 0 1 1 1 1 1 0 0 
437 25 1089 1 1 1 0 0 1 1 1 1 0 0 1 1 1 0 1 0 1 0 1 1 0 0 1 1 
438 25 1037 1 0 0 0 1 0 1 1 1 1 0 0 0 1 1 1 0 0 0 0 1 1 1 1 1 
439 25 974 0 1 1 1 1 1 0 1 0 1 1 0 0 1 1 1 0 1 0 1 1 1 0 1 0 
440 25 1017 1 0 0 0 0 0 1 1 0 1 1 1 1 1 1 1 1 1 1 1 1 1 1 1 0 
441 25 759 0 0 1 1 1 0 1 0 1 0 1 0 1 1 0 0 1 0 1 1 1 0 0 1 1 
442 25 981 1 1 0 1 1 0 1 1 0 1 0 1 1 0 1 0 1 1 1 1 0 1 1 1 0 
443 25 973 1 0 0 0 1 0 1 0 0 0 1 1 1 1 1 1 1 0 0 1 1 1 0 1 1 
444 25 1102 0 0 0 0 1 1 1 1 1 0 1 0 1 1 0 1 1 1 1 1 1 1 0 0 0 
445 25 1022 0 1 1 0 0 0 0 0 1 1 1 0 1 0 1 1 1 0 1 1 0 1 1 0 1 
446 25 1070 1 1 0 1 0 0 1 1 1 0 1 1 1 1 1 1 0 1 1 1 0 0 1 0 0 
447 25 876 0 0 0 0 1 0 0 1 1 1 1 1 1 0 0 0 1 1 1 1 1 1 1 0 1 
448 25 850 0 0 1 1 1 1 0 1 1 0 0 1 1 1 1 1 0 1 1 0 1 0 1 1 0 
449 25 775 1 1 1 0 1 0 1 1 1 0 1 1 0 0 1 1 1 1 0 0 0 0 1 1 1 
450 25 726 1 1 0 0 1 0 0 1 1 1 1 1 0 1 0 0 1 1 0 1 0 1 1 0 0 
451 25 862 0 1 1 1 0 1 1 0 0 1 1 0 0 1 0 1 0 0 0 0 1 1 1 0 1 
452 25 1046 1 1 1 0 0 1 1 1 0 1 1 0 1 0 1 1 1 1 0 0 0 0 0 1 1 
453 25 923 1 1 1 0 0 1 1 1 1 1 0 1 1 0 0 0 1 1 0 0 1 0 0 0 1 
454 25 982 1 1 0 1 1 1 0 1 1 1 0 0 0 1 1 0 1 1 0 1 0 1 0 1 0 
455 25 926 1 0 1 0 1 1 1 1 0 0 1 0 0 0 1 1 1 1 1 1 1 1 1 0 0 
456 25 989 1 1 1 0 1 1 0 1 1 0 0 0 0 1 1 1 1 1 0 0 1 0 1 1 1 
457 25 800 0 1 0 1 1 1 0 0 1 0 1 0 1 1 1 1 0 0 0 1 0 1 1 1 0 
458 25 1203 1 1 0 1 1 0 0 1 1 1 1 1 1 1 0 1 1 1 1 0 0 0 1 1 0 
459 25 1067 0 0 1 1 1 1 1 1 1 0 0 1 0 1 1 1 1 1 0 1 0 1 1 0 1 
460 25 1041 1 1 1 0 1 1 1 0 1 1 1 0 1 0 0 1 1 1 0 0 1 0 1 0 1 
461 25 1064 1 1 1 0 1 1 0 1 0 1 1 1 0 1 0 1 1 1 1 1 0 1 0 0 1 
462 25 1041 0 1 0 1 0 1 1 1 1 0 0 0 1 0 1 0 0 1 1 1 1 0 1 1 1 
463 25 1120 1 0 0 1 1 1 1 0 0 0 1 1 1 0 1 0 1 1 1 1 1 0 1 1 1 
464 25 771 1 0 0 1 1 0 1 1 1 1 1 1 0 1 1 0 1 0 1 0 0 1 1 0 1 
465 25 1026 1 0 0 0 0 1 0 1 1 1 1 1 1 1 0 1 1 1 0 1 1 0 0 1 1 
466 25 1041 0 1 1 0 1 0 1 0 1 1 1 1 1 1 0 1 0 0 0 1 1 0 1 0 1 
467 25 1078 1 0 1 1 1 1 1 0 0 0 0 1 1 1 0 1 0 1 0 1 1 1 1 0 0 
468 25 1209 0 1 0 0 0 1 1 1 1 1 1 1 0 1 1 1 1 1 0 0 1 1 1 1 0 
469 25 827 0 1 0 1 1 0 0 1 1 1 1 0 1 1 1 1 0 0 0 1 1 1 1 1 0 
470 25 1083 1 1 0 1 1 1 0 1 0 1 0 1 1 0 1 0 1 0 1 1 1 1 0 1 1 
471 25 1110 0 1 0 1 1 1 1 1 1 0 1 0 1 0 0 1 1 1 1 0 0 1 0 1 1 
472 25 1013 0 0 1 1 0 0 0 0 1 1 1 1 0 1 1 0 1 1 1 1 0 1 1 1 0 
473 25 864 1 1 1 1 1 1 0 0 1 1 1 0 0 0 0 1 1 1 1 1 1 0 0 0 1 
474 25 1009 1 1 1 1 1 1 0 1 0 0 0 1 1 1 1 0 1 1 1 1 1 0 0 0 0 
475 25 1061 1 1 0 1 1 0 0 0 1 1 0 1 0 1 1 1 1 1 1 1 0 1 0 1 1 
476 25 1012 0 1 1 0 0 1 1 0 1 1 0 1 0 1 0 1 1 1 0 1 0 1 1 1 1 
477 25 929 0 0 1 0 0 1 0 0 1 1 1 1 0 1 0 1 1 1 0 1 1 0 1 0 1 
478 25 980 0 1 0 1 1 0 1 0 0 1 1 1 0 0 1 1 1 1 1 1 1 1 0 1 0 
479 25 841 0 1 1 1 1 0 1 1 1 1 0 0 0 1 1 1 1 1 1 1 0 0 0 1 0 
480 25 751 0 1 0 0 0 1 1 0 0 1 0 0 0 1 0 1 1 1 0 1 1 1 1 1 0 
481 25 984 1 0 0 1 1 0 1 1 1 1 0 0 1 1 0 1 1 1 0 0 0 0 1 1 1 
482 25 878 1 0 0 1 1 0 1 0 1 1 0 1 0 0 0 1 1 1 0 0 1 1 1 1 1 
483 25 962 0 1 0 1 0 1 1 1 1 1 1 1 1 0 1 1 1 1 0 1 0 0 0 0 0 
484 25 1075 1 1 0 1 1 1 0 1 1 1 0 0 1 1 1 1 0 0 1 1 0 1 0 0 0 
485 25 864 0 1 1 0 1 1 1 1 1 1 0 1 0 1 0 1 0 1 0 1 1 0 1 1 1 
486 25 1134 0 1 0 1 1 1 0 1 1 0 1 0 1 0 1 1 1 1 0 1 0 0 0 1 1 
487 25 956 0 0 0 0 1 0 1 0 1 0 1 0 0 1 1 1 1 1 1 1 1 1 1 1 1 
488 25 1095 0 1 1 1 1 1 1 0 0 1 1 1 1 0 1 1 0 1 1 1 0 0 0 1 1 
489 25 907 1 1 1 1 1 1 1 0 1 1 1 1 0 0 0 0 1 0 1 1 1 1 0 0 0 
490 25 955 1 0 0 0 1 1 1 1 1 1 1 0 1 0 1 0 1 0 1 1 0 1 1 1 0 
491 25 894 1 1 0 0 1 1 1 0 1 0 1 1 1 1 0 0 0 1 0 1 1 1 0 1 1 
492 25 947 1 1 1 1 1 1 0 0 1 1 1 0 1 1 0 0 1 0 1 1 1 1 0 1 0 
493 25 1055 0 1 0 0 1 1 0 1 1 0 0 0 1 1 1 0 1 1 1 1 1 0 1 0 1 
494 25 847 1 1 1 1 1 0 0 1 1 1 0 1 1 0 1 1 1 0 0 0 1 0 1 1 1 
495 25 945 1 1 1 1 1 0 1 0 0 1 1 0 1 0 0 0 1 1 1 1 1 0 1 0 1 
496 25 993 0 1 0 1 1 1 1 0 0 0 0 0 0 1 1 1 1 1 1 0 1 0 1 0 1 
497 25 854 0 1 0 0 0 1 1 1 0 1 1 1 1 0 0 1 1 0 1 1 0 0 1 1 1 
498 25 1104 1 0 0 0 1 0 0 1 1 1 1 1 0 1 1 1 1 1 1 0 1 1 0 1 0 
499 25 891 0 1 1 1 0 1 1 1 1 1 1 0 1 1 0 0 1 1 0 0 1 1 1 1 0 
500 25 900 1 1 1 1 0 1 0 1 1 0 1 1 0 0 1 0 1 1 1 1 1 0 1 1 1 
