1 25 3031 329 94 86 46 108 30 243 61 366 20 404 4 31 57 72 1 45 41 476 62 489 57 253 30 345 4 274 52 293 12 135 91 330 47 428 46 55 26 301 25 400 71 15 9 298 84 272 9 14 78
2 25 2967 177 30 99 68 336 17 175 19 286 55 427 55 34 35 167 13 477 96 108 96 320 79 415 7 171 30 83 94 15 86 81 88 417 20 472 63 30 84 214 60 327 75 431 54 265 24 107 59 301 98
3 25 3282 310 35 370 11 347 78 286 31 239 61 372 46 391 76 54 33 166 20 233 87 351 25 372 16 453 32 361 54 354 82 23 45 317 71 69 55 69 48 346 31 475 67 88 77 341 82 135 65 43 97
4 25 3576 443 78 110 10 385 78 131 94 433 64 190 80 92 26 288 81 205 56 258 44 161 99 420 23 314 17 252 32 322 40 51 78 453 10 104 21 472 97 336 64 464 93 366 7 387 14 206 17 309 49
5 25 3551 288 58 398 61 367 77 134 39 330 18 346 48 445 65 192 95 162 6 264 92 319 46 132 80 33 10 238 19 323 88 385 14 452 56 293 7 133 13 142 44 436 40 116 64 392 64 338 5 444 80
6 25 3561 277 43 217 95 290 94 329 25 252 97 155 70 172 12 113 30 432 98 232 23 425 17 353 27 97 99 376 65 259 40 300 51 490 46 427 59 188 43 456 88 93 24 171 29 413 48 496 19 109 78
7 25 2779 351 10 256 29 102 99 92 71 5 7 421 46 463 36 181 54 38 91 316 54 148 53 123 95 144 45 62 79 84 49 160 67 404 11 413 38 83 8 280 34 316 16 112 45 151 39 459 86 395 9
8 25 3405 435 33 240 6 113 39 128 24 203 25 201 47 474 67 202 82 351 81 193 72 255 81 44 28 464 89 423 12 405 83 227 86 249 43 75 12 495 72 183 30 249 32 87 7 395 44 308 45 412 8
9 25 2967 193 97 473 57 464 25 290 92 145 82 222 99 49 1 117 88 55 27 467 17 311 47 455 30 129 100 135 33 170 32 71 29 174 68 150 58 321 32 330 1 47 6 302 41 189 94 426 6 250 5
10 25 3315 269 49 301 12 157 40 387 32 267 71 138 20 130 21 104 93 394 43 449 38 34 97 482 36 166 43 448 100 279 35 373 81 300 2 428 1 316 10 127 98 391 84 162 1 162 99 36 15 330 1
11 25 3059 298 64 188 100 125 53 224 16 279 16 438 48 241 66 251 23 94 23 434 98 86 50 365 20 82 96 151 96 384 59 418 48 161 77 452 48 316 90 193 28 42 68 71 65 88 60 296 89 442 66
12 25 3397 413 54 448 80 395 42 452 80 220 12 220 90 362 40 237 16 215 43 146 21 439 17 253 60 210 17 188 70 384 12 2 76 193 92 349 64 204 10 85 90 75 74 480 12 390 93 408 37 26 86
13 25 2960 197 24 188 24 225 79 434 2 206 30 394 17 463 17 206 10 99 66 119 72 149 30 100 91 30 79 81 78 158 69 430 1 28 42 167 82 466 8 205 42 208 87 420 60 470 94 458 32 20 20
14 25 3424 429 88 101 19 307 4 150 74 447 62 96 57 344 47 179 55 467 41 233 76 230 87 288 4 226 2 158 87 455 52 68 43 358 53 377 15 490 28 8 80 484 35 435 80 315 50 67 57 137 63
15 25 2927 284 52 59 77 454 96 463 53 466 32 206 28 38 60 88 13 310 53 331 93 410 46 20 87 390 57 121 4 183 52 71 63 362 11 263 19 226 10 72 51 142 22 375 36 235 85 22 98 263 14
16 25 2580 93 78 360 24 251 27 379 57 29 39 71 79 131 44 160 46 253 47 114 56 115 7 347 51 2 48 22 88 188 37 442 91 417 92 303 43 186 91 131 23 18 53 473 82 457 37 65 67 154 52
17 25 2875 265 70 119 16 210 87 408 95 286 90 487 27 155 17 78 43 498 69 34 25 306 13 247 74 475 60 495 66 59 84 437 75 440 85 62 47 243 34 29 68 140 57 80 66 123 54 39 66 36 85
18 25 3525 186 30 358 92 327 97 319 1 231 9 484 1 347 57 496 9 128 52 47 76 450 60 344 8 483 53 379 36 10 82 484 23 406 89 276 3 134 61 10 78 172 66 125 12 354 64 338 6 162 44
19 25 3375 472 29 229 93 193 64 50 90 310 49 446 77 294 30 490 14 287 100 5 52 205 73 158 72 368 87 466 68 204 58 371 14 38 4 382 3 324 50 388 12 144 74 315 63 357 49 67 53 188 94
20 25 3176 438 91 263 13 248 33 50 75 377 69 269 50 156 80 485 54 386 13 84 97 60 86 119 40 266 32 68 41 101 100 276 43 467 30 298 4 199 37 281 55 7 39 420 45 165 48 462 83 408 98
21 25 3478 419 9 432 77 195 2 185 9 67 31 410 52 500 83 168 9 455 39 233 65 383 88 10 54 467 16 19 95 442 98 399 22 224 87 121 100 144 14 434 80 486 12 226 37 83 26 392 79 62 45
22 25 3340 337 22 237 18 197 29 7 77 492 42 12 54 174 40 466 46 462 15 107 86 329 84 455 17 378 2 392 72 229 90 395 72 99 51 318 39 169 89 496 58 250 68 210 30 78 50 32 85 360 46
23 25 3515 100 91 234 74 151 92 436 8 450 9 27 92 460 97 464 66 254 84 473 53 175 35 63 36 215 9 227 14 203 44 150 66 201 84 353 86 65 68 319 9 425 67 448 12 420 39 242 12 476 6
24 25 3347 227 93 368 31 428 46 69 92 167 78 158 71 213 8 287 30 260 1 352 46 364 28 337 58 64 51 111 49 270 70 75 43 479 54 495 39 261 61 466 11 51 23 274 36 313 95 173 16 432 9
25 25 3501 71 28 488 12 94 3 195 84 428 23 244 49 299 76 473 62 350 34 150 43 403 65 235 64 91 74 238 97 362 11 339 65 57 100 497 44 394 8 413 38 254 37 402 50 278 59 191 36 57 12
26 25 3064 3 39 122 64 112 6 292 78 245 3 173 33 395 83 353 92 94 92 500 77 201 2 311 90 290 60 79 60 18 56 318 16 269 22 460 59 329 70 464 76 377 61 258 57 126 79 16 1 323 65
27 25 2843 497 100 258 6 152 55 312 19 365 71 55 16 233 32 216 5 136 79 124 27 100 76 48 52 488 67 440 60 279 23 90 76 45 84 199 17 484 40 186 49 341 90 50 98 94 4 404 75 90 26
28 25 3529 364 91 90 80 343 48 98 76 255 54 27 78 397 1 495 57 302 95 360 85 440 32 198 8 417 43 240 48 365 32 362 47 299 37 258 9 63 26 173 55 489 68 334 35 355 9 105 25 230 37
29 25 2626 94 54 122 64 63 40 474 38 234 21 20 55 2 45 322 26 485 17 11 38 33 76 357 56 396 98 104 28 163 68 459 92 73 36 369 98 182 58 94 45 293 31 335 58 259 83 185 46 124 80
30 25 3494 329 71 473 94 115 88 453 47 375 19 318 95 99 47 314 65 120 11 369 2 302 66 352 30 123 39 28 49 421 57 412 22 152 17 303 2 451 100 371 37 128 55 67 53 266 88 247 17 400 17
31 25 2685 406 38 52 1 138 96 8 63 88 98 352 49 35 94 273 96 116 54 78 97 321 88 375 55 27 85 183 4 206 81 163 63 457 43 361 64 407 43 481 35 135 65 30 42 178 98 479 62 21 15
32 25 2937 210 92 436 88 369 9 128 12 17 5 250 79 467 92 184 87 151 30 184 23 169 89 470 40 425 25 79 60 174 28 199 49 353 18 233 70 99 42 256 55 247 21 420 4 1 56 262 40 92 67
33 25 3178 69 50 217 64 401 44 162 68 405 16 458 99 25 26 11 55 492 14 320 73 344 22 227 22 76 64 66 20 443 38 106 72 204 56 312 64 259 62 382 99 164 6 90 57 367 14 400 38 356 34
34 25 3175 463 55 142 43 101 23 343 31 8 27 476 82 403 6 402 73 126 42 5 56 199 31 325 23 373 100 193 56 388 2 331 26 101 64 342 22 490 38 51 89 285 61 77 95 232 97 309 88 185 87
35 25 3001 308 86 250 59 6 39 224 38 239 45 311 18 245 60 25 50 363 5 58 41 468 35 371 22 282 95 457 75 407 91 386 71 292 83 157 85 109 70 42 54 175 51 16 90 197 76 377 38 237 4
36 25 3655 462 46 400 26 215 34 66 21 269 26 80 37 200 18 324 5 107 3 461 94 489 7 464 60 304 1 71 100 386 34 438 83 383 16 193 47 426 81 432 17 233 61 353 77 35 72 420 41 100 5
37 25 2797 5 45 165 28 214 89 396 51 302 38 35 59 317 82 382 19 141 26 258 34 4 66 140 40 23 35 11 38 449 13 326 32 123 59 145 33 412 61 217 50 198 48 305 64 202 37 399 54 425 43
38 25 2688 78 37 413 39 308 71 371 32 20 33 61 75 363 91 482 85 50 98 332 37 222 62 357 27 169 33 231 7 251 52 282 91 50 93 49 79 3 28 134 87 496 44 33 56 389 83 23 10 210 83
39 25 3007 147 71 448 58 135 6 308 16 289 70 486 20 92 11 108 85 65 97 5 35 333 63 108 85 495 66 380 38 319 12 447 60 331 77 435 51 6 48 48 96 172 55 420 56 96 73 80 15 261 19
40 25 2729 109 54 316 31 28 2 432 43 70 45 390 9 161 63 41 46 217 6 90 1 343 45 358 92 326 55 279 92 73 29 204 67 359 47 204 72 91 48 258 18 5 55 401 54 357 8 81 51 265 43
41 25 3518 425 8 48 26 46 71 496 22 481 74 180 77 129 61 349 80 324 59 19 84 403 99 440 25 480 65 30 13 195 89 100 4 433 81 199 74 269 8 406 31 174 17 469 12 147 22 468 75 327 68
42 25 3155 344 71 465 20 320 36 173 41 199 35 321 30 231 67 282 48 241 86 140 18 417 81 334 83 399 23 245 24 422 28 36 68 168 85 303 63 53 20 221 67 278 74 121 42 39 81 350 96 208 81
43 25 3284 213 39 289 26 201 32 179 58 165 85 491 89 437 88 101 15 408 1 280 94 181 13 388 59 384 4 376 59 61 55 273 32 215 59 275 83 282 87 356 84 191 57 2 94 5 46 407 2 408 57
44 25 3058 372 68 299 72 259 76 75 14 71 21 285 17 59 1 373 40 247 95 75 51 362 28 348 35 429 55 355 32 386 88 180 82 64 4 29 89 44 73 338 70 338 41 194 21 341 47 240 29 353 80
45 25 2648 194 21 275 96 47 16 10 37 126 89 330 87 212 34 156 15 169 38 53 30 359 19 309 15 312 86 493 85 125 57 473 53 25 80 32 98 345 13 310 40 169 89 70 18 124 52 299 70 279 52
46 25 2760 335 48 1 67 429 34 158 18 493 10 326 41 138 49 194 50 195 83 78 52 199 75 180 16 477 15 88 18 170 51 253 45 247 36 265 75 143 34 110 100 56 7 430 33 221 88 153 63 181 54
47 25 3294 325 38 172 13 355 70 228 43 10 45 285 86 88 65 487 72 221 91 250 14 460 37 140 55 468 94 149 38 397 37 406 4 498 63 355 86 42 23 286 22 62 32 422 77 1 16 189 19 293 72
48 25 3298 259 78 162 48 498 100 149 53 429 61 179 24 146 63 173 25 210 62 328 48 247 11 335 50 444 26 376 58 425 17 35 83 181 91 231 24 397 44 61 42 108 77 422 31 337 90 12 25 452 90
49 25 3084 272 89 213 29 1 9 123 19 379 28 359 25 453 64 482 44 152 65 107 75 444 8 268 4 155 59 447 21 119 33 350 82 235 47 202 34 462 99 79 49 217 64 127 83 300 1 71 44 152 65
50 25 2995 133 58 80 43 131 40 488 76 345 77 41 78 430 17 177 89 28 18 474 29 327 38 369 78 239 43 495 81 180 35 190 72 499 91 412 86 15 13 63 13 198 24 368 65 175 95 117 45 16 94
51 25 3045 440 59 182 25 82 19 9 8 324 61 188 14 268 73 138 3 58 57 89 23 409 43 257 94 261 24 333 86 354 65 238 27 431 77 325 26 285 56 333 11 490 23 223 2 210 49 21 96 142 100
52 25 3643 325 39 478 13 134 49 371 40 386 2 165 91 330 78 232 39 211 70 341 36 229 60 223 68 309 74 451 32 92 15 180 88 447 54 254 93 100 55 390 23 316 58 236 45 276 19 464 60 347 2
53 25 2305 110 16 205 44 273 34 92 29 61 8 138 43 169 11 180 76 338 14 77 60 107 16 26 79 251 10 343 84 405 85 153 46 244 83 113 85 62 10 238 58 156 24 331 63 62 84 309 4 167 44
54 25 3291 467 81 180 73 33 100 472 80 216 15 324 77 82 37 139 89 15 38 48 13 315 80 339 19 338 60 464 7 459 74 42 82 457 63 451 15 191 98 296 24 321 82 317 46 386 69 225 83 5 75
55 25 3394 50 14 379 50 418 62 148 43 51 81 196 73 176 10 177 33 42 47 433 27 133 86 298 34 497 81 102 96 187 15 361 16 251 24 473 76 450 48 355 6 201 50 416 79 486 44 37 14 472 99
56 25 3493 90 28 238 36 454 49 46 45 433 14 310 11 399 30 83 32 399 2 50 81 378 56 52 83 205 97 318 100 455 95 148 88 133 22 489 9 33 6 408 15 29 63 498 7 425 51 438 9 476 93
57 25 2780 374 12 172 89 410 24 98 56 176 33 3 72 450 32 348 67 74 49 128 90 23 67 323 5 345 14 30 77 206 40 170 11 381 38 279 96 313 67 261 64 408 19 134 3 116 26 194 94 144 54
58 25 3346 335 59 205 54 486 61 211 98 371 1 28 28 117 29 416 71 188 87 100 52 396 96 158 14 73 29 401 5 279 95 427 84 485 97 150 28 78 38 384 43 329 89 360 67 169 59 372 51 174 58
59 25 3059 235 19 382 22 490 95 437 65 75 7 227 4 407 97 121 40 296 68 183 2 275 60 38 66 488 11 37 14 226 49 268 78 105 12 141 64 387 97 197 25 428 51 16 28 385 95 254 91 20 29
60 25 4078 471 71 457 18 395 21 452 4 354 63 148 46 270 22 243 14 347 86 251 25 210 14 105 34 3 41 356 16 299 97 432 65 310 94 438 52 117 24 467 10 393 81 407 2 298 19 445 37 489 76
61 25 3260 202 15 337 63 350 100 412 30 91 7 347 73 244 13 20 14 285 49 453 33 354 40 474 65 388 79 452 62 62 70 308 80 175 57 93 62 270 54 144 16 404 61 289 76 240 89 48 37 78 14
62 25 2732 285 89 104 52 307 81 204 80 224 36 408 91 8 51 284 60 169 79 273 71 283 70 446 79 66 91 419 42 230 81 124 52 477 53 205 79 40 63 59 74 12 45 174 72 283 44 62 91 319 78
63 25 3294 393 23 280 55 156 89 82 5 22 15 130 47 201 10 221 8 192 21 380 44 83 11 405 77 442 73 242 28 275 36 201 82 355 53 470 51 485 1 348 15 466 39 7 40 150 30 279 67 324 13
64 25 2846 327 40 99 62 215 12 230 39 401 47 117 31 201 10 1 63 480 46 293 7 136 46 64 79 116 70 338 57 40 9 279 83 177 96 239 62 212 56 453 41 229 61 142 31 390 14 77 85 437 26
65 25 3113 16 46 205 65 57 92 332 69 164 43 116 28 236 32 374 18 96 52 362 33 365 22 237 64 346 91 42 65 171 49 159 16 328 26 479 29 433 77 243 39 177 96 123 28 476 3 349 88 341 72
66 25 3306 21 84 155 62 286 91 116 95 2 60 398 76 28 15 198 81 393 51 496 70 72 47 369 64 364 54 398 80 95 98 238 75 320 7 143 78 487 87 347 25 335 61 184 12 332 13 456 32 380 13
67 25 2533 396 9 22 31 329 67 247 18 500 9 19 7 25 40 57 18 304 96 137 6 2 13 389 1 470 58 119 35 14 26 184 12 142 100 180 83 112 46 433 31 395 42 22 75 57 27 120 99 392 61
68 25 3090 158 76 345 26 355 31 374 16 275 17 24 13 144 80 383 97 339 83 124 4 243 43 405 78 403 93 349 61 286 21 498 44 200 96 119 52 160 22 103 51 275 27 82 78 22 65 217 67 297 24
69 25 3504 347 9 97 5 176 76 5 77 429 73 410 76 307 34 172 8 419 20 458 77 224 57 330 96 363 45 451 70 154 52 203 91 139 32 163 39 311 37 487 29 102 57 88 78 380 20 364 83 430 92
70 25 3869 228 68 456 11 29 72 108 86 492 10 318 11 391 64 55 47 460 8 408 59 404 29 440 97 165 92 469 44 483 80 299 21 420 68 465 24 43 99 348 96 437 53 447 33 263 81 38 16 73 68
71 25 3405 2 69 124 51 409 54 437 44 228 74 366 81 253 11 384 17 322 54 278 58 89 77 383 81 78 6 295 30 434 95 360 50 255 87 433 51 189 53 329 64 299 9 53 58 455 96 16 84 339 5
72 25 2631 52 72 42 47 139 46 83 32 210 63 24 17 211 8 267 37 177 21 374 90 272 65 3 83 69 44 294 20 376 63 128 42 369 16 129 65 457 27 426 21 102 48 34 49 419 3 403 62 202 38
73 25 2941 413 72 149 38 27 96 451 72 401 47 161 95 47 48 92 71 54 82 106 14 300 67 115 64 453 83 474 61 165 6 430 16 253 6 150 90 303 85 80 67 146 15 415 24 109 91 469 70 120 24
74 25 3429 43 60 221 43 337 75 298 48 70 23 400 16 242 79 471 41 144 70 438 54 424 74 327 44 305 93 102 97 221 89 76 80 283 75 273 40 421 15 148 71 96 57 485 8 435 46 394 90 205 19
75 25 3475 436 93 316 63 442 28 58 92 100 51 74 40 162 62 490 72 375 19 455 26 33 67 489 57 332 7 386 81 475 97 189 72 95 67 423 24 470 40 436 44 372 98 5 1 12 74 189 100 137 39
76 25 2939 136 81 78 87 471 90 26 27 119 38 161 59 110 96 299 75 224 46 32 62 76 62 68 29 399 1 441 2 457 9 259 70 423 24 345 31 467 61 267 90 164 52 402 66 81 32 92 5 281 80
77 25 3505 236 60 418 49 499 54 206 4 311 71 479 84 211 32 173 79 229 58 50 29 298 23 84 67 499 31 333 5 110 76 113 18 79 97 471 28 212 44 400 52 385 8 132 24 392 78 467 82 223 64
78 25 3235 267 48 247 59 383 70 305 89 403 82 39 36 451 9 386 27 303 74 136 90 299 80 263 38 460 11 86 9 342 89 201 93 139 52 452 56 391 5 202 72 9 88 91 28 374 26 180 71 62 82
79 25 3664 409 45 26 69 424 96 453 63 347 36 64 8 307 11 237 65 201 99 397 47 355 81 317 98 334 11 411 66 38 35 268 26 318 8 238 25 431 11 114 26 149 88 423 6 342 74 494 30 231 83
80 25 3033 219 73 367 81 92 63 316 62 406 51 366 17 66 87 474 82 275 5 146 3 488 70 440 90 134 58 272 72 331 66 456 86 211 23 6 50 186 75 1 19 63 95 198 62 147 62 217 61 190 16
81 25 2563 24 56 340 62 270 81 61 51 224 17 200 73 17 92 198 49 469 24 322 77 27 81 24 93 247 35 138 48 267 46 40 8 60 86 115 15 187 33 391 83 500 38 91 10 186 76 310 98 418 40
82 25 2892 159 11 50 91 72 37 166 31 84 84 447 32 413 69 77 8 244 96 436 97 442 37 326 27 464 94 185 90 33 88 328 30 114 85 366 64 252 30 11 5 380 18 86 57 90 25 142 20 417 53
83 25 2753 48 7 213 30 93 9 307 56 452 87 177 45 280 33 324 82 394 35 44 62 139 71 66 86 49 50 129 46 171 29 292 80 144 37 384 13 459 12 197 92 84 20 249 19 45 52 343 85 424 57
84 25 3164 379 80 58 34 464 91 65 7 55 10 387 90 330 70 186 50 325 37 489 96 24 36 257 37 459 86 372 7 277 95 70 7 84 62 428 14 444 9 109 6 279 51 386 40 161 84 180 63 60 57
85 25 3272 269 56 38 80 180 63 191 97 195 95 471 76 290 55 326 89 204 94 389 5 411 24 144 36 324 26 236 77 318 38 169 12 133 44 312 37 357 22 285 18 66 56 317 76 410 58 467 1 43 64
86 25 2482 281 84 108 18 127 64 459 13 105 7 422 9 107 48 44 81 45 30 345 18 80 85 429 15 119 39 48 21 327 100 95 35 129 15 425 16 87 53 377 53 213 28 268 9 59 82 190 41 75 44
87 25 3124 341 12 101 26 46 44 391 78 451 48 45 38 416 15 302 19 278 98 31 43 498 38 108 59 389 32 405 87 358 79 393 71 284 63 3 7 39 30 321 8 230 56 84 13 405 62 290 27 40 48
88 25 3190 287 73 303 64 117 9 433 21 302 45 108 83 470 23 298 58 104 35 93 53 52 59 5 7 444 7 409 24 321 20 180 66 266 86 310 77 15 43 473 69 408 96 465 91 260 53 85 88 172 7
89 25 3558 322 90 463 65 188 47 291 14 305 45 500 27 105 94 273 11 231 67 345 68 193 35 137 81 419 28 110 4 482 86 39 74 410 65 373 84 237 35 307 43 383 56 210 58 195 13 493 9 105 70
90 25 3167 290 51 393 65 461 75 57 25 70 47 423 27 484 98 65 8 187 59 226 63 432 69 343 92 132 99 428 97 183 40 139 1 239 14 104 47 200 14 89 86 145 10 377 37 352 25 467 31 48 33
91 25 2513 240 41 396 32 264 99 19 18 56 9 196 30 193 2 144 56 166 1 118 35 472 10 177 73 83 61 489 93 297 96 60 32 42 35 148 69 163 36 385 67 67 10 238 47 326 66 202 92 86 11
92 25 3532 129 72 185 19 164 76 416 73 215 18 270 54 107 79 286 88 500 12 172 30 204 22 256 66 423 62 227 27 457 4 283 94 391 11 192 95 423 43 294 89 249 44 277 45 118 36 494 19 333 4
93 25 3279 191 100 261 97 472 21 421 25 52 54 258 82 126 49 408 45 105 71 206 25 209 63 33 75 491 90 277 18 132 33 395 88 217 16 487 5 349 61 255 33 228 13 495 88 204 73 85 99 202 99
94 25 2849 336 77 440 81 238 62 473 99 7 92 232 59 443 33 3 32 235 35 384 69 102 54 322 15 94 98 196 14 141 3 410 5 345 40 73 6 489 52 23 69 266 77 8 17 287 32 134 55 18 80
95 25 3273 168 29 71 98 289 57 35 80 253 40 455 64 475 9 148 9 75 72 12 80 401 58 291 96 421 2 243 73 73 32 446 79 160 28 38 54 381 4 466 49 333 69 68 12 483 44 437 10 325 18
96 25 3244 247 4 333 11 170 64 277 62 287 63 400 24 366 95 400 26 299 76 245 4 14 84 405 6 153 46 175 36 200 40 151 66 358 3 228 52 48 71 56 58 399 6 458 53 30 21 493 53 297 95
97 25 3091 119 46 217 2 101 78 380 86 99 98 427 6 339 28 123 74 460 32 361 4 159 55 310 14 41 66 197 67 261 48 395 26 119 60 341 62 48 81 87 7 428 69 401 37 57 98 436 87 276 74
98 25 3317 245 5 462 22 324 38 235 84 329 66 162 59 376 12 43 61 456 65 53 16 276 25 356 86 484 93 214 90 354 29 73 84 446 98 333 12 204 53 90 52 361 62 481 42 133 20 113 9 32 89
99 25 3524 296 84 49 61 416 50 408 87 480 45 221 71 416 92 300 96 109 42 110 85 67 7 33 97 240 69 419 24 380 3 378 48 262 56 63 33 162 10 496 100 460 29 479 75 306 49 257 29 241 87
100 25 3335 252 52 464 61 457 47 201 4 482 99 476 96 279 70 219 14 97 7 321 91 82 67 241 10 430 45 22 22 340 51 141 94 202 3 26 51 178 40 434 96 379 100 307 58 250 60 162 66 228 21
101 25 2873 22 96 498 15 103 25 43 23 79 30 205 8 65 75 130 94 372 15 492 30 323 23 294 33 384 5 67 5 82 48 334 21 459 99 202 11 56 8 499 19 432 62 28 29 462 64 77 11 38 8
102 25 3808 179 51 282 97 179 86 136 2 460 5 446 7 164 79 338 47 387 41 371 48 406 15 405 55 245 17 249 94 344 77 446 39 360 83 133 37 327 10 483 51 210 90 145 92 248 85 482 24 191 76
103 25 3427 273 86 245 12 383 6 186 53 475 36 135 96 453 11 340 49 331 5 77 91 306 80 7 2 171 16 325 32 118 40 443 93 471 28 135 81 225 49 212 98 352 9 152 83 494 52 271 69 275 63
104 25 3007 455 70 341 24 139 12 167 78 72 37 290 74 270 91 12 65 80 60 199 49 310 63 151 56 411 74 418 5 354 77 26 1 14 16 497 11 484 3 448 76 262 32 102 97 29 70 195 9 288 30
105 25 2923 346 98 74 9 61 8 131 34 132 95 275 19 257 28 354 1 393 55 469 2 77 98 315 84 146 39 348 91 82 19 20 33 485 49 238 37 431 96 262 21 102 16 400 94 201 27 193 85 54 23
106 25 3049 266 73 468 25 283 90 23 15 201 68 91 23 120 94 137 77 124 91 330 5 496 39 255 58 322 54 25 47 345 47 359 18 11 54 189 41 377 72 164 12 223 40 208 82 479 12 395 15 207 3
107 25 3434 295 20 322 17 250 83 421 77 387 78 342 11 73 88 266 56 359 16 93 8 398 63 61 64 448 43 332 3 402 97 86 95 256 33 313 22 364 85 234 60 103 37 252 28 132 40 184 76 496 69
108 25 2595 372 89 148 91 206 7 168 52 310 11 265 75 485 18 11 9 166 24 86 11 310 4 280 53 26 16 365 15 384 100 138 18 197 60 162 34 70 78 267 95 191 30 57 38 383 86 72 51 72 71
109 25 3452 235 1 282 25 418 54 326 53 21 77 459 7 246 11 330 53 428 100 341 11 312 49 151 38 160 13 101 4 40 93 456 63 490 37 411 40 296 77 43 75 294 51 311 65 429 24 250 45 75 37
110 25 3706 264 60 378 83 4 54 485 57 89 18 289 49 378 16 406 23 497 75 246 8 245 68 442 96 170 14 178 58 415 93 125 100 216 83 194 13 361 80 72 36 401 27 434 14 326 91 298 92 500 50
111 25 2765 185 25 135 98 366 18 257 28 246 50 413 94 186 89 248 88 146 23 92 68 424 7 289 84 8 6 197 97 392 7 378 37 304 89 308 51 71 20 192 53 187 39 100 21 317 88 67 47 23 53
112 25 3087 228 36 441 52 78 45 446 52 360 15 457 7 294 50 418 65 142 17 163 42 128 44 478 78 484 58 382 44 336 43 196 29 126 100 97 73 109 62 10 26 310 56 156 24 93 34 22 90 220 69
113 25 2531 424 24 52 17 171 50 295 33 184 52 55 21 245 91 119 69 118 55 491 88 167 46 100 24 73 3 318 18 174 81 67 8 298 56 146 42 38 14 113 14 233 37 389 57 211 67 195 19 387 48
114 25 3691 359 50 371 87 471 2 271 9 84 41 322 92 286 10 105 71 27 73 46 64 398 68 341 98 221 13 317 79 353 98 420 28 315 35 479 80 123 33 269 96 178 46 500 12 366 8 391 5 369 26
115 25 3671 319 30 389 69 416 61 85 17 426 53 93 6 156 49 351 81 157 61 280 19 272 32 422 60 404 3 51 36 217 41 112 81 250 77 464 85 127 47 483 83 422 29 471 72 327 87 495 33 153 78
116 25 3027 225 10 484 58 367 13 81 62 299 2 234 93 11 31 192 19 17 58 79 35 131 63 205 47 111 21 247 92 219 89 414 56 8 75 60 63 461 7 412 17 171 7 464 31 500 32 336 28 327 57
117 25 3312 475 28 69 35 3 3 400 10 297 4 102 58 230 40 274 98 159 30 220 10 473 49 81 60 283 95 265 54 85 85 187 81 132 33 227 51 495 12 434 72 203 83 418 23 467 56 296 69 350 28
118 25 3213 333 58 270 9 493 57 490 33 176 95 69 6 307 15 250 48 248 3 189 71 343 8 368 16 268 90 359 20 329 30 285 60 60 37 464 17 90 79 79 71 275 38 140 6 409 65 87 93 45 17
119 25 2346 234 45 409 29 370 16 86 7 32 94 34 7 132 11 118 43 401 100 27 33 25 9 132 37 20 13 342 49 18 59 169 59 2 24 382 48 147 77 297 21 60 99 288 57 377 54 434 50 157 100
120 25 2879 35 66 191 82 150 49 245 42 74 62 316 70 342 42 390 87 324 95 289 39 335 16 258 29 228 61 178 62 14 58 429 88 24 21 388 50 21 73 124 10 58 15 479 80 47 4 393 41 427 39
121 25 3081 49 18 472 98 152 18 320 23 386 83 229 46 420 58 161 39 201 43 179 19 71 27 132 71 134 48 127 95 114 44 102 76 106 10 446 7 367 10 329 4 403 90 446 95 410 12 167 90 239 50
122 25 3610 475 4 104 55 436 47 175 56 397 67 41 42 112 76 274 62 422 51 28 54 259 46 423 51 119 82 446 65 467 70 456 52 207 8 284 43 450 57 328 88 317 18 457 91 22 78 485 6 37 76
123 25 2722 230 19 225 53 97 52 337 27 189 21 201 44 417 99 330 88 1 69 216 76 290 20 108 2 348 67 350 92 176 24 148 8 81 27 452 49 195 49 250 81 286 5 55 50 62 58 319 14 81 1
124 25 3061 129 63 272 35 119 24 335 19 445 73 481 46 51 64 250 58 380 99 82 18 17 45 201 67 77 21 417 81 271 44 136 48 495 25 382 33 63 4 251 73 318 94 414 97 86 72 50 64 401 22
125 25 2885 259 38 79 33 401 60 140 14 324 12 185 37 278 4 121 75 221 67 385 88 83 29 43 87 439 7 1 45 302 92 282 61 11 39 42 7 355 19 500 2 248 72 125 80 449 58 224 95 273 28
126 25 2427 260 93 172 17 35 58 16 86 381 68 106 16 22 6 497 38 109 56 119 36 485 97 6 90 228 69 51 1 348 80 4 35 78 44 433 4 257 51 171 98 97 61 446 49 151 70 90 65 293 56
127 25 2620 157 62 89 95 181 64 51 27 113 17 230 55 216 58 5 4 21 48 244 14 220 50 488 30 100 35 490 4 49 34 75 2 470 29 174 52 59 76 370 96 480 67 408 84 38 23 488 87 25 86
128 25 3062 278 49 16 91 442 36 449 37 389 28 6 85 187 23 88 42 263 14 448 8 308 87 305 82 138 100 205 20 34 75 245 62 15 18 99 26 438 48 299 27 412 81 263 7 160 67 140 97 497 95
129 25 3205 183 31 186 54 325 47 231 23 449 38 87 87 78 85 124 77 247 1 342 57 434 15 178 90 358 51 239 57 70 77 486 26 264 88 163 68 175 97 391 46 472 51 77 27 411 64 67 16 374 79
130 25 3267 354 77 251 31 396 57 437 52 422 48 118 56 448 21 18 98 197 97 15 41 462 71 351 31 56 38 452 76 203 60 391 11 207 16 71 27 49 85 332 90 267 61 241 53 232 83 355 90 209 73
131 25 3003 190 20 344 80 466 94 19 100 294 78 180 73 284 100 117 89 422 20 416 92 233 51 481 79 70 82 102 94 344 81 314 89 287 14 44 6 215 27 106 53 234 94 246 72 167 76 425 14 7 28
132 25 2826 344 62 289 71 46 47 115 5 60 31 267 23 408 28 374 79 142 64 286 3 60 40 121 70 215 11 410 96 133 36 18 47 96 21 1 8 200 66 358 100 360 12 421 80 487 35 40 10 401 15
133 25 2388 406 69 110 58 27 38 116 28 30 27 100 20 30 51 11 66 149 46 459 79 356 82 238 35 490 65 116 77 398 74 66 14 352 93 118 41 153 86 398 95 11 97 168 1 331 33 68 45 76 2
134 25 2831 426 67 225 1 440 47 116 87 224 88 151 78 60 47 469 99 461 41 112 40 48 66 308 64 365 11 164 51 219 76 71 44 106 38 85 72 192 100 3 42 360 5 211 93 299 67 284 69 264 10
135 25 3307 101 99 194 6 464 54 342 31 6 100 190 93 450 67 460 2 127 12 414 73 364 98 493 62 37 83 43 62 90 85 236 7 436 9 478 63 355 64 225 72 240 39 134 23 243 51 59 72 433 82
136 25 3214 37 47 386 80 124 7 79 96 356 100 335 32 292 33 472 10 386 84 268 17 229 17 11 28 403 63 134 31 316 37 477 20 433 69 409 16 123 28 387 63 336 92 49 85 82 40 172 78 133 8
137 25 3422 259 78 451 35 35 85 351 77 394 32 277 69 436 22 284 6 296 92 274 90 180 24 243 41 125 33 255 32 222 64 449 67 315 89 92 85 223 31 259 80 332 6 70 14 267 24 447 97 308 73
138 25 3074 380 17 170 35 9 11 427 33 13 67 443 6 336 92 283 3 192 89 456 75 258 53 63 11 198 99 425 13 9 59 468 23 194 68 295 50 141 55 226 51 366 82 74 18 116 19 123 42 483 32
139 25 2935 302 7 129 63 311 12 124 86 226 1 301 4 223 77 395 38 285 17 49 79 109 92 183 81 329 81 395 80 453 42 112 28 212 17 130 17 355 20 166 38 467 57 100 76 12 23 425 9 77 89
140 25 3484 489 86 351 65 106 57 319 53 104 73 176 33 167 37 304 18 298 57 218 94 35 64 425 20 159 25 304 56 337 7 356 92 170 40 447 89 31 41 419 2 479 21 500 3 349 56 277 61 149 98
141 25 2731 71 8 349 62 373 14 11 93 81 72 36 10 215 77 422 15 425 54 387 32 322 62 79 19 99 12 419 91 54 95 283 20 94 21 391 93 273 33 144 25 61 95 286 65 391 54 127 18 69 89
142 25 2811 480 2 100 31 492 66 330 22 57 56 303 90 92 54 276 83 201 99 139 53 330 73 167 75 77 33 63 2 31 16 163 100 208 92 443 95 115 84 308 57 217 57 495 63 446 21 77 54 12 20
143 25 3165 122 21 93 93 351 76 470 36 56 29 163 12 205 42 376 87 84 7 443 73 2 97 258 44 171 29 300 9 479 68 383 41 206 38 431 22 171 36 389 100 10 25 347 39 51 62 371 72 399 66
144 25 2993 42 59 401 43 187 14 175 40 38 8 269 45 92 9 346 58 140 48 200 22 430 99 22 80 3 18 182 80 11 34 137 13 470 48 426 23 412 50 422 64 128 15 489 34 500 28 5 30 459 68
145 25 2663 46 7 374 49 121 38 45 55 473 31 469 70 11 37 274 15 43 84 381 51 190 84 296 13 156 63 72 9 32 12 450 15 319 89 65 21 242 63 8 18 260 14 242 9 264 99 100 64 394 84
146 25 3210 342 89 186 39 65 26 50 76 350 18 499 77 152 3 173 25 175 78 140 90 236 22 308 21 437 63 14 33 334 19 302 82 479 52 70 28 21 79 317 1 286 85 305 45 474 42 450 46 255 90
147 25 2603 347 13 163 93 263 78 39 36 261 98 154 47 206 37 189 74 29 28 38 39 237 50 304 20 431 56 231 76 457 54 387 45 207 62 77 17 312 61 149 7 259 82 37 16 219 71 23 74 187 18
148 25 3020 488 58 48 8 298 98 166 29 254 98 40 26 71 15 62 7 106 59 289 54 223 93 493 50 483 75 21 24 189 10 332 5 94 66 234 44 329 46 447 65 403 25 336 86 105 28 65 61 464 24
149 25 3239 209 42 231 7 391 51 345 69 189 86 251 84 125 54 220 77 138 90 58 10 477 61 404 17 240 4 264 20 195 31 78 24 451 5 32 10 493 5 164 3 373 40 487 30 38 42 293 3 332 11
150 25 2775 346 43 126 37 481 99 394 98 263 46 452 53 132 14 10 89 64 83 137 55 139 94 387 6 356 83 132 92 105 56 183 94 489 82 108 76 246 91 38 64 136 73 429 7 382 46 7 45 9 70
151 25 2752 43 72 409 37 352 65 460 21 127 26 40 60 249 64 351 21 73 86 251 87 362 90 101 37 268 56 401 11 109 77 136 53 428 7 139 38 171 78 187 32 181 60 230 82 108 42 108 77 221 91
152 25 2441 6 79 423 1 284 77 459 67 151 91 127 26 224 80 61 59 88 8 349 30 88 88 158 72 94 13 38 88 234 2 118 67 409 94 228 41 45 50 85 87 170 68 249 61 417 60 246 34 132 56
153 25 3212 71 40 268 44 66 8 73 5 60 15 399 44 259 78 462 32 484 44 311 65 335 100 38 66 387 52 500 16 295 56 93 32 218 21 278 15 225 90 418 79 269 84 172 65 308 60 175 26 261 94
154 25 2187 307 18 248 60 135 13 37 67 17 4 195 32 417 58 94 50 110 25 299 36 224 64 70 66 255 75 88 76 8 62 33 42 423 73 214 55 48 21 151 7 360 59 102 94 148 79 26 94 365 9
155 25 3610 183 85 368 53 157 41 484 21 142 49 355 24 191 25 256 75 416 50 436 59 414 76 219 22 133 78 318 50 407 54 408 37 187 92 225 84 115 41 479 39 217 86 389 70 240 78 69 45 413 65
156 25 2817 31 60 314 96 231 19 252 84 231 34 13 73 19 96 99 38 466 80 449 23 189 59 170 15 302 56 26 13 347 21 131 28 38 41 422 10 248 61 376 12 77 65 284 71 367 50 122 2 431 36
157 25 3283 186 61 292 89 211 8 200 42 440 97 491 53 107 83 206 58 138 26 451 38 19 31 40 8 134 42 87 11 265 73 270 7 460 14 113 46 309 53 454 25 292 31 296 79 429 26 460 91 217 99
158 25 3030 213 15 38 47 388 17 187 40 424 14 429 23 112 1 104 29 234 62 64 5 481 46 321 38 150 72 338 37 103 29 483 15 222 54 84 61 236 47 398 18 460 69 198 58 59 100 183 83 152 23
159 25 3441 343 43 120 59 177 75 173 78 494 17 153 82 404 51 433 7 257 46 313 12 444 81 417 10 283 18 466 43 405 81 306 70 408 62 155 49 4 49 254 83 235 71 80 56 59 26 32 39 468 89
160 25 3297 209 71 253 75 409 74 125 75 171 65 462 38 394 99 14 98 464 14 235 4 186 45 213 84 381 3 141 9 351 82 238 4 309 78 36 74 176 62 226 65 367 57 404 52 347 32 284 60 200 70
161 25 3059 471 49 449 21 223 55 447 3 259 31 146 36 212 47 336 12 106 88 140 72 271 64 99 68 229 15 54 55 115 50 326 22 370 56 111 37 177 31 472 93 32 12 246 47 238 17 379 83 211 34
162 25 3272 246 49 208 67 168 89 471 78 213 81 35 43 494 18 462 95 250 35 312 31 102 49 400 50 228 95 481 80 389 11 457 36 202 17 29 44 458 58 76 71 27 20 309 20 316 72 155 51 56 79
163 25 3288 328 22 140 77 74 43 405 11 74 36 27 96 450 55 381 94 295 11 285 71 151 83 127 64 468 70 411 50 357 83 427 39 113 48 110 30 351 66 276 46 227 100 8 26 492 57 332 83 267 69
164 25 2798 330 47 228 86 38 42 131 44 302 56 160 73 162 31 466 97 277 16 86 84 339 57 410 61 31 81 193 47 126 33 112 86 161 24 460 46 36 62 61 74 169 40 245 18 442 57 279 35 353 26
165 25 3348 35 51 265 95 448 82 401 96 419 45 24 97 294 75 453 67 36 15 442 80 200 38 13 99 253 4 50 1 383 22 395 54 440 29 46 83 484 36 292 97 27 24 297 59 272 25 401 45 327 52
166 25 3109 127 92 346 91 56 18 450 90 131 97 164 9 318 49 466 73 282 82 278 5 416 59 136 89 340 61 51 53 181 73 374 19 67 100 396 92 201 84 11 12 176 62 445 6 345 94 374 66 88 20
167 25 3386 278 4 31 3 339 56 223 64 107 67 341 44 379 5 92 9 415 51 138 94 472 5 202 71 65 86 54 75 323 97 141 44 409 13 305 50 339 87 489 79 17 11 482 3 274 29 458 73 400 16
168 25 2606 447 90 346 46 60 78 17 3 470 50 306 40 465 98 22 18 119 43 250 38 64 44 113 80 229 55 465 68 53 18 98 82 219 26 96 62 99 70 69 98 277 9 359 80 290 92 181 45 99 70
169 25 3224 425 96 430 69 122 96 250 70 467 79 11 5 59 2 8 82 376 26 2 28 319 59 15 42 413 11 331 79 426 43 295 46 86 36 436 66 3 72 436 30 338 65 404 1 357 35 269 1 171 55
170 25 2755 493 44 451 84 444 61 281 24 135 22 127 92 313 95 319 56 144 98 122 79 357 76 49 100 492 67 104 7 88 85 213 90 497 11 343 57 174 56 10 93 153 60 140 54 4 26 33 66 25 46
171 25 2618 166 35 338 31 1 11 53 44 421 84 127 38 179 94 429 63 39 96 446 31 256 51 32 89 59 18 122 47 164 69 100 39 342 2 96 99 475 49 346 39 337 87 22 42 62 15 321 98 304 74
172 25 3294 313 34 491 10 87 99 42 41 324 52 137 78 240 61 419 25 168 3 109 91 332 69 265 25 402 32 356 98 309 28 34 25 450 74 117 35 285 92 332 29 296 40 297 68 153 44 170 93 461 41
173 25 2389 106 62 15 2 230 54 194 32 70 97 179 24 343 82 488 91 75 78 219 15 162 67 94 10 81 96 369 10 252 22 192 48 387 63 202 9 59 59 108 77 187 18 314 42 179 48 258 16 16 91
174 25 2848 36 45 189 43 53 37 479 37 251 76 228 21 160 91 19 22 274 78 90 75 290 22 344 56 32 11 420 32 450 19 222 75 206 34 200 91 372 100 98 84 4 85 437 58 392 37 160 27 290 19
175 25 2520 1 11 215 39 384 70 9 62 467 92 309 81 231 66 135 75 88 91 358 53 277 26 134 26 57 59 306 53 250 89 308 1 5 72 317 1 206 57 242 62 18 48 394 11 145 30 58 97 126 82
176 25 2679 231 52 46 21 267 42 140 81 417 60 252 83 32 22 217 81 409 14 317 44 408 12 176 7 455 15 15 69 261 87 115 44 259 72 84 60 87 52 21 68 278 22 230 50 103 27 164 65 374 6
177 25 3580 243 80 362 99 466 45 153 27 248 29 258 38 166 41 32 66 216 15 479 24 28 14 199 76 292 52 370 73 219 72 476 37 269 62 385 65 491 80 339 52 297 61 342 1 410 17 243 92 178 46
178 25 3583 456 20 162 33 376 92 453 32 396 56 130 43 451 69 321 33 353 27 2 63 493 55 174 24 341 16 256 15 257 6 257 73 124 3 387 95 414 91 35 100 6 41 323 13 94 12 497 5 408 58
179 25 2867 199 81 209 58 98 46 346 71 321 1 68 73 241 74 383 8 253 52 306 96 201 96 336 64 58 51 101 75 162 78 406 83 377 82 382 38 223 92 107 48 216 4 90 29 148 48 10 76 493 94
180 25 3950 196 58 378 37 471 84 462 89 258 58 423 77 168 75 139 26 178 21 432 51 158 98 273 6 357 10 434 73 101 8 483 45 404 24 230 69 415 58 437 51 337 42 147 16 334 84 303 27 383 100
181 25 2702 309 32 136 85 299 81 333 80 317 85 492 67 90 13 350 66 31 54 212 42 429 60 214 62 283 98 2 35 81 84 23 85 322 43 134 86 33 69 102 9 299 52 71 12 14 35 374 63 455 35
182 25 2875 435 23 21 80 74 53 492 100 314 97 330 62 262 22 295 60 263 58 105 81 173 17 377 23 288 41 76 41 242 50 14 53 390 5 416 22 42 15 497 72 96 36 69 53 1 43 330 25 149 4
183 25 3014 100 61 250 38 267 7 438 35 62 23 414 79 200 65 57 8 238 57 66 1 402 9 161 4 191 50 172 36 450 17 302 60 77 20 46 16 491 69 159 75 251 19 438 87 246 21 109 82 441 18
184 25 2818 285 34 130 4 213 91 420 21 183 47 85 42 359 33 190 21 398 99 245 99 233 88 250 26 316 35 207 55 486 90 225 62 302 65 60 23 183 90 297 28 93 16 137 96 38 40 39 100 262 84
185 25 3294 160 50 427 49 70 92 261 63 271 11 160 24 157 75 440 9 396 46 235 96 246 20 473 39 438 75 268 25 277 100 218 74 377 56 348 51 216 14 402 80 185 29 255 79 33 77 268 69 7 83
186 25 3069 133 87 198 41 455 64 98 33 353 28 104 18 122 26 270 15 260 94 320 66 179 80 126 56 322 24 14 72 312 67 381 100 486 87 192 18 183 92 282 87 233 87 312 57 163 30 191 81 450 46
187 25 2726 1 42 368 77 409 10 499 42 378 70 216 42 236 52 116 61 155 100 443 10 97 26 55 6 19 53 375 98 398 91 1 62 345 9 73 5 352 75 462 40 188 11 7 20 135 35 12 11 112 69
188 25 3134 299 51 302 85 463 96 99 50 64 1 66 58 250 61 265 24 98 38 321 42 67 20 336 72 17 40 332 75 113 84 395 77 383 86 313 37 481 40 483 82 355 55 12 74 99 82 282 83 374 38
189 25 3035 271 68 128 29 48 89 281 51 179 72 192 67 62 52 244 82 317 5 362 65 15 69 352 43 124 54 150 44 217 23 315 84 434 71 129 24 311 98 141 57 430 21 210 16 486 93 478 31 194 52
190 25 3128 446 80 446 62 43 52 214 89 479 60 7 93 458 24 323 78 409 28 383 73 3 53 420 41 296 80 284 79 44 73 280 9 351 6 382 3 219 26 35 70 96 53 80 85 59 61 29 8 470 62
191 25 2693 77 34 229 88 116 99 160 2 137 64 297 94 104 94 32 98 218 23 38 7 113 38 415 67 81 79 391 6 250 62 19 74 412 71 147 91 334 5 326 65 222 32 275 3 232 21 355 52 407 35
192 25 3208 409 20 131 81 420 2 380 85 185 50 338 100 63 3 377 40 196 34 470 94 183 84 313 51 277 53 260 14 228 47 294 3 151 2 153 25 284 83 297 67 184 78 243 5 3 82 386 12 191 80
193 25 3337 304 17 167 13 75 90 278 65 374 63 388 2 107 63 110 30 491 68 408 100 148 79 48 60 321 11 206 30 296 7 493 47 35 11 224 93 254 1 402 39 181 31 428 84 213 33 251 80 472 90
194 25 2377 147 85 108 10 169 20 270 69 382 33 157 40 8 25 188 74 88 77 360 65 33 25 206 50 65 91 431 5 100 68 86 33 360 58 18 59 449 72 498 62 107 96 165 91 119 58 111 88 130 57
195 25 3273 31 27 338 65 366 29 280 53 287 32 390 1 94 16 392 75 477 39 219 78 144 30 292 39 376 72 21 8 265 94 498 66 237 45 148 15 149 16 236 70 332 40 389 67 432 2 14 50 139 24
196 25 2568 1 19 3 17 377 61 288 61 109 55 221 1 368 45 404 38 22 2 307 13 39 100 36 70 205 54 18 19 65 5 335 64 88 91 38 47 486 34 301 92 254 79 161 75 433 58 141 24 436 35
197 25 2987 142 53 164 37 442 59 34 51 364 34 369 96 65 99 93 98 107 42 340 94 346 24 268 79 96 38 1 48 426 3 282 69 254 52 411 28 327 42 176 32 397 70 355 49 7 50 266 99 242 43
198 25 3065 320 66 20 31 412 8 143 64 408 31 252 57 492 22 221 20 20 31 354 33 115 77 423 8 2 44 210 30 389 81 386 96 237 98 178 88 178 85 270 1 197 96 489 63 285 95 1 51 128 81
199 25 3333 140 32 162 73 463 62 372 71 340 95 24 3 414 100 498 50 279 83 229 77 322 78 253 38 253 39 426 91 441 29 223 43 316 94 5 42 51 77 99 2 322 82 191 56 285 56 176 55 382 61
200 25 3511 463 28 109 59 368 32 276 98 353 54 474 57 353 59 50 28 371 35 480 15 119 63 256 14 180 2 383 66 252 71 489 33 483 6 199 13 424 36 216 83 40 80 282 30 21 42 215 95 167 18
201 25 3249 172 27 238 41 285 60 330 5 91 36 91 21 130 83 333 95 289 12 228 73 236 35 188 73 476 17 362 20 474 66 483 88 235 87 269 12 234 78 6 46 189 86 10 31 472 21 439 74 238 22
202 25 3615 323 83 282 31 356 20 136 59 488 27 456 46 41 48 483 66 198 87 448 7 482 74 483 99 434 13 403 22 295 98 218 6 328 88 351 11 115 27 122 29 402 25 47 25 27 67 144 16 169 25
203 25 2956 486 12 140 65 119 36 62 38 411 70 77 58 108 28 297 52 163 84 203 61 337 68 348 43 205 20 222 94 385 4 35 93 45 31 6 5 193 71 334 20 409 94 217 73 462 22 231 86 417 91
204 25 3292 278 93 407 78 170 91 255 7 35 14 386 87 446 51 420 85 328 22 256 56 48 87 232 87 352 10 294 40 444 91 72 67 237 44 80 31 345 53 162 58 323 11 170 35 387 68 99 66 358 3
205 25 3256 363 44 162 13 302 15 482 99 383 97 165 31 5 32 377 89 435 78 366 35 34 2 409 18 349 55 38 44 2 19 254 79 333 75 405 82 421 57 386 48 81 78 66 46 412 84 171 77 112 91
206 25 3768 274 90 293 82 321 39 155 63 216 74 407 23 306 25 207 17 388 45 286 52 157 18 45 99 20 71 482 65 421 35 497 31 253 42 168 85 488 33 340 43 450 6 381 73 278 42 264 7 439 64
207 25 2902 130 87 208 36 189 30 284 21 170 23 406 7 201 11 399 16 16 49 494 22 1 61 63 99 171 44 463 29 204 41 332 66 224 51 230 97 72 26 325 28 49 13 460 25 447 38 88 9 179 46
208 25 2752 477 18 42 4 240 62 19 10 333 46 94 1 338 27 231 59 256 26 180 22 243 5 167 36 172 55 259 47 111 9 203 83 66 87 327 68 480 27 228 3 276 90 226 83 188 12 345 35 4 9
209 25 3362 297 50 300 97 270 21 393 13 347 75 360 24 211 57 230 77 257 89 337 11 261 96 344 34 459 79 450 75 196 68 235 62 115 22 136 68 133 79 269 44 15 75 308 33 272 99 389 76 141 16
210 25 3235 253 29 183 65 347 49 313 94 404 37 99 59 380 52 247 3 163 51 18 18 263 11 52 74 327 19 314 25 445 33 219 48 310 84 81 6 196 66 65 79 121 15 490 62 460 11 381 85 339 5
211 25 3038 46 23 369 56 256 77 198 40 391 25 98 86 130 7 390 54 433 98 11 29 451 7 368 53 147 98 127 82 378 20 46 98 15 13 143 14 12 19 334 92 300 97 309 8 344 47 325 19 456 97
212 25 2889 174 11 328 13 61 38 40 25 353 18 294 19 482 5 288 58 112 78 409 17 156 42 130 74 65 100 469 52 145 30 449 70 184 12 174 11 416 20 64 66 246 67 38 62 259 48 247 87 196 16
213 25 3183 200 35 250 93 98 27 248 89 26 13 85 92 250 70 203 77 454 85 109 58 414 24 374 21 241 67 204 83 44 6 276 56 430 84 391 70 370 87 335 92 114 9 179 87 293 53 289 10 490 66
214 25 3114 220 68 287 8 407 94 349 82 303 68 20 67 274 94 413 20 408 72 134 12 184 77 486 64 393 27 226 4 449 78 297 67 56 72 274 48 76 21 112 85 462 93 86 31 174 90 36 24 103 60
215 25 2759 207 98 66 87 68 94 444 55 156 34 179 87 207 67 363 35 270 79 146 54 84 18 217 57 331 17 180 50 499 78 130 63 481 27 109 24 26 22 320 57 379 100 11 9 110 62 213 88 323 57
216 25 3383 382 37 117 2 83 71 178 84 384 82 273 8 320 47 172 50 402 91 335 67 461 67 310 46 42 33 387 74 70 5 206 42 345 80 24 81 52 6 286 49 474 90 420 71 446 68 307 33 291 57
217 25 3294 317 21 420 90 112 74 266 30 114 40 426 35 379 73 179 8 126 81 108 36 156 98 155 87 285 55 355 91 156 87 315 73 288 24 438 40 306 11 95 56 382 55 108 75 468 33 269 3 366 72
218 25 3684 396 69 345 48 359 79 328 60 324 19 344 94 493 22 286 37 176 11 294 8 106 6 321 37 278 56 305 49 36 66 365 80 420 90 372 82 135 97 122 27 486 53 88 32 342 36 333 88 315 53
219 25 3694 417 96 384 7 1 51 292 1 148 6 337 83 269 86 484 95 400 28 65 89 367 88 120 41 493 20 123 80 135 52 125 28 401 35 466 47 443 86 96 48 427 60 401 31 390 96 409 67 196 17
220 25 3484 491 31 398 72 433 73 263 85 258 66 254 66 208 11 13 27 124 4 223 82 175 55 280 1 396 27 342 83 439 89 335 88 287 37 387 65 114 48 322 52 428 3 34 62 346 59 362 77 56 44
221 25 3106 188 25 159 40 345 17 171 83 433 41 75 92 191 62 493 64 234 67 463 22 72 22 29 67 351 54 472 64 245 88 64 60 349 50 165 11 273 100 495 52 78 53 7 98 380 55 261 51 220 84
222 25 3128 498 23 240 27 460 40 353 74 350 13 154 16 224 77 51 26 325 45 105 71 210 50 372 49 32 73 398 64 368 58 282 76 14 98 38 13 383 58 335 63 318 55 34 48 100 94 483 91 129 68
223 25 3393 301 14 15 17 481 92 119 68 402 17 454 93 355 6 447 84 190 67 324 85 212 27 466 75 72 32 167 10 114 43 242 96 170 46 420 84 445 15 52 85 254 26 231 11 208 65 222 77 423 70
224 25 3075 420 16 57 42 471 20 126 58 35 42 353 85 317 33 403 11 161 14 73 55 282 89 74 54 189 25 460 18 414 21 32 5 395 47 377 41 440 13 25 22 324 60 81 84 225 44 187 71 230 47
225 25 3670 449 78 229 67 426 31 227 34 248 50 227 96 227 33 91 4 319 49 497 69 483 80 48 30 412 94 64 9 423 67 453 30 476 77 399 20 50 12 93 70 36 91 482 98 409 14 479 25 93 17
226 25 3091 135 67 381 67 156 40 486 15 8 11 285 65 399 96 272 82 100 15 164 17 395 35 412 97 309 76 486 53 441 74 106 54 152 20 460 85 221 54 130 89 73 33 407 11 125 12 14 3 65 53
227 25 2742 37 36 222 37 116 39 241 23 282 58 172 63 343 73 50 34 265 10 90 97 484 59 385 52 83 83 80 35 2 81 393 55 215 23 245 53 181 4 146 1 398 37 3 43 446 92 119 61 487 13
228 25 3135 172 22 242 93 469 83 24 83 190 26 189 73 275 93 281 67 410 74 7 2 451 16 245 64 280 95 156 10 57 38 281 99 329 52 71 98 62 2 431 53 380 64 381 24 499 39 378 67 11 9
229 25 3051 184 2 424 98 380 80 100 15 294 21 55 96 78 38 20 72 396 61 346 66 331 93 299 85 496 54 206 80 234 26 378 32 72 77 320 91 365 12 358 37 264 66 202 91 80 1 89 17 131 67
230 25 2156 147 73 446 5 161 58 195 51 300 80 259 33 27 73 260 82 16 93 466 83 128 11 342 75 45 91 35 90 34 9 15 72 213 96 291 64 92 31 59 33 463 34 13 3 34 21 228 76 44 3
231 25 2742 217 53 5 90 262 13 208 53 129 37 235 45 18 52 478 98 485 29 213 70 374 95 435 65 149 60 51 100 338 68 431 62 213 50 148 24 88 58 273 79 343 25 20 49 189 85 82 77 101 88
232 25 2687 114 2 84 3 155 18 323 59 289 60 477 49 63 41 413 51 130 57 67 46 287 19 72 19 335 6 403 63 228 38 2 82 499 95 419 74 13 16 353 62 361 52 47 83 22 28 143 79 76 51
233 25 3373 406 90 145 3 428 33 479 10 296 42 215 21 412 73 211 27 231 43 58 29 48 74 125 93 323 59 234 8 412 48 292 87 434 40 487 29 80 65 73 67 285 86 56 100 456 77 325 78 235 82
234 25 2934 374 51 141 37 377 80 482 32 191 92 10 6 306 27 59 38 194 92 38 97 26 70 221 51 358 22 350 95 141 80 173 51 161 22 441 41 12 19 332 32 243 10 468 37 432 72 105 43 234 64
235 25 2897 239 42 238 36 66 100 101 3 112 62 389 36 274 21 417 18 433 7 225 4 124 55 296 78 345 24 316 27 287 94 84 20 1 54 239 20 153 16 370 41 341 50 241 29 346 92 115 84 42 46
236 25 2745 278 19 67 16 276 61 2 14 241 91 134 45 249 12 64 35 157 41 482 90 369 97 96 82 161 64 396 75 138 1 444 42 446 30 309 15 99 97 156 37 328 68 470 9 84 35 23 98 22 81
237 25 3560 406 51 423 16 493 34 87 18 124 58 338 73 205 76 451 55 175 79 489 83 143 74 413 48 13 39 273 76 203 78 126 26 238 51 393 45 494 46 211 60 244 88 135 67 217 66 387 51 440 85
238 25 3542 191 46 93 45 367 76 383 37 457 45 359 24 305 10 32 33 425 85 444 43 131 8 66 66 295 44 92 79 471 78 259 87 422 34 295 84 53 79 461 91 468 96 102 77 460 59 40 73 413 26
239 25 3241 274 80 266 54 109 64 12 11 382 80 254 82 484 21 234 93 496 8 344 74 34 65 300 13 401 5 140 1 185 94 339 96 482 59 99 85 108 45 167 43 134 24 123 19 357 26 282 41 477 17
240 25 2641 320 80 369 57 46 61 17 99 395 95 72 2 268 74 185 57 184 4 336 4 87 41 382 97 378 81 431 43 295 86 13 8 191 38 270 48 80 61 170 69 88 31 239 44 187 83 35 37 245 10
241 25 3253 383 60 294 8 151 85 394 16 63 20 197 51 77 50 487 31 136 39 135 93 461 16 308 10 83 1 193 69 379 100 66 25 435 3 248 77 167 36 316 31 216 4 58 15 455 9 360 99 444 88
242 25 3403 363 43 344 100 26 22 390 7 310 17 479 7 396 72 265 60 306 16 59 54 21 7 308 50 299 17 229 28 414 100 127 24 471 71 359 42 406 90 101 4 190 32 191 23 254 15 76 62 422 1
243 25 3092 434 70 351 29 437 90 150 55 276 44 124 9 234 98 307 24 465 51 9 56 352 17 127 35 40 42 44 13 500 46 398 40 298 40 21 50 174 4 179 78 83 49 344 15 427 14 307 72 103 44
244 25 3186 489 85 348 27 368 82 63 63 334 47 178 16 171 93 260 57 52 93 472 87 361 45 7 42 428 15 216 55 290 80 302 86 390 45 208 69 390 65 248 94 34 44 418 54 41 40 58 74 246 11
245 25 2762 236 31 105 15 215 31 149 46 14 94 309 96 9 83 364 32 472 96 232 55 189 56 157 21 17 61 430 69 295 61 140 60 250 66 116 36 69 28 382 52 338 20 274 78 372 15 324 54 67 98
246 25 3781 355 35 430 99 317 52 368 97 351 63 376 13 419 74 159 52 469 52 479 13 500 100 104 78 390 45 316 15 44 33 113 87 195 14 249 30 471 33 177 7 320 61 322 93 196 90 3 46 439 85
247 25 3158 53 24 492 58 283 62 82 85 289 79 349 3 16 34 427 49 264 69 223 64 42 32 473 51 371 73 47 5 260 96 126 15 248 7 272 40 498 6 397 21 129 13 479 84 37 11 236 77 223 72
248 25 2865 399 41 63 43 234 29 66 82 459 34 240 100 241 5 124 60 185 85 421 32 242 28 457 74 50 23 293 94 61 92 174 33 279 12 211 29 113 93 268 85 260 40 126 52 96 24 499 81 169 99
249 25 2994 482 33 174 29 484 40 102 40 282 53 119 81 155 79 112 65 204 29 339 95 491 53 223 25 283 30 10 72 253 59 211 25 165 10 6 18 113 95 489 5 116 29 123 31 254 53 371 49 427 8
250 25 2782 105 83 44 30 244 73 275 1 479 14 300 30 476 62 233 98 14 74 480 56 41 99 143 48 130 30 254 74 93 100 42 25 308 31 344 88 468 52 56 92 251 47 164 34 338 16 49 69 233 75
251 25 2979 448 54 74 59 168 67 23 29 420 34 500 89 151 72 441 12 303 84 272 56 432 94 428 22 29 19 343 98 133 53 239 66 156 65 153 60 499 30 46 5 367 14 293 61 1 72 2 93 37 54
252 25 3036 283 48 294 4 248 31 59 51 326 97 86 61 269 4 224 71 480 67 178 21 353 31 116 17 165 99 169 28 350 32 333 20 345 87 267 9 66 67 297 76 308 49 222 72 113 53 114 20 407 95
253 25 3323 184 73 337 3 396 67 258 74 406 59 121 40 353 1 177 72 353 16 362 3 44 72 45 67 444 26 477 34 37 7 295 76 240 20 164 38 410 17 170 58 250 24 448 80 231 53 329 84 115 51
254 25 3329 361 4 121 34 375 91 39 88 271 91 409 89 134 15 69 72 353 76 250 2 227 49 370 10 461 1 182 75 78 52 198 12 398 93 275 99 251 74 437 37 409 32 477 4 407 40 84 3 23 55
255 25 2996 473 6 121 47 349 6 81 6 301 32 496 48 288 71 102 61 255 8 197 96 247 1 326 65 280 84 210 65 285 55 478 84 180 37 136 25 202 63 354 74 225 44 14 60 201 53 17 85 175 79
256 25 2957 28 58 20 41 478 43 326 78 234 93 50 78 123 45 279 58 126 49 346 80 216 16 365 82 417 80 106 9 225 90 390 8 359 34 66 33 293 37 33 46 337 17 2 45 350 7 303 59 443 93
257 25 2733 49 21 409 37 346 81 130 29 112 81 118 3 280 97 297 58 159 48 57 53 130 22 445 86 311 20 49 49 161 64 266 75 214 72 497 28 138 71 158 31 215 53 89 48 400 34 168 71 268 6
258 25 3324 406 13 202 33 346 84 50 38 211 34 174 44 184 45 101 89 448 63 213 92 118 5 493 6 262 25 63 97 487 48 469 17 131 26 21 98 310 34 346 48 396 80 471 19 151 25 191 17 404 88
259 25 2774 138 98 325 5 318 42 27 36 208 30 34 66 452 23 293 97 18 78 175 67 64 66 204 31 423 80 116 75 199 94 77 56 109 34 281 92 193 37 219 62 492 14 249 55 237 88 420 19 277 29
260 25 3506 142 49 202 62 318 92 419 21 103 17 75 71 470 69 101 20 309 35 294 70 208 47 293 57 480 6 46 25 425 35 128 14 181 54 444 98 348 71 478 14 259 28 313 29 227 43 415 82 335 89
261 25 3745 83 32 116 66 460 30 229 27 471 88 312 39 350 71 16 76 92 7 454 5 236 36 443 46 307 88 174 14 242 49 467 78 341 7 341 14 315 74 182 33 418 60 414 26 456 76 279 30 292 20
262 25 2876 19 80 25 51 491 24 87 48 361 100 70 31 167 78 437 29 120 30 232 37 208 54 72 46 91 23 205 73 466 46 27 82 119 82 427 35 153 63 467 84 478 52 406 61 380 28 101 53 143 10
263 25 2740 392 10 376 82 455 19 102 57 42 82 50 54 286 4 62 29 162 74 75 57 471 7 395 80 18 80 139 77 8 57 75 85 249 25 246 86 351 84 28 32 412 83 149 61 340 100 385 66 212 51
264 25 3121 135 5 132 32 301 63 300 100 31 28 498 80 141 18 423 2 393 83 245 93 481 97 109 47 267 51 278 88 193 87 218 9 368 92 30 18 388 65 132 26 227 83 220 13 64 86 360 33 309 37
265 25 3013 173 63 131 31 357 95 299 8 160 99 27 6 295 79 369 41 77 72 328 45 409 94 271 90 433 78 111 11 308 53 497 22 255 28 155 9 75 38 184 1 284 94 84 35 349 2 306 85 90 41
266 25 2968 207 44 364 99 360 96 179 89 114 62 56 93 184 23 280 70 376 39 449 17 197 31 260 98 183 100 355 98 51 36 415 16 206 16 17 47 400 66 301 64 33 6 235 32 26 25 405 18 284 44
267 25 2691 175 42 368 14 331 74 491 59 110 58 9 82 495 29 187 15 149 88 356 18 9 16 59 13 288 88 480 73 200 45 145 59 90 51 6 91 313 9 70 19 387 51 241 42 105 95 268 26 51 7
268 25 3173 293 95 439 62 106 4 334 44 14 55 493 14 109 77 214 20 273 48 14 46 483 91 303 49 409 83 431 32 30 66 132 98 260 3 471 49 130 34 14 70 470 79 227 10 414 42 43 63 241 57
269 25 2804 67 24 59 72 438 71 52 71 358 48 72 99 10 23 34 55 213 67 239 99 256 26 403 58 286 16 116 94 323 87 463 33 86 56 381 87 291 51 426 14 179 14 36 49 487 26 216 34 117 92
270 25 3218 138 22 387 83 313 32 138 28 327 74 417 85 285 8 278 71 335 47 272 60 475 31 28 96 44 35 295 54 61 100 400 47 488 15 153 92 216 73 313 79 32 19 107 3 309 87 160 99 465 51
271 25 2776 242 33 108 96 85 69 2 15 12 53 341 3 201 48 204 5 400 78 3 85 71 54 63 24 293 69 140 77 374 16 217 68 398 36 356 59 410 12 276 30 286 84 396 68 240 45 149 86 285 90
272 25 3036 441 37 353 63 92 89 315 23 15 64 247 63 344 39 126 42 97 98 163 66 382 19 356 37 217 5 153 9 174 77 238 15 488 81 181 34 287 17 187 13 500 69 362 62 66 10 12 17 276 41
273 25 3136 374 83 204 4 359 32 191 72 3 28 480 47 368 48 3 12 218 92 436 96 336 63 23 50 433 7 277 35 178 92 377 54 216 85 159 71 158 100 31 63 434 32 347 59 266 95 147 36 255 28
274 25 3664 474 7 340 82 410 97 195 35 200 1 480 98 93 98 462 51 498 7 259 18 349 78 138 98 364 52 427 85 58 74 380 98 176 30 381 69 100 46 101 46 170 95 495 29 340 66 417 100 22 2
275 25 3249 82 5 138 69 123 97 389 21 266 69 431 14 323 57 347 34 335 26 104 35 317 63 310 75 478 78 17 30 218 65 320 52 116 3 190 44 489 31 302 77 158 97 119 10 94 97 447 32 385 37
276 25 3445 335 68 16 77 451 37 192 58 187 64 396 22 367 10 376 96 304 97 227 10 318 3 74 6 437 21 469 6 322 54 443 50 109 93 427 58 335 46 454 38 52 82 75 84 58 55 105 93 361 92
277 25 2540 151 26 77 85 65 29 314 31 135 12 74 19 278 37 222 95 96 1 120 76 167 42 46 93 177 45 89 20 206 91 175 45 354 32 75 97 356 24 387 49 353 18 497 45 353 17 247 71 66 5
278 25 4071 186 50 223 64 488 49 164 86 54 60 348 44 100 77 237 3 446 15 481 84 439 88 348 17 362 71 292 90 395 5 488 48 408 4 209 21 256 79 312 90 255 17 423 82 446 83 452 79 330 71
279 25 3283 376 48 208 60 302 23 101 36 408 8 497 13 99 35 267 38 210 17 3 8 182 47 171 2 91 52 226 10 500 57 151 63 320 19 259 54 383 3 462 55 47 30 489 26 112 54 348 73 354 93
280 25 3327 446 48 405 6 213 68 275 48 280 79 285 21 179 33 162 3 368 99 209 64 424 100 5 30 298 25 434 81 64 51 239 99 349 38 297 66 208 46 423 76 436 10 83 20 184 54 141 12 247 22
281 25 3126 129 22 252 73 99 96 479 30 248 90 222 73 414 5 67 18 429 42 243 18 300 27 328 90 432 47 125 83 451 70 484 59 96 72 241 23 75 92 72 50 246 99 195 31 305 38 83 24 238 23
282 25 3063 47 83 423 61 340 32 227 93 102 19 430 85 410 36 253 76 269 76 169 50 227 40 294 75 38 23 168 80 482 42 275 12 398 42 160 5 339 98 20 33 417 62 118 24 146 96 361 37 13 30
283 25 2604 243 100 135 2 65 61 29 23 232 27 252 34 284 91 61 80 34 29 293 14 330 43 81 75 177 37 357 92 257 83 241 70 453 76 397 65 7 15 175 77 245 14 285 90 119 46 205 76 252 31
284 25 2908 128 41 247 47 47 73 5 13 421 44 55 2 155 27 324 100 96 74 489 92 472 64 367 3 136 34 143 99 331 20 474 94 412 31 148 55 135 40 122 59 255 31 36 54 247 12 314 68 258 71
285 25 3245 165 23 314 93 403 96 362 5 459 67 326 73 244 4 89 45 227 8 115 75 72 70 357 6 254 73 399 23 395 13 386 38 243 87 245 70 169 7 143 51 92 83 349 19 405 3 30 20 247 83
286 25 3288 392 59 263 83 188 1 448 20 450 47 470 44 427 94 11 60 479 75 44 23 314 45 207 41 483 2 239 36 80 5 131 16 272 10 187 28 269 48 332 100 61 81 85 7 31 79 293 52 421 60
287 25 3410 496 9 136 89 113 79 211 20 341 21 482 89 246 97 217 46 237 3 338 21 65 67 473 33 278 65 154 65 488 12 385 21 468 27 49 38 271 95 147 100 68 57 229 40 494 43 227 24 208 16
288 25 2783 74 26 372 42 426 28 81 53 262 57 434 95 41 64 79 71 79 48 259 43 106 94 197 20 287 37 301 87 268 37 397 81 34 24 26 79 209 83 374 56 87 82 359 75 378 70 2 3 435 54
289 25 2494 309 41 288 56 361 78 19 12 40 66 305 80 259 94 48 76 208 41 26 85 179 59 305 49 128 6 327 97 53 61 187 50 199 59 29 13 290 97 263 2 72 79 206 87 220 76 449 14 219 35
290 25 2902 350 79 131 43 9 93 167 63 130 45 414 45 185 71 491 56 72 98 203 95 116 61 297 32 38 67 318 36 246 28 232 20 64 69 393 99 165 6 8 26 328 32 270 11 472 68 296 55 409 84
291 25 3239 98 37 373 86 427 72 80 40 221 11 492 25 81 1 335 65 286 4 38 75 282 28 496 71 132 42 171 87 181 52 191 65 426 5 435 60 184 34 383 35 488 15 112 94 165 78 67 50 335 86
292 25 3760 117 80 278 70 330 46 427 32 246 96 460 81 93 82 65 62 98 57 463 87 13 59 389 44 277 54 184 51 450 17 490 8 483 3 467 2 64 47 499 64 210 34 497 95 350 45 362 63 208 27
293 25 2599 134 26 32 84 427 26 22 90 27 46 36 23 132 67 248 44 125 21 115 83 353 89 165 47 195 44 377 47 242 17 315 40 368 30 77 52 309 74 365 34 240 81 427 34 190 46 110 82 168 42
294 25 3282 391 97 337 68 201 100 110 30 112 78 462 88 180 26 332 56 84 87 45 79 407 80 369 70 437 75 454 15 269 81 141 31 337 44 447 21 242 12 31 64 172 55 291 58 60 72 500 9 154 29
295 25 2674 19 54 139 31 217 48 315 51 497 31 279 30 213 72 280 55 264 100 265 40 1 95 384 47 56 9 228 32 198 65 297 52 95 84 194 28 269 20 223 37 125 32 110 74 419 67 35 25 226 76
296 25 3522 164 85 99 53 415 26 152 7 330 5 273 71 181 82 332 46 314 61 400 40 243 35 72 47 285 22 442 62 133 51 459 100 14 61 346 12 232 9 235 45 265 73 483 47 401 78 496 50 278 61
297 25 2692 431 6 250 96 240 90 318 23 24 46 189 20 345 95 188 23 303 81 252 12 128 5 276 58 73 39 57 46 167 8 120 2 34 81 458 24 35 36 241 34 391 86 411 14 115 25 147 21 192 51
298 25 3383 417 94 322 15 261 65 86 16 344 15 67 59 17 78 252 38 286 28 295 11 498 50 458 22 91 2 169 70 203 62 23 39 202 4 470 41 226 28 431 19 423 45 325 62 424 77 260 86 217 21
299 25 3445 69 5 228 8 459 68 471 71 359 55 95 74 495 48 340 20 272 75 159 31 279 24 296 3 211 54 191 45 49 70 166 48 367 97 479 56 155 36 357 29 500 49 184 44 179 41 245 25 285 35
300 25 3137 97 81 489 59 487 37 219 30 322 6 139 65 224 32 304 68 461 10 81 95 2 10 234 86 51 17 131 28 268 58 457 52 104 32 395 55 480 56 313 2 137 21 192 77 89 31 499 19 100 55
301 25 3665 292 36 379 43 403 17 352 71 410 25 396 67 57 88 132 7 202 23 286 24 349 84 73 56 138 63 431 1 489 14 367 58 346 21 144 77 385 87 482 4 300 54 356 50 241 17 50 95 271 40
302 25 3139 88 2 244 33 369 86 461 50 87 4 45 47 285 7 155 27 188 49 389 26 380 90 259 41 123 70 18 99 143 85 153 21 316 24 32 30 358 53 458 30 104 52 392 84 460 84 499 83 273 70
303 25 3211 66 14 117 91 410 100 207 82 383 14 33 56 475 90 104 86 252 82 429 55 376 38 64 90 89 96 204 25 325 20 337 70 6 55 376 63 389 11 414 54 303 11 299 79 296 33 329 71 139 35
304 25 3551 170 45 219 66 427 98 187 87 259 61 279 10 281 2 266 41 488 91 270 92 254 51 254 24 386 95 387 30 70 91 453 32 165 53 194 30 476 25 154 62 81 96 140 96 458 11 479 52 306 37
305 25 3466 433 58 29 24 459 100 471 22 305 29 307 58 476 21 194 47 235 68 229 25 174 38 138 73 196 64 129 100 270 1 445 42 78 16 378 59 367 79 240 18 264 33 21 27 399 26 411 28 284 18
306 25 3037 212 41 461 93 336 76 310 87 416 18 344 81 59 89 59 40 145 20 172 9 144 15 229 66 186 65 50 77 115 30 278 47 410 58 292 52 360 46 400 12 259 40 156 19 143 57 438 46 101 46
307 25 3362 483 38 357 68 376 19 319 51 480 88 200 83 102 98 81 72 360 80 184 33 179 19 37 24 439 53 460 51 157 8 290 98 274 42 468 46 112 37 397 80 42 8 289 46 162 42 23 8 454 78
308 25 2188 264 24 3 48 20 1 377 54 52 43 102 73 32 62 302 11 54 35 141 25 340 19 424 36 357 27 136 41 410 71 40 71 210 82 42 65 42 20 131 85 93 34 266 69 241 16 35 37 263 51
309 25 3086 366 82 271 90 63 97 231 98 139 16 480 47 446 91 306 61 149 3 16 87 133 16 435 43 276 68 206 62 247 7 298 76 12 62 216 71 212 38 309 85 402 23 293 3 34 4 337 23 295 11
310 25 2916 320 57 131 33 47 70 160 23 123 68 184 7 330 6 25 48 285 72 129 41 131 31 352 51 334 86 296 26 129 85 461 68 401 26 304 57 324 13 42 41 51 20 257 19 176 93 490 85 351 78
311 25 3557 323 44 260 22 4 35 128 41 355 76 7 90 178 60 306 62 447 34 439 21 358 68 227 95 135 22 421 48 234 30 248 4 469 96 415 52 286 96 443 43 442 53 139 68 264 16 204 76 382 97
312 25 3085 188 12 490 45 167 13 3 51 354 56 300 73 283 49 326 90 286 21 152 52 83 67 431 47 191 72 82 92 203 81 360 75 420 50 169 45 60 97 487 45 216 22 478 55 166 83 93 9 182 59
313 25 3243 335 54 430 52 150 69 464 32 438 34 194 82 255 13 128 70 156 10 229 88 171 68 158 87 174 3 149 38 397 94 362 74 116 36 418 26 296 46 290 59 471 60 433 89 8 15 76 99 189 47
314 25 3286 342 36 219 23 247 85 403 11 4 96 79 47 356 13 493 59 449 17 151 74 168 85 294 93 379 72 182 29 380 74 315 39 368 32 435 69 169 43 84 99 405 98 436 16 30 99 65 3 119 100
315 25 3844 67 15 452 11 310 26 150 48 400 36 364 5 315 80 213 82 217 63 331 37 74 35 432 57 32 34 465 85 300 26 358 27 487 35 167 32 214 18 195 10 482 72 425 48 458 92 494 15 286 78
316 25 3676 263 80 150 89 454 98 417 90 206 45 466 45 498 33 393 20 80 87 378 15 321 53 307 78 219 69 282 81 171 23 276 98 269 40 493 93 231 58 138 41 154 15 248 29 430 74 437 19 72 64
317 25 3259 485 76 488 48 316 79 404 85 395 73 139 31 146 63 375 69 7 69 69 50 197 14 481 54 107 90 434 55 363 76 267 2 213 37 80 73 202 61 167 100 327 55 109 37 6 71 302 28 439 82
318 25 2812 347 26 40 20 434 28 466 10 165 49 465 50 175 66 51 72 371 65 428 44 12 46 33 100 62 60 153 92 221 77 189 91 39 59 479 64 25 84 340 58 240 84 259 80 286 22 248 26 96 92
319 25 2914 352 5 14 5 176 7 151 88 396 44 496 27 161 3 297 94 451 19 429 91 95 98 204 77 328 82 167 46 338 76 312 83 474 51 35 31 148 43 188 46 84 8 72 50 347 82 7 84 106 27
320 25 2570 147 80 185 86 448 33 358 75 92 64 4 13 360 100 430 88 105 66 424 43 93 13 497 60 7 41 83 65 81 26 333 65 137 26 428 24 29 94 163 50 191 27 141 78 256 33 72 82 77 32
321 25 3182 57 16 213 56 355 52 248 55 363 4 429 81 218 24 166 12 24 26 486 13 442 66 329 36 38 34 298 2 69 48 449 69 482 79 291 39 12 99 180 38 340 52 301 13 293 89 95 71 186 74
322 25 3380 427 8 42 11 243 47 460 85 353 13 332 60 351 36 498 44 337 31 382 26 176 66 172 48 355 76 44 64 119 56 285 98 271 15 222 64 214 27 329 74 84 36 452 4 93 8 492 53 27 28
323 25 2926 73 92 119 26 355 44 343 74 37 31 241 44 415 50 106 52 492 44 164 50 290 89 40 7 105 12 81 34 240 96 389 5 15 59 401 78 280 70 497 34 462 45 191 47 69 70 38 45 410 93
324 25 3587 386 10 399 13 76 58 285 33 355 86 453 15 59 14 212 80 197 5 243 71 392 47 282 5 19 14 432 33 470 71 35 21 347 23 353 61 370 61 493 89 269 98 111 27 435 91 76 21 426 11
325 25 4217 439 12 497 82 456 73 366 12 490 86 161 47 461 72 47 34 411 80 347 60 264 71 158 84 38 68 402 96 478 23 409 86 390 51 375 87 453 29 280 98 247 45 360 21 72 72 357 10 477 39
326 25 3284 474 84 147 27 435 6 131 50 367 19 173 23 237 65 12 6 63 51 331 39 377 66 361 86 87 93 159 55 40 54 352 30 362 30 296 11 99 20 451 6 129 56 356 54 416 35 365 7 349 93
327 25 3260 476 50 486 35 125 22 234 53 329 24 212 29 68 90 439 95 290 94 57 92 321 31 134 20 485 86 267 45 208 70 90 66 221 20 463 16 351 52 110 56 113 39 391 33 240 20 200 97 211 23
328 25 2797 172 39 213 47 72 76 21 47 421 49 233 58 244 43 330 27 423 27 28 43 6 32 389 6 257 5 354 29 278 64 58 1 312 95 402 80 333 16 160 38 174 70 319 76 304 88 14 51 77 67
329 25 3034 353 76 361 13 343 91 50 76 176 14 33 70 18 16 56 91 67 9 436 17 274 6 492 93 485 46 29 6 498 59 394 43 460 21 235 15 11 82 145 49 229 99 349 30 101 68 51 79 422 19
330 25 3131 469 88 197 97 23 42 99 17 493 76 411 67 328 98 231 28 233 66 414 17 189 73 72 43 157 36 55 18 478 1 482 14 1 46 18 19 155 4 227 80 76 66 468 68 136 14 492 50 359 20
331 25 2786 207 28 348 58 81 3 264 22 110 49 82 83 95 84 25 38 428 47 324 98 256 78 295 35 350 84 212 100 76 2 427 25 337 60 265 80 51 90 309 66 139 7 142 94 242 92 463 49 44 99
332 25 2705 262 83 144 56 217 42 360 86 478 34 102 36 39 77 7 67 325 99 275 15 259 76 47 9 230 64 277 37 487 81 247 57 139 96 364 99 233 4 364 2 227 65 120 26 6 84 165 25 37 100
333 25 3412 336 74 255 94 190 75 224 64 246 8 348 49 307 3 151 79 204 40 375 65 415 48 104 32 434 68 365 17 308 99 201 22 240 18 195 94 380 87 156 30 11 24 399 87 213 66 417 8 351 8
334 25 3260 266 51 480 26 43 29 35 87 382 22 202 68 414 31 455 5 468 27 232 61 358 82 201 87 345 29 203 10 436 98 346 47 114 76 317 54 253 97 80 8 81 49 288 58 354 28 2 35 166 73
335 25 2204 130 27 151 27 90 25 86 86 12 40 316 61 57 71 12 87 435 55 34 25 238 68 292 49 215 46 276 94 169 59 1 35 68 5 426 17 37 77 275 26 227 41 232 65 119 18 197 71 313 11
336 25 3524 316 21 378 18 291 27 274 5 459 74 225 44 312 2 426 44 368 91 66 23 237 37 12 39 454 95 181 22 394 3 414 43 174 75 335 13 266 25 212 23 412 67 149 94 62 35 487 7 144 82
337 25 3185 180 16 135 55 151 57 30 49 302 79 306 69 456 55 487 26 249 3 341 30 357 90 362 48 122 21 314 99 2 77 37 93 286 34 239 77 134 94 481 72 196 89 291 49 160 17 285 1 467 91
338 25 3676 131 42 297 59 281 8 416 63 137 59 449 60 284 53 226 48 344 35 292 54 462 32 311 1 256 16 263 35 477 19 206 16 266 92 480 71 309 34 65 10 403 84 394 82 455 37 56 46 93 63
339 25 2784 461 6 128 17 196 1 173 33 135 70 343 45 138 69 13 41 344 47 438 42 97 81 472 49 54 28 120 22 309 27 119 9 480 50 206 61 7 63 173 25 149 58 249 19 213 14 230 81 321 3
340 25 2688 27 47 128 99 311 28 176 56 106 18 154 90 68 6 116 99 439 67 317 83 75 3 235 14 456 24 403 65 131 28 23 31 186 13 125 1 342 51 271 72 198 47 157 50 155 94 379 47 399 28
341 25 3167 181 69 125 66 243 76 499 40 398 37 41 6 457 58 195 98 229 39 388 92 438 7 239 32 169 53 496 39 90 91 8 18 392 58 13 99 140 59 99 93 402 21 334 33 374 69 97 8 287 80
342 25 2843 407 53 170 30 137 100 41 73 380 1 377 79 251 90 45 14 104 1 87 23 264 27 288 97 405 14 449 77 129 71 116 57 351 87 4 49 64 29 417 39 118 48 146 25 26 81 478 5 432 62
343 25 2796 296 74 351 44 57 95 398 28 386 51 213 97 190 22 318 76 60 58 424 67 136 73 5 81 57 25 61 36 414 80 62 19 315 74 265 31 335 17 68 14 83 42 322 48 274 10 333 5 170 86
344 25 3054 357 46 477 34 181 27 344 29 276 1 463 80 498 6 316 4 382 65 237 52 197 71 368 72 152 64 43 64 77 11 202 92 18 9 123 70 186 63 9 100 350 77 334 21 348 17 49 49 121 65
345 25 3168 499 52 380 5 24 20 354 71 430 92 147 90 410 39 137 88 374 42 280 21 112 63 433 28 2 37 414 44 20 61 320 40 403 41 74 21 134 74 230 23 361 61 262 86 155 5 33 68 348 66
346 25 3331 260 13 260 98 11 69 300 74 11 83 459 56 27 90 264 64 436 39 192 69 259 72 117 36 382 11 291 99 412 54 174 17 226 63 133 86 328 65 431 66 472 48 35 56 314 79 494 94 375 12
347 25 3393 261 64 448 31 168 37 48 51 479 22 493 34 158 58 137 2 274 73 8 27 327 83 282 27 310 98 272 5 398 65 277 3 444 2 325 11 43 57 226 80 392 61 238 3 457 15 129 85 192 76
348 25 3481 474 23 478 55 464 16 478 9 238 32 6 21 375 87 325 99 338 3 303 23 183 87 262 26 409 55 135 75 191 88 210 93 166 3 302 59 80 53 337 35 277 40 205 90 37 16 266 20 424 35
349 25 3400 203 79 466 36 405 56 337 35 257 54 195 78 43 96 286 29 489 12 176 41 324 22 86 24 405 75 489 31 437 28 280 35 420 90 95 27 69 51 60 69 364 1 280 86 205 59 96 77 333 53
350 25 3124 206 29 398 18 390 3 451 33 282 83 59 12 273 14 219 10 24 24 14 26 136 61 16 99 386 25 425 42 238 63 248 3 68 3 252 19 292 19 347 75 211 69 227 35 330 13 290 73 467 14
351 25 3768 180 56 499 53 127 29 298 93 486 3 395 95 207 8 43 92 319 19 281 45 279 13 310 93 313 89 346 23 387 77 73 56 382 6 430 79 307 25 177 5 108 18 324 12 441 57 380 68 445 67
352 25 3015 240 55 73 53 356 51 136 63 5 42 41 58 19 72 98 97 86 81 315 29 60 18 386 93 439 98 368 42 126 31 486 28 193 36 330 65 438 28 241 68 355 19 468 79 485 61 198 34 89 45
353 25 3019 96 15 422 23 303 64 186 42 49 67 162 73 281 43 209 74 370 11 488 8 145 4 306 94 78 5 359 21 315 37 39 79 94 47 333 20 472 45 322 27 379 10 422 53 34 73 109 60 66 36
354 25 2826 32 63 149 22 482 74 307 2 137 86 383 65 344 10 62 20 392 18 188 54 273 60 214 65 234 94 226 98 197 35 1 60 213 75 482 26 100 9 177 82 395 47 147 69 227 21 193 97 97 39
355 25 3206 176 14 473 84 174 64 474 79 408 16 17 66 481 36 23 89 348 48 412 58 23 44 122 98 180 29 286 65 81 61 175 27 244 36 316 85 268 23 402 48 399 39 8 85 252 57 269 33 401 74
356 25 3451 324 38 202 9 254 12 214 38 240 57 194 100 296 33 472 69 48 69 380 10 452 97 95 40 405 44 295 9 416 75 438 18 76 79 186 62 89 37 5 9 265 43 363 93 365 57 331 28 497 8
357 25 2698 188 66 166 44 112 38 396 97 261 44 3 3 171 43 223 96 18 76 480 19 263 55 365 90 121 1 400 4 219 98 50 92 377 90 104 47 191 17 100 11 422 4 183 47 293 14 67 48 224 72
358 25 2557 19 32 433 78 24 23 488 72 185 37 410 9 47 19 198 29 3 5 40 42 96 64 422 23 232 77 110 65 129 38 410 49 464 18 8 54 30 44 346 66 273 75 88 44 160 64 390 3 110 43
359 25 3422 144 17 442 5 168 99 488 39 177 62 178 80 226 50 175 20 168 71 99 70 212 77 195 3 471 95 91 20 255 92 459 35 486 85 321 35 16 22 306 97 262 33 469 13 489 55 368 82 180 69
360 25 3755 33 70 218 46 258 27 450 17 449 51 392 66 52 60 90 44 214 10 486 71 206 39 160 31 346 45 251 98 382 63 236 23 395 88 331 13 432 63 347 45 429 80 365 91 456 13 330 21 202 80
361 25 3485 497 57 25 28 204 43 338 40 454 38 394 100 319 34 52 69 7 42 298 25 269 80 338 62 419 24 402 55 127 10 319 65 382 8 330 52 346 100 500 80 53 63 431 12 47 25 73 28 347 19
362 25 3405 382 66 186 76 146 16 392 1 291 26 470 8 398 18 200 6 376 61 43 76 177 32 412 41 414 53 118 70 418 11 142 97 202 17 444 32 136 19 285 42 100 69 193 59 73 16 393 95 420 88
363 25 3444 131 43 423 74 372 37 137 83 311 82 58 86 399 30 321 8 134 17 359 12 366 75 211 13 165 26 480 84 135 62 340 64 286 8 189 46 265 13 482 63 112 84 39 24 460 91 402 88 312 92
364 25 3094 202 24 48 53 197 21 391 36 204 50 147 46 195 43 488 16 218 11 239 94 231 20 412 93 115 53 239 91 343 37 120 82 10 75 296 94 427 40 388 89 311 20 226 78 430 84 35 75 276 20
365 25 2849 185 49 96 33 214 79 427 88 476 55 405 56 80 67 11 60 41 59 388 20 193 1 136 48 372 87 243 94 345 82 248 58 481 75 187 79 12 79 220 25 172 86 214 11 21 79 454 54 77 93
366 25 3697 419 69 432 87 500 37 318 7 455 29 493 67 356 17 39 4 288 82 405 1 167 28 100 20 396 6 262 99 19 98 408 13 457 54 200 99 305 88 412 95 219 44 78 77 1 34 312 14 353 15
367 25 3126 485 53 149 68 288 92 142 15 178 60 194 2 166 87 61 14 412 11 414 10 435 80 283 55 112 13 478 75 44 78 108 89 88 66 2 87 340 43 347 65 292 53 312 11 446 41 29 19 447 83
368 25 3057 396 38 283 39 482 83 461 42 414 29 98 90 233 13 229 67 162 22 43 1 440 54 369 91 328 44 392 2 157 2 189 48 73 82 25 12 63 89 381 60 477 89 136 99 90 15 166 56 28 27
369 25 2674 61 34 66 96 125 48 115 13 392 40 330 2 36 74 208 13 231 5 35 1 248 41 28 12 20 30 63 80 487 47 50 33 445 37 258 73 65 72 345 32 419 91 434 94 259 51 340 53 289 69
370 25 2693 376 75 472 18 140 35 132 38 257 7 32 78 238 12 86 76 93 90 221 90 291 40 191 36 26 69 372 30 161 91 49 10 135 30 84 39 120 40 356 90 234 72 298 88 383 20 192 96 447 20
371 25 2764 140 9 29 22 88 73 145 14 29 48 409 16 413 94 469 58 390 90 76 40 102 11 134 79 348 11 41 79 228 8 414 47 259 51 188 54 51 40 115 82 226 80 274 34 458 7 293 50 210 100
372 25 3313 427 2 481 6 229 97 484 36 135 31 438 57 242 35 99 77 80 2 292 79 160 94 302 60 222 93 321 41 393 9 52 45 191 96 142 19 399 26 75 4 150 68 197 20 310 56 329 96 477 65
373 25 3636 428 3 269 10 451 94 379 54 225 72 6 64 368 21 245 46 397 54 325 78 294 77 80 72 377 47 44 21 274 66 342 96 423 54 243 100 269 56 156 93 436 36 113 97 356 71 339 6 434 75
374 25 3530 389 17 230 29 192 5 456 84 484 92 420 90 69 60 79 1 309 53 185 68 196 71 493 53 277 76 134 38 22 24 14 20 452 42 399 82 63 67 409 7 179 50 375 49 500 43 289 4 446 32
375 25 2957 474 33 142 71 425 67 401 6 189 1 389 40 325 12 79 14 267 3 192 16 479 99 33 9 71 38 75 82 358 26 460 66 235 87 85 48 15 92 130 86 150 20 424 72 66 12 9 64 441 81
376 25 3289 308 97 305 20 64 52 477 100 105 42 389 66 186 72 389 81 385 8 390 24 115 25 432 18 220 38 147 94 159 84 6 63 234 58 66 90 284 2 372 14 247 27 499 81 28 36 451 62 321 86
377 25 3029 39 64 153 61 86 11 333 92 323 25 83 29 393 73 24 91 284 47 469 13 466 14 95 62 439 69 208 82 185 24 198 93 9 46 310 54 336 16 128 97 91 46 490 93 30 42 493 43 393 63
378 25 3292 70 48 86 53 8 38 85 3 470 33 131 61 402 35 468 20 257 93 66 94 498 73 453 32 54 62 388 85 136 92 244 17 4 27 104 77 442 11 385 37 320 87 220 21 487 98 490 91 316 97
379 25 2937 125 49 473 92 177 59 395 48 82 66 198 59 304 94 207 28 310 66 62 43 121 49 345 20 29 25 210 7 137 82 313 94 178 43 406 81 143 42 467 28 2 61 386 63 20 91 388 89 396 48
380 25 3082 487 63 8 57 478 75 146 84 36 82 85 64 235 46 224 71 201 46 461 28 390 75 492 54 326 51 207 54 135 96 34 37 346 14 363 39 261 61 178 18 87 29 281 63 158 55 275 78 270 5
381 25 3119 50 13 143 10 233 57 100 68 227 60 309 49 293 4 229 62 412 47 62 36 397 99 345 68 316 83 11 68 76 43 284 30 381 55 367 10 193 80 379 72 343 23 406 40 214 17 83 9 385 55
382 25 3411 140 10 238 47 150 21 23 19 392 65 319 39 441 29 420 26 491 100 79 23 334 24 151 92 479 74 418 50 140 99 317 75 411 34 487 9 190 65 348 82 94 27 366 86 169 57 107 3 119 64
383 25 3721 470 53 426 17 390 63 232 98 460 41 333 75 215 59 398 32 374 15 406 29 41 91 497 77 368 39 176 32 10 86 454 53 274 5 44 44 111 14 304 91 319 89 166 80 406 59 141 46 427 14
384 25 3607 3 34 452 95 328 77 153 85 268 86 171 75 56 58 355 81 81 28 352 64 32 85 77 44 404 26 343 84 324 66 491 66 282 82 496 44 53 24 391 1 462 2 384 76 345 50 454 1 458 42
385 25 2740 490 44 280 53 335 16 253 47 10 8 113 18 245 95 152 93 359 64 190 26 111 75 129 28 183 93 11 14 151 46 70 75 245 54 194 81 46 1 317 59 313 83 340 17 384 4 406 21 153 78
386 25 3235 416 84 214 85 164 91 369 88 344 48 145 12 174 36 313 39 126 82 309 91 189 82 141 99 227 42 46 39 275 77 390 75 262 97 385 19 441 93 164 7 165 40 346 62 422 76 108 54 336 97
387 25 3803 181 16 290 97 83 9 152 70 88 57 456 74 437 80 239 24 346 37 139 85 417 83 442 25 441 29 293 16 207 59 328 46 475 51 485 30 347 79 462 27 264 31 165 16 217 19 492 9 160 47
388 25 2780 406 85 370 77 95 28 64 39 72 31 11 61 218 55 174 48 345 54 427 14 119 31 253 56 487 35 345 64 61 5 261 44 48 25 386 1 95 74 42 94 320 27 139 94 284 35 490 47 49 82
389 25 3002 34 50 438 91 204 22 341 85 120 31 220 4 46 67 117 17 95 77 200 68 317 85 385 8 48 19 271 84 436 73 139 62 492 48 447 49 315 26 154 61 450 99 119 94 225 26 292 30 100 17
390 25 3817 434 65 457 8 435 100 354 42 390 59 172 6 145 9 6 80 473 36 26 80 52 95 498 64 154 32 118 19 304 8 427 15 464 66 474 25 483 92 275 63 433 41 126 47 169 6 470 26 295 74
391 25 3060 34 2 393 13 299 84 485 26 109 85 72 56 317 24 362 39 194 16 43 78 327 60 73 72 8 73 440 69 214 80 379 60 311 92 36 64 342 89 447 41 396 65 211 91 129 81 426 16 74 65
392 25 3165 49 25 269 16 206 37 157 80 1 61 210 19 231 61 213 73 295 46 108 21 290 97 465 17 481 33 227 88 384 56 90 78 17 16 388 22 87 23 328 60 476 8 448 90 230 77 335 12 345 6
393 25 2878 160 16 227 14 42 92 79 33 27 21 42 29 84 46 166 57 380 55 221 59 178 72 258 55 440 38 447 5 233 80 39 85 455 53 326 3 53 10 318 46 161 71 351 83 107 32 491 80 472 29
394 25 3083 458 69 231 58 381 28 138 12 2 75 254 15 229 21 158 42 221 70 151 15 465 61 436 85 398 82 477 18 78 85 376 1 123 41 354 93 54 71 4 54 62 93 13 63 338 59 391 30 374 45
395 25 2840 468 25 81 13 284 81 200 7 82 28 94 49 48 31 145 54 422 68 270 25 70 24 4 60 333 15 352 32 210 91 159 93 477 90 268 64 394 26 138 22 211 16 234 83 73 76 187 20 477 6
396 25 3804 456 24 184 44 363 5 460 35 223 90 489 9 279 14 352 70 7 85 324 65 76 42 210 94 465 95 375 100 424 4 32 70 430 40 20 9 490 9 349 87 337 88 44 41 484 17 389 5 347 76
397 25 3709 380 32 107 58 484 69 500 1 87 42 442 55 382 51 35 67 238 37 183 44 480 39 184 49 469 62 275 41 157 88 327 23 47 35 303 76 353 62 448 37 487 81 410 48 4 12 213 27 424 16
398 25 3020 358 74 498 27 486 69 294 31 43 14 131 58 132 25 486 70 103 10 14 78 368 18 298 72 135 6 412 92 489 25 143 76 2 77 6 23 1 24 399 53 251 20 366 4 292 46 120 69 214 43
399 25 3681 377 70 155 76 394 19 36 39 329 39 314 7 396 5 246 77 141 34 126 97 405 74 248 4 480 22 95 64 453 43 196 25 407 27 244 53 225 46 446 22 402 13 290 96 461 86 297 27 199 76
400 25 3615 481 99 372 96 245 3 68 39 56 56 399 24 386 56 198 61 9 58 455 71 392 43 270 76 215 31 212 10 269 41 436 65 493 70 383 13 188 7 447 77 152 60 211 6 397 30 5 4 491 9
401 25 3342 93 58 148 39 244 26 225 10 456 49 259 59 450 25 93 24 187 74 264 3 189 40 408 60 457 98 366 67 315 71 50 80 216 94 312 59 146 67 278 9 166 79 381 21 329 37 468 96 185 56
402 25 3758 250 27 497 83 350 5 350 30 439 72 90 9 354 47 229 93 253 21 380 55 308 47 222 19 379 74 190 52 391 86 412 91 411 93 62 97 474 86 57 47 71 57 335 22 383 80 381 13 248 86
403 25 3858 187 46 146 28 275 53 221 58 421 97 284 88 425 73 435 46 264 10 432 95 462 91 446 98 379 3 374 64 395 78 146 92 324 91 404 57 89 39 269 47 130 6 316 30 353 5 333 70 206 71
404 25 2914 371 79 4 77 141 14 217 69 319 56 288 34 129 56 414 49 174 63 407 7 380 47 45 56 367 18 338 13 105 16 91 72 447 5 381 23 11 69 108 41 8 71 420 40 146 19 123 6 394 2
405 25 3255 48 38 58 19 1 85 459 69 412 16 68 83 382 56 114 72 413 89 499 32 433 68 213 58 182 66 311 69 65 40 369 71 363 91 305 1 173 12 141 36 496 9 76 93 397 84 480 14 52 18
406 25 2842 351 20 269 53 83 40 312 90 142 30 246 88 138 13 62 15 311 90 109 96 40 68 410 15 86 65 405 41 363 18 248 84 261 32 123 47 87 98 453 98 273 31 227 46 448 46 204 25 33 88
407 25 3335 372 3 130 42 441 83 327 55 407 60 356 73 332 27 184 11 285 80 375 66 131 14 165 32 174 23 465 4 142 54 158 41 231 5 218 84 292 7 11 90 432 94 472 35 261 68 158 45 151 85
408 25 3048 294 58 355 55 49 85 295 8 424 93 110 4 197 92 389 48 208 99 53 28 385 79 404 79 460 79 312 26 159 45 154 67 351 97 5 44 312 54 197 5 308 96 233 22 59 90 108 9 276 49
409 25 3495 50 79 370 13 160 50 134 23 378 11 478 7 448 25 46 79 348 45 32 81 177 53 394 33 119 46 406 25 498 31 137 11 396 7 255 24 438 54 201 5 389 32 409 93 162 87 473 96 93 83
410 25 2623 237 23 426 43 185 11 179 9 77 63 186 78 54 44 356 88 51 5 453 94 137 85 325 56 272 27 94 17 468 31 335 17 39 1 96 61 238 80 235 11 447 68 17 53 35 65 48 15 257 12
411 25 2983 228 54 326 39 237 38 192 34 464 17 424 39 416 60 402 88 240 74 397 87 2 97 5 47 270 11 12 5 102 10 156 55 194 40 88 56 326 14 476 70 305 10 141 95 62 100 19 34 483 100
412 25 2904 284 54 356 35 367 35 433 18 213 44 31 77 163 73 325 62 450 10 177 96 389 76 53 23 350 4 59 32 214 3 355 81 19 53 237 19 196 17 278 29 67 77 68 43 58 30 281 57 386 25
413 25 3702 420 92 77 64 43 83 389 24 443 10 321 62 433 44 256 51 256 84 54 68 207 24 192 75 427 30 426 62 177 15 359 27 453 53 164 88 205 91 458 59 378 10 86 19 362 75 364 57 454 85
414 25 2664 361 15 287 54 141 26 12 15 50 84 489 95 41 39 409 28 9 1 33 36 325 93 241 91 49 91 56 39 308 27 206 71 304 81 354 20 256 16 127 25 281 60 89 9 431 35 311 38 159 32
415 25 3765 269 66 281 88 498 26 155 44 276 80 481 95 244 63 421 60 494 63 471 68 97 69 228 36 217 24 240 81 149 32 462 51 336 36 69 99 122 59 360 1 304 51 121 29 390 64 431 43 415 69
416 25 3775 268 35 105 27 455 63 429 21 418 82 492 87 278 67 484 59 458 45 269 28 436 47 57 88 128 88 265 54 66 73 392 10 226 25 355 84 298 84 268 97 311 10 113 20 266 39 264 60 450 18
417 25 3078 369 66 294 51 344 19 487 41 234 91 360 95 284 7 451 73 49 69 177 6 153 9 111 14 470 48 407 79 13 28 222 2 360 49 341 85 34 28 341 33 127 42 153 26 171 55 58 35 146 91
418 25 2972 381 54 185 37 105 11 94 24 226 54 350 2 149 68 471 40 21 46 204 95 468 14 422 10 208 30 162 17 53 66 335 18 342 55 89 9 289 74 173 67 160 22 424 23 121 12 424 18 88 6
419 25 3294 139 57 227 20 313 81 92 27 484 68 316 80 422 84 402 97 131 61 75 39 283 20 362 100 312 37 20 89 165 56 241 7 479 46 486 28 349 80 272 32 202 6 427 64 107 54 212 68 71 66
420 25 2581 401 97 488 10 350 61 65 2 18 16 308 76 271 55 64 4 243 24 273 31 140 73 308 49 289 51 86 84 125 20 149 31 14 74 266 3 297 3 74 78 61 29 381 82 16 28 398 86 77 65
421 25 3518 203 86 32 93 312 25 441 53 133 10 288 38 28 53 197 35 385 8 485 75 495 93 344 79 420 71 12 16 355 77 26 92 306 54 421 57 191 94 317 36 244 14 471 38 284 10 279 84 367 58
422 25 3399 393 100 230 74 338 16 191 99 381 99 440 13 284 5 99 36 40 72 201 26 15 96 188 19 348 82 349 29 487 88 314 79 205 47 356 97 463 91 231 33 29 50 257 82 331 27 266 76 362 11
423 25 3214 442 57 45 39 428 77 19 23 356 11 389 2 183 44 481 89 44 49 300 98 337 90 342 91 362 91 237 56 373 32 436 44 399 2 83 65 9 71 77 75 2 3 331 36 485 78 121 10 148 70
424 25 2144 122 38 16 6 46 99 3 57 31 1 57 87 337 19 385 82 127 83 74 66 235 48 59 17 179 76 158 41 133 78 221 27 70 57 182 78 187 57 251 63 374 91 455 11 161 5 136 51 290 30
425 25 3281 139 79 325 85 35 81 239 95 22 22 453 87 438 83 381 71 187 91 156 16 46 29 302 99 273 94 479 47 118 25 132 94 476 63 115 95 407 19 78 81 332 65 368 40 410 75 264 46 388 36
426 25 2469 46 54 23 36 174 87 247 28 469 45 197 49 350 28 92 76 254 68 175 26 174 57 34 37 63 17 104 41 287 6 443 70 142 13 268 30 340 4 227 92 57 19 270 41 300 55 29 80 173 56
427 25 3228 307 71 376 100 469 79 34 9 413 11 286 50 445 75 213 88 192 48 287 26 253 89 344 36 31 64 356 75 352 87 189 89 56 32 379 57 432 28 123 30 499 91 29 79 72 38 113 64 206 48
428 25 3624 339 64 64 70 417 12 73 61 435 90 300 3 285 79 345 43 154 70 150 77 321 33 354 65 437 61 222 21 370 45 334 57 378 13 342 61 386 92 474 22 30 17 483 34 274 36 109 68 173 46
429 25 3360 330 99 358 38 313 97 355 52 378 86 142 52 148 46 161 72 292 83 327 45 227 88 445 14 43 49 492 50 329 41 201 57 297 86 270 81 384 11 284 54 21 47 395 44 73 97 290 65 166 21
430 25 2792 48 3 219 9 11 59 43 35 214 38 130 51 396 60 17 99 268 26 499 3 176 18 111 71 333 44 60 5 97 41 355 82 367 2 356 32 141 41 209 13 486 91 218 41 447 37 338 95 46 68
431 25 2814 31 19 44 27 364 79 132 94 190 9 284 43 330 58 65 24 493 43 172 49 49 63 252 85 208 14 64 31 147 82 358 44 75 30 437 76 195 72 277 94 333 34 91 79 306 29 311 100 420 79
432 25 3110 289 34 446 86 496 43 403 38 3 98 298 20 391 16 115 36 100 92 312 21 435 24 336 12 255 98 31 2 149 82 211 23 290 88 237 10 113 90 356 59 178 55 319 57 277 97 121 48 60 91
433 25 2939 218 32 108 45 25 65 430 81 312 76 78 35 388 76 385 68 70 76 4 28 409 73 151 43 178 6 55 78 244 51 429 48 341 32 114 71 366 30 167 81 116 82 391 43 48 21 484 38 368 68
434 25 3175 317 30 423 3 264 23 67 69 321 40 229 75 446 7 262 72 362 30 231 72 85 93 25 90 57 100 490 5 317 21 204 70 371 6 204 7 157 39 363 23 286 54 103 37 58 81 349 91 360 1
435 25 3054 4 41 227 93 51 16 298 75 393 98 302 92 323 95 409 15 239 18 385 69 103 58 41 40 223 39 271 96 219 83 130 45 170 42 50 11 253 9 386 30 380 14 481 38 175 14 108 46 488 61
436 25 3490 273 44 345 70 265 58 490 11 59 51 431 86 411 61 319 46 296 46 5 61 359 41 130 52 463 48 500 71 260 94 318 14 415 6 318 13 463 30 123 37 1 81 264 30 233 36 223 84 16 33
437 25 2819 372 90 88 22 108 87 115 53 259 77 317 100 290 44 497 20 10 61 435 37 189 22 119 84 242 7 42 50 450 59 32 12 211 18 248 70 28 96 465 73 121 23 204 59 111 48 365 94 320 86
438 25 3368 330 34 360 81 493 100 225 37 414 64 349 27 256 39 185 85 88 70 273 4 139 16 400 82 17 96 382 4 406 100 281 99 311 93 282 15 281 34 91 22 193 20 367 68 79 92 385 46 150 33
439 25 2712 375 43 241 36 188 4 450 95 2 64 320 6 50 3 335 53 37 51 298 46 243 87 9 12 104 9 64 19 289 57 75 73 95 73 449 45 216 61 201 86 146 92 333 9 108 96 297 29 500 58
440 25 2903 122 75 130 37 413 18 317 48 430 51 56 68 200 32 48 46 48 67 281 100 418 4 31 93 416 64 217 27 33 7 191 41 47 55 248 68 7 25 363 9 95 89 367 75 408 33 481 8 439 55
441 25 2924 459 32 24 1 173 16 336 47 168 2 177 23 203 76 287 58 261 1 325 9 425 40 19 2 203 12 239 37 263 8 148 1 311 18 220 32 295 90 178 100 56 88 108 48 328 25 330 66 313 91
442 25 2617 283 3 113 8 309 47 487 36 215 79 105 26 45 14 200 5 117 29 34 77 405 94 305 67 86 7 318 16 48 63 446 14 193 94 145 40 9 68 140 77 47 97 404 80 45 5 265 64 470 63
443 25 3702 371 57 384 54 258 55 477 83 457 6 413 35 208 49 38 100 477 41 342 70 198 25 425 86 75 20 413 12 373 21 271 91 286 94 43 15 423 26 123 57 2 48 240 83 467 73 254 49 386 33
444 25 3409 467 79 346 76 228 71 283 85 189 32 110 22 181 93 458 2 324 56 174 89 209 9 101 61 285 23 259 95 269 98 313 48 99 69 377 25 178 83 422 63 140 22 475 19 320 92 317 58 294 78
445 25 3289 259 85 19 8 322 94 27 95 313 34 476 21 223 19 403 76 170 37 226 70 299 43 402 66 317 76 164 98 498 65 192 74 57 59 351 1 269 97 381 68 210 31 246 24 100 6 206 3 448 85
446 25 3223 336 43 425 63 444 98 484 3 171 26 63 57 13 56 172 75 148 34 342 82 252 26 424 50 227 20 140 20 436 22 27 93 59 86 374 75 159 13 288 93 447 22 170 99 106 87 385 30 355 7
447 25 3739 231 30 304 31 463 28 339 89 170 94 71 47 490 20 380 62 71 8 277 51 493 6 140 18 125 45 467 59 314 47 323 73 205 56 319 47 257 84 389 24 382 61 275 57 203 55 332 17 458 65
448 25 3222 312 3 482 95 498 11 48 27 477 58 291 31 306 74 29 40 487 75 124 25 17 29 344 7 94 16 340 98 256 3 284 57 36 61 92 30 264 17 350 67 71 40 477 50 205 71 218 42 343 78
449 25 3031 234 44 180 9 112 4 20 93 486 1 197 85 117 26 157 54 198 25 495 30 181 7 10 1 350 21 493 71 391 65 240 17 313 98 456 13 455 63 55 5 329 22 19 52 34 71 419 7 122 13
450 25 3919 268 51 382 16 260 2 406 24 286 7 132 15 35 17 144 50 426 93 484 32 297 32 427 13 421 41 288 58 384 49 135 54 251 80 311 44 387 23 383 75 276 67 373 33 351 9 377 16 355 30
451 25 3202 159 14 409 42 354 78 51 6 260 77 34 82 401 60 331 2 165 24 55 85 368 67 3 12 77 1 105 4 397 44 31 15 70 44 393 19 402 75 285 5 393 89 482 24 312 88 383 46 485 90
452 25 3336 50 5 68 14 310 42 310 19 82 66 251 23 459 13 50 62 489 1 378 65 172 5 122 54 83 61 51 46 475 52 337 17 293 99 401 98 228 91 240 82 229 96 494 93 338 82 272 1 491 97
453 25 3399 439 84 425 34 272 4 57 87 117 22 278 92 241 50 267 47 134 83 459 10 209 3 317 42 236 49 338 90 244 26 364 37 69 48 158 8 169 86 463 82 195 44 284 59 276 10 436 5 351 33
454 25 3089 304 91 412 76 135 75 427 57 21 12 449 65 243 43 196 24 193 27 30 80 403 1 323 90 414 92 30 3 44 45 252 57 195 89 430 38 250 61 350 94 158 75 314 29 126 31 302 59 178 31
455 25 3083 232 60 138 39 200 43 56 64 469 5 290 99 404 27 88 4 258 100 424 7 361 40 85 8 98 11 29 19 330 98 47 72 469 30 377 24 437 12 336 64 382 38 366 31 23 14 35 94 232 71
456 25 2474 447 43 418 74 328 57 115 19 237 26 436 37 393 32 156 18 255 5 92 93 167 30 87 21 82 95 137 82 165 30 415 88 351 93 209 30 38 47 11 94 60 67 105 46 92 14 12 47 141 63
457 25 3654 419 5 440 4 446 19 366 65 54 74 188 7 456 70 159 33 413 51 382 96 136 18 119 56 491 12 14 18 496 32 173 38 278 10 194 19 384 91 154 80 207 47 464 63 190 9 265 24 420 33
458 25 3086 219 100 413 93 27 91 118 74 9 68 207 82 391 98 174 63 411 56 9 50 344 4 466 67 274 86 364 43 251 47 180 46 372 50 279 15 71 86 392 12 406 14 129 59 233 47 412 41 21 98
459 25 2885 238 23 171 55 296 34 248 75 81 29 494 28 33 31 2 54 258 69 90 99 252 62 106 15 462 24 296 92 253 20 493 59 61 35 62 96 205 86 114 67 443 29 102 83 289 60 489 20 232 10
460 25 3025 279 83 466 34 390 20 51 5 137 95 289 17 194 51 284 16 328 4 67 89 411 81 21 90 387 2 81 45 47 57 95 63 289 82 442 79 451 48 314 63 285 40 427 68 75 15 192 85 48 23
461 25 3155 108 84 222 97 323 44 257 10 396 37 463 22 264 83 370 50 465 63 32 3 497 13 309 98 164 78 457 5 310 21 365 77 49 11 28 70 278 42 39 31 263 63 71 94 84 37 376 95 121 57
462 25 3102 230 85 312 30 259 24 158 7 72 2 70 32 319 5 146 26 245 20 299 98 27 89 332 75 49 98 214 33 487 87 403 60 27 84 325 93 143 98 410 45 417 4 206 67 218 15 379 5 457 74
463 25 3090 463 81 134 27 40 19 395 79 155 65 238 87 91 11 76 11 86 59 262 82 277 97 314 68 52 80 36 80 455 93 8 91 483 7 303 75 160 31 441 46 254 94 433 84 202 61 476 51 347 20
464 25 3039 52 56 6 7 350 89 400 12 487 35 259 55 162 29 370 39 26 14 320 32 302 33 179 67 281 29 499 24 121 40 228 39 146 6 69 66 202 50 140 72 181 11 398 68 365 20 478 8 57 47
465 25 3247 370 47 415 1 122 45 362 36 126 45 67 50 338 13 19 70 91 82 442 62 156 99 174 21 377 2 190 57 150 84 369 81 306 57 407 22 61 96 228 72 213 25 376 12 466 8 348 44 322 58
466 25 3149 198 94 435 33 315 22 111 4 25 37 384 91 94 89 412 95 210 37 8 10 107 77 421 72 389 40 209 83 297 37 69 94 244 7 266 61 239 28 323 21 408 54 283 79 213 64 338 67 301 63
467 25 3799 68 11 91 52 229 22 345 41 294 88 245 86 373 73 473 94 32 91 295 100 307 11 335 100 146 12 365 78 66 87 322 30 49 7 464 92 426 31 464 90 471 7 397 97 371 35 484 74 487 71
468 25 3243 196 82 406 99 249 99 480 31 435 26 157 86 61 85 55 71 467 66 313 23 359 76 477 58 459 77 176 91 48 39 290 91 128 60 151 22 384 1 59 58 344 45 72 42 221 38 275 85 224 85
469 25 2264 246 17 370 55 221 22 126 44 33 40 196 99 335 73 307 18 6 26 286 14 31 5 101 28 138 79 238 13 186 56 14 35 205 19 240 48 295 20 231 97 26 43 111 30 69 61 220 63 298 13
470 25 3261 326 84 54 71 15 62 183 75 449 7 161 40 197 42 13 56 455 77 174 69 299 98 425 18 275 78 403 70 489 20 146 13 53 51 397 10 446 74 180 52 488 62 250 12 50 48 438 10 157 97
471 25 3591 356 76 465 8 415 3 447 57 297 27 297 91 232 65 301 37 81 6 379 23 331 97 419 25 25 86 299 85 14 49 92 72 440 32 299 79 469 27 157 77 99 94 464 33 333 32 410 68 62 71
472 25 2998 236 52 241 42 50 5 215 91 46 54 459 73 478 64 211 14 196 6 194 32 210 90 275 50 25 60 377 93 219 95 241 54 386 16 239 84 273 86 323 24 147 25 44 53 331 92 115 34 466 78
473 25 2714 186 2 470 67 276 27 180 63 169 41 142 3 127 52 43 65 250 59 104 11 9 15 168 31 227 98 356 88 202 39 159 80 60 30 463 38 107 54 231 2 432 84 272 14 449 12 313 12 33 54
474 25 3458 340 41 22 99 412 82 432 8 382 33 31 83 268 14 50 32 314 96 184 99 311 22 395 2 246 21 232 97 139 52 308 47 389 34 293 37 462 25 33 15 382 20 332 85 392 75 69 48 498 12
475 25 2722 161 95 72 87 317 48 254 71 13 38 337 46 449 100 13 20 192 18 55 29 360 95 494 55 160 70 104 56 479 81 177 73 456 58 63 53 247 3 275 85 184 7 73 31 413 74 62 44 35 66
476 25 2627 175 2 27 100 311 83 40 24 285 71 216 100 482 78 81 81 353 52 168 93 158 4 447 47 45 39 422 85 10 38 298 55 177 61 128 18 385 90 480 22 15 29 201 66 211 23 51 23 88 29
477 25 3008 168 25 144 2 21 51 499 36 125 91 266 64 419 19 183 39 464 42 314 62 221 79 367 27 365 86 402 85 224 58 175 9 283 60 97 90 317 66 157 6 154 32 207 27 128 56 144 72 172 2
478 25 2517 297 98 89 4 51 46 47 36 230 22 9 44 226 66 98 36 182 24 174 33 135 39 267 60 166 53 247 77 78 94 269 65 208 89 373 21 367 32 423 57 497 94 107 50 364 84 88 99 43 4
479 25 3367 229 10 114 16 112 89 121 5 485 47 316 9 9 52 313 32 416 13 446 56 360 60 212 39 478 17 101 91 286 38 401 57 37 45 199 58 177 46 371 1 138 39 375 32 306 92 445 63 288 51
480 25 3654 311 50 162 18 372 39 394 20 334 67 245 16 170 55 493 68 455 67 493 66 121 32 278 34 433 39 287 64 337 59 149 10 181 58 245 8 264 71 164 77 196 7 378 1 485 96 215 25 147 21
481 25 3364 143 63 111 56 327 41 470 43 238 36 277 62 312 29 134 93 458 99 263 11 55 86 419 99 105 31 365 85 380 49 68 65 493 76 297 67 8 3 407 46 342 37 45 63 487 76 285 2 240 22
482 25 3170 222 58 1 24 199 53 286 65 266 40 130 82 352 61 21 31 336 27 352 40 371 82 219 60 422 92 233 19 290 57 202 30 293 55 283 37 11 76 175 36 415 5 399 63 103 54 265 53 495 82
483 25 2996 77 50 129 19 284 52 55 55 120 17 312 82 85 14 132 62 116 28 130 52 449 56 231 21 423 58 428 15 240 84 52 38 148 76 485 99 429 77 318 56 376 29 416 58 347 34 86 83 125 68
484 25 3662 218 28 459 6 405 89 476 29 136 32 462 33 342 67 97 84 167 86 399 91 184 60 170 23 356 9 205 100 361 4 471 91 173 96 382 65 357 72 275 5 151 56 182 54 389 87 385 74 122 78
485 25 3327 69 26 434 57 488 35 21 9 343 25 194 36 489 54 4 77 219 64 226 56 439 19 152 69 215 18 445 54 136 35 258 49 103 68 228 80 489 34 319 18 404 52 381 91 377 32 172 68 49 9
486 25 3440 459 73 65 53 278 7 274 96 273 17 177 80 347 82 186 62 234 64 477 88 341 83 258 19 26 72 400 99 407 2 431 45 103 20 242 93 251 100 273 98 417 99 242 6 156 19 78 33 485 86
487 25 3422 491 24 418 3 96 46 296 94 175 20 34 24 178 73 379 62 190 40 424 6 436 16 343 93 17 93 282 42 317 36 226 5 147 41 378 76 69 26 301 90 491 4 314 14 1 65 453 71 388 27
488 25 3241 299 72 415 5 373 92 225 56 379 63 177 61 130 86 488 42 482 69 171 48 252 78 21 17 124 24 153 38 316 22 336 55 212 69 21 59 438 4 41 95 112 86 148 96 406 36 383 42 381 39
489 25 3145 358 49 258 65 498 27 275 46 309 9 92 49 228 50 470 38 473 6 404 54 7 96 484 7 85 21 118 16 192 71 119 34 264 7 226 31 136 87 244 44 154 77 393 75 206 8 236 12 62 96
490 25 2667 463 34 33 92 401 88 303 48 335 65 443 61 32 37 120 88 164 18 38 82 254 65 68 52 255 1 116 47 382 23 370 61 333 89 145 57 157 22 219 15 30 3 276 57 145 60 167 45 86 28
491 25 2673 27 54 197 37 59 45 374 52 111 68 84 71 432 62 132 12 79 28 370 42 280 26 59 16 273 95 228 77 210 14 226 41 451 1 151 11 486 87 48 79 40 26 363 36 124 60 145 15 398 95
492 25 2393 123 2 308 44 93 22 77 17 224 70 366 74 202 51 8 64 329 73 373 16 176 73 93 80 163 26 28 16 437 32 359 91 93 32 18 48 46 1 167 64 91 94 190 66 487 66 116 85 219 19
493 25 3298 382 3 153 63 294 89 105 68 96 84 395 82 280 49 402 95 292 14 339 93 328 18 452 79 79 69 375 2 466 95 364 92 454 46 75 40 275 25 286 10 136 28 254 1 137 56 59 29 119 72
494 25 2972 20 85 1 14 82 7 451 30 406 80 346 6 1 71 17 51 262 28 226 51 119 65 55 17 371 2 170 63 489 12 270 12 351 45 355 1 260 40 436 89 431 22 456 12 90 72 89 44 191 25
495 25 3097 459 26 214 18 59 45 404 86 448 17 449 16 204 17 462 43 133 21 371 78 154 48 96 70 305 42 236 49 81 25 290 72 409 30 125 99 297 77 171 22 251 10 68 70 17 68 290 53 202 62
496 25 3429 382 23 242 61 231 66 133 15 454 86 140 97 211 20 164 14 153 87 289 39 273 81 410 18 227 54 126 64 241 83 209 21 378 99 449 63 256 55 99 19 419 41 407 63 354 22 463 53 149 78
497 25 3593 287 46 74 23 493 31 403 65 309 42 34 57 13 39 200 69 216 3 336 91 92 3 452 30 417 98 202 92 472 81 500 52 126 23 474 50 215 16 488 53 297 37 472 29 169 66 197 15 248 25
498 25 3232 431 85 243 93 409 50 213 40 136 36 464 64 159 49 411 10 373 89 266 68 449 54 203 100 167 20 203 77 166 24 136 60 458 27 303 67 71 40 218 95 127 70 47 81 352 70 79 69 380 56
499 25 3002 436 43 464 55 153 92 318 37 27 59 37 83 446 78 12 46 205 29 407 55 104 66 406 32 371 4 145 93 145 18 9 35 314 63 238 54 381 18 332 17 225 37 25 8 283 72 346 24 176 3
500 25 2893 57 39 408 2 455 19 2 51 449 42 272 90 277 27 201 28 313 2 133 21 48 66 201 88 72 17 351 15 127 41 11 49 60 41 439 98 179 49 155 49 287 40 500 28 204 91 157 15 428 29
