173
173
173
175
174
176
176
176
175
176
176
173
172
174
177
171
172
168
165
165
164
164
165
162
164
163
164
163
164
164
164
163
161
162
166
166
168
174
173
171
170
168
168
169
167
167
168
173
173
168
166
168
169
170
171
173
171
173
174
176
174
176
174
175
173
176
175
174
173
174
171
173
171
173
174
176
177
177
179
176
176
176
175
176
174
176
178
177
177
178
179
179
180
180
183
184
185
186
186
182
182
184
184
183
184
185
185
184
184
184
184
185
184
184
188
187
187
187
188
184
182
183
183
186
187
187
186
186
182
182
181
178
178
177
171
173
173
174
172
172
172
169
168
168
168
171
173
173
173
174
177
176
179
178
176
173
174
174
176
175
176
176
174
173
177
175
174
172
172
171
172
174
174
174
171
171
166
166
168
166
167
165
166
168
168
172
172
171
169
172
171
172
173
174
173
171
174
173
172
172
173
173
169
169
170
173
173
174
176
177
173
174
177
175
177
176
174
174
176
178
177
178
178
179
176
171
169
171
172
174
174
173
172
174
174
175
177
181
182
177
179
181
183
182
183
184
187
190
189
188
185
185
187
185
181
181
182
182
178
177
179
179
178
179
179
175
176
177
178
175
177
177
177
179
178
178
182
183
178
179
184
185
189
188
186
188
187
185
181
182
185
188
186
188
190
190
187
185
186
185
186
186
188
190
189
189
190
187
185
186
187
188
187
189
189
189
188
188
183
184
185
183
182
181
182
184
185
185
181
181
179
179
183
184
182
181
180
179
178
176
176
177
176
176
172
171
172
174
175
175
177
178
174
174
175
179
180
176
177
176
175
179
182
182
181
182
182
178
179
179
179
180
180
180
177
177
176
176
173
179
179
179
179
176
173
174
172
172
174
174
168
168
165
166
165
166
169
168
169
172
170
170
170
171
173
174
172
172
173
174
176
175
178
178
179
180
180
180
179
181
184
184
181
181
180
175
175
174
174
175
179
177
173
174
175
173
176
180
179
181
182
180
182
179
176
175
176
177
175
181
181
181
181
181
180
182
181
181
182
182
184
186
185
185
183
184
178
179
179
178
178
177
173
175
176
175
177
178
177
176
174
175
176
175
176
178
178
176
176
177
176
176
176
181
181
178
176
176
174
176
174
175
177
178
176
175
176
174
173
173
176
176
176
176
178
177
176
175
174
178
176
179
178
176
177
178
179
180
177
175
175
172
172
171
172
174
172
174
173
172
173
176
177
182
183
182
183
182
181
182
179
182
180
179
177
177
179
179
178
179
177
179
177
176
174
174
172
173
175
173
175
174
173
173
172
174
172
173
174
172
169
170
173
172
172
174
175
175
177
176
176
177
178
179
176
179
177
177
177
180
179
178
178
176
173
170
170
170
169
174
175
175
175
175
176
177
177
175
178
179
179
176
180
180
181
182
180
181
178
175
175
175
174
175
175
176
175
175
173
175
174
174
176
176
176
177
177
178
178
180
179
177
178
178
180
181
182
183
184
183
183
182
184
183
185
185
183
184
184
184
183
180
180
179
177
181
182
179
182
181
180
181
181
181
181
180
181
184
183
184
184
184
183
185
183
181
181
181
180
177
177
177
179
176
177
176
175
173
175
175
174
174
174
171
174
175
174
174
175
176
176
177
177
177
175
179
178
179
183
183
182
182
183
186
183
184
183
182
178
177
176
177
179
180
179
180
179
179
174
176
177
181
181
182
180
180
180
181
181
177
178
180
179
180
180
180
180
179
180
180
179
177
178
179
177
175
176
174
176
174
172
171
163
163
164
162
159
159
161
161
163
163
163
163
161
161
164
162
162
163
163
165
165
165
167
167
169
169
172
172
174
174
173
173
174
173
173
171
171
172
172
171
171
172
172
168
171
173
172
171
170
173
175
179
177
177
177
177
179
180
179
175
175
174
174
175
174
173
171
172
170
169
170
169
167
168
164
164
160
160
161
163
162
162
161
159
159
161
166
166
166
166
166
167
167
168
168
169
173
176
175
174
171
172
170
172
170
170
172
175
171
171
164
162
164
167
168
168
166
166
167
168
169
169
169
168
169
168
168
172
173
174
173
176
176
178
179
179
179
179
179
178
178
178
181
181
180
179
181
181
178
179
178
180
177
177
176
179
177
176
176
176
174
176
175
178
177
177
176
176
173
173
172
171
168
171
172
171
170
172
173
175
176
177
177
177
178
179
180
182
184
183
180
180
178
179
178
177
177
175
173
175
173
172
172
172
171
173
172
172
173
174
172
174
172
174
176
179
179
179
180
183
177
176
176
177
177
176
175
182
183
185
185
184
186
188
187
188
188
187
188
188
189
187
188
187
183
184
186
184
184
180
179
178
179
177
181
180
175
178
178
179
181
180
182
183
184
180
179
179
180
178
176
176
176
176
175
176
177
175
175
175
173
171
176
179
178
177
178
179
180
178
181
184
183
182
182
180
180
180
181
181
179
181
181
181
186
185
185
185
186
185
186
186
185
182
182
181
182
182
184
179
179
179
175
179
178
178
179
179
178
179
179
179
172
174
174
173
172
173
173
173
176
175
176
178
176
175
174
172
174
172
171
171
170
171
167
166
167
169
170
171
170
168
170
167
167
168
170
170
173
174
176
175
173
173
174
175
174
176
174
174
174
175
177
175
175
173
174
173
171
171
170
171
173
174
176
176
177
176
176
174
175
175
175
175
173
173
168
166
171
168
165
165
167
170
169
172
172
174
175
178
178
181
181
180
181
181
181
181
181
181
181
181
176
171
172
171
167
168
168
169
174
173
171
174
175
179
179
182
181
181
180
178
180
179
179
175
175
175
174
176
178
180
180
183
183
182
182
184
185
182
179
179
180
183
183
183
185
183
182
182
182
185
186
188
187
186
185
186
188
187
185
185
183
181
183
181
181
182
183
183
183
184
181
181
180
177
174
174
172
173
173
176
178
179
179
180
180
179
180
180
181
179
178
178
176
176
176
174
171
170
170
169
170
170
169
168
164
165
165
166
165
170
174
174
174
172
173
173
173
173
170
170
170
172
169
167
170
170
173
175
173
173
174
171
172
174
176
174
178
176
179
181
180
178
178
175
177
180
180
180
180
182
184
185
184
186
187
187
183
184
182
181
181
182
183
183
179
179
183
183
183
183
181
181
181
179
179
181
180
182
182
184
184
182
182
180
181
182
182
181
180
180
178
176
172
172
173
172
171
172
172
173
174
173
174
175
173
174
172
173
177
178
177
178
178
179
178
175
176
175
175
179
175
174
176
171
170
172
172
173
174
174
175
177
177
175
172
172
175
172
172
174
176
178
177
175
176
177
175
173
173
173
173
173
174
174
176
176
174
175
175
175
175
173
176
177
177
176
179
179
182
181
183
182
179
176
176
174
175
176
177
174
174
174
174
175
172
171
174
173
174
175
175
176
175
176
174
172
172
173
174
174
176
174
173
171
173
175
173
173
177
175
175
175
176
176
179
181
182
178
176
180
181
181
181
183
185
185
186
184
185
189
187
186
186
186
187
185
185
186
185
184
185
186
186
184
181
180
177
175
176
177
171
177
176
175
175
172
172
172
172
171
172
169
168
168
169
171
171
175
174
176
176
175
175
175
176
178
179
174
172
170
170
168
169
169
171
171
175
174
174
176
177
174
175
174
173
171
172
175
175
176
174
171
172
173
175
174
176
178
181
180
182
183
181
181
180
182
185
184
181
179
179
181
177
176
178
177
175
175
176
179
182
180
179
179
176
180
180
179
181
179
181
177
175
176
176
180
178
177
175
178
178
178
177
181
178
179
180
183
180
183
183
182
180
179
177
176
174
172
175
174
172
174
172
175
174
175
172
170
173
174
173
171
170
171
173
171
171
171
171
172
171
169
171
171
168
167
166
167
166
168
166
164
164
163
162
162
164
167
167
164
162
164
161
165
165
162
160
165
164
162
164
166
166
168
171
170
169
168
170
174
173
170
169
169
169
170
169
170
179
181
180
178
179
179
181
182
181
178
177
178
179
179
179
179
181
180
180
180
180
179
178
178
179
179
179
182
183
184
183
184
183
185
184
184
181
184
183
182
185
185
186
185
185
185
186
185
183
181
180
179
180
177
176
177
176
177
175
176
176
176
174
175
173
176
175
177
179
180
178
176
176
175
175
175
176
175
176
174
174
172
174
174
176
178
178
178
176
177
178
177
177
176
175
172
173
174
177
177
180
180
180
181
181
179
180
179
182
182
182
183
183
184
185
184
182
184
183
182
180
179
176
178
177
175
174
171
168
170
169
174
177
177
174
171
174
175
176
178
179
176
175
170
166
166
167
165
166
169
168
169
169
174
172
173
174
175
175
174
171
174
177
177
175
176
175
177
177
176
178
175
175
176
177
174
175
173
174
173
170
168
169
171
166
165
164
165
164
162
161
166
166
170
170
168
163
163
165
161
166
167
169
166
163
162
163
160
160
163
165
170
170
171
169
168
169
168
168
168
168
169
170
170
172
171
173
174
174
174
171
172
172
175
178
176
173
172
173
172
171
172
172
171
173
173
173
176
178
176
176
171
171
176
175
174
172
172
171
173
173
174
175
175
174
174
170
173
179
182
182
182
180
181
180
177
179
179
176
175
175
175
176
178
177
176
174
176
178
180
182
182
180
178
180
181
183
182
181
183
180
179
179
181
180
179
180
177
176
180
178
178
179
182
182
183
183
184
184
184
184
179
182
180
181
179
178
176
177
179
180
179
178
178
182
180
182
184
183
185
185
185
185
185
181
183
181
182
184
184
179
179
179
177
176
177
177
176
175
174
174
177
175
176
177
178
176
177
179
179
176
177
176
178
178
181
182
182
182
181
183
180
181
181
178
179
183
183
183
182
181
177
177
177
178
179
180
179
179
179
180
180
178
176
175
174
176
176
175
174
177
178
177
174
174
175
176
177
181
182
180
180
182
183
182
177
176
177
177
179
177
176
174
175
173
173
172
172
172
173
172
169
168
168
167
165
168
167
168
168
169
170
170
171
171
172
172
174
172
169
171
173
175
177
177
177
179
179
180
181
181
180
181
179
178
177
177
178
177
177
178
179
180
177
177
177
178
177
178
177
179
179
180
180
182
181
179
176
175
169
166
165
169
170
169
169
167
166
169
170
170
170
170
171
174
176
173
173
175
172
169
168
168
169
169
168
167
169
168
167
167
167
167
168
168
170
171
170
168
170
168
168
167
165
166
167
164
164
161
162
164
166
168
169
166
165
164
167
167
167
168
166
165
167
171
175
176
178
174
173
173
173
173
172
174
175
177
177
175
174
173
173
172
173
176
174
176
177
177
176
176
178
175
173
174
174
174
174
172
170
169
169
171
175
176
176
176
175
173
172
174
176
176
175
174
176
175
173
174
175
178
177
177
177
175
172
170
170
170
171
169
173
172
171
171
173
175
175
173
173
178
175
174
176
173
171
173
171
170
174
174
172
172
171
175
175
176
174
173
172
172
177
174
177
177
174
175
175
177
176
176
173
179
179
180
180
181
183
181
179
180
179
177
179
180
181
177
177
177
178
178
179
177
177
178
178
178
179
178
177
176
180
179
175
176
180
181
181
182
179
179
178
178
174
174
177
176
178
179
179
179
180
181
182
179
179
181
181
178
179
178
179
177
178
178
179
182
182
181
179
179
180
180
180
176
179
180
179
179
178
177
179
179
181
179
180
178
174
172
173
174
174
175
173
173
173
174
173
174
175
175
176
178
177
175
174
175
173
173
174
172
171
171
176
177
179
180
179
177
174
172
171
172
175
177
176
174
173
174
175
174
176
178
180
180
180
180
176
178
176
175
179
178
181
178
178
176
177
175
174
174
173
171
173
174
176
178
180
177
176
177
179
182
180
179
179
179
181
183
183
183
185
183
182
184
186
185
185
183
182
181
182
181
181
182
178
178
176
180
181
183
181
179
182
182
181
181
180
179
177
177
178
181
184
185
184
186
181
179
178
177
177
178
177
177
176
175
175
174
172
172
172
176
177
180
179
179
179
180
182
184
184
183
185
188
188
185
184
182
181
182
182
183
183
184
183
184
184
184
182
183
182
184
183
183
181
179
180
181
184
184
184
186
186
188
188
187
187
188
188
186
186
185
186
189
189
189
191
190
188
189
188
186
185
183
184
184
182
184
184
185
187
188
185
185
183
177
175
174
173
177
178
179
180
178
177
176
175
176
177
177
176
177
181
183
183
182
185
184
182
180
179
182
182
185
184
186
185
184
185
185
185
186
185
186
189
189
189
186
184
184
185
188
184
184
185
186
184
184
185
185
182
182
180
178
181
181
181
185
186
186
188
188
188
184
184
184
183
182
180
179
181
180
178
177
177
178
179
179
178
179
177
178
177
178
179
179
177
175
177
177
176
176
179
179
175
179
179
180
181
182
182
177
176
178
177
180
179
180
181
186
185
186
185
185
183
182
179
177
179
180
180
179
177
178
178
177
176
173
174
174
175
176
178
178
177
178
174
177
173
173
170
167
168
168
167
169
169
166
169
170
172
173
168
167
166
166
169
168
168
173
173
175
176
175
175
177
179
179
181
183
182
186
185
187
186
184
183
181
181
180
180
179
180
179
179
179
183
184
185
185
184
184
183
184
183
181
179
176
175
177
176
178
177
177
180
179
177
177
180
179
180
180
178
179
178
177
178
178
179
181
180
179
177
179
178
179
176
176
176
177
178
180
178
179
179
179
178
179
179
179
176
175
177
174
177
175
176
175
173
175
176
177
173
175
173
172
171
170
170
168
170
170
168
169
169
169
170
170
171
172
172
173
174
172
172
170
171
172
170
168
172
172
173
174
174
174
174
175
176
173
173
176
177
177
178
180
179
180
179
179
178
179
180
178
178
178
179
176
180
180
181
177
178
177
175
175
176
176
175
175
175
173
175
175
176
174
178
181
183
183
182
179
180
181
180
177
178
181
183
183
184
181
180
183
181
183
181
178
181
182
180
177
177
180
180
182
179
176
176
176
176
175
173
173
173
175
175
173
173
171
169
168
168
167
168
169
170
172
172
173
175
176
178
179
179
179
180
182
182
181
180
181
180
182
183
182
179
176
173
174
175
177
180
182
180
182
181
180
181
184
183
183
185
184
184
183
178
176
174
173
175
179
181
181
182
180
180
180
179
179
180
179
178
177
177
174
174
174
174
175
175
176
176
176
175
174
173
173
172
172
171
172
171
171
172
175
174
172
166
169
165
166
166
163
164
166
167
163
162
163
166
169
166
169
169
169
169
169
168
170
171
171
171
173
176
176
179
180
180
178
179
179
180
177
178
179
179
177
179
181
181
179
180
182
185
186
188
185
184
184
186
183
180
183
182
181
184
185
182
181
182
180
181
179
180
179
178
178
177
178
181
182
181
178
178
175
173
174
176
176
178
176
178
177
175
177
180
177
177
177
174
182
177
177
172
173
175
175
173
174
176
179
178
179
179
180
177
175
175
174
175
174
174
178
175
175
171
173
174
172
172
174
174
174
174
171
172
172
173
172
173
176
175
172
172
172
172
172
174
173
174
176
175
175
173
174
174
173
170
173
176
175
173
176
178
174
175
177
175
177
176
178
180
179
179
177
177
174
173
174
175
174
174
172
173
172
171
172
172
171
172
173
173
172
171
172
171
172
173
174
175
175
171
173
176
177
178
179
178
178
181
176
174
174
170
175
176
174
174
174
176
174
172
174
174
174
174
172
172
168
165
164
163
164
168
166
164
162
162
170
169
168
169
170
169
170
169
169
170
171
172
175
174
175
174
175
176
175
178
178
177
178
180
177
177
177
175
175
169
166
165
168
170
170
167
170
168
168
168
171
171
171
172
171
172
172
173
172
174
174
178
179
179
180
181
180
181
180
182
181
178
178
175
174
176
181
179
180
180
181
185
184
183
185
185
185
186
186
182
182
179
179
178
178
179
179
182
182
181
178
174
174
176
179
180
178
179
178
179
180
179
180
181
182
181
180
181
181
180
181
181
178
178
181
180
178
179
179
179
181
182
182
183
183
183
183
182
178
179
180
179
176
177
179
178
178
176
175
175
174
173
174
175
175
174
174
177
175
170
169
171
172
177
179
180
182
182
178
178
179
179
176
176
176
176
177
178
178
177
179
178
177
176
176
177
176
173
173
173
172
172
173
173
174
177
177
179
179
174
174
174
175
175
175
172
171
169
171
173
177
179
180
178
179
179
178
177
181
182
185
185
185
187
186
186
186
186
187
185
183
183
183
181
182
181
184
184
183
182
183
185
180
178
177
180
179
180
182
180
183
184
185
185
185
185
184
183
180
182
181
184
182
183
183
182
182
184
180
175
177
178
177
177
176
173
173
174
171
172
177
179
179
179
174
172
171
178
178
178
178
175
175
176
177
178
178
178
182
182
185
185
183
183
183
183
183
182
180
180
177
177
177
179
179
181
183
185
186
185
184
183
182
180
180
180
179
180
179
179
177
175
170
163
161
162
164
166
168
166
169
170
170
171
171
171
175
180
179
180
177
176
172
173
177
177
176
176
175
175
177
173
172
171
170
173
174
173
174
175
174
175
174
174
175
180
178
173
170
173
175
172
172
171
172
168
165
165
166
167
167
166
167
170
170
173
171
171
172
170
170
171
173
174
173
176
177
175
178
177
173
170
173
173
174
174
173
172
170
167
167
169
171
169
170
166
166
166
168
170
171
173
172
173
171
168
168
168
168
170
171
173
173
172
175
172
175
171
170
169
170
171
173
173
174
175
178
179
179
176
175
175
176
174
177
176
175
173
176
176
179
179
178
181
181
178
179
182
182
182
181
181
177
176
176
176
178
176
176
177
178
179
179
179
179
179
177
177
179
178
178
178
174
171
172
172
177
177
176
175
175
175
178
178
175
175
175
178
178
179
181
180
180
177
174
177
177
178
178
178
178
178
180
180
182
181
183
184
186
185
185
184
188
187
185
188
188
190
191
187
187
188
187
188
188
189
188
189
188
187
187
188
189
186
186
185
184
179
181
182
184
187
187
186
185
187
185
183
183
182
184
182
183
184
184
185
184
184
184
185
182
181
177
177
178
182
182
182
181
180
178
177
178
178
180
179
179
182
182
181
178
178
182
182
182
181
182
181
180
183
184
181
177
178
179
178
178
181
181
182
183
184
187
184
181
181
182
182
183
184
182
181
184
181
181
181
180
178
178
179
177
177
177
176
178
174
172
172
174
174
172
172
175
175
177
175
173
177
181
182
182
181
180
180
180
180
181
181
182
182
181
180
180
183
180
178
177
177
176
171
169
170
167
167
166
167
166
168
167
167
169
171
170
166
163
167
166
167
168
171
171
170
170
170
170
169
172
173
173
174
174
174
174
175
176
177
177
177
178
178
176
175
173
173
174
176
175
175
175
175
175
173
178
180
180
178
183
181
181
182
182
183
183
185
185
185
182
183
180
179
178
177
177
177
178
179
178
178
176
176
173
174
175
175
176
178
178
178
177
178
177
179
179
178
177
177
175
177
176
177
179
179
179
181
179
177
178
178
178
179
180
178
178
178
179
179
178
178
179
177
176
176
175
176
175
172
175
175
175
172
173
168
169
168
166
163
164
163
164
165
164
164
163
166
168
166
164
166
164
165
164
168
168
167
170
168
168
168
169
168
167
165
164
165
167
165
162
160
164
164
168
170
169
169
171
175
177
178
178
178
184
184
185
186
188
188
186
187
190
189
187
187
186
185
184
182
182
183
183
184
182
183
183
181
180
180
181
181
182
184
183
183
180
179
181
179
176
177
179
177
177
177
175
176
176
179
179
178
178
179
180
179
178
178
179
179
180
183
182
181
183
185
183
181
182
184
182
183
185
185
183
183
180
176
176
175
174
175
179
179
180
182
181
183
184
184
185
184
186
186
186
183
182
182
183
184
186
185
184
185
185
185
186
187
186
185
186
187
188
185
182
179
181
182
181
180
179
182
182
183
184
185
187
187
187
187
186
187
186
187
184
184
183
184
181
182
181
180
180
179
182
184
181
184
182
181
180
179
177
178
176
175
175
176
174
173
176
175
173
171
171
171
172
170
169
172
172
175
175
178
179
179
180
183
183
182
183
181
182
180
181
180
182
178
179
181
181
179
179
178
180
178
177
178
178
176
176
176
177
178
178
179
179
179
178
177
177
177
177
178
176
176
178
182
180
183
184
182
182
184
184
183
183
181
180
177
176
176
178
178
178
177
177
177
176
178
177
177
177
177
176
177
178
178
178
175
178
178
178
180
179
180
183
179
175
175
175
175
175
175
173
174
173
179
178
177
177
175
175
174
176
177
179
177
179
180
182
180
177
178
177
178
177
178
178
177
177
177
179
176
173
172
171
171
169
169
171
170
172
171
173
172
172
173
173
174
176
177
176
174
176
175
178
179
179
179
181
181
181
179
178
176
178
175
178
179
179
177
176
177
173
174
174
178
178
175
178
179
180
180
181
180
175
175
178
177
178
179
180
177
178
177
180
181
181
182
181
180
177
177
180
182
181
180
180
181
182
184
183
181
180
177
178
176
174
175
174
174
169
168
169
170
175
174
172
175
176
175
174
174
174
174
174
170
172
173
174
174
176
174
178
176
173
173
170
168
169
170
170
170
173
171
170
172
173
173
171
174
174
174
176
178
179
179
178
178
177
175
173
172
176
175
174
173
174
173
172
173
174
172
174
178
178
176
177
178
176
176
176
176
176
178
176
177
179
180
180
180
182
185
185
185
183
182
182
182
182
182
177
176
176
178
176
178
178
176
175
175
174
175
176
177
176
177
175
174
173
176
176
176
173
173
174
171
171
171
173
179
177
177
178
177
175
177
176
174
174
174
178
178
180
178
178
178
181
181
178
178
175
177
176
175
175
175
174
171
170
171
170
169
167
168
170
169
170
172
172
171
172
172
174
171
171
170
172
172
172
171
174
173
172
174
175
175
178
178
177
172
170
170
169
169
165
164
166
165
166
172
174
172
172
174
175
176
174
172
173
171
169
169
169
170
171
169
169
168
172
171
171
168
167
168
169
170
170
173
173
174
172
171
169
173
172
173
174
175
175
172
172
172
170
172
173
176
175
177
176
174
174
175
175
172
174
172
170
173
170
170
174
178
174
175
174
171
171
175
174
177
177
177
178
176
176
173
172
169
171
175
174
172
169
169
169
171
174
174
176
174
172
171
171
174
174
172
174
175
173
172
172
171
171
169
170
172
169
170
173
173
173
176
176
178
179
178
178
179
179
178
179
183
183
180
180
177
178
178
177
175
176
173
176
177
177
179
179
177
178
177
177
177
176
177
178
178
175
170
169
170
175
176
176
175
176
174
172
172
173
174
176
174
175
175
175
174
175
175
173
172
172
172
171
172
174
176
178
179
178
175
176
179
176
176
178
182
184
187
183
185
186
186
184
185
184
184
183
181
181
184
184
182
182
184
183
181
181
181
180
181
181
181
181
181
179
178
174
172
170
170
172
170
171
170
172
165
166
168
167
170
169
171
175
178
178
177
177
177
176
176
176
176
176
174
174
174
175
176
175
176
177
179
181
181
180
181
180
178
178
178
178
180
181
179
179
179
177
179
176
176
178
181
181
181
179
181
180
180
179
178
177
179
178
179
179
179
182
182
181
182
180
181
181
178
178
178
175
173
172
175
175
175
175
178
181
180
181
180
180
180
180
180
180
179
177
175
173
173
174
172
172
172
173
175
177
177
174
176
178
178
178
177
179
182
181
182
183
184
184
184
182
180
176
176
171
173
173
174
175
176
176
177
175
175
172
172
174
173
173
176
179
178
175
175
175
177
180
183
179
180
182
182
185
186
186
184
184
183
183
182
181
182
182
182
179
179
179
179
179
180
180
180
179
179
180
180
180
181
184
186
185
183
183
183
183
180
180
179
179
177
178
178
178
178
178
177
174
176
177
178
178
177
177
177
177
176
175
173
173
177
178
177
176
175
175
174
174
175
175
173
174
174
173
174
176
176
175
176
177
173
175
178
180
179
175
173
176
179
179
179
181
179
178
179
180
181
181
181
180
177
177
173
172
174
178
179
178
177
176
176
177
175
174
177
177
177
176
177
177
180
181
181
182
182
181
183
181
180
179
175
173
172
172
173
174
175
177
177
177
176
176
176
177
175
172
174
175
173
173
172
172
176
175
175
174
176
175
176
174
177
177
176
173
174
175
177
178
175
175
174
175
175
175
176
174
174
172
169
164
168
168
168
169
170
166
168
170
172
172
172
174
176
176
178
177
177
177
174
173
174
176
176
174
176
179
178
179
178
177
177
177
176
174
177
178
177
179
179
178
178
179
179
179
179
179
180
180
177
180
179
182
184
185
185
184
185
185
185
181
182
182
182
181
180
179
171
171
171
172
176
177
176
176
180
179
180
179
179
174
172
174
174
174
172
173
174
175
176
176
176
176
179
178
177
177
177
177
178
177
176
175
175
174
175
175
175
176
177
177
178
177
175
176
176
177
176
176
177
176
176
176
177
180
179
177
177
180
179
178
178
180
181
181
185
185
183
182
186
188
189
188
188
188
189
189
189
187
186
185
188
187
187
186
185
186
186
184
180
180
181
182
183
181
183
180
176
176
178
175
178
176
176
178
176
174
174
178
176
180
178
176
178
178
180
182
181
181
179
179
181
181
179
178
177
176
178
180
177
176
175
175
176
177
177
177
176
180
175
175
177
178
178
178
178
177
182
180
180
180
179
179
173
174
176
176
179
179
178
178
179
178
178
179
182
179
179
180
179
182
183
185
182
182
183
182
185
183
183
183
182
182
180
177
174
173
173
173
174
173
178
180
180
180
182
183
186
186
187
187
187
186
185
186
185
184
185
184
181
179
180
180
181
179
182
184
183
184
183
184
182
182
181
183
180
180
180
181
181
181
181
183
183
186
186
184
183
183
181
181
181
182
182
182
182
179
176
175
171
170
171
171
171
170
168
169
173
172
179
177
176
176
176
181
181
180
182
183
183
183
183
183
183
182
183
188
189
189
190
191
193
194
192
193
192
190
189
187
188
187
186
187
185
184
184
185
185
183
185
186
186
186
185
183
183
182
182
179
177
176
175
175
174
172
172
174
174
176
177
178
179
179
179
180
181
179
181
180
180
180
180
180
178
180
178
179
178
177
179
181
182
180
180
177
179
180
181
182
181
180
179
178
179
179
176
177
175
176
176
175
174
173
171
172
172
172
167
168
166
167
166
164
165
166
168
167
166
166
165
166
170
170
171
172
175
174
172
171
170
171
173
171
172
172
174
175
176
178
178
177
180
181
181
182
181
179
180
178
178
174
174
173
173
178
178
178
177
172
171
171
172
176
176
173
174
173
177
177
177
176
178
179
174
175
178
177
178
178
178
177
176
176
175
176
176
174
177
179
176
174
174
170
171
172
173
171
170
170
171
175
176
176
176
178
173
172
171
170
169
170
170
169
173
173
172
173
172
173
173
175
174
173
175
176
181
179
177
177
172
174
171
171
170
173
177
173
169
166
166
166
169
170
172
172
171
170
171
175
177
178
175
174
174
174
174
174
173
176
177
174
176
178
178
178
180
177
176
176
178
176
177
176
177
178
175
173
174
176
176
176
176
175
176
177
178
177
177
178
180
178
179
177
180
180
181
180
180
180
179
177
176
176
178
179
178
179
179
180
180
182
183
183
186
186
182
180
182
179
177
178
177
178
177
177
176
176
174
171
170
168
171
172
172
176
175
176
177
179
180
179
180
180
179
177
177
176
179
179
182
181
179
180
180
178
175
173
175
175
176
175
177
179
179
179
179
179
182
180
180
177
180
180
180
179
178
179
179
178
177
175
175
172
175
175
176
179
179
180
179
178
176
174
175
176
178
176
176
177
175
174
173
171
173
174
173
174
173
173
172
174
173
173
170
170
169
172
171
173
174
174
178
175
173
175
175
178
176
173
169
170
170
170
170
169
170
171
174
174
173
170
172
171
174
175
177
178
178
179
179
180
180
180
179
179
179
180
179
178
178
178
177
175
175
175
177
176
177
177
177
177
178
177
176
179
175
177
174
173
173
172
174
174
177
175
175
174
171
169
168
169
168
170
169
167
164
166
167
166
165
164
164
163
166
166
166
167
164
163
160
161
161
162
161
162
167
170
175
174
174
174
175
177
175
177
178
172
171
172
173
171
173
174
175
176
176
175
174
173
173
173
171
169
169
167
167
168
173
174
175
175
174
174
176
177
180
180
183
181
184
184
182
179
178
177
178
181
181
180
180
183
183
181
182
180
177
180
179
179
181
182
181
176
177
178
176
176
176
178
177
178
178
178
175
175
176
177
177
173
174
173
175
175
175
178
177
177
178
178
178
178
181
180
179
180
182
181
182
183
184
183
183
181
180
180
179
180
178
176
176
177
179
181
179
178
180
180
182
182
181
181
181
179
178
181
183
181
181
180
181
182
181
182
182
185
183
184
186
187
187
189
191
191
191
187
187
191
189
189
189
189
189
189
186
185
182
179
178
179
181
179
180
180
178
178
177
180
176
175
176
177
177
176
175
173
173
175
175
177
177
177
176
177
176
178
178
175
177
180
180
181
181
180
179
179
178
179
177
176
178
178
178
178
178
177
176
174
177
176
175
174
175
174
174
172
172
174
176
180
182
181
181
181
182
182
181
178
180
178
180
178
179
177
177
177
177
177
174
175
176
177
176
175
177
176
178
178
176
174
173
173
169
170
171
171
171
171
171
174
174
172
173
173
172
172
172
174
175
174
174
174
173
174
173
174
177
178
182
181
181
181
185
186
184
185
185
185
185
184
183
183
182
183
184
185
185
185
185
183
180
180
180
182
182
183
184
186
186
183
183
184
184
185
184
184
183
183
179
178
178
173
174
174
173
172
173
174
173
172
171
170
170
170
171
173
172
172
175
176
177
173
175
176
176
175
173
175
176
178
177
176
179
180
175
180
180
175
176
176
175
175
177
177
176
179
177
178
178
178
183
182
183
184
184
183
184
184
185
183
179
180
180
181
182
180
180
181
181
182
185
185
185
184
183
184
182
182
181
179
179
179
175
176
176
178
179
178
175
176
175
175
174
176
178
180
181
182
180
179
180
180
180
180
184
180
180
180
181
181
177
175
175
178
177
174
172
174
176
174
173
173
173
174
174
173
173
172
171
171
172
172
173
171
172
174
173
173
173
172
175
177
178
179
181
183
184
182
182
183
183
184
183
185
185
181
185
186
186
187
187
186
186
186
185
184
183
184
181
182
182
179
177
176
175
178
176
176
176
179
178
178
179
178
179
178
180
178
178
178
177
179
180
177
177
176
179
179
179
180
180
179
180
178
181
178
178
181
181
181
183
183
183
183
182
183
181
182
182
183
183
183
184
183
183
182
179
178
179
180
181
180
179
177
177
178
176
176
175
175
178
179
180
180
178
179
179
179
180
183
184
184
183
182
183
182
183
185
183
183
183
181
179
178
176
176
176
177
180
181
183
183
183
180
179
177
176
177
177
178
182
181
182
177
177
177
176
176
180
176
175
176
176
177
175
175
174
173
174
173
175
174
174
172
171
167
169
169
170
169
168
168
172
172
176
178
182
182
182
184
183
182
182
182
180
177
177
178
178
179
177
175
174
175
176
173
174
175
177
177
178
179
178
176
176
176
176
176
179
180
182
182
177
177
177
177
175
174
174
174
174
171
172
170
171
173
171
176
176
179
179
182
181
181
179
179
179
177
179
179
178
183
185
187
188
186
187
188
187
188
187
187
188
187
186
187
187
185
186
184
182
182
181
181
181
181
181
182
184
182
181
181
182
182
183
183
181
183
181
179
180
180
180
181
183
183
184
184
183
185
182
181
179
180
180
180
179
181
181
180
179
179
179
180
182
182
185
185
185
185
182
185
186
186
187
188
188
188
187
185
185
186
186
184
185
184
185
185
186
186
186
186
186
185
184
183
182
181
180
180
181
181
177
179
178
176
176
177
175
174
175
175
174
171
170
170
171
172
173
170
168
166
169
170
170
170
173
177
179
179
179
178
177
174
174
170
171
169
168
168
167
167
166
164
166
166
165
164
170
170
171
173
175
178
178
177
177
175
174
178
179
182
182
182
182
181
181
184
184
183
183
182
178
178
180
180
179
179
178
177
181
180
180
178
178
180
183
184
181
178
181
177
176
177
175
175
174
173
174
174
172
173
173
172
173
179
177
177
177
177
177
170
169
169
169
168
169
167
161
160
160
160
160
166
165
167
167
167
168
169
171
173
175
176
174
174
176
177
176
173
173
176
179
181
181
180
177
176
178
179
177
175
176
177
176
179
179
179
181
181
181
179
178
176
173
176
175
172
175
175
177
177
177
177
175
173
173
175
175
173
175
175
174
174
174
173
172
170
171
169
169
167
169
169
167
167
168
171
172
171
169
168
170
172
173
173
174
177
176
184
184
184
182
184
183
182
182
184
183
181
177
179
176
179
181
180
181
180
179
177
179
179
178
177
178
176
175
173
173
172
171
170
172
174
176
176
175
174
175
176
178
177
178
182
182
181
177
176
176
175
174
174
173
174
175
176
176
175
175
174
174
176
175
175
176
177
176
177
178
178
175
176
175
174
175
175
176
176
177
177
174
179
179
183
181
181
181
178
176
176
176
175
176
177
179
179
179
179
178
176
177
177
177
177
176
176
175
178
177
177
176
174
175
175
177
181
183
185
185
186
187
186
186
183
184
183
184
183
183
182
182
184
184
183
182
182
180
180
180
179
180
180
177
177
179
181
181
181
179
180
180
180
182
184
183
184
184
184
184
186
185
189
188
189
190
190
189
190
189
189
187
187
187
187
187
188
188
188
188
188
187
185
185
185
185
187
186
185
184
186
186
183
183
183
185
186
187
187
186
187
186
184
183
183
184
184
180
179
179
179
181
181
180
181
177
175
175
176
175
177
181
183
181
182
184
185
184
184
186
185
182
182
181
182
182
182
183
183
182
181
180
182
183
183
181
181
181
183
183
183
186
183
182
183
180
181
181
181
183
183
183
184
184
183
182
180
183
182
184
184
182
182
183
183
182
180
179
179
180
180
181
180
180
181
179
178
177
176
177
177
178
179
181
182
181
182
178
179
181
181
181
181
181
181
181
179
180
180
180
180
179
177
177
180
179
181
181
180
180
179
177
177
177
178
179
179
179
178
180
180
179
177
176
176
176
178
177
177
177
180
180
181
180
181
183
184
184
182
181
181
181
183
183
181
184
184
186
181
181
183
181
182
182
180
183
181
182
180
179
179
180
180
178
178
183
181
180
180
178
179
180
182
184
185
183
181
181
182
182
183
183
185
183
184
184
183
182
181
182
182
182
181
181
180
183
184
184
185
186
186
187
187
188
186
188
189
189
188
187
186
186
185
184
185
185
186
187
187
187
187
184
184
185
186
185
186
184
185
186
184
184
183
183
181
180
179
179
178
177
179
179
180
181
182
181
179
178
184
183
183
183
182
180
180
183
183
183
186
186
186
182
182
182
180
180
179
180
181
182
182
182
182
181
182
181
180
180
179
178
180
180
181
182
182
182
178
179
182
182
180
182
182
185
183
182
182
183
181
180
181
181
181
181
179
180
178
178
177
179
179
177
179
180
180
179
177
177
178
178
176
176
177
178
178
178
179
179
181
183
187
186
185
184
180
179
180
183
183
183
183
180
180
177
180
180
181
180
178
177
174
174
174
175
176
175
177
176
177
176
175
176
176
174
173
173
175
174
174
174
176
176
178
178
177
177
175
173
172
171
168
169
170
172
174
172
179
180
178
180
173
171
170
166
166
167
170
171
169
168
170
173
175
180
180
180
181
182
183
182
181
180
181
184
181
182
180
180
180
184
184
182
185
185
186
184
184
184
183
184
186
184
185
183
181
180
176
175
177
174
173
173
175
176
180
179
181
181
180
181
179
178
179
180
183
185
183
182
182
179
175
178
180
180
181
182
184
180
180
180
178
177
177
177
177
176
176
176
176
175
175
173
175
173
173
173
174
176
178
179
179
180
180
181
176
177
177
177
177
180
179
179
179
179
176
177
177
179
179
178
180
180
180
181
181
182
184
183
181
180
177
177
174
177
179
181
185
184
186
185
183
183
185
182
180
180
178
181
182
183
185
185
184
183
182
182
182
183
182
179
180
180
179
179
180
179
179
180
181
181
180
180
178
180
180
178
181
179
178
176
175
175
176
176
174
175
175
172
171
171
171
172
173
175
175
174
174
175
174
175
176
179
180
182
182
184
185
183
184
185
185
185
184
184
185
185
184
182
182
181
181
179
179
177
175
173
175
177
174
174
175
174
175
175
175
177
177
178
178
180
180
181
183
184
184
185
185
185
182
184
187
187
187
187
187
184
185
184
184
185
186
184
183
184
186
184
184
184
183
183
183
184
186
185
184
185
185
186
185
180
180
180
181
184
181
180
179
178
180
179
176
175
173
175
176
175
175
175
178
181
180
180
180
180
179
179
180
181
179
179
179
179
177
176
175
176
176
175
175
177
177
177
177
179
179
181
181
182
184
184
184
179
179
180
180
180
179
178
178
178
176
176
178
179
180
179
181
182
182
183
183
180
183
183
183
184
183
181
178
181
183
183
181
181
181
180
183
181
178
175
175
177
182
181
183
183
179
177
176
178
175
175
174
172
171
171
170
171
172
172
173
173
170
171
168
171
171
174
171
170
172
172
174
174
178
177
177
177
177
177
176
179
180
180
182
183
181
180
179
180
182
184
184
185
185
185
184
183
182
182
183
183
183
178
178
177
177
177
178
181
183
183
179
178
176
176
176
176
174
173
175
177
176
177
178
180
183
183
181
180
182
182
183
183
182
183
184
182
182
183
186
187
187
187
187
186
188
188
186
185
182
182
185
184
181
179
180
180
183
185
184
185
185
185
186
188
187
186
185
186
187
186
187
184
183
186
186
185
181
181
181
181
179
179
177
178
180
181
181
183
182
182
184
185
184
183
183
186
188
189
188
186
186
186
186
180
180
178
180
179
178
176
177
177
177
176
177
178
177
175
182
182
183
184
185
186
185
187
188
188
186
184
183
182
184
181
181
181
183
184
183
187
187
187
187
187
187
186
187
184
183
182
182
183
180
183
183
182
182
182
182
181
179
178
179
179
179
179
179
177
178
177
179
179
177
174
176
175
174
178
179
178
178
178
179
178
175
172
172
170
171
173
172
172
171
170
171
171
171
170
171
174
175
175
174
173
172
170
171
171
171
171
171
170
173
172
174
173
171
171
171
178
177
177
180
178
178
176
177
177
177
176
176
177
177
175
174
176
175
175
176
176
176
177
180
180
180
178
176
177
179
180
181
183
182
182
181
183
186
186
185
185
183
183
183
183
183
180
181
179
178
179
179
179
179
178
178
178
178
174
176
175
177
179
177
176
180
180
179
182
182
183
183
182
182
183
182
180
179
181
182
182
182
182
184
183
184
183
183
184
183
183
181
181
181
183
184
185
183
181
177
178
180
178
178
176
174
174
176
175
175
175
175
175
177
175
173
175
176
177
177
178
178
180
178
180
182
181
179
181
180
181
179
177
176
174
176
177
178
175
174
174
173
173
176
175
176
178
178
176
176
177
175
172
172
174
174
174
174
172
171
172
175
175
175
174
177
178
178
179
179
179
177
177
178
179
176
174
176
175
175
177
176
177
175
178
178
179
180
178
179
179
178
178
176
177
174
176
175
177
178
179
178
177
177
174
175
176
174
175
177
178
179
177
178
179
177
177
178
178
178
178
178
180
181
180
181
181
181
180
180
178
178
179
178
180
178
176
174
172
172
172
172
172
172
173
173
173
174
173
171
172
173
170
170
171
173
176
178
178
178
174
172
170
168
167
168
167
169
170
172
173
174
174
175
173
174
173
172
173
173
176
174
176
176
177
180
181
181
180
179
180
181
176
176
176
177
176
176
178
178
183
187
187
187
187
184
183
183
177
174
173
174
176
176
177
177
179
180
180
182
181
180
180
180
177
179
178
184
183
184
182
184
185
185
184
188
188
187
185
181
185
187
187
188
188
189
195
194
192
189
190
189
188
185
182
183
183
183
181
181
181
180
179
180
179
181
177
176
180
182
183
179
182
183
181
183
185
185
185
184
184
183
184
185
187
185
183
183
182
179
180
181
182
181
182
180
178
183
183
184
181
181
183
182
182
182
182
181
180
179
179
178
183
182
184
187
184
183
183
183
182
178
179
178
177
177
179
180
180
180
181
182
184
184
184
184
184
184
185
184
182
182
182
181
183
183
184
184
183
180
178
175
177
178
178
179
177
177
178
180
181
178
175
176
176
176
176
176
178
177
179
178
178
181
181
180
180
182
181
181
181
182
181
181
179
176
177
178
176
173
173
172
171
170
171
170
170
171
170
169
171
172
174
173
173
175
176
176
175
175
176
174
173
173
175
178
180
180
180
178
177
178
179
179
177
177
178
179
178
178
177
178
180
179
179
178
178
179
179
179
179
182
183
181
183
182
184
185
184
184
182
182
181
181
181
180
180
181
180
181
181
179
182
182
183
181
182
180
180
180
180
185
186
188
187
188
190
191
192
192
192
192
190
190
190
189
189
189
190
189
189
189
189
189
187
187
186
185
187
189
189
190
188
187
186
186
186
186
186
186
187
185
186
187
188
188
185
186
183
182
183
181
179
180
181
180
179
179
177
179
177
176
176
176
177
176
178
179
178
179
177
175
178
178
178
178
178
178
178
179
180
180
180
180
180
179
179
178
179
177
181
180
180
180
180
182
181
181
179
179
179
180
183
180
181
183
181
181
181
181
180
180
184
182
184
184
182
184
187
188
188
188
190
190
190
188
187
186
185
185
185
185
184
186
186
184
185
187
187
187
185
187
187
185
186
186
185
187
187
185
185
188
186
186
184
182
182
182
181
180
182
182
182
181
179
177
175
177
177
176
176
175
178
177
173
172
171
172
174
174
174
175
176
179
179
179
179
180
179
179
177
173
174
176
177
177
177
177
178
176
176
176
176
178
179
179
177
177
177
174
175
178
178
180
183
183
183
181
180
180
179
178
177
181
180
179
177
176
176
174
171
168
164
166
166
168
167
170
169
173
175
178
178
175
175
172
172
173
168
167
168
169
169
170
170
174
175
176
177
176
179
181
181
180
180
180
179
180
178
179
180
180
181
181
183
183
183
182
183
183
179
178
177
175
175
176
175
173
175
175
175
175
177
174
174
174
174
174
172
171
171
171
168
168
168
171
170
172
170
174
174
175
173
174
174
176
174
175
177
180
180
181
179
178
181
182
180
181
181
183
183
182
181
181
181
181
180
177
177
179
178
177
179
179
181
182
181
181
182
182
181
181
183
181
182
179
177
174
176
177
177
177
179
180
178
179
177
179
179
179
179
177
176
176
176
177
176
177
180
181
180
180
179
180
180
178
176
177
176
175
175
178
176
178
178
179
179
180
181
180
181
182
181
181
182
181
178
178
180
181
185
186
182
183
184
183
182
181
180
182
183
182
181
182
182
181
180
182
182
180
183
180
180
181
183
183
182
182
183
183
184
184
183
182
184
184
185
182
182
181
181
181
181
181
181
181
180
181
183
181
183
184
184
182
183
183
183
183
185
185
184
182
182
185
183
183
183
183
184
186
185
186
186
185
185
182
182
180
179
178
177
177
177
177
175
174
175
174
174
176
178
178
181
184
184
183
183
184
185
185
185
184
184
186
189
187
184
185
184
185
184
184
182
184
186
185
184
185
183
183
185
182
180
178
177
177
177
176
177
178
181
179
176
176
176
176
176
176
176
177
177
178
173
173
174
173
174
175
176
176
176
176
176
177
177
180
182
181
181
180
180
178
179
180
181
178
177
178
177
178
178
178
178
178
177
177
179
179
180
181
181
181
181
182
178
178
178
178
177
178
178
178
178
182
182
182
179
178
177
176
175
174
174
174
174
177
177
177
177
177
177
174
175
174
174
174
173
173
174
173
174
174
174
175
175
175
175
175
176
176
178
178
179
179
178
180
180
178
179
183
183
179
178
178
178
178
180
179
179
178
178
178
179
181
181
182
184
184
186
185
185
182
182
182
181
180
177
178
181
181
175
175
177
177
176
175
177
176
174
175
175
174
172
172
173
174
175
176
176
181
179
179
180
179
179
178
179
178
177
176
175
175
175
175
175
175
175
173
176
179
180
180
179
177
177
174
174
172
169
170
169
166
169
169
170
171
169
172
174
173
170
171
172
173
175
174
174
175
176
176
175
176
178
178
178
178
178
176
180
182
180
180
178
180
181
181
183
180
178
178
178
178
178
177
177
175
175
177
177
177
176
176
178
179
175
175
173
172
173
173
172
172
173
173
173
171
171
172
172
175
176
176
176
178
177
177
178
182
184
183
186
186
186
188
188
188
188
187
185
186
184
182
183
181
182
182
182
185
184
183
184
184
182
182
182
183
182
182
180
182
180
177
179
175
177
178
176
176
177
173
173
170
171
175
174
175
175
174
172
171
171
170
169
171
172
172
172
175
177
179
177
177
177
180
180
180
179
181
180
182
181
180
182
182
182
181
183
183
182
182
183
183
182
184
182
182
182
185
186
187
187
189
189
188
185
182
181
180
180
180
181
181
182
181
182
183
183
184
183
183
184
184
185
184
185
184
184
183
184
184
183
184
183
181
182
182
183
183
185
183
183
183
182
180
183
182
181
181
183
183
183
184
183
182
183
183
183
182
183
183
183
185
184
184
184
184
182
182
184
185
185
182
180
181
183
184
184
184
185
185
185
183
183
182
181
183
183
181
181
184
184
183
181
181
183
184
180
180
180
180
178
179
179
179
179
180
177
177
177
176
177
178
177
177
179
179
178
176
174
175
175
176
176
174
174
178
177
179
181
180
182
183
184
184
184
184
184
181
184
184
183
185
186
186
187
184
187
187
187
188
183
184
186
187
184
184
181
177
178
180
177
182
182
179
182
182
181
184
185
181
181
180
181
182
182
182
184
185
184
185
185
188
188
188
187
188
183
184
184
186
187
187
186
185
185
184
182
183
179
177
178
178
178
178
175
175
174
173
176
176
177
176
176
172
170
168
171
171
173
176
174
175
176
177
176
177
173
177
178
179
176
177
175
175
177
177
177
177
177
178
178
178
174
175
178
176
177
180
180
180
181
183
183
181
181
179
179
179
178
179
176
178
177
177
177
178
182
180
176
176
175
173
173
174
172
168
167
167
166
166
165
164
165
168
165
166
166
166
168
166
166
165
169
171
171
172
172
173
173
174
174
175
178
179
179
179
175
175
175
176
176
176
178
177
175
178
178
174
175
175
174
174
172
174
175
175
175
174
174
175
175
172
172
173
173
171
171
171
169
170
172
172
170
169
166
167
164
164
165
167
169
169
172
172
173
174
175
173
172
174
174
173
173
173
169
169
169
171
174
176
179
179
178
179
179
179
180
180
181
179
180
180
181
181
182
182
185
184
185
184
183
179
180
177
177
177
177
176
180
181
181
181
181
181
177
178
177
174
175
172
173
172
177
177
178
174
175
173
172
172
172
172
172
172
171
171
171
171
172
174
174
174
176
176
176
177
179
179
180
179
179
179
179
180
180
181
183
185
185
186
185
185
185
186
186
185
185
185
185
185
188
188
185
183
182
184
185
184
186
187
187
185
185
185
185
185
185
183
181
182
184
183
183
184
188
188
187
186
187
186
186
187
187
187
187
187
186
184
184
183
182
183
183
183
184
183
181
178
175
175
176
176
177
178
176
176
176
178
178
176
179
179
180
180
182
182
182
182
180
182
182
183
182
180
178
179
182
180
181
182
182
184
185
185
184
185
185
185
187
188
187
187
187
187
186
186
184
184
186
186
185
185
184
182
183
182
182
180
179
181
180
179
180
181
180
180
180
181
182
182
182
184
187
185
185
184
184
184
184
184
182
180
182
180
180
179
179
180
180
180
183
183
184
185
185
184
184
183
186
185
186
188
185
185
186
183
183
182
182
182
179
180
180
179
179
178
179
181
182
183
185
185
185
184
183
179
180
180
178
180
180
178
178
176
177
177
179
180
181
180
180
180
183
183
184
185
186
185
186
186
187
188
188
188
188
187
187
189
187
186
184
183
183
182
185
186
185
184
184
184
185
185
185
190
190
191
191
191
191
190
189
189
187
186
187
187
185
183
184
182
181
181
181
181
181
181
181
179
180
180
180
179
177
178
178
180
180
180
181
180
177
177
179
179
179
182
182
181
182
183
184
180
180
180
181
181
181
182
186
188
189
187
186
184
182
180
181
181
183
183
183
183
183
183
183
184
186
182
182
179
178
178
176
177
178
176
179
180
182
182
182
184
183
184
181
186
186
186
185
185
185
181
181
181
180
179
177
178
178
175
173
177
177
177
177
175
176
174
172
176
176
176
176
177
178
176
174
169
171
173
171
168
170
170
170
170
171
172
171
173
175
177
177
180
180
182
183
187
187
187
187
184
184
183
184
184
185
184
185
186
187
188
186
184
183
181
182
179
180
179
180
180
182
181
181
181
179
179
178
177
174
175
176
177
178
179
181
180
180
180
180
177
181
182
181
181
182
180
180
183
184
185
185
187
187
184
179
181
181
184
183
181
181
180
180
177
177
180
183
183
183
182
182
179
177
176
173
176
176
178
178
178
179
179
178
178
178
178
179
180
180
180
180
179
178
174
174
172
170
168
170
169
169
169
173
173
176
173
173
173
174
177
178
180
180
179
177
179
178
177
177
177
177
176
176
176
179
180
181
181
180
178
178
179
178
175
176
176
177
176
172
172
174
175
175
177
177
176
174
178
178
179
181
180
181
181
180
181
180
178
178
175
173
172
174
173
173
174
174
173
172
171
171
169
171
172
171
171
172
169
166
167
167
166
166
165
165
162
163
162
166
167
168
169
168
172
173
175
175
174
172
172
171
170
171
171
171
173
173
173
176
178
177
177
177
178
176
176
176
176
176
179
177
178
177
177
177
177
176
177
176
177
177
177
177
177
176
178
176
176
177
177
176
176
179
179
179
181
182
185
183
185
185
185
185
184
184
184
185
184
185
188
189
187
186
186
188
186
187
188
187
187
188
187
187
186
186
186
186
185
184
184
185
185
184
183
186
184
184
185
188
186
185
186
186
186
183
183
184
187
188
188
188
191
191
189
190
188
188
188
187
187
190
189
190
188
188
190
190
189
187
189
187
189
187
187
187
187
186
188
189
189
187
186
187
188
189
188
187
187
188
188
188
187
187
187
186
186
186
186
186
186
186
187
187
186
185
190
190
191
190
191
191
193
190
188
189
190
189
189
187
187
184
184
184
187
187
185
186
187
187
189
187
188
190
190
188
188
191
193
193
195
194
194
192
192
192
192
191
191
191
190
190
190
191
191
191
189
187
186
186
185
186
185
184
184
184
183
184
184
184
184
184
182
183
183
183
182
177
176
181
181
178
178
179
179
180
183
183
184
182
184
183
182
186
186
187
187
186
186
187
187
187
187
187
183
179
178
179
180
179
179
180
181
182
181
181
182
185
185
186
187
186
187
188
187
190
192
192
191
190
191
192
191
192
191
191
189
185
185
186
186
186
185
184
184
184
185
184
184
185
185
185
184
189
191
190
188
188
187
187
187
184
184
184
183
183
182
183
186
188
188
185
186
186
186
186
185
186
186
189
188
188
188
190
190
190
190
190
190
189
187
187
186
186
187
188
188
186
186
186
188
188
188
188
188
188
189
189
188
186
186
186
184
183
183
183
184
185
185
184
185
185
185
183
183
183
183
182
184
184
184
184
179
177
178
176
176
177
177
177
177
180
180
180
177
177
178
179
180
180
179
180
180
181
180
181
181
179
178
176
176
176
176
178
179
181
181
178
181
181
181
182
180
179
180
179
180
179
179
178
179
179
179
179
179
175
175
176
176
171
171
171
173
174
179
180
182
182
181
179
179
177
177
177
177
178
177
177
177
177
177
178
177
177
179
176
176
174
176
176
179
180
182
181
184
184
182
180
177
175
172
171
173
172
172
173
178
178
178
178
180
180
180
179
179
177
177
178
180
178
177
177
178
178
175
176
176
177
178
177
178
180
179
180
179
179
179
181
182
183
183
184
184
183
183
184
184
184
184
184
184
181
179
177
177
177
177
178
177
177
177
180
180
180
180
177
178
178
178
178
179
177
177
177
177
178
176
175
175
175
174
177
179
179
182
180
181
183
185
186
187
187
187
187
188
187
187
189
191
191
190
190
190
187
184
184
187
189
189
188
189
188
188
189
188
188
188
188
188
187
186
184
184
184
184
184
186
185
182
180
179
179
179
179
175
174
174
174
175
174
174
173
170
171
170
170
170
170
168
168
168
167
167
167
167
169
173
171
172
176
175
178
178
180
183
183
185
185
185
184
182
184
186
188
187
187
188
187
187
190
189
187
187
187
189
191
191
193
193
191
191
191
190
190
189
189
189
189
189
189
189
187
189
190
191
191
191
192
191
191
191
191
192
192
191
190
190
191
190
191
191
191
191
189
188
188
188
187
187
188
188
188
188
189
190
190
190
190
190
190
187
188
188
190
189
188
188
186
186
186
189
189
190
188
190
190
190
190
190
191
190
190
190
190
187
187
187
187
184
183
183
183
183
183
183
182
183
180
178
176
178
178
178
178
182
185
185
186
186
185
185
187
187
187
183
183
184
184
184
183
187
188
187
188
188
189
187
186
184
184
187
188
188
188
190
190
190
190
190
188
188
188
189
189
189
187
187
188
188
188
187
187
187
187
188
189
188
189
189
189
186
186
182
182
182
181
179
179
179
181
181
179
179
178
180
180
181
180
179
178
179
179
181
181
181
181
181
181
181
182
182
182
183
183
182
181
182
179
179
179
179
178
178
179
179
180
181
182
181
181
179
179
181
185
188
184
184
185
185
185
183
183
183
183
180
181
181
181
179
179
179
176
177
177
180
180
180
180
182
182
180
182
180
181
181
181
181
181
181
181
181
181
182
184
183
186
186
186
185
186
186
188
186
187
188
186
187
187
187
187
187
185
184
184
184
183
182
182
179
179
183
183
183
184
184
182
181
181
181
182
182
183
181
181
181
180
180
181
181
181
178
177
177
176
176
174
175
176
177
177
178
177
177
176
176
176
176
175
177
178
178
177
177
180
183
182
182
183
180
179
181
181
179
179
179
179
180
180
178
178
177
176
180
181
181
183
183
182
178
179
182
184
185
184
186
184
184
185
184
184
184
186
186
186
186
185
186
186
186
186
188
189
188
187
185
185
185
185
186
187
187
186
186
186
185
185
188
188
187
187
188
187
184
181
182
182
181
179
179
177
177
177
177
180
179
177
176
176
177
177
181
181
181
181
184
183
180
183
183
183
180
180
179
180
180
181
181
182
182
182
183
185
187
187
187
187
184
184
182
182
181
181
181
181
181
180
181
182
180
180
181
182
184
184
185
183
184
185
184
184
186
186
183
182
182
185
185
183
182
182
181
181
182
182
181
183
183
183
186
187
184
182
180
180
179
178
177
177
178
179
179
179
178
177
177
178
180
180
180
180
180
179
177
178
179
182
181
182
182
181
179
181
181
181
180
179
180
181
180
182
182
183
183
182
181
182
182
181
178
178
178
178
178
181
179
178
178
180
180
182
182
184
186
185
186
187
187
187
187
186
187
187
187
186
185
184
183
183
183
183
183
181
183
181
181
182
181
183
181
182
183
184
185
185
185
185
186
188
187
187
187
187
187
186
187
187
187
186
187
183
184
184
184
184
183
182
182
185
186
186
186
188
189
189
186
184
185
185
187
187
190
189
189
187
188
186
186
186
185
185
184
186
186
186
185
185
184
183
183
183
183
183
181
181
183
184
182
183
180
180
180
181
180
179
179
180
182
182
183
182
183
183
181
181
182
182
183
183
183
182
181
181
178
177
178
179
179
178
178
178
178
179
179
179
179
179
179
179
178
178
177
179
180
176
175
179
179
179
179
179
179
179
180
182
182
182
181
182
185
184
179
179
177
177
178
178
178
178
178
177
178
179
179
177
177
177
178
177
176
177
175
175
175
175
176
176
177
177
177
176
176
176
176
174
172
174
174
178
180
180
179
182
182
179
179
179
179
179
179
180
180
181
181
181
182
181
181
180
181
183
184
184
184
184
184
183
183
183
187
186
187
188
187
187
187
185
185
184
185
184
185
185
184
184
184
185
184
184
181
179
179
178
178
178
178
180
182
180
179
179
178
177
177
179
178
177
177
176
176
174
173
175
175
175
175
177
177
177
177
181
181
183
178
177
178
178
178
177
178
176
176
177
178
178
180
179
179
175
177
177
176
176
176
177
177
174
174
175
173
173
175
174
178
178
177
177
176
177
178
179
179
180
182
182
182
181
182
182
182
182
180
180
180
180
182
182
182
181
182
182
182
182
182
182
182
182
182
186
187
187
183
183
183
185
185
186
187
188
188
188
188
188
188
187
187
187
187
187
185
185
188
189
190
190
190
189
190
191
190
191
192
192
192
189
188
187
186
184
183
184
185
183
184
184
184
186
186
184
183
184
184
185
184
184
183
182
184
186
183
185
187
187
187
187
187
185
186
186
184
184
184
184
186
187
187
187
187
189
188
188
188
188
188
187
186
186
186
184
181
177
178
180
180
180
180
182
183
185
185
187
186
185
185
187
187
187
186
183
182
182
183
183
183
183
183
181
181
181
179
179
181
179
178
180
179
178
179
180
180
180
180
181
181
181
182
181
182
183
184
185
184
186
187
187
187
187
188
187
187
188
187
187
187
188
188
188
188
188
188
189
189
189
186
184
185
184
181
183
186
187
186
185
187
186
184
186
184
184
185
185
183
183
183
183
183
184
182
181
180
181
183
180
180
178
179
179
179
181
181
181
180
181
181
181
181
181
180
181
181
181
180
180
182
182
181
181
181
183
184
184
184
184
184
184
183
184
181
180
178
179
180
181
181
180
180
180
179
179
178
176
176
174
177
178
178
179
181
182
182
181
183
183
183
185
186
186
186
185
183
185
185
186
185
185
185
185
185
186
184
185
184
184
185
186
186
184
184
184
185
184
183
183
182
182
183
185
184
182
182
183
184
184
185
186
185
184
185
185
186
188
187
186
187
187
184
184
185
184
183
183
182
179
178
178
179
177
181
180
179
179
179
179
183
183
183
183
185
184
184
185
184
185
185
185
185
184
186
186
186
189
188
187
186
184
183
180
180
176
176
177
179
180
180
181
181
181
181
183
183
180
181
183
183
183
182
182
182
182
182
182
184
184
182
181
181
182
182
183
183
183
181
182
177
178
179
176
178
180
180
178
178
179
179
180
179
178
178
178
178
182
182
182
184
184
184
184
184
184
183
183
183
183
186
187
187
185
185
186
187
187
186
186
186
186
185
185
185
185
185
185
187
187
186
187
186
185
181
180
176
176
176
176
175
175
175
175
175
175
178
178
176
176
178
177
176
178
178
179
179
178
178
179
178
178
178
177
177
178
177
177
177
177
179
179
181
181
182
185
188
188
188
187
184
184
184
183
183
182
182
182
182
181
183
183
183
183
183
184
184
184
184
183
184
184
184
184
186
184
185
186
186
184
183
185
185
186
188
188
185
183
184
184
183
182
180
180
179
178
178
178
179
178
181
180
181
181
181
183
183
183
183
181
181
184
184
187
188
188
187
187
188
188
190
188
187
187
187
186
186
186
184
185
184
182
183
183
183
183
184
186
185
183
185
185
185
185
185
185
182
181
181
183
181
181
180
180
178
180
180
181
182
181
181
179
179
179
179
181
180
182
182
183
183
183
183
183
183
183
184
186
185
185
185
184
184
185
184
182
182
182
182
182
180
182
183
182
184
184
183
183
181
181
183
181
180
181
181
184
185
186
185
185
185
187
186
186
185
184
185
186
188
188
185
185
183
181
180
179
180
181
182
182
184
184
186
186
184
182
181
183
183
185
185
184
183
183
182
183
183
181
181
182
182
180
179
179
177
174
173
175
176
178
179
178
176
177
177
176
176
179
179
178
179
182
180
179
179
181
181
182
183
183
183
186
187
187
189
186
185
182
182
181
181
184
183
183
185
186
186
187
187
186
184
184
184
185
184
183
183
186
186
188
186
185
187
187
188
188
190
190
189
189
189
187
186
186
186
186
186
188
187
187
187
187
187
188
188
186
186
187
186
185
186
184
183
183
184
184
185
186
185
186
186
186
186
186
186
185
185
184
183
184
184
184
184
182
182
182
182
181
183
184
184
181
181
182
182
185
183
185
183
183
185
187
187
187
187
188
187
186
186
184
184
183
183
185
184
182
181
180
180
180
180
182
181
183
182
180
180
180
181
181
181
180
179
182
182
183
183
182
181
181
181
181
181
180
180
180
180
179
179
177
178
176
176
176
175
175
178
175
177
180
179
178
178
179
179
180
180
177
179
178
178
179
178
180
180
183
184
184
184
183
184
183
184
181
180
186
187
187
188
188
188
188
188
188
188
188
188
188
188
187
188
188
188
188
186
185
185
184
184
184
184
186
186
186
185
187
187
187
188
189
188
189
189
187
187
186
187
189
190
189
189
189
191
192
192
190
189
188
190
191
190
190
189
187
187
187
187
184
184
181
183
183
184
184
185
185
186
184
184
185
186
185
185
186
186
185
185
182
184
184
184
186
186
186
186
186
186
186
186
185
184
184
184
183
183
183
185
186
186
187
187
187
187
189
189
188
187
186
186
187
187
184
185
185
185
185
184
186
186
186
187
188
188
188
188
188
189
188
189
189
189
189
188
188
186
187
186
186
187
186
186
186
185
186
187
185
184
185
185
186
186
187
187
190
190
191
189
189
191
192
190
191
189
189
188
188
188
188
185
185
184
184
184
184
187
187
188
187
185
185
185
187
189
190
188
188
187
185
184
185
185
184
182
183
182
180
180
180
182
182
184
184
186
187
186
187
187
186
186
186
186
185
185
185
183
184
185
185
185
185
185
185
184
184
182
183
184
183
185
186
188
187
187
187
188
188
189
190
190
190
190
189
189
189
188
187
187
188
189
189
188
189
189
188
188
187
187
187
187
188
188
188
188
188
188
188
188
188
188
188
188
189
192
193
193
194
194
194
194
193
192
192
192
192
190
190
190
192
192
192
191
191
192
193
193
193
193
193
191
191
191
191
189
189
189
189
189
190
190
190
191
193
193
193
193
192
190
191
193
193
193
193
191
191
190
190
186
188
188
188
188
188
188
187
187
189
188
186
186
186
186
186
185
187
185
185
185
181
183
182
181
183
186
187
187
187
185
181
181
182
182
182
182
180
180
180
180
182
180
180
180
180
181
181
181
183
183
183
183
184
184
184
181
178
177
177
179
179
177
179
177
177
175
176
176
175
174
174
173
176
178
177
180
175
180
179
179
180
179
178
184
186
186
186
186
186
184
186
187
184
185
185
185
183
183
183
184
184
185
184
184
184
184
187
187
187
187
187
187
188
188
188
189
192
190
188
186
186
186
184
185
185
185
185
186
186
186
187
187
187
190
189
190
190
190
189
190
191
191
190
190
189
190
191
190
190
191
191
191
191
189
187
186
187
187
187
185
185
184
185
185
186
187
186
186
186
186
186
186
186
187
189
189
189
189
189
192
194
192
193
192
192
192
192
192
192
192
190
190
191
191
192
193
192
191
192
192
192
192
191
191
192
192
192
191
191
192
191
191
191
191
191
191
190
189
189
190
190
191
191
191
189
189
189
187
187
187
187
187
188
186
187
187
187
186
185
187
185
185
186
185
186
188
187
184
184
185
185
185
185
186
186
186
186
186
186
186
184
184
187
187
187
188
187
188
188
188
189
190
189
189
188
189
190
191
191
191
191
191
190
187
187
187
187
187
188
188
188
188
188
188
187
187
187
186
187
187
185
186
186
186
185
185
185
185
187
186
187
191
192
192
191
191
188
189
188
188
185
185
185
186
186
186
185
183
183
183
183
186
187
188
190
190
188
188
185
185
187
187
185
186
185
185
186
186
186
186
185
186
187
187
187
187
187
185
185
184
184
184
185
185
184
186
185
185
183
184
186
187
187
187
190
189
189
189
188
189
188
187
187
188
186
185
184
185
185
187
187
186
186
187
187
187
188
188
189
190
190
190
190
192
192
190
189
189
189
190
190
188
188
188
188
187
186
186
185
186
187
186
186
186
183
184
184
184
182
184
182
182
181
182
181
181
179
177
180
180
180
180
180
181
180
179
180
180
181
181
183
183
183
183
184
184
184
181
182
182
183
182
184
186
184
184
184
184
179
180
180
182
180
180
180
184
184
183
184
184
183
181
181
182
182
183
185
185
185
186
185
184
185
186
184
184
184
184
184
184
185
185
185
185
186
186
186
186
185
185
185
184
184
184
185
185
185
185
185
186
186
186
186
186
184
182
181
181
181
180
182
181
180
183
184
183
183
182
181
180
179
179
182
182
181
180
181
180
184
183
184
184
184
184
181
181
181
180
180
179
182
183
183
183
182
183
183
183
185
186
185
184
184
185
185
186
189
189
187
188
187
187
186
187
186
186
187
188
188
188
189
191
190
191
191
191
192
192
192
192
191
191
189
188
188
189
191
190
189
190
191
190
190
188
188
188
187
187
183
182
184
185
185
184
182
183
183
185
188
188
188
189
187
187
187
185
188
189
189
190
189
188
189
189
189
189
187
187
187
187
187
187
188
188
186
185
187
189
188
188
188
188
188
189
190
190
189
189
189
189
187
187
186
187
187
188
188
188
188
188
189
187
187
187
187
187
189
188
188
189
189
189
189
190
190
190
190
189
189
187
187
187
185
185
184
185
185
184
184
187
187
186
184
184
184
183
184
185
185
186
187
185
185
185
187
187
187
187
187
186
188
185
185
184
184
182
182
182
182
182
182
182
182
182
182
183
182
183
180
180
178
176
177
179
181
181
181
183
183
187
186
186
185
184
181
182
183
183
181
178
177
179
178
178
178
177
177
177
177
177
179
180
181
181
184
181
181
179
179
179
179
178
176
176
176
173
175
177
177
177
179
180
181
182
182
181
181
181
182
181
181
181
181
180
183
184
184
184
186
186
186
184
186
186
183
182
182
183
182
183
184
185
186
183
185
185
184
183
182
182
184
183
184
184
185
187
187
187
189
189
188
188
189
190
191
191
191
190
189
189
190
189
189
189
189
190
190
188
188
190
190
189
189
190
191
193
190
188
188
186
186
185
185
184
184
184
185
185
185
184
184
184
184
186
186
186
186
185
185
185
186
187
187
186
187
187
188
189
189
189
188
188
186
186
184
184
184
184
184
184
185
185
185
186
186
185
185
186
186
186
186
185
185
185
186
185
184
186
188
190
190
189
189
189
189
189
189
191
191
189
190
189
190
188
188
187
187
186
187
186
186
188
188
189
189
187
187
187
187
188
188
189
188
188
190
189
188
188
188
188
188
188
188
188
188
187
186
188
187
186
185
185
185
185
185
185
186
186
187
187
185
187
188
188
188
188
188
188
188
188
188
189
188
187
188
189
191
191
191
190
190
191
191
191
191
191
191
191
191
191
189
190
189
188
190
191
191
190
191
189
188
188
188
189
189
189
190
189
190
188
188
188
188
187
187
189
189
190
190
190
188
188
187
187
189
189
189
189
187
187
189
190
190
190
190
192
191
188
188
188
188
188
187
188
189
189
186
189
185
185
185
185
187
187
187
186
184
184
184
187
187
187
186
186
186
187
184
184
187
187
187
186
186
186
185
184
185
185
184
184
184
184
183
182
183
183
183
184
183
183
183
185
185
186
187
187
188
190
188
187
187
186
187
187
187
186
185
184
186
186
185
185
186
186
186
185
184
184
186
187
187
188
189
189
189
188
187
188
188
187
187
187
185
184
185
186
185
185
183
181
181
181
180
181
181
184
184
186
183
183
185
185
184
184
184
184
184
183
184
186
188
187
187
188
185
185
186
189
189
188
189
189
190
189
189
191
190
190
191
192
192
192
191
191
190
191
190
190
188
187
188
188
188
189
189
188
188
191
190
190
190
190
188
187
189
187
185
187
187
188
184
183
180
180
181
181
180
180
179
178
178
179
179
179
179
181
179
174
175
175
177
177
178
178
180
180
180
179
179
179
179
178
179
178
178
177
178
178
177
177
175
178
179
179
179
177
178
178
178
178
180
180
181
181
180
178
178
180
180
183
183
183
182
182
181
181
182
183
182
182
180
182
182
182
182
183
183
183
182
182
182
182
182
183
184
184
184
185
182
183
183
183
182
182
183
183
181
182
183
183
181
181
181
181
181
181
181
183
185
184
184
184
187
188
188
185
185
185
184
184
184
182
182
183
183
182
182
181
181
181
179
179
181
182
182
183
182
182
181
183
186
182
180
181
181
181
182
183
182
181
182
182
184
184
185
184
184
184
185
186
186
185
185
186
184
185
187
187
186
186
188
188
188
188
190
189
189
187
187
187
187
187
188
190
190
189
189
189
189
190
190
189
188
189
189
189
189
190
190
191
191
191
190
190
189
192
192
192
194
194
194
194
194
194
195
195
194
194
194
194
194
194
194
193
190
190
190
190
190
190
188
189
188
188
189
190
191
191
191
192
192
193
193
193
192
192
192
192
192
192
192
189
189
189
191
191
190
191
191
192
191
190
189
189
189
188
187
188
188
188
188
186
184
184
185
184
184
182
182
182
182
183
182
182
181
180
180
180
180
181
183
183
180
182
183
183
183
182
184
183
185
185
186
186
188
188
187
184
184
184
185
188
188
188
190
190
190
189
189
189
189
189
188
188
188
188
188
188
189
188
188
188
188
188
188
188
188
188
189
189
189
188
187
187
187
187
187
185
185
186
186
188
188
187
186
184
184
183
183
182
181
184
184
182
181
181
181
182
181
181
180
179
181
181
181
185
185
185
185
185
185
185
184
184
184
185
186
186
187
188
188
188
188
188
189
190
190
189
189
189
187
187
186
186
186
187
186
186
186
186
185
186
184
185
187
187
186
185
184
184
185
183
183
184
184
184
186
186
185
185
183
184
185
184
184
184
184
184
184
185
182
182
182
183
183
181
180
180
179
179
179
179
180
180
179
178
179
180
182
182
182
182
183
183
183
183
183
184
184
184
184
182
183
183
183
183
183
184
186
186
186
186
186
186
187
187
187
188
187
187
186
187
187
188
190
190
189
190
190
190
190
189
191
191
193
193
191
189
187
187
188
185
186
187
187
187
187
187
187
189
189
187
185
184
185
185
187
188
184
184
184
185
184
186
186
187
187
187
187
187
189
187
187
185
185
184
183
185
184
184
185
184
184
183
183
185
185
185
185
186
186
186
186
186
183
184
184
184
186
186
187
185
185
187
186
187
186
186
186
186
187
187
185
185
184
185
185
185
185
185
184
182
182
182
181
181
184
184
184
184
184
183
185
185
184
186
185
184
184
184
182
180
181
181
180
180
180
183
183
180
179
179
179
179
179
179
181
181
181
181
179
179
179
179
181
182
183
184
183
185
183
182
185
185
185
185
187
188
187
187
187
189
190
190
190
190
190
191
191
191
191
191
191
191
191
190
190
190
190
190
192
192
192
191
192
192
191
191
190
190
191
191
192
191
191
192
193
192
191
190
189
189
189
189
188
187
186
187
187
188
187
187
186
185
188
188
189
189
188
188
187
186
187
187
187
187
187
185
183
183
183
181
181
182
182
182
182
181
184
184
184
185
185
182
181
181
179
181
179
179
180
180
181
181
179
181
182
182
182
187
189
190
190
190
190
190
189
189
189
189
188
188
188
188
188
187
189
189
189
189
189
187
189
189
189
189
189
189
189
189
188
188
188
187
186
190
189
189
189
190
190
191
192
192
192
192
191
191
190
190
190
191
191
191
191
192
192
191
191
189
190
189
189
186
186
186
188
188
188
189
188
187
186
187
186
187
188
189
191
191
191
191
191
191
187
187
186
185
185
184
182
181
181
181
181
180
180
180
180
180
178
178
179
179
179
177
181
180
180
181
181
181
183
185
185
184
183
184
187
187
187
188
188
190
189
189
189
187
186
186
186
186
185
184
184
183
183
183
183
183
183
183
183
183
183
183
184
185
186
186
186
188
188
188
188
188
189
189
189
189
191
191
190
190
191
191
191
191
191
193
193
193
193
193
193
193
193
193
194
193
194
194
194
194
195
194
194
194
193
193
193
193
193
193
193
193
193
193
193
194
193
194
193
193
190
187
187
187
188
188
191
191
191
191
191
191
191
191
191
191
192
192
192
191
191
191
191
189
189
190
193
193
193
190
188
188
189
189
189
189
187
185
184
184
184
186
185
185
185
185
185
184
184
183
188
188
186
186
186
185
185
187
186
186
185
186
186
188
188
190
190
190
189
189
189
189
190
189
189
188
189
189
189
190
189
189
187
189
187
187
187
187
188
191
191
191
191
191
191
191
190
190
191
191
191
191
191
191
191
190
190
190
190
185
185
185
185
187
187
187
189
189
188
188
187
188
189
189
189
189
190
189
189
189
190
192
192
191
192
191
192
191
191
191
190
189
189
189
189
189
190
190
191
191
193
192
192
191
191
191
190
190
189
189
189
189
189
189
190
190
190
190
190
190
190
191
191
191
191
191
191
191
191
191
191
191
191
191
191
191
191
189
189
189
189
189
189
190
190
190
190
190
190
189
189
189
189
189
188
188
190
190
189
190
190
191
189
188
188
188
189
188
188
188
188
188
188
188
188
188
188
188
186
186
188
188
188
188
189
188
189
189
187
187
185
186
185
185
184
184
182
183
182
182
183
183
184
186
186
184
186
186
188
186
187
187
187
187
187
187
187
187
187
187
187
186
186
185
185
186
185
186
186
186
186
186
186
186
184
185
185
185
184
184
183
185
186
186
188
188
188
188
187
189
189
189
189
190
190
189
190
191
190
188
187
186
189
188
187
187
187
185
185
187
190
190
189
189
189
189
187
188
189
189
189
188
188
188
188
188
189
189
189
189
189
190
190
192
192
194
194
194
193
193
191
192
192
191
191
189
191
192
193
195
195
192
192
192
193
193
191
191
191
191
191
191
193
193
192
192
193
192
192
191
191
191
191
191
190
190
190
190
190
190
189
189
188
189
189
189
190
192
191
191
190
190
190
190
190
190
189
189
189
192
192
193
193
193
190
189
189
190
190
190
190
190
191
191
190
190
189
189
189
189
189
191
189
189
189
189
191
191
195
195
195
195
197
195
195
195
196
196
196
196
196
195
193
193
193
193
192
192
192
192
193
193
193
193
193
193
193
193
193
193
195
193
193
192
192
191
191
191
191
191
190
190
190
189
189
191
191
191
191
191
192
191
191
191
189
189
190
190
192
193
193
193
192
192
192
192
192
192
190
190
190
188
188
188
187
189
190
189
189
189
188
188
188
188
190
189
189
189
190
190
189
189
189
187
187
187
187
187
188
188
189
189
187
188
186
185
185
184
184
184
185
188
189
189
189
190
190
189
189
189
189
189
189
189
189
189
188
186
186
186
186
187
187
187
190
190
189
189
190
190
190
191
191
191
191
191
191
191
191
191
191
190
190
190
189
188
188
188
188
188
188
190
190
191
192
191
192
192
191
190
189
189
190
190
191
190
190
190
190
190
190
190
190
190
190
188
189
190
191
189
186
187
187
187
189
189
189
188
188
188
188
187
186
187
187
188
188
188
188
188
187
187
187
187
188
188
188
188
187
188
188
187
188
188
188
187
187
187
187
187
188
188
189
189
188
188
188
189
187
187
187
188
188
189
189
188
188
188
188
189
189
190
190
190
189
189
189
189
187
187
187
188
188
191
191
191
190
190
188
188
186
187
187
187
187
187
187
187
188
187
187
187
187
187
186
187
187
188
188
188
188
188
187
188
187
188
189
189
189
189
189
190
190
190
190
191
191
191
192
192
192
193
191
191
191
191
191
191
191
191
191
191
190
190
190
190
190
190
190
190
190
190
192
192
192
192
193
193
193
193
193
191
191
191
191
191
192
194
194
194
193
193
193
196
196
196
196
195
195
195
195
195
195
194
194
194
194
194
192
192
192
192
192
192
192
190
190
191
191
191
191
191
191
189
189
191
191
191
191
190
190
190
190
188
188
191
191
191
189
188
188
188
188
188
188
185
185
185
185
185
185
186
186
185
185
184
185
185
185
184
184
184
184
184
184
183
184
182
183
184
184
183
183
182
182
182
185
185
185
186
185
185
185
186
186
186
186
186
185
187
187
187
187
186
187
186
187
187
187
187
186
186
186
185
185
185
188
187
184
184
187
185
185
186
186
186
186
189
189
188
188
188
188
188
188
189
190
190
189
189
188
187
187
188
188
189
189
189
189
189
192
192
192
191
191
191
191
191
191
191
191
191
192
192
192
193
193
193
193
192
192
192
191
192
192
192
193
193
193
193
192
194
194
194
194
192
191
191
191
191
191
191
191
191
191
191
191
191
191
191
189
188
188
188
188
188
192
192
193
194
194
194
194
194
194
194
193
192
193
193
193
193
192
192
193
193
192
190
190
190
190
190
191
190
190
190
190
190
187
186
186
186
186
185
184
184
185
186
186
188
187
187
187
189
190
190
190
190
188
188
186
186
187
187
187
186
185
184
182
183
183
182
182
182
182
182
182
182
184
184
183
182
182
183
184
184
184
184
184
185
185
184
184
185
185
185
185
183
183
182
182
183
184
184
184
184
184
186
185
187
187
187
187
187
192
192
192
192
192
192
192
194
194
194
195
195
193
193
193
193
192
192
192
192
193
192
192
191
191
190
190
190
189
191
191
191
191
190
190
190
190
190
190
190
190
190
192
193
193
193
193
193
193
193
193
193
193
193
193
193
193
193
193
193
195
195
195
195
195
195
194
194
194
192
192
193
192
190
190
190
190
191
190
191
191
191
191
191
190
190
190
190
190
190
193
195
195
193
193
193
193
193
193
194
194
194
194
193
192
192
192
192
190
190
190
188
188
186
184
184
184
186
186
186
186
186
187
187
185
186
187
187
187
185
185
185
185
187
187
188
188
187
187
187
187
187
187
184
185
185
185
185
184
183
183
183
185
185
186
187
189
188
188
188
187
187
187
187
185
185
186
186
186
186
186
186
186
187
187
187
187
187
186
185
185
185
187
187
187
187
187
187
188
188
188
189
189
189
188
188
188
188
188
187
188
189
187
187
186
186
189
189
189
189
189
189
189
189
189
189
189
191
191
191
191
191
191
191
191
191
191
191
191
190
190
190
190
190
190
190
191
193
193
193
195
193
193
193
193
194
192
191
192
192
192
192
192
192
191
191
191
191
191
193
193
193
193
193
193
189
189
187
188
188
188
190
188
188
187
189
189
189
188
188
188
187
187
187
187
187
187
188
188
190
191
191
191
191
191
192
189
189
190
190
191
190
189
189
189
189
189
189
189
189
189
189
189
189
188
186
185
187
188
188
187
187
187
187
187
188
189
190
190
190
188
188
189
190
190
190
190
189
189
190
191
191
191
191
190
190
189
189
190
190
190
190
190
190
190
192
192
192
193
193
193
193
193
193
193
192
193
192
191
192
192
192
192
192
191
191
191
191
192
192
192
193
193
193
193
193
193
194
192
192
192
190
190
190
191
191
191
189
189
189
189
189
190
189
189
188
188
188
188
189
189
189
189
190
190
190
190
191
191
191
191
191
191
191
191
191
191
191
191
193
194
194
194
195
194
194
195
195
195
195
195
194
194
194
193
194
194
194
194
194
194
194
194
194
194
194
194
194
194
194
195
195
195
195
195
195
195
195
195
196
196
196
196
196
195
195
195
195
196
196
196
196
196
196
196
195
197
196
196
196
196
196
196
196
196
197
197
197
197
197
196
196
196
196
196
195
194
195
195
194
194
195
194
194
194
193
192
193
193
194
194
196
196
196
195
195
195
195
195
196
196
196
196
196
196
196
196
196
196
196
196
195
195
195
195
194
194
194
194
194
194
194
194
192
191
191
191
191
191
190
189
190
190
190
190
190
191
191
191
191
191
191
192
192
192
192
192
192
190
189
189
189
189
189
189
190
190
190
188
188
188
189
189
189
189
184
184
188
188
189
186
186
186
186
185
185
185
186
187
189
189
189
189
188
188
188
189
190
190
191
192
191
191
191
192
192
192
193
193
193
193
195
195
196
197
197
197
197
197
197
197
196
196
196
195
195
195
195
195
193
193
193
193
193
192
192
192
192
192
192
193
193
191
191
191
191
191
191
191
189
189
189
189
189
189
190
190
192
192
192
192
190
190
190
190
188
189
189
189
188
188
189
189
188
189
189
189
190
190
190
190
190
190
191
191
191
192
192
191
192
192
190
189
190
190
190
192
192
192
194
195
195
195
197
197
197
197
197
197
197
197
197
194
194
194
194
194
194
193
193
193
194
193
193
193
193
193
193
191
191
191
191
190
189
189
190
191
191
191
191
191
191
192
192
192
192
191
190
190
190
190
190
191
191
192
192
192
191
192
192
192
193
192
192
193
193
193
193
193
193
193
193
193
192
192
191
191
191
190
190
190
189
188
188
188
188
188
188
189
189
189
190
190
190
189
188
189
189
190
191
190
190
190
190
190
190
189
189
188
188
188
188
186
186
188
187
186
186
186
186
186
187
187
187
189
190
190
190
190
190
190
189
190
190
190
190
190
190
190
189
189
190
190
190
190
189
191
190
190
190
190
188
188
189
190
190
190
192
192
192
191
191
192
192
192
192
192
192
192
193
193
193
193
192
192
192
192
192
192
192
192
193
193
193
193
193
193
192
192
192
193
193
191
191
192
192
192
192
192
192
192
192
192
192
192
192
192
192
192
192
193
193
193
193
193
192
192
192
192
192
192
192
192
192
191
192
192
192
192
192
192
192
191
191
190
189
190
190
190
190
189
190
190
190
190
190
191
191
191
191
189
189
188
188
188
187
187
187
187
187
186
188
186
186
186
186
184
187
187
187
187
188
188
187
187
187
187
187
188
188
188
189
189
189
189
189
187
187
187
187
186
187
187
187
187
187
187
190
190
191
192
192
192
192
192
192
192
192
192
191
192
192
192
193
194
194
192
192
192
191
189
189
188
188
189
187
186
186
186
184
187
187
187
187
187
188
189
188
190
190
191
190
190
190
190
191
191
192
191
191
191
192
194
193
192
191
191
192
192
193
192
191
191
192
192
193
193
193
193
193
193
193
193
193
193
193
193
190
190
190
190
190
190
190
190
190
190
190
190
190
190
191
193
192
193
193
193
192
191
191
191
191
191
192
192
192
192
192
192
192
194
191
191
191
191
191
191
191
191
191
191
191
190
190
190
190
190
190
190
191
191
191
191
190
190
190
190
189
189
189
189
188
189
189
190
190
190
189
189
188
189
188
188
188
188
188
188
188
188
188
188
188
187
187
184
184
186
186
186
186
186
186
186
186
186
186
186
186
186
184
184
184
184
184
190
188
188
188
186
186
186
186
185
187
187
187
188
190
191
191
191
191
191
191
191
191
191
191
191
191
188
188
188
188
188
188
187
187
187
187
187
187
188
188
188
188
188
187
187
187
187
187
186
187
187
191
190
190
190
190
191
191
190
190
190
190
190
190
190
190
190
190
191
191
191
191
191
192
193
193
193
194
194
194
195
195
195
195
195
195
195
195
194
194
194
194
194
195
195
195
195
197
197
196
195
195
196
196
198
198
198
199
199
199
199
197
195
195
195
196
195
194
194
193
193
194
194
194
194
194
193
193
193
193
193
193
195
195
195
196
196
196
197
197
197
197
197
196
195
195
194
194
193
193
193
193
193
194
193
193
193
193
193
193
193
193
193
193
193
193
193
193
191
191
191
191
191
191
190
192
192
192
192
192
192
193
193
193
193
194
194
194
194
194
194
194
194
194
194
194
194
195
193
195
195
195
193
193
193
193
193
193
193
193
192
192
192
192
193
193
193
194
194
194
194
194
194
194
194
193
193
193
193
193
192
192
192
191
191
191
191
191
191
192
192
192
192
191
191
191
190
190
190
190
191
191
191
191
193
193
194
194
195
195
195
195
195
195
192
192
192
192
192
192
192
192
192
192
192
192
192
193
193
193
193
192
192
191
191
191
191
191
191
191
191
191
191
191
191
191
191
191
190
189
189
189
189
190
190
190
190
190
190
190
190
190
189
189
189
189
189
189
188
189
189
189
189
189
189
190
190
192
193
193
194
194
194
194
194
194
194
194
193
193
192
192
192
192
192
192
192
192
192
192
192
191
191
189
191
191
191
191
191
191
191
191
191
189
189
189
189
188
188
187
187
187
188
188
188
189
189
189
189
189
189
190
190
190
190
190
190
190
190
190
190
189
189
189
189
189
189
189
189
188
188
188
188
188
188
188
188
188
188
188
188
188
188
188
188
188
188
188
188
188
189
190
190
190
190
190
190
190
190
190
190
190
190
190
190
190
190
190
190
191
191
191
191
191
191
191
192
192
191
191
191
191
191
191
191
192
193
193
194
194
192
191
192
192
192
193
193
193
193
193
192
192
192
192
192
192
193
193
193
193
193
193
193
193
193
193
193
193
193
193
192
192
192
191
191
193
193
193
193
193
193
193
195
195
195
195
196
196
196
196
196
196
196
196
196
196
196
196
195
195
195
195
195
196
196
196
197
197
197
197
197
198
198
198
198
198
198
198
198
198
197
196
196
195
195
195
195
195
195
195
195
195
196
196
198
198
198
196
196
196
196
196
196
196
196
197
197
197
197
197
197
197
197
197
197
197
197
197
199
199
199
199
199
199
200
200
200
200
200
200
199
198
198
198
198
198
196
196
195
195
195
197
198
198
198
196
196
196
196
196
197
197
196
195
195
195
195
195
196
195
195
195
195
195
193
193
193
193
194
194
194
193
193
193
194
194
194
197
197
197
199
199
199
200
200
200
200
200
200
200
200
200
199
199
199
199
199
199
199
199
199
199
197
197
197
197
197
197
197
197
197
197
195
195
197
197
195
195
195
195
192
192
192
192
191
191
191
191
191
191
191
191
191
191
191
191
191
190
190
191
190
191
191
191
191
191
192
193
194
194
194
192
192
192
192
193
193
194
193
192
191
191
191
191
191
190
190
190
191
191
191
191
192
193
192
192
192
191
191
191
190
192
192
192
192
192
192
192
195
194
194
195
195
195
195
196
196
196
196
194
194
194
194
194
194
196
196
196
197
197
197
197
197
196
196
196
196
196
196
196
196
196
196
196
196
196
196
196
196
196
196
196
196
196
196
196
196
196
196
196
195
194
194
194
194
194
194
194
194
195
195
195
194
191
191
191
191
191
191
191
191
191
191
189
189
188
188
188
188
189
189
189
189
189
189
190
190
190
191
191
191
191
192
192
192
192
193
191
191
192
192
192
193
193
193
194
194
194
196
196
197
197
197
197
197
197
196
196
196
196
196
196
196
196
196
196
196
196
196
196
196
196
196
197
197
196
196
196
196
196
194
194
194
194
194
194
194
193
193
193
193
193
193
193
193
193
193
193
194
194
194
195
195
195
195
195
195
194
194
194
194
194
194
194
195
195
195
195
195
195
195
194
194
194
194
194
194
194
194
194
194
193
195
195
195
195
195
195
195
195
195
195
195
195
195
195
195
195
195
195
195
195
195
195
195
195
195
195
195
195
195
195
195
196
196
196
196
195
195
195
195
195
195
195
195
195
194
194
194
196
196
196
196
196
196
195
194
193
194
194
194
194
194
194
194
194
194
194
194
194
194
194
194
192
190
190
190
190
190
190
190
190
190
191
191
191
191
192
192
192
192
192
192
192
192
192
192
193
189
189
191
191
191
191
193
193
193
193
193
194
194
197
197
197
197
197
197
197
197
195
195
195
195
195
195
195
195
194
194
194
194
194
195
196
196
196
196
196
196
195
195
195
195
194
194
194
194
194
193
193
193
193
193
193
194
194
194
194
194
194
195
195
195
195
195
195
195
195
195
195
196
195
195
195
195
195
195
195
195
195
193
193
193
193
194
194
194
194
194
194
194
194
194
194
194
194
194
194
194
194
196
196
194
195
195
195
195
195
195
195
195
195
195
195
195
195
195
195
195
195
194
194
194
194
193
193
193
192
192
192
192
192
192
192
192
192
192
193
193
193
193
192
192
190
190
192
191
191
191
191
192
193
195
195
195
195
195
195
195
194
194
194
194
193
193
193
193
193
193
194
193
194
194
194
196
195
195
195
195
195
195
195
194
194
194
195
195
196
196
196
196
193
193
193
194
194
194
194
194
194
194
194
194
194
194
194
194
193
193
193
193
193
193
193
193
194
194
194
194
194
193
193
193
193
193
193
191
191
191
191
191
190
191
190
190
190
190
191
191
191
191
191
191
191
191
191
191
189
190
190
190
190
189
189
191
191
191
191
193
193
195
196
196
195
195
194
195
195
195
195
195
195
195
194
194
194
194
194
194
194
195
195
195
195
195
195
195
195
195
195
195
195
195
195
195
195
195
195
195
195
195
195
195
195
195
195
192
192
192
192
196
196
195
194
194
194
194
194
195
195
195
195
195
195
195
195
195
195
195
195
195
195
195
195
195
194
194
194
194
194
194
194
194
195
195
195
195
195
192
193
193
192
192
192
193
193
193
193
193
193
193
193
193
193
193
193
193
193
193
193
193
194
194
194
194
194
194
194
193
193
193
193
193
194
192
192
192
192
192
193
193
193
193
193
193
192
192
192
192
192
192
192
192
192
192
192
192
194
193
196
196
196
196
196
196
197
197
197
194
194
194
197
197
197
197
197
197
197
197
197
199
199
199
199
199
199
199
199
200
200
200
200
199
199
199
199
199
200
200
200
200
200
200
200
198
198
196
196
196
196
196
196
196
196
196
196
196
196
194
194
194
194
196
196
197
197
198
198
198
197
197
197
197
197
197
197
197
197
197
197
197
197
197
197
198
198
198
198
198
198
198
198
198
199
198
198
198
198
198
198
198
198
198
200
200
200
200
200
200
200
200
200
198
199
199
199
199
199
199
198
198
198
198
198
198
198
198
198
198
198
198
198
198
198
198
198
198
198
198
198
198
198
198
198
198
198
198
198
198
198
198
197
197
197
198
198
198
198
198
198
198
198
198
198
198
198
198
197
196
197
197
197
197
197
197
197
197
197
197
195
195
195
195
197
197
197
197
197
197
197
197
198
198
198
197
196
195
195
195
196
196
196
196
196
195
195
195
195
195
195
195
195
195
195
195
195
196
196
196
196
196
196
196
194
194
194
194
194
194
194
194
193
192
191
191
191
191
191
190
190
192
192
192
194
194
194
197
197
197
197
197
197
197
197
197
197
196
196
196
196
196
196
196
197
198
197
197
196
196
197
197
197
197
198
198
198
198
198
198
198
198
198
198
198
198
198
198
198
198
198
198
197
197
197
198
198
196
196
196
196
196
197
197
197
196
196
196
196
196
196
196
197
197
197
197
197
197
197
197
197
196
196
196
196
194
194
194
194
194
194
194
194
194
194
195
194
194
194
194
194
195
195
195
196
196
196
196
196
196
196
194
194
194
194
194
194
194
194
194
194
193
193
193
193
193
193
195
195
195
195
195
197
197
196
196
196
196
196
196
196
195
195
195
196
196
196
196
196
196
196
196
195
195
195
195
195
195
195
195
195
194
194
196
196
196
196
196
196
196
196
196
196
196
196
196
196
196
196
196
195
195
194
194
194
194
194
194
193
193
193
193
193
193
193
192
191
191
191
192
191
190
191
192
192
192
192
192
191
190
191
191
191
191
192
192
192
192
194
194
194
194
193
193
193
192
192
192
193
193
193
193
193
193
193
193
193
191
191
191
191
190
190
191
192
192
193
193
193
193
195
195
195
195
196
196
195
196
196
196
196
196
196
196
196
194
195
195
195
195
192
192
192
192
192
194
194
194
194
194
194
194
197
198
198
198
198
198
198
198
198
198
198
198
198
198
198
198
198
198
198
198
199
199
199
199
199
199
199
199
199
199
199
199
199
199
199
199
199
199
199
199
199
199
198
197
197
195
194
194
194
194
194
194
194
194
195
195
195
195
195
195
195
197
197
197
197
197
198
198
199
199
199
199
199
199
199
199
199
199
199
198
198
198
198
198
198
197
197
197
197
196
196
196
196
196
196
197
197
197
197
196
197
196
195
196
196
196
197
198
198
198
198
198
198
198
199
199
199
199
199
199
198
198
198
198
198
198
198
197
197
197
197
197
197
197
197
197
197
197
197
197
196
196
196
196
196
196
196
196
196
196
196
196
196
196
196
196
196
196
196
196
196
196
196
196
196
196
196
196
196
196
196
196
196
196
196
196
196
196
196
196
196
197
197
197
197
197
197
197
196
196
196
197
197
197
197
197
197
197
197
198
198
198
197
197
197
197
197
197
197
197
197
197
197
197
197
195
195
195
195
195
194
194
194
194
194
194
194
194
194
194
194
194
192
192
192
191
191
191
191
191
191
191
192
192
192
192
192
192
192
192
191
192
192
192
192
192
192
192
193
193
193
193
193
193
193
193
193
193
193
193
193
193
193
193
193
193
193
193
193
192
192
194
194
194
196
196
195
195
192
192
192
192
194
194
194
194
194
194
194
194
194
194
194
193
193
192
191
191
190
190
190
190
190
190
190
190
190
190
190
190
192
192
192
192
192
192
192
192
192
192
192
192
192
192
192
192
192
192
192
194
194
194
194
194
194
193
193
193
193
193
193
193
193
193
193
194
194
194
194
193
193
193
193
193
193
193
193
193
193
193
192
192
192
192
191
191
191
192
192
194
194
194
194
192
192
192
192
192
192
193
193
193
193
193
193
193
195
195
195
194
194
194
194
194
194
195
194
194
195
195
195
195
195
193
193
193
193
193
193
192
192
192
193
193
193
193
193
193
193
193
193
193
193
193
193
193
193
195
195
195
195
195
195
195
195
195
195
195
195
195
196
196
196
196
196
196
196
196
196
196
197
197
197
196
196
196
196
196
196
196
197
197
197
197
197
197
197
197
197
197
198
198
198
198
198
198
198
198
198
198
198
198
197
197
197
197
197
197
197
197
197
197
197
197
197
197
197
197
196
196
196
196
196
196
196
196
196
196
196
196
196
196
195
195
195
196
197
197
197
197
197
197
197
197
197
197
197
200
200
200
200
200
200
200
200
200
200
200
200
200
199
199
199
199
199
199
199
201
201
201
201
201
201
201
201
201
201
201
201
201
201
201
201
201
201
201
201
201
201
201
201
201
201
201
201
201
201
201
201
201
201
201
201
201
201
201
201
201
201
201
201
201
201
201
201
201
201
201
201
201
201
201
201
201
201
201
201
201
201
201
201
201
201
201
201
201
201
201
201
201
201
201
201
201
201
201
201
201
201
201
201
201
201
201
201
201
201
201
201
201
201
201
201
201
201
201
201
201
201
201
201
201
201
201
201
201
201
201
201
201
201
201
201
201
201
201
201
201
201
201
201
201
201
201
201
201
201
201
201
201
201
201
201
201
201
201
201
201
201
201
201
201
201
201
201
201
201
201
201
201
201
201
201
201
201
201
201
201
201
201
201
201
201
201
201
201
201
201
201
201
201
201
201
201
201
201
201
201
201
201
201
201
201
201
201
201
201
201
201
201
201
201
201
201
201
201
201
201
201
201
201
201
201
201
201
201
201
201
201
201
201
201
201
201
201
201
201
201
201
201
201
201
201
201
201
201
201
201
201
201
201
201
201
201
201
201
201
201
201
201
201
201
201
201
201
201
201
201
201
201
201
201
201
201
201
201
201
201
201
201
201
201
201
201
201
201
201
201
201
201
201
201
201
201
201
201
201
201
201
201
201
201
201
201
201
201
201
201
201
201
201
201
201
201
201
201
201
201
201
201
201
201
201
201
201
201
201
201
201
201
201
201
201
201
201
201
201
201
201
201
201
201
201
201
201
201
201
201
201
201
201
201
201
201
201
201
201
201
201
201
201
201
201
201
201
201
201
201
201
201
201
201
201
201
201
201
201
201
201
201
201
201
201
201
201
201
201
201
201
201
201
201
201
201
201
201
201
201
201
201
201
201
201
201
201
201
201
201
201
201
201
201
201
201
201
201
201
201
201
201
201
201
201
201
201
201
201
201
201
201
201
201
201
201
201
201
201
201
201
201
201
201
201
201
201
201
201
201
201
201
201
201
201
201
201
201
201
201
201
201
201
201
201
201
201
201
201
201
201
201
201
201
201
201
201
201
201
201
201
201
201
201
201
201
201
201
201
201
201
201
201
201
201
201
201
201
201
201
201
201
201
201
201
201
201
201
201
201
201
201
201
201
201
201
201
201
201
201
201
201
201
201
201
201
201
201
201
201
201
201
201
201
201
201
201
201
201
201
201
201
201
201
201
201
201
201
201
201
201
201
201
201
201
201
201
201
201
201
201
201
201
201
201
201
201
201
201
201
201
201
201
201
201
201
201
201
201
201
201
201
201
201
201
201
201
201
201
201
201
201
201
201
201
201
201
201
201
201
201
201
201
201
201
201
201
201
201
201
201
201
201
201
201
201
201
201
201
201
201
201
201
201
201
201
201
201
201
201
201
201
201
201
201
201
201
201
201
201
201
201
201
201
201
201
201
201
201
201
201
201
201
201
201
201
201
201
201
201
201
201
201
201
201
201
201
201
201
201
201
201
201
201
201
201
201
201
201
201
201
201
201
201
201
201
201
201
201
201
201
201
201
201
201
201
201
201
201
201
201
201
201
201
201
201
201
201
201
201
201
201
201
201
201
201
201
201
201
201
201
201
201
201
