51
36
27
21
20
18
27
16
16
17
16
15
16
16
111
16
15
15
15
15
16
13
17
16
14
16
17
15
16
15
15
16
16
16
16
14
16
14
15
16
14
14
14
15
16
13
13
15
15
14
16
16
17
16
15
12
14
19
16
16
14
16
16
15
16
14
17
17
15
15
15
19
15
14
22
20
15
17
14
27
15
16
13
15
17
16
17
16
15
13
17
16
16
16
14
16
17
19
18
15
16
15
15
39
41
38
15
29
27
18
20
16
23
27
33
19
14
14
15
15
16
16
16
16
12
15
15
16
14
15
17
16
15
14
12
14
17
15
14
13
14
15
16
12
16
14
14
13
15
15
14
15
14
16
13
13
13
21
16
18
16
16
17
13
15
15
14
15
15
16
17
14
13
17
14
19
16
15
15
14
17
26
43
37
37
20
15
16
13
14
15
20
15
14
13
13
15
16
15
14
13
16
16
16
16
14
15
17
14
14
15
15
15
15
15
15
16
14
13
17
16
16
21
14
16
13
14
15
14
15
15
16
14
15
15
15
14
14
16
15
13
14
13
15
15
15
15
15
16
15
16
15
15
15
18
14
13
12
15
15
15
13
15
12
16
16
15
16
14
15
18
15
14
15
17
16
16
15
17
15
14
14
14
15
16
16
20
14
14
16
13
14
16
15
16
16
15
16
14
15
15
16
14
16
16
15
14
14
13
15
13
15
14
29
15
15
15
16
13
13
15
13
16
15
13
15
15
14
13
14
13
13
17
26
15
15
14
13
15
15
16
15
16
13
13
14
12
14
16
15
14
13
14
15
14
14
14
17
16
14
13
15
16
13
15
15
14
14
14
13
15
15
15
16
15
15
16
15
14
14
15
18
12
14
14
15
16
16
15
16
13
19
17
17
16
16
19
15
14
15
16
14
16
18
16
15
14
14
13
14
15
15
16
16
14
14
14
13
15
16
13
14
14
15
12
14
16
17
26
28
41
33
25
17
14
15
15
16
14
15
14
14
14
13
14
14
17
16
14
14
14
16
16
14
18
16
16
15
15
13
13
14
16
17
16
13
16
14
16
17
15
14
14
14
15
13
14
15
14
17
14
15
15
15
16
14
14
13
15
15
14
14
15
17
14
15
16
15
15
16
