1 20 90 1 1 0 1 1 1 0 1 1 1 1 1 1 1 1 1 1 0 1 1 
2 20 117 1 1 1 1 1 1 1 0 1 1 1 1 1 1 0 1 1 1 0 1 
3 20 119 1 1 1 0 1 1 1 1 0 1 1 1 0 1 1 1 1 1 1 1 
4 20 108 1 1 1 1 1 1 1 1 0 0 1 1 1 1 0 1 1 0 1 1 
5 20 132 1 1 1 1 0 1 1 1 1 1 0 1 1 1 1 1 0 1 1 1 
6 20 117 1 1 0 1 1 1 1 1 1 1 1 1 0 1 1 1 1 1 1 0 
7 20 111 1 1 0 1 1 1 1 1 1 1 0 1 1 1 1 1 0 1 1 1 
8 20 99 1 0 1 1 1 1 1 1 1 1 0 1 1 0 1 1 1 1 1 1 
9 20 101 1 1 1 0 1 1 1 0 1 1 1 0 1 1 1 1 1 1 1 1 
10 20 94 1 1 1 1 1 0 1 1 1 1 1 1 1 0 1 0 1 1 1 1 
11 20 93 1 1 1 1 1 1 1 0 0 1 1 1 1 1 1 1 1 1 0 1 
12 20 84 1 1 0 1 1 1 0 1 1 1 1 1 1 1 0 1 0 1 1 1 
13 20 100 1 1 0 1 1 1 0 1 1 1 1 0 1 1 1 1 0 1 1 1 
14 20 89 1 1 1 1 1 1 1 0 1 0 0 1 0 1 1 1 1 1 1 1 
15 20 128 1 1 1 1 1 0 0 1 1 1 1 1 1 1 1 1 1 0 1 1 
16 20 101 1 1 0 1 1 0 1 1 1 1 1 1 1 0 1 1 1 1 1 1 
17 20 101 1 1 1 0 0 1 1 1 1 1 1 1 0 1 1 1 1 1 1 1 
18 20 104 1 1 1 1 1 0 1 1 1 1 1 1 0 0 1 1 1 0 1 1 
19 20 103 1 1 1 0 1 1 1 1 0 1 1 1 1 1 0 1 1 1 1 1 
20 20 104 1 0 1 1 1 0 1 1 1 1 1 1 1 1 1 1 1 1 1 1 
21 20 108 1 1 0 1 1 1 0 1 1 1 1 1 1 1 1 1 1 0 1 1 
22 20 86 1 0 1 1 1 1 1 1 1 1 1 0 0 0 1 1 1 1 1 1 
23 20 121 1 1 1 0 1 1 1 1 1 1 1 1 1 1 1 1 1 0 1 1 
24 20 115 1 1 1 1 0 1 1 1 1 1 1 1 1 1 0 1 0 1 1 1 
25 20 97 1 1 0 0 1 1 1 1 1 1 1 1 0 1 1 1 1 1 1 1 
26 20 120 0 0 1 1 1 1 1 1 1 1 1 1 1 1 1 1 0 1 1 1 
27 20 121 1 1 1 0 1 1 1 1 1 1 1 0 1 1 1 0 1 1 1 1 
28 20 102 1 1 0 1 1 1 1 1 1 1 1 1 1 1 0 1 1 1 0 1 
29 20 118 1 0 1 1 0 1 1 1 1 1 1 1 1 1 0 1 1 1 1 1 
30 20 102 1 1 0 1 1 1 1 1 1 1 1 1 1 0 0 1 1 1 1 1 
31 20 103 0 1 1 1 1 1 1 1 1 1 1 1 1 1 1 1 0 1 0 1 
32 20 108 1 1 1 1 1 1 1 1 1 1 1 0 1 1 1 1 0 0 1 1 
33 20 114 1 1 1 1 1 0 0 1 0 1 1 1 1 1 1 1 1 1 1 1 
34 20 110 1 1 1 1 0 1 1 1 1 1 0 1 1 1 1 1 1 1 1 1 
35 20 112 0 1 1 1 1 1 1 1 1 1 1 1 0 1 1 1 0 1 1 1 
36 20 100 1 0 1 1 1 1 0 1 1 1 1 1 1 1 1 1 0 1 1 1 
37 20 107 1 1 1 1 1 1 1 1 1 1 1 1 0 0 1 1 0 1 1 1 
38 20 92 1 1 0 1 1 1 1 1 0 1 1 1 1 1 0 1 1 1 0 1 
39 20 104 1 1 0 1 1 1 1 1 1 1 1 1 1 1 1 1 0 1 1 1 
40 20 112 1 1 1 1 1 1 1 0 1 1 0 1 1 1 1 1 1 1 0 1 
41 20 95 1 1 1 1 1 1 1 1 1 1 0 1 0 1 1 1 1 1 0 1 
42 20 97 1 0 1 1 1 1 1 1 1 1 1 1 1 1 0 1 0 1 1 1 
43 20 88 1 1 1 1 1 1 1 1 1 1 0 0 1 1 1 1 0 1 1 0 
44 20 84 1 1 1 1 1 0 1 1 0 1 1 1 1 1 1 0 0 1 1 1 
45 20 110 1 0 1 1 1 1 0 1 1 1 1 1 1 1 1 1 1 0 1 1 
46 20 91 1 0 0 1 1 1 1 1 0 1 1 1 1 1 1 1 1 1 1 1 
47 20 90 1 1 1 1 0 1 1 1 1 1 1 1 1 0 1 1 1 1 0 1 
48 20 107 1 1 1 1 1 1 1 1 1 1 1 1 1 0 0 1 0 1 1 1 
49 20 102 1 1 1 1 1 1 1 1 1 0 1 1 1 0 1 1 1 1 1 0 
50 20 94 1 0 1 1 0 1 1 1 1 1 1 1 1 1 0 1 1 1 1 1 
51 20 115 1 1 0 1 1 1 1 1 0 1 1 1 1 1 1 1 0 1 1 1 
52 20 113 1 1 1 1 1 1 1 1 1 1 1 1 0 1 0 0 1 1 1 1 
53 20 116 1 1 1 1 1 1 0 1 1 1 0 0 1 1 1 1 1 1 1 1 
54 20 115 1 1 1 1 1 1 1 1 1 1 1 1 0 0 1 0 1 1 1 1 
55 20 98 1 1 0 1 1 1 1 1 1 1 1 0 1 0 1 1 1 1 1 1 
56 20 79 1 0 1 1 1 1 1 1 1 1 1 0 1 0 1 1 1 1 1 1 
57 20 89 1 1 1 1 1 1 0 1 0 1 0 1 1 1 1 1 1 1 1 1 
58 20 124 1 1 1 1 0 1 1 1 1 1 1 1 0 1 1 1 0 1 1 1 
59 20 109 1 1 1 0 1 1 1 1 1 1 0 1 1 1 1 1 1 0 1 1 
60 20 106 1 1 1 1 1 1 1 0 1 1 1 1 0 1 1 1 0 1 1 1 
61 20 93 1 1 1 0 0 1 1 1 1 1 1 1 1 1 1 1 0 1 1 1 
62 20 107 1 1 1 1 1 1 1 1 1 0 1 0 1 0 1 1 1 1 1 1 
63 20 101 1 1 1 0 1 1 1 0 1 1 1 1 1 1 0 1 1 1 1 1 
64 20 99 1 1 1 1 1 0 1 0 1 1 0 1 1 1 1 1 1 1 1 1 
65 20 106 1 1 1 1 1 1 0 0 1 1 1 1 1 1 1 1 0 1 1 1 
66 20 90 1 1 1 1 1 1 1 1 1 1 1 0 1 0 1 1 1 1 1 0 
67 20 108 0 1 1 1 1 1 0 1 1 1 1 1 1 1 1 1 1 1 1 0 
68 20 124 1 1 1 1 0 1 1 0 1 1 1 0 1 1 1 1 1 1 1 1 
69 20 103 1 1 1 1 1 1 1 1 1 1 1 0 1 0 0 1 1 1 1 1 
70 20 109 0 1 1 1 1 1 1 1 1 0 1 1 0 1 1 1 1 1 1 1 
71 20 103 1 1 1 1 1 1 1 1 1 1 1 0 0 0 1 1 1 1 1 1 
72 20 109 1 1 0 1 1 1 1 1 1 1 1 0 1 1 0 1 1 1 1 1 
73 20 107 1 0 1 1 1 1 0 1 1 1 1 1 1 0 1 0 1 1 1 1 
74 20 89 1 1 1 0 1 1 1 1 0 1 1 1 1 1 1 1 1 1 0 1 
75 20 121 1 1 1 1 1 1 1 1 1 1 1 1 1 0 1 1 0 1 1 0 
76 20 119 1 1 1 1 1 1 0 0 1 1 1 1 1 1 1 0 1 1 1 1 
77 20 91 0 1 1 1 1 1 1 0 1 1 1 0 1 1 1 0 1 1 0 1 
78 20 120 1 1 0 1 1 1 1 1 1 1 1 1 0 1 1 1 1 1 1 1 
79 20 93 1 1 1 1 1 0 1 1 1 1 1 1 1 1 0 1 1 1 1 0 
80 20 93 1 1 1 1 0 0 1 1 1 1 1 1 1 1 0 1 1 1 1 1 
81 20 96 1 1 0 1 1 1 1 1 1 0 1 1 1 1 1 0 1 1 1 1 
82 20 120 1 1 0 1 1 1 1 1 1 1 1 1 1 1 1 1 0 1 0 1 
83 20 91 1 1 1 0 0 1 1 1 1 1 1 1 1 1 1 1 1 1 1 1 
84 20 110 1 1 1 1 0 1 1 1 1 0 1 1 1 1 1 1 1 0 1 1 
85 20 101 1 1 0 1 1 1 1 1 0 1 1 1 0 1 1 1 1 0 1 1 
86 20 108 1 0 1 1 1 1 1 1 1 1 1 1 1 1 1 1 1 0 0 1 
87 20 120 1 1 1 1 1 0 1 1 0 1 1 1 1 1 1 1 0 1 0 1 
88 20 113 0 1 1 1 1 1 1 1 0 1 1 1 1 1 0 1 1 1 0 1 
89 20 98 1 1 0 0 1 1 1 1 0 1 1 1 1 1 1 1 1 1 1 1 
90 20 82 1 1 1 1 1 1 1 1 1 1 1 1 1 1 0 1 1 0 1 1 
91 20 113 1 1 1 1 1 1 0 0 1 1 1 1 1 0 1 1 1 1 1 0 
92 20 114 1 0 1 1 1 1 0 1 1 1 1 1 0 1 1 1 1 1 1 1 
93 20 115 1 0 1 1 1 1 1 1 1 1 1 1 1 1 1 1 1 0 1 0 
94 20 124 1 1 1 0 1 1 1 1 0 1 1 1 1 1 1 1 0 1 1 1 
95 20 87 1 1 1 1 1 1 1 1 1 1 1 0 1 1 1 1 1 1 0 0 
96 20 104 1 1 1 1 0 1 1 1 1 1 0 1 1 1 1 0 1 1 1 1 
97 20 115 1 0 1 1 1 1 1 1 1 1 0 1 1 1 1 1 1 1 0 1 
98 20 121 1 1 1 0 1 1 1 1 1 1 1 1 1 1 1 0 1 1 1 1 
99 20 121 1 1 1 1 1 1 1 1 1 1 1 1 1 1 0 1 1 0 1 0 
100 20 103 1 1 1 1 1 1 1 1 1 1 1 1 0 0 1 1 1 1 0 1 
101 20 113 1 1 1 1 1 1 0 1 1 1 1 1 1 1 1 1 1 0 0 1 
102 20 97 1 1 1 1 1 1 1 0 1 0 1 1 1 1 1 1 1 0 1 1 
103 20 98 0 1 1 1 1 1 1 1 1 0 1 1 1 1 1 1 1 1 1 0 
104 20 94 0 0 1 1 1 1 1 1 1 1 1 1 1 1 1 1 0 1 1 1 
105 20 107 1 1 1 1 1 0 1 1 1 0 1 1 1 1 1 1 1 1 1 0 
106 20 93 1 1 0 1 1 1 1 1 0 1 1 1 1 1 1 0 1 1 1 1 
107 20 93 1 1 1 1 1 1 1 1 1 1 0 1 1 0 1 1 1 1 1 1 
108 20 123 1 1 0 1 1 1 0 1 1 1 0 1 1 1 1 1 1 1 1 1 
109 20 92 1 1 1 1 1 1 1 1 1 0 1 0 1 1 0 1 1 1 1 1 
110 20 111 1 1 0 0 1 1 1 1 1 1 0 1 1 1 1 1 1 1 1 1 
111 20 102 1 1 1 1 1 0 1 1 1 1 1 1 1 0 1 1 0 0 1 1 
112 20 107 1 1 1 0 1 1 1 1 1 1 1 1 0 1 0 1 1 0 1 1 
113 20 91 0 1 1 1 1 1 1 0 1 0 1 1 1 0 1 1 1 1 1 1 
114 20 95 0 1 1 1 0 1 1 0 1 1 1 1 1 1 1 1 1 1 1 1 
115 20 114 1 1 1 1 1 1 1 1 1 1 1 0 0 1 1 1 0 1 1 1 
116 20 106 1 0 0 0 1 1 1 1 1 1 1 1 1 1 1 1 1 1 1 1 
117 20 92 1 1 1 1 1 1 1 0 1 1 0 1 1 1 1 1 1 1 1 0 
118 20 101 1 1 0 0 1 1 1 1 1 1 1 1 1 1 1 1 1 0 1 1 
119 20 99 0 1 0 1 1 1 1 1 1 1 1 1 0 1 1 1 1 1 1 1 
120 20 106 1 1 0 1 1 1 0 1 1 1 0 1 1 1 1 1 1 1 1 1 
121 20 115 1 1 1 0 1 0 1 1 1 1 1 0 1 1 1 1 1 1 1 1 
122 20 118 1 1 1 0 1 1 1 1 1 1 0 1 1 1 1 1 1 1 1 0 
123 20 113 1 1 1 0 1 1 1 1 1 1 1 1 1 1 0 1 0 1 1 1 
124 20 110 1 1 1 1 1 0 1 1 0 1 1 1 0 1 1 1 1 1 1 1 
125 20 76 1 1 1 0 1 1 1 1 0 1 1 1 1 1 1 0 1 1 1 1 
126 20 104 1 1 1 1 1 0 1 1 1 0 1 1 1 0 1 1 1 1 1 1 
127 20 101 0 1 1 1 0 1 1 1 1 1 1 1 1 1 1 1 1 0 1 1 
128 20 108 1 1 1 1 1 1 1 0 1 1 1 0 1 1 1 1 1 0 1 1 
129 20 97 1 0 1 0 1 1 1 1 1 0 1 1 1 1 1 1 1 1 1 1 
130 20 103 1 1 1 1 1 1 1 0 1 1 1 1 1 0 1 1 1 1 1 1 
131 20 116 1 0 1 1 1 1 1 0 1 1 1 1 1 1 1 1 1 0 1 1 
132 20 111 1 1 1 1 1 1 0 1 1 1 1 1 1 1 0 1 0 1 1 1 
133 20 100 1 1 1 0 1 1 0 1 1 1 1 0 1 1 1 1 1 0 1 1 
134 20 97 1 1 1 1 0 1 1 1 1 1 1 1 1 0 1 1 1 0 1 1 
135 20 77 0 0 1 1 1 1 1 0 1 1 1 1 1 1 1 1 1 1 1 1 
136 20 92 1 1 1 1 1 1 0 1 1 0 1 1 1 1 1 1 0 1 1 1 
137 20 119 1 1 1 0 1 1 1 1 1 1 0 1 0 1 1 1 1 1 1 1 
138 20 94 1 1 0 1 1 1 1 1 1 1 1 1 1 1 1 0 1 0 1 1 
139 20 99 1 1 1 1 1 1 1 1 1 0 1 1 1 1 1 1 1 0 1 0 
140 20 87 1 1 1 1 1 1 1 1 0 1 0 1 1 1 1 1 1 1 1 0 
141 20 97 0 1 1 1 1 1 1 1 1 1 1 1 1 1 1 0 1 1 0 1 
142 20 106 0 1 1 0 1 1 1 1 1 1 1 0 1 1 1 1 1 1 1 1 
143 20 109 1 1 1 1 1 1 1 0 1 1 1 1 0 1 1 1 1 1 1 0 
144 20 76 0 1 1 1 1 1 0 0 1 1 1 1 1 1 1 1 1 0 1 1 
145 20 100 0 1 1 1 1 1 0 1 1 1 1 1 0 1 1 1 1 1 1 0 
146 20 94 1 1 1 1 1 1 0 1 1 1 1 1 1 1 1 0 0 1 1 1 
147 20 96 1 1 1 1 1 1 0 1 0 0 1 1 1 1 1 1 1 1 1 1 
148 20 83 1 1 1 1 1 1 1 1 1 0 1 0 1 1 0 1 1 1 1 1 
149 20 103 1 1 1 1 1 1 1 0 1 0 1 1 1 0 1 1 1 1 0 1 
150 20 103 1 1 1 0 1 0 1 0 1 1 1 1 1 1 1 1 1 1 1 1 
151 20 101 1 1 0 1 1 1 1 1 1 1 1 1 1 0 1 1 0 1 1 1 
152 20 98 1 1 1 1 1 1 1 0 1 1 1 1 1 0 1 1 1 1 1 0 
153 20 96 1 1 1 1 1 1 1 0 1 1 0 1 1 1 1 1 1 0 0 1 
154 20 109 1 1 1 1 1 1 1 1 1 1 1 1 0 1 1 1 0 1 1 1 
155 20 86 1 1 1 1 1 1 1 1 1 1 1 1 1 0 0 1 1 0 1 1 
156 20 87 1 1 1 1 0 1 1 1 0 1 1 1 1 1 1 1 1 1 0 1 
157 20 84 1 1 0 0 1 1 1 0 0 1 1 1 1 1 1 1 1 1 1 1 
158 20 85 0 0 1 1 1 0 1 1 1 1 1 1 1 1 1 1 1 1 1 1 
159 20 110 1 1 1 1 1 1 0 0 0 1 1 1 1 1 1 1 1 1 1 1 
160 20 117 1 1 1 1 0 1 1 1 1 1 1 1 1 1 1 1 0 1 0 1 
161 20 107 1 1 1 1 1 0 1 1 1 1 1 1 0 1 1 1 1 1 0 1 
162 20 118 1 1 1 1 1 1 1 0 1 1 1 1 1 0 1 1 1 0 1 1 
163 20 124 1 1 1 1 1 1 0 1 1 0 1 1 1 1 0 1 1 1 1 1 
164 20 87 1 1 1 1 1 1 0 1 0 1 1 1 1 1 1 1 1 0 1 1 
165 20 100 1 1 1 0 0 1 1 1 1 1 1 1 1 1 1 1 1 1 1 1 
166 20 109 1 0 1 0 1 1 0 1 1 1 0 1 1 1 1 1 1 1 1 1 
167 20 92 1 1 0 1 1 1 1 1 1 1 1 1 1 0 1 0 1 1 1 1 
168 20 109 1 1 0 1 1 1 1 0 1 1 0 1 1 1 1 1 1 1 1 1 
169 20 109 1 0 1 1 1 0 1 1 1 1 1 1 1 1 1 1 1 1 0 1 
170 20 117 1 1 1 1 1 1 1 1 0 1 1 1 0 1 1 1 1 1 1 0 
171 20 124 0 1 0 1 1 1 1 1 1 1 1 1 1 0 1 1 1 1 1 1 
172 20 90 1 1 1 1 1 1 1 1 1 1 1 1 1 1 0 0 1 1 1 1 
173 20 84 1 1 1 1 0 1 1 1 1 1 1 1 1 0 0 1 1 0 1 1 
174 20 99 1 1 1 1 1 1 0 1 1 0 1 1 1 1 1 1 1 0 1 1 
175 20 93 1 0 1 1 1 1 1 1 1 1 1 1 1 1 1 1 0 1 1 1 
176 20 125 1 0 1 1 0 1 1 1 1 1 1 1 1 1 1 1 1 1 1 1 
177 20 109 0 1 1 0 1 1 1 1 1 0 1 1 1 1 1 1 1 1 1 1 
178 20 106 0 1 1 1 1 1 1 1 1 1 1 0 0 1 1 1 1 1 1 1 
179 20 109 1 1 1 1 1 1 0 0 1 1 1 1 1 1 1 1 1 1 1 1 
180 20 89 1 1 1 1 1 1 1 1 1 1 1 1 0 0 1 0 1 1 1 1 
181 20 93 1 1 1 0 0 1 1 1 1 0 1 1 1 1 1 1 1 1 1 1 
182 20 106 0 1 1 1 1 1 1 1 0 1 1 1 1 1 1 1 1 0 1 1 
183 20 97 1 1 0 1 1 1 1 1 1 1 1 1 1 1 1 0 1 1 0 0 
184 20 90 1 1 1 1 1 0 1 1 1 0 1 1 1 1 1 1 0 1 1 1 
185 20 92 1 1 1 0 1 1 1 0 1 1 1 1 1 1 1 1 1 1 0 1 
186 20 144 1 1 1 1 1 1 1 0 0 1 1 1 1 1 1 1 1 1 1 1 
187 20 105 1 1 1 1 1 0 0 1 1 1 1 1 1 1 0 1 1 1 1 1 
188 20 114 1 1 1 1 0 1 1 1 1 1 0 1 1 0 1 1 1 1 1 1 
189 20 82 1 1 1 1 1 1 1 1 1 1 0 1 1 1 0 1 1 1 0 1 
190 20 99 1 1 1 0 1 1 1 1 1 0 1 1 0 1 1 1 1 1 1 1 
191 20 102 1 1 0 1 1 1 1 1 1 1 1 1 0 1 1 1 1 1 0 1 
192 20 114 1 1 1 1 1 1 1 1 1 1 1 0 1 0 1 1 1 1 1 1 
193 20 103 1 1 1 1 1 1 0 1 1 0 1 1 1 1 1 1 1 1 1 0 
194 20 92 1 0 1 1 1 1 0 1 1 1 1 1 1 1 0 1 1 1 1 1 
195 20 91 1 1 0 1 1 1 1 1 1 1 1 1 1 1 1 0 1 0 1 1 
196 20 86 1 1 1 1 1 1 1 0 1 1 1 1 0 1 0 1 1 1 1 1 
197 20 102 0 0 1 1 1 1 1 1 1 1 1 0 1 1 1 1 1 1 1 1 
198 20 116 1 1 1 1 1 1 1 1 0 1 1 0 1 1 1 1 1 1 1 0 
199 20 109 0 0 1 1 1 1 1 1 1 1 1 1 1 1 0 1 1 1 1 1 
200 20 97 0 1 1 0 1 1 1 1 1 1 1 1 1 1 1 1 1 1 0 1 
201 20 93 1 1 1 1 1 1 0 1 1 1 1 1 1 1 0 1 1 1 0 1 
202 20 114 1 1 0 0 1 1 1 1 1 1 1 1 1 1 1 1 1 0 1 1 
203 20 107 1 1 1 1 1 1 1 0 0 1 1 1 0 1 1 1 1 1 1 1 
204 20 116 1 1 1 1 1 1 1 1 1 0 0 1 1 1 1 1 1 1 1 1 
205 20 113 1 1 1 1 1 1 1 1 1 1 1 0 0 1 1 1 0 1 1 1 
206 20 106 1 1 1 0 1 1 1 1 1 1 1 0 1 0 1 1 1 1 1 1 
207 20 105 1 1 1 1 1 1 1 1 1 0 1 1 1 1 0 1 1 1 1 0 
208 20 105 1 1 1 1 0 1 1 0 1 1 1 1 1 1 1 1 1 1 1 1 
209 20 97 0 1 1 1 1 1 0 1 1 1 0 1 1 1 1 1 1 1 1 1 
210 20 101 1 1 0 0 1 1 1 1 1 1 1 1 1 1 1 0 1 1 0 1 
211 20 104 1 1 1 1 1 1 0 1 1 1 1 0 1 1 1 1 1 0 1 1 
212 20 107 1 1 1 1 1 1 1 1 1 1 1 0 0 1 1 1 0 1 1 1 
213 20 114 1 1 1 1 1 1 1 0 1 1 1 1 1 1 1 0 1 1 1 0 
214 20 101 1 1 1 1 1 1 1 1 1 0 1 1 0 1 1 1 1 1 0 1 
215 20 106 1 1 1 0 0 1 1 0 1 1 1 0 1 1 1 1 1 1 1 1 
216 20 104 1 1 1 1 1 1 1 0 1 1 1 1 1 0 1 1 1 1 1 1 
217 20 113 0 1 1 1 1 1 1 0 1 1 1 1 1 1 1 1 1 1 1 1 
218 20 100 1 1 1 1 1 1 1 1 0 0 1 1 1 1 1 0 1 1 1 1 
219 20 83 1 1 1 1 0 1 1 1 1 1 1 1 1 0 1 1 1 0 1 1 
220 20 122 1 1 1 1 1 0 1 1 1 1 1 1 1 1 1 0 1 1 0 1 
221 20 114 1 1 1 0 1 1 1 1 1 1 1 1 0 1 1 1 1 1 1 1 
222 20 109 1 1 1 1 1 0 1 0 0 1 1 1 0 1 1 1 1 1 1 1 
223 20 137 1 1 1 1 1 1 1 1 1 1 1 1 1 1 1 0 0 1 0 1 
224 20 98 1 1 0 0 1 1 1 1 1 1 1 1 1 1 1 1 1 0 1 0 
225 20 114 1 1 1 1 1 1 1 1 0 1 1 1 1 1 0 1 1 0 1 1 
226 20 84 1 1 0 1 1 1 1 1 1 1 1 1 0 1 1 0 1 1 1 1 
227 20 96 1 0 1 1 1 1 1 1 0 1 1 1 1 1 0 1 1 1 1 1 
228 20 108 1 1 1 1 1 1 1 1 1 1 0 1 1 1 0 1 0 1 1 1 
229 20 97 1 1 1 1 1 1 0 1 1 0 1 1 1 1 1 1 0 1 1 1 
230 20 111 0 0 1 1 1 1 1 1 1 1 1 1 0 1 1 1 1 1 1 1 
231 20 109 1 1 1 0 1 0 1 1 1 1 1 1 1 1 1 1 1 1 1 0 
232 20 120 1 1 1 1 1 1 1 1 0 1 1 1 1 0 1 0 1 1 1 1 
233 20 98 1 1 1 1 1 1 1 1 0 0 1 1 1 1 1 1 1 1 1 0 
234 20 104 0 1 0 1 1 0 1 1 1 1 1 1 1 0 1 1 1 1 1 1 
235 20 110 0 1 1 1 0 1 0 1 1 1 1 1 1 1 1 1 1 1 1 1 
236 20 98 1 1 1 1 1 1 1 1 1 0 0 1 0 1 1 1 1 1 1 1 
237 20 94 0 1 0 1 1 1 1 0 1 1 1 1 1 1 1 1 1 1 1 1 
238 20 97 1 1 1 1 1 1 1 0 1 1 1 1 1 0 1 1 1 1 1 0 
239 20 100 1 1 1 1 1 1 1 1 1 1 0 1 1 0 1 1 1 1 0 1 
240 20 109 1 1 1 1 1 1 1 0 1 1 1 1 0 1 0 1 1 1 1 1 
241 20 81 1 1 1 1 1 1 1 1 1 1 0 1 1 0 1 1 0 1 1 1 
242 20 95 0 1 1 1 1 1 1 1 0 1 1 1 1 1 1 1 1 1 0 1 
243 20 91 0 1 1 1 1 1 1 1 1 1 1 0 1 1 0 1 1 1 1 1 
244 20 103 1 1 1 1 1 1 1 1 1 0 1 1 1 1 1 1 1 1 1 0 
245 20 112 1 1 1 1 1 1 0 1 1 1 0 1 1 1 1 0 1 1 1 1 
246 20 112 1 1 1 1 1 1 1 0 1 0 1 1 0 1 1 1 1 1 1 1 
247 20 103 1 1 0 0 1 1 1 1 0 1 1 1 1 1 0 1 1 1 1 1 
248 20 104 1 1 1 1 1 1 0 0 1 1 1 1 1 1 1 1 1 0 1 1 
249 20 117 1 1 1 1 1 1 1 1 1 1 0 1 1 1 1 1 1 1 1 0 
250 20 112 0 1 1 1 1 1 1 1 1 1 1 1 1 1 1 1 0 1 0 1 
251 20 119 1 1 1 1 1 1 1 1 0 1 1 1 1 1 1 1 1 1 0 1 
252 20 106 1 1 1 1 1 1 1 0 1 1 1 0 1 1 1 1 0 1 1 1 
253 20 114 1 1 1 1 1 1 1 1 0 1 1 0 1 1 0 1 1 1 1 1 
254 20 116 0 1 0 1 1 1 1 1 1 1 1 1 1 1 1 1 1 1 0 1 
255 20 111 0 1 1 0 1 1 1 1 1 0 1 1 1 1 1 1 1 1 1 1 
256 20 93 1 1 1 1 1 0 1 1 1 1 1 0 1 1 1 0 1 1 1 1 
257 20 89 1 0 1 1 1 1 1 1 1 1 0 1 1 1 0 1 1 1 1 1 
258 20 80 1 1 0 1 1 1 1 0 1 1 1 1 1 1 1 1 0 1 1 1 
259 20 105 1 1 1 1 1 1 1 1 1 0 1 1 1 0 1 1 1 0 1 1 
260 20 107 0 1 1 1 1 1 1 0 1 1 1 1 1 0 1 1 1 1 1 1 
261 20 101 1 1 1 0 1 1 1 1 1 1 1 1 1 0 1 1 1 1 1 0 
262 20 90 0 0 1 1 1 1 1 1 1 1 1 1 1 1 1 1 1 0 1 1 
263 20 105 1 0 1 1 1 1 1 1 1 0 1 1 1 1 0 1 1 1 1 1 
264 20 80 1 1 1 1 1 1 1 1 1 1 1 1 1 1 1 1 0 1 0 1 
265 20 119 1 1 1 0 1 0 1 1 1 1 1 1 1 0 0 1 1 1 1 1 
266 20 118 1 1 1 1 1 1 1 0 1 0 1 0 1 1 1 1 1 1 1 1 
267 20 103 1 1 1 1 1 1 1 1 1 0 1 1 1 1 0 1 1 1 1 1 
268 20 108 1 0 1 1 1 1 1 0 0 1 1 1 0 1 1 0 1 1 1 1 
269 20 93 1 0 1 1 1 1 1 1 1 1 1 1 0 1 1 0 1 1 1 1 
270 20 105 1 1 1 1 1 1 1 0 1 1 1 1 1 1 0 0 1 1 1 1 
271 20 119 1 1 1 1 1 1 1 0 1 1 0 1 1 0 1 1 1 1 1 0 
272 20 112 1 1 1 1 1 1 1 1 1 1 1 1 1 1 0 0 1 1 1 0 
273 20 100 1 0 1 1 1 1 1 0 1 1 0 1 1 0 1 1 1 1 1 1 
274 20 105 0 1 1 1 1 1 1 1 1 1 0 1 1 1 1 1 1 1 1 0 
275 20 121 1 0 1 1 1 1 1 1 1 1 1 1 0 1 1 1 1 1 1 1 
276 20 113 1 1 1 1 1 0 0 1 1 0 1 1 1 1 1 1 1 1 1 1 
277 20 111 0 1 1 1 1 0 1 1 1 0 1 1 1 1 1 1 1 0 1 1 
278 20 104 1 1 1 1 1 1 1 1 1 0 1 1 1 0 1 1 1 1 1 1 
279 20 117 1 1 1 1 1 1 1 1 0 0 1 1 0 1 1 1 1 1 1 1 
280 20 110 1 1 0 1 1 1 1 1 1 0 1 1 1 1 1 1 1 1 1 1 
281 20 97 1 1 0 1 1 1 1 1 1 1 1 1 1 0 1 1 1 0 1 1 
282 20 92 1 0 1 1 1 1 1 1 1 1 1 0 0 1 1 1 1 1 1 1 
283 20 93 1 1 0 1 1 1 1 1 1 1 1 1 1 1 1 0 1 1 0 1 
284 20 111 0 1 1 1 1 1 1 1 1 1 1 1 1 1 1 1 1 1 0 1 
285 20 120 1 1 1 1 1 1 0 1 1 1 1 1 1 1 0 1 0 0 1 1 
286 20 114 1 1 1 1 1 1 1 1 1 1 1 1 1 0 1 1 1 0 1 1 
287 20 129 1 1 1 1 1 1 1 1 1 1 0 0 1 1 1 1 1 1 1 1 
288 20 94 1 1 1 0 1 1 1 1 1 1 1 1 0 1 1 0 1 1 1 1 
289 20 94 1 1 1 1 1 0 1 1 1 1 1 1 1 0 1 1 1 0 1 1 
290 20 123 1 1 1 1 1 1 1 1 1 1 1 1 0 1 0 0 1 1 1 1 
291 20 86 1 1 1 1 1 1 1 0 1 0 1 1 1 1 1 1 1 1 0 0 
292 20 95 0 0 1 1 1 1 1 1 1 1 1 1 1 1 0 1 1 1 1 1 
293 20 108 1 1 1 1 1 1 1 1 0 0 1 0 1 1 1 1 1 1 1 1 
294 20 107 0 1 1 0 1 1 1 1 1 1 1 1 1 1 1 1 1 1 1 0 
295 20 110 1 1 1 1 1 0 1 1 1 1 1 0 1 1 1 1 0 1 1 1 
296 20 111 1 0 1 0 1 1 1 1 1 1 1 1 0 1 0 1 1 1 1 1 
297 20 108 1 1 1 1 0 1 1 1 1 1 1 0 1 1 0 1 1 1 1 1 
298 20 122 0 1 1 1 1 1 1 1 1 1 1 1 1 1 0 1 1 0 1 1 
299 20 100 1 1 1 1 1 1 1 1 1 0 1 0 1 1 1 0 1 1 1 1 
300 20 99 1 1 0 1 1 1 1 0 1 1 1 1 1 1 1 1 1 1 0 1 
301 20 111 0 0 1 1 1 1 1 1 1 1 1 1 1 1 1 1 1 1 1 1 
302 20 113 1 1 1 1 1 1 1 1 1 1 0 1 1 1 1 1 1 0 1 1 
303 20 105 1 0 1 1 1 1 1 1 1 1 1 1 0 0 1 1 1 1 1 1 
304 20 113 1 1 1 1 1 1 1 1 1 0 1 1 1 1 1 1 0 1 1 0 
305 20 113 1 1 1 1 0 1 0 1 1 1 1 1 0 1 1 1 1 1 1 1 
306 20 107 1 1 1 1 0 1 1 1 0 1 0 1 1 1 1 1 0 1 1 1 
307 20 101 0 1 1 1 1 1 1 0 1 1 1 1 1 0 1 1 1 1 1 1 
308 20 93 1 1 1 1 1 1 1 1 1 1 1 1 0 1 1 1 0 0 1 1 
309 20 89 1 0 0 1 1 0 1 1 1 1 1 1 1 1 1 1 1 1 1 1 
310 20 111 1 1 0 1 1 1 1 1 1 1 1 1 1 1 1 0 1 0 1 1 
311 20 85 1 1 1 1 1 0 1 0 1 1 1 1 1 1 0 1 1 0 1 1 
312 20 106 1 1 1 1 1 1 1 1 1 1 0 0 1 0 1 1 1 1 1 1 
313 20 94 1 1 1 1 1 1 1 1 1 1 1 1 1 0 1 1 1 0 1 0 
314 20 91 1 1 1 1 0 0 1 1 1 1 1 1 1 1 1 1 0 1 1 1 
315 20 104 1 1 1 0 1 1 1 0 1 1 1 1 1 0 1 1 1 1 1 1 
316 20 107 1 1 1 1 0 1 1 1 1 1 1 1 1 1 1 1 1 0 0 1 
317 20 101 1 0 1 1 1 1 1 0 0 1 1 1 1 1 1 1 1 1 1 1 
318 20 96 1 0 1 1 1 1 1 1 1 1 0 1 1 0 1 1 1 0 1 1 
319 20 89 1 1 1 1 1 1 1 1 1 0 1 1 1 1 1 0 0 1 1 1 
320 20 92 1 1 1 1 0 1 1 1 0 1 1 1 1 1 1 1 0 1 1 1 
321 20 102 1 1 1 1 1 0 1 1 1 1 1 1 1 1 1 0 1 0 1 1 
322 20 92 1 1 1 0 1 1 1 1 1 1 1 1 1 0 0 1 1 1 1 1 
323 20 112 1 1 1 1 1 1 1 1 1 1 1 1 0 1 0 1 0 1 1 1 
324 20 106 1 1 1 1 1 0 1 1 1 1 1 1 1 1 1 0 0 1 1 1 
325 20 84 1 1 1 1 1 1 1 1 0 0 1 1 0 1 1 1 1 1 0 1 
326 20 108 1 1 1 1 1 1 1 1 0 1 1 1 1 0 1 1 0 1 1 1 
327 20 112 1 0 1 1 1 1 1 1 1 1 1 1 1 0 1 1 0 1 1 1 
328 20 96 0 1 0 1 0 1 1 1 1 1 1 1 1 1 1 1 1 1 1 1 
329 20 87 1 1 1 0 1 1 1 1 1 0 1 0 1 1 1 1 1 1 1 1 
330 20 102 1 1 0 1 1 1 1 1 1 1 1 0 1 1 1 0 1 1 1 1 
331 20 93 0 1 1 0 1 1 1 1 0 1 1 1 1 1 1 1 1 1 1 1 
332 20 87 1 0 1 1 1 1 1 0 1 1 1 1 1 0 0 1 1 1 1 1 
333 20 97 1 1 0 0 1 1 1 1 1 0 1 1 1 1 0 1 1 1 1 1 
334 20 110 1 1 0 1 1 1 1 1 1 1 1 1 1 0 1 1 1 0 1 1 
335 20 106 1 0 1 1 1 1 1 1 0 1 1 1 1 1 0 1 1 1 1 1 
336 20 108 0 1 1 1 1 1 1 1 1 1 1 1 1 1 1 1 1 0 1 0 
337 20 100 1 0 1 1 0 1 1 1 1 1 1 1 1 1 1 1 1 1 1 0 
338 20 87 1 1 0 1 1 1 1 1 0 1 1 1 1 1 0 1 1 1 0 1 
339 20 107 0 1 1 1 1 1 1 1 1 1 1 1 1 0 1 1 0 1 1 1 
340 20 112 1 1 1 1 1 0 1 1 1 0 1 1 1 1 1 0 1 1 1 1 
341 20 117 0 1 0 1 1 1 1 1 1 1 1 1 1 1 1 1 1 1 0 1 
342 20 100 1 1 1 1 1 1 1 0 1 1 1 0 1 1 0 1 1 1 1 1 
343 20 117 1 1 0 1 1 1 1 1 1 1 1 1 1 1 0 1 1 1 1 0 
344 20 84 1 1 1 1 1 1 1 1 1 0 1 0 0 1 1 1 1 1 1 1 
345 20 86 1 1 1 1 0 1 1 1 0 1 0 1 1 1 1 1 1 1 1 1 
346 20 102 1 1 1 1 0 1 1 1 0 1 1 1 1 1 0 1 0 1 1 1 
347 20 81 1 1 0 1 1 1 1 1 1 1 1 1 1 1 1 1 1 0 0 1 
348 20 100 1 0 1 0 1 1 1 1 1 1 1 1 1 1 1 1 1 0 1 1 
349 20 105 1 1 1 0 1 1 1 1 1 1 0 1 1 1 1 1 1 1 1 0 
350 20 106 1 1 1 1 1 0 1 1 1 1 0 1 1 1 1 1 1 1 0 1 
351 20 103 1 1 1 1 0 1 1 1 1 0 1 1 1 1 1 0 1 1 1 1 
352 20 89 1 1 1 1 1 1 1 1 1 1 1 1 1 0 0 1 1 1 1 0 
353 20 99 1 1 1 1 1 1 1 1 1 1 0 1 1 1 1 1 1 0 0 1 
354 20 100 1 1 1 1 1 1 0 1 1 1 1 1 1 1 1 0 1 1 1 0 
355 20 103 1 1 1 0 1 1 1 1 1 1 1 1 1 1 1 1 0 1 1 0 
356 20 103 1 1 0 1 1 1 1 1 1 1 0 1 1 0 1 1 1 1 0 1 
357 20 102 1 1 1 1 1 0 0 1 1 1 1 1 1 1 1 1 1 1 0 1 
358 20 120 1 1 1 1 1 1 1 1 1 1 1 1 0 1 1 0 1 1 0 1 
359 20 122 1 1 1 0 1 1 1 1 1 0 1 1 1 1 1 1 1 0 1 1 
360 20 97 1 0 1 1 0 1 1 0 1 1 1 1 1 1 1 1 1 1 1 1 
361 20 90 0 1 1 1 1 1 0 1 1 1 1 1 1 1 1 1 1 1 0 1 
362 20 103 1 1 1 1 1 1 1 1 1 1 0 1 1 1 1 1 1 1 0 0 
363 20 122 1 1 1 1 0 0 1 0 1 1 1 1 1 1 1 1 1 1 1 1 
364 20 85 1 1 1 1 1 1 1 1 1 0 1 1 1 1 1 0 1 1 1 0 
365 20 103 1 1 1 1 1 1 1 1 1 1 0 0 1 1 1 1 0 1 1 1 
366 20 110 1 1 1 1 1 1 1 1 1 1 0 1 1 0 1 1 1 0 1 1 
367 20 99 1 0 1 1 1 1 1 1 1 0 1 1 1 1 1 0 1 1 1 1 
368 20 94 0 1 1 1 1 1 1 1 1 1 0 1 1 1 1 1 0 1 0 1 
369 20 102 0 1 1 1 1 1 0 0 1 1 1 0 1 1 1 1 1 1 1 1 
370 20 86 1 1 1 1 1 0 0 1 1 1 1 1 1 1 1 1 1 0 0 1 
371 20 107 1 1 1 1 1 1 1 1 0 1 1 1 1 1 1 0 1 1 0 1 
372 20 108 1 1 1 1 1 1 1 1 1 1 0 0 1 1 1 1 0 1 1 1 
373 20 109 1 1 1 1 1 1 1 1 1 0 1 1 0 1 1 1 1 1 1 1 
374 20 110 1 1 1 1 1 1 1 1 0 1 1 1 1 1 0 0 1 1 1 1 
375 20 107 1 1 1 1 1 0 1 1 1 0 1 1 1 1 1 1 1 1 1 0 
376 20 106 1 1 1 1 1 1 1 1 1 1 0 0 1 1 1 1 1 0 1 1 
377 20 120 1 0 0 1 1 1 0 1 1 1 1 1 1 1 1 1 1 1 1 1 
378 20 107 1 0 0 1 0 1 1 1 1 1 1 1 1 1 1 1 1 1 1 1 
379 20 93 1 1 0 1 1 0 1 1 1 1 1 1 1 1 1 1 1 1 1 0 
380 20 95 1 1 1 1 1 1 0 1 1 0 1 1 1 1 1 0 1 1 1 1 
381 20 101 1 1 1 1 1 1 1 1 1 1 1 0 1 0 1 0 1 1 1 1 
382 20 111 1 0 1 1 1 1 1 1 1 1 0 1 1 0 1 1 1 1 1 1 
383 20 77 1 1 1 1 1 1 1 0 1 1 1 1 1 0 1 1 1 0 1 1 
384 20 96 1 0 1 0 0 1 1 1 1 1 1 1 1 1 1 1 1 1 1 1 
385 20 101 1 1 0 1 1 1 1 0 1 0 1 1 1 1 1 1 1 1 1 1 
386 20 99 1 1 1 1 0 1 1 1 1 0 1 1 1 1 1 1 1 1 1 0 
387 20 111 1 1 1 1 1 1 1 0 1 1 1 1 1 0 1 1 1 1 0 1 
388 20 112 0 0 1 1 1 1 1 1 1 1 0 1 1 1 1 1 1 1 1 1 
389 20 105 1 1 1 1 0 1 1 1 1 1 1 1 0 1 1 0 1 1 1 1 
390 20 115 1 1 1 1 1 1 0 1 1 1 1 1 0 1 1 1 0 1 1 1 
391 20 84 1 1 1 1 1 0 0 1 1 1 1 1 1 1 1 1 1 1 0 1 
392 20 126 1 1 1 1 0 1 1 1 0 1 1 1 1 1 1 0 1 1 1 0 
393 20 116 0 1 1 1 1 1 1 1 0 0 1 1 1 1 1 1 1 1 1 1 
394 20 112 1 1 1 0 1 1 0 1 1 0 1 1 1 1 1 0 1 1 1 1 
395 20 108 1 1 1 1 0 1 1 1 1 1 1 1 1 1 1 1 1 0 1 0 
396 20 113 1 1 1 1 1 1 0 1 1 1 1 1 1 1 0 1 1 1 1 1 
397 20 116 1 1 1 0 0 1 1 1 1 1 1 1 1 1 1 1 0 1 1 1 
398 20 102 1 1 1 1 1 1 1 1 0 1 1 1 1 1 1 1 1 1 1 0 
399 20 95 1 1 1 0 1 1 1 1 1 1 1 1 1 1 0 0 1 1 1 1 
400 20 101 1 1 1 1 1 0 1 0 1 1 1 1 1 1 1 1 0 1 1 1 
401 20 118 1 1 1 1 1 0 1 1 1 1 1 1 0 1 1 1 1 1 1 1 
402 20 101 0 1 0 1 1 1 1 1 1 1 1 1 1 1 1 1 1 1 1 0 
403 20 116 1 0 1 1 1 1 1 1 1 1 0 1 1 1 1 1 1 1 1 1 
404 20 134 0 1 1 1 1 1 1 1 1 1 1 1 1 1 1 1 0 1 1 0 
405 20 116 0 1 1 1 1 1 1 1 1 1 1 1 1 1 1 0 1 1 1 1 
406 20 108 0 1 1 1 1 1 1 1 1 0 1 1 1 0 1 1 1 1 1 1 
407 20 96 1 1 1 1 1 1 1 0 1 1 1 1 1 0 1 0 1 1 0 1 
408 20 93 1 1 1 1 1 0 1 1 1 1 1 1 1 1 1 1 0 1 1 0 
409 20 92 1 1 1 0 1 1 1 1 1 1 1 1 1 0 1 1 1 1 1 0 
410 20 98 1 1 1 1 1 0 1 1 1 1 1 0 1 1 0 1 1 1 1 1 
411 20 112 1 0 1 1 1 1 0 1 1 1 1 1 1 1 1 1 1 1 1 1 
412 20 107 1 1 1 1 1 0 0 1 1 1 1 1 1 1 1 1 1 1 0 1 
413 20 89 1 1 0 1 0 1 1 1 1 0 1 1 1 1 1 1 0 1 0 1 
414 20 110 1 0 1 1 1 1 1 0 1 1 1 1 1 1 1 1 1 1 1 0 
415 20 100 1 1 0 1 1 0 0 1 1 1 1 1 1 1 1 1 1 1 1 1 
416 20 91 1 1 1 1 1 0 1 1 0 1 1 1 1 0 1 1 1 1 1 1 
417 20 99 1 1 1 1 1 1 0 1 1 1 1 1 1 1 1 0 1 1 1 1 
418 20 90 1 1 1 1 1 0 1 1 1 0 0 1 1 1 1 1 1 1 1 1 
419 20 103 1 1 0 1 0 1 1 1 1 1 1 1 1 0 1 1 1 1 1 1 
420 20 112 1 1 1 0 1 1 1 1 1 1 1 1 0 1 1 1 1 1 0 1 
421 20 90 1 1 1 1 1 1 1 0 1 1 1 1 1 1 1 1 0 1 0 1 
422 20 99 0 1 1 0 1 1 1 1 0 1 1 1 1 1 1 1 1 1 1 1 
423 20 94 1 1 1 1 0 1 1 1 1 1 1 1 1 1 1 1 1 0 1 1 
424 20 103 1 1 1 1 1 1 0 1 1 1 1 1 1 0 1 0 1 1 1 0 
425 20 83 1 1 1 1 1 1 1 1 1 1 1 1 1 1 1 0 1 1 0 1 
426 20 94 1 1 1 1 1 1 0 1 0 1 1 1 1 1 1 1 1 1 1 0 
427 20 115 1 1 1 1 1 0 1 1 1 1 0 1 1 1 1 1 0 1 1 1 
428 20 112 1 1 0 1 1 1 1 1 1 1 1 1 0 1 1 1 0 1 1 1 
429 20 100 1 1 0 1 1 1 1 1 1 0 0 1 1 1 1 1 1 1 1 1 
430 20 119 0 1 1 1 1 1 1 1 1 0 1 1 1 1 1 0 1 1 1 1 
431 20 101 1 1 1 1 1 1 1 1 1 1 0 1 1 1 1 1 0 0 1 1 
432 20 108 1 1 1 1 1 1 1 1 1 1 1 1 0 1 1 1 0 1 1 0 
433 20 125 1 1 1 1 1 0 1 1 1 0 1 1 1 1 0 1 1 1 1 1 
434 20 117 1 1 1 0 1 1 1 1 0 1 1 1 1 1 1 0 0 1 1 1 
435 20 94 1 1 1 1 1 1 1 1 1 1 1 1 1 0 0 1 1 1 1 1 
436 20 104 1 1 1 0 0 0 1 1 1 1 1 1 1 1 1 1 1 1 1 1 
437 20 98 1 1 1 1 1 1 0 1 1 1 1 0 1 1 0 1 1 1 0 1 
438 20 110 1 1 1 1 1 1 1 0 1 1 0 1 1 1 1 1 1 1 1 1 
439 20 97 1 1 1 1 1 1 1 0 1 0 1 1 1 1 0 1 1 1 1 1 
440 20 109 1 1 1 1 1 1 1 0 1 1 0 1 0 1 1 1 1 1 1 1 
441 20 96 1 1 1 1 0 1 1 1 1 1 1 0 1 0 1 1 1 1 1 1 
442 20 93 1 1 1 1 1 1 1 1 1 0 1 0 0 1 1 1 1 1 1 0 
443 20 102 1 0 1 1 1 1 1 1 1 1 1 1 1 1 1 1 1 0 1 0 
444 20 82 1 1 1 1 1 1 1 1 1 1 0 1 1 1 1 1 1 0 0 1 
445 20 95 1 0 1 1 0 1 1 0 1 0 1 1 1 1 1 1 1 1 1 1 
446 20 101 1 1 1 1 1 0 1 1 1 1 1 1 0 1 1 0 1 1 1 1 
447 20 127 0 0 1 1 1 1 1 1 0 1 1 1 1 1 1 1 1 1 1 1 
448 20 115 1 1 1 1 1 1 1 0 0 0 1 1 1 1 1 0 1 1 1 1 
449 20 98 1 1 1 1 1 1 1 1 1 1 1 0 1 1 1 1 1 0 1 0 
450 20 96 1 0 1 1 1 1 1 0 1 1 1 1 1 0 1 1 1 1 1 1 
451 20 99 1 1 0 1 1 1 1 0 1 1 1 1 1 1 1 1 0 1 1 1 
452 20 123 1 1 1 0 1 1 1 1 1 0 1 1 1 1 1 1 1 0 1 1 
453 20 117 1 0 1 1 1 0 1 1 1 1 1 1 1 1 1 0 1 1 1 1 
454 20 96 1 1 1 1 1 0 1 1 1 1 1 0 1 1 1 1 0 1 1 1 
455 20 121 1 1 1 1 1 0 0 1 1 1 1 1 1 1 1 1 1 1 1 1 
456 20 111 1 1 1 1 1 1 0 1 1 1 1 0 1 1 1 1 0 1 1 1 
457 20 112 1 0 1 1 1 1 1 1 1 1 1 1 1 1 1 1 1 1 0 0 
458 20 105 1 1 1 1 1 1 1 1 1 1 1 1 0 1 1 1 0 1 1 0 
459 20 102 0 1 1 1 1 1 0 1 1 1 1 1 1 1 1 1 1 1 0 1 
460 20 91 1 0 1 0 1 1 1 1 1 1 1 1 1 1 1 1 1 1 1 1 
461 20 95 0 1 1 0 1 1 0 1 1 1 1 1 1 1 1 1 1 1 1 1 
462 20 98 1 1 1 1 1 1 1 1 0 1 0 0 1 1 1 1 1 1 1 1 
463 20 120 1 1 0 1 1 1 1 1 1 1 1 1 1 0 1 1 1 1 1 1 
464 20 125 1 1 1 1 1 1 1 1 0 0 0 1 1 1 1 1 1 1 1 1 
465 20 124 1 1 1 1 1 1 0 1 1 1 1 1 1 1 1 0 1 1 0 1 
466 20 92 1 1 1 1 1 1 1 1 1 1 1 1 0 1 1 1 1 1 0 1 
467 20 111 1 1 1 1 1 0 1 1 1 1 1 1 1 0 1 1 0 1 1 1 
468 20 102 1 1 1 1 1 1 1 1 1 1 0 1 0 1 1 1 0 1 1 1 
469 20 113 1 1 1 1 1 1 1 1 0 1 1 1 0 1 1 1 1 1 1 1 
470 20 108 1 1 0 1 1 0 1 1 1 1 1 1 1 1 0 1 1 1 1 1 
471 20 106 1 1 1 1 1 1 1 1 1 1 1 1 0 1 1 0 1 0 1 1 
472 20 99 1 1 1 0 0 1 1 1 1 1 1 1 0 1 1 1 1 1 0 1 
473 20 104 1 1 1 1 1 0 1 1 1 1 0 1 1 1 1 1 1 1 0 1 
474 20 101 1 1 1 1 1 0 1 1 1 1 1 1 1 1 1 1 1 1 0 0 
475 20 112 1 1 0 1 1 1 1 1 1 1 1 1 1 1 1 0 1 1 1 0 
476 20 93 1 1 1 1 1 1 0 1 0 1 1 1 1 1 1 1 1 0 1 1 
477 20 102 1 0 1 1 1 1 0 1 1 1 1 1 1 1 0 1 1 1 1 1 
478 20 107 1 1 1 1 1 1 1 1 1 1 1 0 0 0 1 1 1 1 1 1 
479 20 104 0 1 1 1 1 1 1 1 1 1 1 1 1 1 1 1 0 0 1 1 
480 20 118 1 1 1 1 1 0 1 1 1 1 0 1 0 1 1 1 1 0 1 1 
481 20 93 1 1 1 1 1 1 0 1 1 1 1 1 1 0 0 1 1 1 1 1 
482 20 102 0 1 1 1 1 1 1 1 1 0 1 1 1 1 1 1 1 0 1 1 
483 20 108 0 1 1 1 1 1 1 0 1 1 1 0 1 1 1 1 1 1 1 0 
484 20 103 1 1 1 0 0 1 1 1 1 1 1 1 0 1 1 1 1 1 1 1 
485 20 120 1 1 1 1 0 1 1 1 0 1 1 1 1 1 1 1 1 1 1 0 
486 20 94 1 0 1 0 1 1 1 1 1 1 1 1 1 1 1 1 0 1 1 0 
487 20 90 1 0 1 1 1 0 1 1 1 1 1 1 1 1 1 1 1 1 1 0 
488 20 89 1 0 1 1 1 1 1 1 1 1 1 0 0 1 1 1 1 1 1 1 
489 20 101 1 1 1 1 1 1 1 1 1 1 1 0 1 1 0 1 1 1 0 1 
490 20 102 1 1 1 1 1 1 1 0 0 1 1 1 1 1 1 1 0 1 1 1 
491 20 97 1 1 1 1 1 1 1 0 1 0 1 0 1 1 1 1 1 1 1 1 
492 20 100 1 1 1 1 1 1 0 1 1 1 1 1 1 0 1 1 1 1 1 0 
493 20 110 1 0 1 1 1 1 0 1 1 1 1 1 1 1 1 1 1 1 1 0 
494 20 121 1 1 1 1 1 1 1 1 1 1 1 0 1 0 1 1 1 1 0 1 
495 20 93 1 1 1 1 1 0 0 1 1 1 1 1 1 1 1 1 0 1 1 1 
496 20 108 0 1 1 1 1 1 1 1 1 0 1 1 1 1 1 1 0 1 1 1 
497 20 119 0 1 1 1 1 0 0 1 1 1 1 1 0 1 1 1 1 1 1 1 
498 20 99 1 1 0 1 1 1 1 0 1 1 0 1 1 1 1 0 1 1 0 1 
499 20 109 1 1 1 1 1 0 1 1 1 1 1 0 1 1 0 0 1 1 1 1 
500 20 112 1 1 1 1 1 1 1 0 1 1 1 0 1 1 1 1 1 0 1 0 
