244
402
350
369
497
369
434
272
256
250
178
152
292
266
365
186
186
186
189
251
339
160
304
220
182
230
226
202
218
194
198
215
221
220
255
202
233
219
187
204
278
213
238
161
303
160
192
204
198
177
215
219
304
227
190
194
163
237
326
232
172
244
269
192
298
168
196
305
186
197
196
201
196
156
238
228
166
246
185
177
280
226
159
302
194
192
293
220
171
148
215
215
211
287
160
204
214
221
230
192
214
191
182
172
246
326
172
308
161
279
204
206
169
174
217
195
169
180
203
196
213
221
266
222
138
184
244
368
230
201
307
213
191
170
132
171
251
186
182
167
181
186
206
133
187
185
173
142
362
183
184
180
253
322
216
226
216
207
427
313
207
232
235
152
186
195
173
194
205
233
425
169
155
180
185
249
283
202
196
157
170
188
188
174
166
292
198
214
153
183
192
242
259
172
166
161
189
275
238
184
165
221
207
222
206
190
191
191
177
182
188
202
213
277
251
202
285
183
156
319
240
211
299
189
224
146
178
208
181
204
198
217
170
197
198
261
160
173
188
203
147
174
159
198
279
208
257
215
228
217
218
188
207
209
214
179
189
204
207
275
194
154
205
154
303
222
202
221
165
268
278
217
179
195
297
213
206
186
332
257
179
171
175
265
230
206
277
177
162
308
173
226
227
197
214
214
194
233
184
193
302
271
186
216
220
214
176
176
168
192
160
191
178
172
195
190
199
177
157
168
197
191
366
212
166
204
201
168
155
189
165
157
170
205
200
197
176
164
192
199
228
188
303
249
156
194
145
188
208
198
188
162
186
192
184
185
184
339
291
176
161
203
247
219
193
350
212
174
185
154
206
209
206
213
199
202
294
187
169
181
188
209
138
171
182
188
251
329
215
236
158
345
303
223
215
213
216
186
173
198
228
177
213
299
219
204
183
173
247
193
269
191
195
210
186
163
183
152
188
214
163
183
170
203
151
171
207
207
181
293
273
207
327
294
174
186
188
318
236
199
189
174
190
154
163
182
274
290
189
168
180
334
335
184
216
211
218
210
188
168
333
278
336
556
452
261
347
305
308
305
327
254
196
290
291
173
180
193
187
330
184
201
194
195
220
180
167
155
181
190
184
218
197
324
168
383
307
202
222
233
