1 20 212 1 1 0 1 1 1 0 1 1 1 1 1 1 1 1 1 1 0 1 1 
2 20 284 1 1 1 1 1 0 1 0 1 1 1 1 1 1 0 1 1 1 1 1 
3 20 280 1 1 1 0 1 1 1 1 0 1 1 1 0 1 1 1 1 1 1 1 
4 20 261 1 1 1 1 1 1 1 1 0 0 1 1 1 1 0 1 1 0 1 1 
5 20 314 1 1 1 1 0 1 1 1 1 1 0 1 1 1 1 1 0 1 1 1 
6 20 287 1 1 0 1 1 1 1 1 1 1 1 1 0 1 1 1 1 1 1 0 
7 20 264 1 1 0 1 1 1 1 1 1 1 0 1 1 1 1 1 0 1 1 1 
8 20 228 1 0 1 1 1 1 1 1 1 1 0 1 1 0 1 1 1 1 1 1 
9 20 241 1 1 1 0 1 1 1 0 1 1 1 0 1 1 1 1 1 1 1 1 
10 20 218 1 1 1 1 1 0 1 1 1 1 1 1 1 0 1 0 1 1 1 1 
11 20 222 1 1 1 1 1 1 1 0 0 1 1 1 1 1 1 1 1 1 0 1 
12 20 200 1 1 0 1 1 1 0 1 1 1 0 1 1 1 1 1 0 1 1 1 
13 20 245 1 1 0 1 1 1 1 1 1 0 1 1 1 1 0 1 0 1 1 1 
14 20 215 1 1 1 1 1 1 1 0 1 1 0 1 1 1 0 1 0 1 1 1 
15 20 309 1 1 1 1 1 0 0 1 1 1 1 1 1 1 1 1 1 0 1 1 
16 20 240 1 1 0 1 1 0 1 1 1 1 1 1 1 0 1 1 1 1 1 1 
17 20 240 1 1 1 0 0 1 1 1 1 1 1 1 1 1 1 1 1 0 1 1 
18 20 247 1 1 1 1 1 0 1 1 1 1 1 1 0 0 1 1 1 0 1 1 
19 20 242 1 1 1 1 1 1 1 1 0 1 1 1 1 1 0 1 0 1 1 1 
20 20 247 1 0 1 1 1 0 1 1 1 1 1 1 1 1 1 1 1 1 1 1 
21 20 268 1 1 0 1 1 1 0 1 1 1 1 0 1 1 0 1 1 1 1 1 
22 20 205 1 0 1 1 1 1 1 1 1 1 1 0 1 0 1 0 1 1 1 1 
23 20 295 1 1 1 0 1 1 1 1 1 1 1 1 1 1 1 1 1 0 1 1 
24 20 275 1 1 1 1 0 1 1 1 1 1 1 1 1 1 0 1 0 1 1 1 
25 20 229 1 1 0 0 1 1 1 1 1 1 1 1 0 1 1 1 1 1 1 1 
26 20 296 1 0 1 1 1 1 1 1 1 1 1 1 1 1 1 1 0 1 1 0 
27 20 290 1 1 1 0 1 1 1 1 1 1 1 0 1 1 1 0 1 1 1 1 
28 20 244 1 1 0 1 1 1 1 1 1 1 1 1 1 1 0 1 1 1 0 1 
29 20 278 1 0 1 1 0 1 1 1 1 1 1 1 1 1 0 1 1 1 1 1 
30 20 246 1 1 0 1 1 1 1 1 1 1 1 1 1 1 0 1 0 1 1 1 
31 20 243 0 1 1 1 1 1 1 1 1 1 1 1 1 1 1 1 0 1 0 1 
32 20 262 1 1 1 0 1 1 1 1 1 1 1 1 1 1 1 0 0 0 1 1 
33 20 271 1 1 1 1 1 0 0 1 0 1 1 1 1 1 1 1 1 1 1 1 
34 20 267 0 1 1 1 0 1 1 0 1 1 1 1 1 1 1 1 1 0 1 1 
35 20 267 0 1 1 1 1 1 1 1 1 1 1 1 0 1 1 1 0 1 1 1 
36 20 237 1 0 1 1 1 1 0 1 1 1 1 1 1 1 1 1 0 1 1 1 
37 20 252 1 1 1 1 1 0 1 1 0 1 1 1 0 1 0 1 1 1 1 1 
38 20 217 1 1 0 1 1 1 1 1 1 1 0 1 1 1 0 1 1 1 0 1 
39 20 241 1 1 0 1 1 1 1 1 1 1 1 1 1 1 1 1 0 1 1 1 
40 20 267 1 1 1 1 1 1 1 0 1 1 0 1 1 1 1 1 1 1 0 1 
41 20 224 1 1 1 1 1 1 1 1 1 1 0 1 0 1 1 1 1 1 0 1 
42 20 224 1 0 1 1 1 1 1 1 1 1 1 1 1 1 0 1 0 1 1 1 
43 20 210 0 1 1 1 1 1 1 1 1 1 0 0 1 1 1 1 0 1 1 1 
44 20 197 1 1 1 1 1 0 1 1 0 1 1 1 1 1 1 0 0 1 1 1 
45 20 264 1 0 1 0 1 1 0 1 1 1 1 1 1 1 1 1 1 1 1 1 
46 20 215 0 0 1 1 1 1 1 1 0 1 1 1 1 1 1 1 0 1 1 1 
47 20 214 1 1 1 1 0 1 1 1 1 1 1 1 1 0 1 1 1 1 0 1 
48 20 253 1 1 1 1 1 1 1 1 1 1 1 1 1 0 0 1 0 1 1 1 
49 20 245 1 0 1 1 1 1 1 1 1 0 1 1 1 0 0 1 1 1 1 1 
50 20 223 1 0 1 1 1 1 1 1 1 1 1 1 0 1 0 1 1 1 1 1 
51 20 272 1 1 0 1 1 1 1 1 0 1 1 1 1 1 1 1 0 1 1 1 
52 20 266 1 1 1 1 1 1 1 1 0 1 1 1 1 1 0 0 1 1 1 1 
53 20 285 1 1 1 1 1 1 1 1 1 1 0 0 1 0 1 1 1 1 1 1 
54 20 270 1 1 1 1 1 1 1 1 1 1 1 1 0 0 1 0 1 1 1 1 
55 20 234 1 1 0 1 1 1 1 1 1 1 0 0 1 1 1 1 1 1 1 1 
56 20 182 1 0 1 1 1 1 1 1 1 1 1 0 1 0 1 1 1 1 1 1 
57 20 209 1 1 1 1 1 1 0 1 0 1 0 1 1 1 1 1 1 1 1 1 
58 20 298 1 1 1 1 0 1 1 1 1 1 1 1 0 1 1 1 0 1 1 1 
59 20 254 1 1 1 0 1 1 1 1 1 1 0 1 1 1 1 1 1 0 1 1 
60 20 254 1 1 1 1 1 0 1 0 1 1 1 1 1 1 1 0 0 1 1 1 
61 20 224 1 0 1 0 0 1 1 1 1 1 1 1 1 1 0 1 1 1 1 1 
62 20 258 1 1 1 1 1 1 1 1 1 0 1 0 1 1 1 1 1 1 0 1 
63 20 242 1 1 1 0 1 1 1 0 1 1 1 1 1 1 0 1 1 1 1 1 
64 20 242 1 1 1 1 1 0 1 1 1 1 0 1 1 1 1 1 1 0 1 1 
65 20 257 1 1 1 1 1 1 0 0 1 1 1 1 1 1 1 1 0 1 1 1 
66 20 206 1 1 1 1 1 1 1 1 1 1 1 0 1 0 1 1 1 1 1 0 
67 20 256 0 1 1 1 1 1 0 1 1 1 1 1 1 1 1 1 1 1 1 0 
68 20 297 1 1 1 1 0 1 1 1 1 0 1 0 1 1 1 1 1 1 1 1 
69 20 240 1 1 1 1 1 1 1 1 1 1 1 0 1 0 0 1 1 1 1 1 
70 20 259 0 1 1 1 1 1 1 1 1 0 1 1 0 1 1 1 1 1 1 1 
71 20 248 1 1 1 1 1 1 1 1 1 1 1 0 1 0 1 0 1 1 1 1 
72 20 260 1 1 0 1 1 1 1 1 1 1 1 0 1 1 0 1 1 1 1 1 
73 20 257 1 0 1 1 1 1 0 1 1 1 1 1 1 0 1 0 1 1 1 1 
74 20 206 1 1 1 0 1 1 1 1 0 1 1 1 1 1 1 1 1 1 0 1 
75 20 289 1 1 1 1 1 1 1 1 1 1 1 1 1 0 1 1 0 1 1 0 
76 20 286 1 1 1 1 1 1 0 0 1 1 1 1 1 1 1 0 1 1 1 1 
77 20 215 0 1 1 1 1 1 1 0 1 1 1 0 1 1 1 0 1 1 0 1 
78 20 293 1 1 1 1 1 0 1 1 1 1 1 1 0 1 1 1 0 1 1 1 
79 20 221 1 1 1 1 1 0 1 1 1 1 1 1 1 1 0 1 1 1 1 0 
80 20 221 1 1 1 1 0 0 1 1 1 1 1 1 1 1 0 1 1 1 1 1 
81 20 229 1 1 0 1 1 1 1 1 1 0 1 0 1 1 1 1 1 1 1 1 
82 20 285 1 1 0 1 1 1 1 1 1 1 1 1 1 1 1 1 0 1 0 1 
83 20 214 1 1 1 1 0 1 1 1 1 1 1 0 1 1 1 1 1 1 1 1 
84 20 262 1 1 1 1 0 1 1 1 1 0 1 1 1 1 1 1 1 0 1 1 
85 20 243 1 1 0 1 1 1 1 1 0 1 1 1 0 1 1 1 1 0 1 1 
86 20 252 0 1 1 1 1 1 1 1 1 1 0 1 1 1 1 1 1 0 0 1 
87 20 286 1 1 1 1 1 0 1 1 0 1 1 1 1 1 1 1 0 1 0 1 
88 20 270 0 1 1 1 1 1 1 1 0 1 1 1 1 1 0 1 1 1 0 1 
89 20 231 1 1 1 0 1 1 0 1 0 1 1 1 1 1 1 1 1 1 1 1 
90 20 187 1 1 1 1 1 1 1 1 1 1 1 1 1 1 0 1 1 0 1 1 
91 20 274 0 1 1 1 1 0 0 1 1 1 1 1 1 0 1 1 1 1 1 0 
92 20 275 1 0 1 1 1 1 0 1 1 1 1 1 0 1 1 1 1 1 1 1 
93 20 274 1 1 1 1 1 1 1 1 0 1 1 1 1 1 1 1 1 0 1 0 
94 20 299 1 1 1 0 1 1 1 1 0 1 1 1 1 1 1 1 0 1 1 1 
95 20 205 1 1 1 1 1 1 1 1 1 1 1 0 1 1 1 1 1 1 0 0 
96 20 258 1 1 1 0 0 1 1 1 1 1 0 1 1 1 1 1 1 1 1 1 
97 20 272 1 0 1 1 1 1 1 1 1 1 0 1 1 1 1 1 1 1 0 1 
98 20 289 1 1 1 0 1 1 1 1 1 1 1 1 1 1 1 0 1 1 1 1 
99 20 284 1 1 1 1 1 1 1 1 1 1 1 1 1 1 0 1 1 0 1 0 
100 20 248 1 1 1 1 1 1 1 1 1 1 1 1 0 0 1 1 1 1 0 1 
101 20 270 1 1 1 1 1 1 0 1 1 1 1 1 1 1 1 1 1 0 0 1 
102 20 238 1 1 1 1 0 1 1 0 1 0 1 1 1 1 1 1 1 1 1 1 
103 20 236 1 1 1 1 0 1 1 1 1 0 1 1 1 1 1 1 1 1 1 0 
104 20 222 0 1 1 1 1 1 1 1 1 1 1 1 1 1 0 1 0 1 1 1 
105 20 252 1 1 1 1 1 0 1 1 1 0 1 1 1 1 1 1 1 1 1 0 
106 20 218 1 1 0 1 1 1 1 1 0 1 1 1 1 1 1 0 1 1 1 1 
107 20 217 1 1 1 1 1 1 1 1 1 1 0 1 1 0 1 1 1 1 1 1 
108 20 296 1 1 1 1 1 1 0 1 1 1 0 0 0 1 1 1 1 1 1 1 
109 20 213 1 0 1 1 1 1 1 0 1 1 1 0 1 1 0 1 1 1 1 1 
110 20 266 1 1 0 0 1 1 1 1 1 1 0 1 1 1 1 1 1 1 1 1 
111 20 245 1 1 1 1 1 0 1 1 1 1 1 1 1 0 1 1 0 0 1 1 
112 20 259 1 1 1 0 1 1 1 1 0 1 1 1 0 1 0 1 1 1 1 1 
113 20 215 1 1 1 1 1 1 1 0 1 0 1 1 1 0 0 1 1 1 1 1 
114 20 227 1 0 1 1 0 1 1 0 1 1 1 1 1 1 1 1 1 1 1 1 
115 20 274 1 1 1 1 1 1 1 1 1 1 1 0 0 1 1 1 0 1 1 1 
116 20 249 1 0 0 0 1 1 1 1 1 1 1 1 1 1 1 1 1 1 1 1 
117 20 222 1 1 1 1 1 1 1 0 1 1 0 1 1 1 1 1 1 1 1 0 
118 20 241 1 1 1 0 1 1 1 0 1 1 1 1 1 1 1 1 1 0 1 1 
119 20 240 0 1 0 1 1 1 1 1 1 1 1 1 1 1 1 1 1 1 0 1 
120 20 251 1 1 0 1 1 1 1 1 1 1 1 1 1 1 0 1 1 1 1 0 
121 20 282 1 1 1 0 1 1 1 1 1 1 1 0 1 1 1 1 0 1 1 1 
122 20 283 1 1 1 0 1 1 1 1 1 1 0 1 1 1 1 1 1 1 1 0 
123 20 279 1 1 1 0 1 1 1 1 1 0 1 1 1 1 1 1 0 1 1 1 
124 20 261 1 1 1 1 0 0 1 1 1 1 1 1 0 0 1 1 1 1 1 1 
125 20 178 1 1 1 0 1 1 1 1 0 1 1 1 1 1 1 0 1 1 1 1 
126 20 247 1 1 1 1 1 0 1 1 1 0 1 1 1 0 1 1 1 1 1 1 
127 20 245 0 1 1 1 0 1 1 1 1 1 1 1 1 1 1 1 1 0 1 1 
128 20 254 1 0 1 1 1 1 1 1 1 1 1 0 1 1 1 1 1 0 0 1 
129 20 225 1 0 1 0 1 1 1 1 1 0 1 1 1 1 1 1 1 1 1 1 
130 20 240 1 1 1 1 1 1 1 0 1 1 1 1 1 0 1 1 1 1 1 1 
131 20 277 1 0 1 1 1 1 1 0 1 1 1 1 1 1 1 1 1 0 1 1 
132 20 264 1 1 1 1 1 1 0 1 1 1 1 1 1 1 0 1 0 1 1 1 
133 20 245 1 1 1 0 1 1 1 1 1 1 1 0 0 1 1 1 1 0 1 1 
134 20 226 1 1 1 1 0 1 1 1 1 1 1 1 1 0 1 1 1 0 1 1 
135 20 181 0 0 1 1 1 1 1 0 1 1 1 1 1 1 1 1 1 1 1 1 
136 20 216 1 1 1 1 1 1 0 1 1 0 1 1 1 1 1 1 0 1 1 1 
137 20 285 1 1 1 0 1 1 1 1 1 1 0 1 0 1 1 1 1 1 1 1 
138 20 229 1 1 0 1 1 1 1 0 0 1 1 1 1 1 1 0 1 1 1 1 
139 20 235 1 1 1 1 1 1 1 1 1 0 1 1 1 1 1 1 1 0 1 0 
140 20 211 1 1 1 1 1 1 1 1 1 1 0 1 1 0 1 1 1 1 1 0 
141 20 229 0 1 1 1 1 1 1 1 1 1 1 1 1 1 1 0 1 1 0 1 
142 20 254 0 1 1 0 1 1 1 1 1 1 1 0 1 1 1 1 1 1 1 1 
143 20 259 1 1 1 1 1 1 1 0 1 1 1 1 0 1 1 1 1 1 1 0 
144 20 180 0 1 1 1 1 1 0 0 1 1 1 1 1 1 1 0 1 1 1 1 
145 20 239 0 1 1 1 1 1 0 1 1 1 1 1 0 1 1 1 1 1 1 0 
146 20 230 1 1 1 1 1 1 0 1 1 1 1 0 1 1 1 1 0 1 1 1 
147 20 227 1 1 1 1 1 1 0 1 0 1 1 1 1 1 1 1 1 1 1 0 
148 20 196 1 1 1 1 1 1 1 1 1 0 1 0 1 1 0 1 1 1 1 1 
149 20 251 1 1 1 1 1 0 1 0 1 1 1 1 1 0 1 1 1 1 1 1 
150 20 240 1 1 1 1 0 0 1 0 1 1 1 1 1 1 1 1 1 1 1 1 
151 20 240 1 1 0 1 1 1 1 1 1 0 1 1 1 0 1 1 1 1 1 1 
152 20 230 1 1 1 1 1 1 1 0 1 1 1 1 1 0 1 1 1 1 1 0 
153 20 230 1 1 1 1 1 1 1 0 1 1 0 1 1 1 1 1 1 0 0 1 
154 20 256 1 1 1 1 1 1 0 1 0 1 1 1 0 1 1 1 1 1 1 0 
155 20 204 1 1 1 1 1 1 1 1 1 1 1 1 1 0 0 1 1 0 1 1 
156 20 209 1 1 1 1 0 1 1 1 0 1 1 1 1 1 1 1 1 1 0 1 
157 20 198 1 1 0 0 1 1 1 1 0 1 1 1 1 1 1 0 1 1 1 1 
158 20 201 0 0 1 1 1 0 1 1 1 1 1 1 1 1 1 1 1 1 1 1 
159 20 265 1 1 1 1 1 1 0 0 0 1 1 1 1 1 1 1 1 1 1 1 
160 20 285 1 1 1 1 0 1 1 1 1 1 1 1 1 1 1 1 0 1 0 1 
161 20 256 1 1 1 1 1 0 1 1 1 1 1 1 0 1 0 0 1 1 1 1 
162 20 284 1 1 1 1 1 1 1 0 1 1 1 1 1 0 1 1 1 0 1 1 
163 20 299 1 1 1 1 1 1 0 1 1 0 1 1 1 1 0 1 1 1 1 1 
164 20 203 1 1 1 1 1 1 0 1 0 1 1 1 1 1 1 1 1 0 1 1 
165 20 243 1 0 1 1 0 1 0 1 1 1 1 1 1 1 0 1 0 1 1 1 
166 20 259 1 0 1 0 1 1 0 1 1 1 0 1 1 1 1 1 1 1 1 1 
167 20 217 0 1 0 1 1 1 1 1 1 1 1 1 1 1 1 0 0 1 1 1 
168 20 258 1 1 0 1 1 1 1 0 1 1 0 1 1 1 1 1 1 1 1 1 
169 20 260 1 0 1 0 1 1 1 1 1 0 1 1 1 1 1 1 1 1 0 1 
170 20 279 1 1 1 1 1 1 1 1 1 1 0 1 0 1 1 1 1 1 1 0 
171 20 304 1 1 0 1 1 1 0 1 1 1 1 1 1 0 1 1 1 1 1 1 
172 20 211 1 1 1 1 1 1 1 1 1 1 1 1 1 1 0 0 1 1 1 1 
173 20 199 1 1 1 1 0 1 1 1 1 1 1 1 1 0 0 1 1 0 1 1 
174 20 234 1 1 1 1 1 1 0 1 1 0 1 1 1 1 1 1 1 0 1 1 
175 20 219 1 0 1 1 1 1 1 1 1 1 1 1 1 1 1 1 0 1 1 1 
176 20 299 1 0 1 1 0 1 1 1 1 1 1 1 1 1 1 1 1 1 1 1 
177 20 263 0 1 1 1 1 0 1 1 1 0 1 1 0 1 1 1 1 1 1 1 
178 20 253 0 1 1 1 1 1 1 1 1 1 1 0 0 1 1 1 1 1 1 1 
179 20 262 1 1 1 1 1 1 0 0 1 1 1 1 1 1 1 1 1 1 1 1 
180 20 208 1 1 1 1 1 1 1 1 1 1 1 1 0 0 1 0 1 1 1 1 
181 20 220 1 1 0 0 0 1 1 1 1 1 1 1 1 1 1 1 1 0 1 1 
182 20 253 0 1 1 1 1 1 1 1 0 1 1 1 1 1 1 1 1 0 1 1 
183 20 233 1 1 0 1 1 1 1 1 1 1 1 1 1 1 1 0 1 1 0 0 
184 20 219 1 1 1 1 1 0 1 1 1 0 1 1 1 1 1 0 1 0 0 1 
185 20 220 1 1 1 0 1 1 1 0 1 1 1 1 1 1 1 1 1 1 0 1 
186 20 345 1 1 1 1 1 1 1 0 0 1 1 1 1 1 1 1 1 1 1 1 
187 20 251 1 1 1 1 1 0 0 1 1 1 1 1 1 1 0 1 1 1 1 1 
188 20 266 1 1 1 1 0 1 1 1 1 1 0 1 1 0 1 1 1 1 1 1 
189 20 197 0 1 1 1 1 1 1 1 1 1 0 1 1 1 1 1 1 1 0 1 
190 20 236 1 1 1 0 1 1 1 1 1 0 1 1 0 1 1 1 1 1 1 1 
191 20 240 1 1 0 1 1 1 1 1 1 1 1 1 0 1 1 1 1 1 0 1 
192 20 266 1 1 0 1 1 1 1 1 1 1 1 1 1 0 0 1 1 1 1 1 
193 20 251 1 1 0 1 1 1 1 1 1 0 1 1 1 1 1 1 0 1 1 0 
194 20 218 1 0 1 1 1 1 1 1 1 1 1 1 1 1 0 1 1 1 1 0 
195 20 211 1 1 0 1 1 1 1 1 1 1 1 1 1 1 1 0 1 0 1 1 
196 20 204 1 1 1 1 1 1 1 0 0 1 1 1 1 1 0 1 1 1 1 1 
197 20 249 0 1 1 1 1 1 0 1 1 1 1 0 1 1 1 1 1 1 1 1 
198 20 273 1 1 1 1 1 1 1 1 0 1 1 0 1 1 1 1 1 1 1 0 
199 20 260 0 0 1 1 1 1 1 1 1 1 1 1 1 1 0 1 1 1 1 1 
200 20 232 0 1 1 0 1 1 1 1 1 1 1 1 1 1 1 1 1 1 0 1 
201 20 217 1 1 1 1 1 1 0 1 1 1 1 1 1 1 0 1 1 1 0 1 
202 20 273 1 1 0 1 1 1 1 1 1 1 0 1 1 1 1 1 0 0 1 1 
203 20 253 1 1 1 1 1 1 1 0 0 1 1 1 0 1 1 1 1 1 1 1 
204 20 272 1 1 1 1 1 1 1 1 1 1 0 1 1 0 1 1 1 1 0 1 
205 20 269 1 1 1 0 1 1 1 1 1 1 1 0 0 1 0 1 1 1 1 1 
206 20 253 1 1 1 0 1 1 1 1 1 1 1 0 1 0 1 1 1 1 1 1 
207 20 248 1 1 1 1 1 1 1 1 1 0 1 1 1 1 0 1 1 1 1 0 
208 20 251 1 1 1 1 0 1 1 0 1 1 1 1 1 1 1 1 1 1 1 1 
209 20 230 0 1 1 1 1 1 0 1 1 1 0 1 1 1 1 1 1 1 1 1 
210 20 241 1 1 0 0 1 1 1 1 1 1 1 1 1 1 1 0 1 1 0 1 
211 20 248 1 1 1 1 1 1 0 1 1 1 1 0 1 1 1 1 1 0 1 1 
212 20 257 1 1 1 1 1 1 1 1 1 1 1 0 0 1 1 1 1 1 0 1 
213 20 273 1 1 1 1 1 1 1 0 1 1 1 1 1 1 1 0 1 1 1 0 
214 20 233 1 1 1 1 0 1 1 1 1 0 1 0 1 1 1 1 1 1 0 1 
215 20 251 1 1 1 0 1 1 0 1 1 1 1 0 1 1 1 1 1 1 1 1 
216 20 246 1 1 1 1 1 1 1 1 1 1 1 1 1 0 0 1 1 1 1 1 
217 20 271 0 1 1 1 1 1 1 1 1 0 1 1 1 1 1 0 1 1 1 1 
218 20 235 1 1 1 1 1 1 1 1 0 0 1 1 1 1 1 0 1 1 1 1 
219 20 191 1 1 1 1 0 1 1 1 0 1 1 1 1 0 1 1 1 1 1 1 
220 20 293 1 1 1 1 1 0 1 1 1 1 1 1 1 1 1 0 1 1 0 1 
221 20 272 1 1 1 1 1 1 1 1 0 1 1 0 0 1 1 1 1 1 1 1 
222 20 259 1 1 1 1 1 0 1 0 0 0 1 1 1 1 1 1 1 1 1 1 
223 20 328 1 1 1 1 1 1 1 1 1 1 1 1 1 1 0 1 0 1 1 1 
224 20 237 1 1 0 0 1 1 1 1 1 1 1 1 1 1 1 1 1 0 1 0 
225 20 271 1 0 1 1 1 1 1 1 1 1 1 0 1 1 0 1 1 0 1 1 
226 20 196 1 1 0 1 1 0 1 1 0 1 1 1 0 1 1 1 1 1 1 1 
227 20 231 1 0 1 0 1 1 1 1 0 1 1 1 1 1 1 1 1 1 1 1 
228 20 261 1 0 1 1 1 1 1 1 1 1 0 1 1 1 0 1 1 1 1 1 
229 20 236 1 1 1 1 1 1 0 1 1 0 1 1 1 1 1 1 0 1 1 1 
230 20 264 0 0 1 1 1 1 1 1 1 1 1 1 0 1 1 1 1 1 1 1 
231 20 258 1 1 1 0 1 0 1 1 1 1 1 1 1 1 1 1 1 1 1 0 
232 20 288 1 1 1 1 1 1 1 1 0 1 1 1 1 0 1 0 1 1 1 1 
233 20 232 1 1 1 1 1 1 1 1 1 0 1 1 0 1 1 1 1 1 1 0 
234 20 242 0 1 0 1 1 0 1 1 1 1 1 1 1 0 1 1 1 1 1 1 
235 20 260 0 1 1 1 0 1 0 1 1 1 1 1 1 1 1 1 1 1 1 1 
236 20 233 1 1 1 1 1 1 1 1 1 0 0 1 0 1 1 1 1 1 1 1 
237 20 220 0 1 1 1 1 1 1 0 1 1 1 0 1 1 1 1 1 1 1 0 
238 20 229 1 1 1 1 1 1 1 0 1 1 1 1 1 0 1 0 1 0 1 1 
239 20 239 1 1 1 1 1 1 1 1 1 1 0 1 1 0 1 1 1 1 0 1 
240 20 258 1 1 1 1 1 1 1 0 1 1 1 1 0 1 0 1 1 1 1 1 
241 20 190 1 1 1 1 1 1 1 1 1 1 0 1 1 1 1 0 0 1 1 1 
242 20 234 0 1 1 1 1 1 1 1 1 0 1 1 1 1 1 1 1 1 0 1 
243 20 219 0 1 1 1 1 1 1 1 1 1 1 0 1 1 0 1 1 1 1 1 
244 20 246 1 1 1 1 1 1 1 1 1 0 1 1 1 1 1 1 1 1 1 0 
245 20 271 1 1 1 1 1 1 0 1 1 1 0 1 1 1 1 0 1 1 1 1 
246 20 267 1 1 1 1 1 1 1 1 1 0 1 1 0 0 1 1 1 1 1 1 
247 20 245 1 1 0 0 1 1 1 1 0 1 1 1 1 1 0 1 1 1 1 1 
248 20 247 1 1 1 1 1 1 0 0 1 1 1 1 1 1 1 1 1 0 1 1 
249 20 285 1 1 1 1 1 1 1 1 1 1 0 1 1 1 0 0 1 1 1 1 
250 20 271 0 1 1 1 1 1 1 1 1 1 1 1 1 1 1 1 0 1 0 1 
251 20 285 1 1 1 1 1 1 1 1 0 1 1 1 1 1 1 1 1 1 0 1 
252 20 252 1 1 1 1 1 1 1 0 1 1 1 0 1 1 1 1 0 1 1 1 
253 20 269 1 1 1 1 1 1 1 1 0 1 1 0 1 1 0 1 1 1 1 1 
254 20 274 0 1 0 1 1 1 1 1 1 1 1 1 1 1 1 1 1 1 0 1 
255 20 265 1 1 1 0 1 1 1 1 1 0 1 1 1 1 0 1 1 1 1 1 
256 20 218 1 1 1 1 1 0 1 0 1 1 1 0 1 1 1 1 0 1 1 1 
257 20 212 1 0 1 1 1 1 1 1 1 1 0 1 1 1 0 1 1 1 1 1 
258 20 192 1 1 0 1 1 1 1 0 1 1 1 1 1 1 1 1 0 1 1 1 
259 20 247 1 1 1 1 1 1 1 1 1 0 1 1 1 0 1 1 1 0 1 1 
260 20 258 1 1 1 1 1 1 1 0 1 1 1 1 1 0 1 1 1 1 0 1 
261 20 241 1 1 1 0 1 1 0 1 1 1 1 1 1 1 1 1 1 1 1 0 
262 20 211 1 0 1 1 0 1 1 1 1 1 1 1 1 1 1 1 1 0 1 1 
263 20 257 1 0 1 1 1 1 1 1 1 0 1 1 1 1 0 1 1 1 1 1 
264 20 190 1 1 1 1 1 1 1 1 1 1 1 1 1 1 1 1 0 1 0 1 
265 20 288 1 1 1 0 1 1 1 1 0 1 1 1 1 0 0 1 1 1 1 1 
266 20 290 1 1 0 1 1 1 1 1 0 0 1 0 1 1 1 1 1 1 1 1 
267 20 251 0 1 1 1 1 1 1 1 1 0 0 1 1 1 1 1 1 1 1 1 
268 20 263 0 0 1 1 1 1 1 0 0 1 1 1 0 1 1 1 1 1 1 1 
269 20 218 1 0 1 1 1 1 1 1 1 1 1 1 0 1 1 0 1 1 1 1 
270 20 248 1 1 1 1 1 1 1 0 1 1 1 1 0 1 0 1 1 1 0 1 
271 20 289 1 1 1 1 1 1 1 0 1 1 0 1 1 0 1 1 1 1 1 0 
272 20 267 1 1 1 1 1 1 1 1 1 1 1 1 1 1 1 0 0 1 1 0 
273 20 241 1 0 1 1 1 1 0 0 1 1 1 1 1 0 1 1 1 1 1 1 
274 20 251 0 1 1 1 1 1 1 1 1 1 0 1 1 1 1 1 1 1 1 0 
275 20 286 1 0 1 1 1 1 1 1 1 1 1 1 0 1 1 1 1 1 1 1 
276 20 268 1 1 1 1 1 0 0 1 1 0 1 1 1 1 1 1 1 1 1 1 
277 20 265 0 1 1 1 1 0 1 1 1 0 1 1 1 1 1 1 1 0 1 1 
278 20 242 1 1 1 1 1 1 1 1 1 0 1 1 1 0 1 1 1 1 1 1 
279 20 283 1 1 1 1 1 1 1 1 0 0 1 1 0 1 1 1 1 1 1 1 
280 20 261 1 1 1 0 1 1 1 1 1 0 1 0 1 1 1 1 1 1 1 1 
281 20 231 1 1 0 1 1 1 1 1 1 1 1 1 1 0 1 1 1 0 1 1 
282 20 223 1 0 1 1 1 1 1 1 1 1 1 0 0 1 1 1 1 1 1 1 
283 20 223 1 1 1 1 0 1 1 0 1 1 1 1 1 1 0 1 1 1 0 1 
284 20 263 0 1 1 1 1 1 1 1 1 1 1 1 1 1 1 1 1 1 0 1 
285 20 289 1 1 1 1 1 1 0 1 1 1 1 1 1 1 0 1 0 0 1 1 
286 20 265 1 1 1 1 1 1 1 1 1 1 1 1 1 0 1 1 1 0 1 1 
287 20 318 1 1 1 1 1 1 1 1 1 1 0 0 1 1 1 1 1 1 1 1 
288 20 223 1 1 1 0 1 1 1 1 1 1 1 1 0 1 1 0 1 1 1 1 
289 20 221 1 1 1 1 1 0 1 1 1 1 1 1 1 0 1 1 1 0 1 1 
290 20 295 1 1 1 1 1 1 1 1 1 1 1 1 0 1 0 0 1 1 1 1 
291 20 208 1 1 1 1 1 1 1 0 1 0 1 0 1 1 1 1 1 0 0 1 
292 20 225 0 0 1 1 1 1 1 1 1 1 1 1 1 1 0 1 1 1 1 1 
293 20 262 0 1 1 1 1 1 1 1 1 0 1 1 1 1 1 1 0 1 1 1 
294 20 255 0 1 1 0 1 1 1 1 1 1 1 1 1 1 1 1 1 1 1 0 
295 20 264 1 1 1 1 1 0 1 1 1 1 1 0 1 1 1 1 1 1 0 1 
296 20 264 1 0 1 0 1 1 1 1 1 1 1 1 0 1 0 1 1 1 1 1 
297 20 255 1 1 1 1 0 1 1 1 1 1 1 0 1 1 0 1 1 1 1 1 
298 20 294 0 1 1 1 1 1 1 1 1 1 1 1 1 1 0 1 1 0 1 1 
299 20 244 1 1 1 1 1 1 1 1 1 0 1 0 1 0 1 1 1 1 1 1 
300 20 238 1 1 0 0 0 1 1 1 1 1 1 1 1 1 1 1 1 1 0 1 
301 20 261 0 0 1 1 1 1 1 1 1 1 1 1 1 1 1 1 1 1 1 1 
302 20 268 1 1 1 1 1 1 1 1 1 1 0 1 1 1 1 1 1 0 1 1 
303 20 252 1 0 1 1 1 1 1 1 1 1 1 1 0 0 1 1 1 1 1 1 
304 20 270 1 1 1 1 1 1 1 1 1 0 1 1 1 1 1 1 0 1 1 0 
305 20 268 1 1 1 1 0 1 1 1 1 1 1 1 0 1 1 1 1 1 0 1 
306 20 256 1 1 1 1 0 1 1 1 0 1 0 1 1 1 1 1 0 1 1 1 
307 20 237 0 1 1 1 1 1 1 0 1 1 1 1 1 0 1 1 1 1 1 1 
308 20 224 1 0 1 1 1 1 1 1 1 1 1 1 0 1 1 1 0 1 0 1 
309 20 217 1 0 0 0 1 1 1 1 1 1 1 1 1 1 1 1 1 1 1 1 
310 20 264 1 1 0 1 1 1 1 1 1 1 1 1 1 1 1 0 1 0 1 1 
311 20 202 1 1 0 1 1 0 1 0 1 1 1 1 1 1 0 1 1 1 1 1 
312 20 254 1 1 1 1 1 1 1 1 1 1 0 0 1 0 1 1 1 1 1 1 
313 20 222 1 1 1 1 1 1 1 1 1 1 1 1 1 0 1 1 1 0 1 0 
314 20 216 1 1 1 0 0 1 1 1 1 1 0 1 1 1 1 1 0 1 1 1 
315 20 248 1 1 1 0 1 0 1 1 1 1 1 1 1 0 1 1 1 1 1 1 
316 20 252 1 1 1 1 0 1 1 1 1 1 1 1 1 1 1 1 1 0 0 1 
317 20 237 1 0 1 0 1 1 1 0 1 0 1 1 1 1 1 1 1 1 1 1 
318 20 231 1 0 1 1 1 1 1 1 1 1 1 1 1 0 0 1 1 0 1 1 
319 20 211 1 0 1 1 1 1 1 1 1 0 1 1 1 0 1 1 0 1 1 1 
320 20 218 1 1 1 1 0 1 1 1 0 1 1 1 1 1 1 1 0 1 1 1 
321 20 246 1 1 1 1 1 0 1 1 1 1 1 1 1 1 1 0 1 1 1 0 
322 20 216 1 1 1 0 1 1 1 1 1 1 1 1 1 0 0 1 1 1 1 1 
323 20 275 1 0 1 1 1 1 1 1 1 1 1 1 1 1 0 1 0 1 1 1 
324 20 256 0 1 1 1 1 1 1 1 1 1 1 1 1 1 1 0 0 1 1 1 
325 20 202 1 1 1 1 1 1 1 1 0 0 1 1 0 1 1 1 1 1 0 1 
326 20 255 1 1 1 1 1 1 1 1 1 0 1 1 1 0 1 1 0 1 1 1 
327 20 267 1 0 1 1 1 1 1 1 1 1 1 1 1 0 1 1 0 1 1 1 
328 20 228 0 1 0 1 0 1 1 1 1 1 1 1 1 1 1 1 1 1 1 1 
329 20 203 1 1 1 0 1 1 1 1 1 0 1 0 1 1 1 1 1 1 1 1 
330 20 244 1 1 0 1 1 1 1 1 1 1 1 0 1 1 1 0 1 1 1 1 
331 20 222 1 1 1 0 1 1 1 1 0 0 1 1 1 1 1 1 1 1 1 1 
332 20 210 1 0 1 1 1 1 1 0 1 0 1 1 1 1 0 1 1 1 1 1 
333 20 228 1 1 0 0 1 1 1 1 1 0 1 1 1 1 0 1 1 1 1 1 
334 20 259 1 1 0 1 1 1 1 1 1 1 1 1 1 0 1 1 1 1 1 0 
335 20 251 1 1 1 1 1 1 1 1 0 1 1 1 1 1 0 0 1 1 1 1 
336 20 253 0 1 1 1 1 1 1 1 1 1 1 1 1 1 1 1 1 0 1 0 
337 20 242 1 0 1 1 0 1 1 1 1 1 1 1 1 1 1 1 1 1 1 0 
338 20 206 1 1 0 1 1 1 1 1 0 1 1 1 1 1 0 1 1 1 0 1 
339 20 250 0 1 1 1 1 1 1 1 1 1 1 1 1 0 1 1 0 1 1 1 
340 20 269 1 1 1 1 1 0 1 1 1 0 1 1 1 1 1 0 1 1 1 1 
341 20 280 0 1 0 1 1 1 1 1 1 1 1 1 1 1 1 1 1 1 0 1 
342 20 238 1 1 1 1 1 1 1 0 1 1 0 1 1 1 0 1 1 1 1 1 
343 20 279 1 1 0 1 1 1 1 1 1 1 1 1 1 1 0 1 1 1 1 0 
344 20 197 1 1 1 1 1 1 1 1 1 0 1 0 0 1 1 1 1 1 1 1 
345 20 195 1 1 1 1 0 1 1 1 0 1 0 1 1 1 1 1 1 1 1 1 
346 20 245 1 1 1 1 0 1 1 1 0 1 1 1 1 1 0 1 0 1 1 1 
347 20 192 1 1 0 1 1 1 1 1 1 1 1 1 1 1 1 1 1 0 0 1 
348 20 243 1 0 1 1 1 1 1 1 1 1 1 1 1 1 1 0 1 0 1 0 
349 20 249 1 1 1 0 1 1 1 1 1 1 1 1 1 1 1 1 1 1 0 0 
350 20 255 1 0 1 1 1 0 1 1 1 1 0 1 1 1 1 1 1 1 1 1 
351 20 246 1 1 1 1 0 1 1 1 1 0 1 1 1 1 1 0 1 1 1 1 
352 20 209 1 1 1 1 1 1 1 1 1 1 0 1 1 1 0 1 1 1 1 0 
353 20 235 1 1 1 1 1 1 1 1 1 1 0 1 1 1 1 1 1 0 0 1 
354 20 246 1 0 1 1 1 1 1 1 1 1 1 1 1 0 1 0 1 1 1 0 
355 20 247 1 1 1 0 1 0 1 1 0 1 1 1 1 1 1 1 0 1 1 1 
356 20 248 1 1 0 1 1 1 1 1 1 1 0 1 1 0 0 1 1 1 1 1 
357 20 248 1 1 1 1 1 0 0 1 1 1 0 1 1 1 1 1 1 1 1 1 
358 20 285 1 1 1 1 1 1 1 1 1 1 1 1 0 1 1 0 1 1 0 1 
359 20 295 1 1 1 0 1 1 1 1 1 0 1 1 1 1 1 1 1 0 1 1 
360 20 229 1 0 1 1 0 1 1 0 1 1 1 1 1 1 1 1 1 1 1 1 
361 20 214 0 1 1 1 1 1 0 1 1 1 1 1 1 1 1 1 1 1 0 1 
362 20 252 1 1 1 1 1 1 1 1 1 1 0 1 1 1 1 1 1 1 0 0 
363 20 297 1 1 1 1 0 0 1 0 1 1 1 1 1 1 1 1 1 1 1 1 
364 20 202 1 1 1 1 1 1 1 0 1 0 1 1 1 0 1 1 1 1 0 0 
365 20 248 1 1 1 1 1 1 1 1 1 1 0 0 1 1 1 1 0 1 1 1 
366 20 263 1 1 1 1 1 1 1 1 1 1 0 1 1 0 1 1 1 1 1 0 
367 20 238 1 0 1 1 1 1 1 1 1 0 1 1 1 1 1 1 1 0 1 1 
368 20 222 1 1 1 1 1 1 1 1 1 1 0 1 1 0 1 1 0 1 0 1 
369 20 243 0 1 1 1 1 1 0 1 1 1 1 0 1 1 1 0 1 1 1 1 
370 20 204 1 1 1 1 1 1 1 0 1 1 1 1 1 1 0 1 1 0 0 1 
371 20 253 1 1 1 1 0 1 1 1 1 1 1 1 1 1 0 0 1 1 0 1 
372 20 253 1 1 1 1 1 1 1 1 1 1 0 0 1 1 1 1 0 1 1 1 
373 20 258 1 1 1 1 1 1 1 1 1 0 1 1 0 1 1 1 1 1 1 1 
374 20 268 1 0 1 1 1 1 1 1 1 1 1 1 1 1 0 1 1 1 1 1 
375 20 254 1 1 1 1 1 0 1 1 1 0 1 1 1 1 1 1 1 1 1 0 
376 20 257 1 1 1 1 1 1 1 1 1 1 0 1 1 1 1 1 1 0 1 0 
377 20 288 1 0 0 1 1 1 1 1 1 1 1 0 1 1 1 1 1 1 1 1 
378 20 250 1 0 1 1 0 0 1 1 1 1 1 1 1 1 1 1 1 1 1 1 
379 20 222 1 1 0 1 1 0 1 1 1 1 1 1 1 1 1 1 1 1 1 0 
380 20 228 1 1 1 1 1 1 0 1 1 0 1 1 1 1 1 0 1 1 1 1 
381 20 236 1 0 1 1 1 1 1 0 1 1 1 0 1 1 1 0 1 1 1 1 
382 20 265 1 0 1 0 1 1 0 1 1 1 0 1 1 1 1 1 1 1 1 1 
383 20 180 1 1 0 1 1 1 1 1 0 1 1 1 0 1 1 1 1 0 1 1 
384 20 229 1 1 1 0 0 1 1 1 1 1 1 1 1 1 1 1 0 1 1 1 
385 20 235 1 1 1 1 1 1 0 0 1 0 1 1 1 1 1 1 1 1 0 1 
386 20 236 1 1 1 1 1 1 1 1 1 0 0 1 0 1 1 1 1 1 1 1 
387 20 263 1 1 1 1 1 1 1 0 1 1 1 1 1 0 1 1 1 1 0 1 
388 20 265 0 0 1 1 1 1 1 1 1 1 0 1 1 1 1 1 1 1 1 1 
389 20 253 1 1 1 1 0 1 1 1 1 1 1 1 0 1 1 0 1 1 1 1 
390 20 277 1 1 1 1 1 1 0 1 1 1 1 1 0 1 1 1 0 1 1 1 
391 20 202 1 1 1 1 1 0 1 0 1 1 1 1 1 1 1 1 1 1 0 1 
392 20 301 1 1 1 1 0 1 1 1 0 1 1 1 1 1 1 0 1 1 1 0 
393 20 280 1 1 0 0 1 1 1 1 0 1 1 1 1 1 1 0 1 1 1 1 
394 20 272 1 1 1 0 1 1 0 1 1 0 0 1 1 1 1 1 1 1 1 1 
395 20 262 1 1 1 1 0 1 1 1 1 1 0 1 1 1 1 1 1 0 1 1 
396 20 270 1 1 1 0 1 1 0 1 1 1 1 1 1 1 1 1 0 1 1 1 
397 20 272 1 1 1 0 0 1 1 1 1 1 1 1 1 1 1 1 0 1 1 1 
398 20 240 1 1 1 1 1 1 1 1 0 1 1 1 1 1 1 1 1 1 1 0 
399 20 223 1 1 1 0 1 1 1 1 1 1 1 1 1 1 0 0 1 1 1 1 
400 20 241 1 1 1 1 0 0 1 0 1 1 1 1 1 1 1 1 1 1 1 1 
401 20 281 1 1 1 1 1 0 1 1 1 1 1 1 0 1 1 1 1 1 1 1 
402 20 239 0 1 0 1 1 1 1 1 1 1 1 1 1 1 1 1 1 1 1 0 
403 20 279 1 0 1 1 1 1 1 1 1 1 0 1 1 1 1 1 1 1 1 1 
404 20 320 0 1 1 1 1 1 1 1 1 1 1 1 1 1 1 1 0 1 1 0 
405 20 276 0 1 1 1 1 1 1 1 1 0 1 1 1 1 1 1 1 1 1 0 
406 20 258 0 1 1 1 1 1 1 1 1 0 1 1 1 0 1 1 1 1 1 1 
407 20 228 1 1 1 1 1 1 1 0 1 1 1 1 1 0 1 0 1 1 0 1 
408 20 221 1 1 1 1 1 0 1 1 1 1 1 1 1 1 1 1 0 1 1 0 
409 20 219 1 1 1 0 1 1 1 1 0 1 1 1 1 0 1 1 1 1 1 1 
410 20 236 1 1 1 1 1 0 1 1 1 1 1 0 1 1 0 1 1 1 1 1 
411 20 266 1 0 1 1 1 1 0 1 1 1 1 1 1 1 1 1 1 1 1 1 
412 20 254 1 1 1 1 1 0 0 1 1 1 1 1 1 1 1 1 1 1 0 1 
413 20 214 1 1 0 1 0 1 1 1 1 0 1 1 1 1 1 1 0 1 0 1 
414 20 261 1 0 1 1 1 1 1 1 1 1 1 1 1 1 1 1 0 1 1 0 
415 20 239 1 1 0 1 1 0 1 1 1 1 1 1 1 0 1 1 1 1 1 1 
416 20 214 1 1 1 1 1 0 1 1 0 1 1 1 1 0 1 1 1 1 1 1 
417 20 237 1 1 1 1 0 1 1 1 1 1 1 1 1 1 1 0 0 1 1 1 
418 20 207 1 1 1 1 1 0 1 1 1 0 0 1 1 1 1 1 1 1 1 1 
419 20 249 1 1 0 1 0 1 1 1 1 1 1 1 1 0 1 1 1 1 1 1 
420 20 263 1 1 1 0 1 1 1 1 1 1 1 1 0 1 1 1 1 1 0 1 
421 20 215 1 1 1 1 1 1 1 0 1 1 1 1 1 1 1 1 0 1 0 1 
422 20 240 0 1 0 1 1 1 1 1 0 1 1 0 1 1 1 1 1 0 1 1 
423 20 218 1 1 1 1 0 1 1 1 1 1 1 1 1 1 1 1 1 0 1 1 
424 20 252 1 1 1 1 0 1 0 1 1 1 1 1 1 0 1 0 1 1 0 1 
425 20 195 1 1 1 1 1 1 1 1 1 1 1 1 1 1 1 0 1 1 0 1 
426 20 224 1 1 1 1 1 1 0 1 0 1 1 1 1 1 1 1 1 1 1 0 
427 20 272 1 1 1 1 1 0 1 1 1 1 0 1 1 1 1 1 0 1 1 1 
428 20 267 1 1 0 1 1 1 1 1 1 1 1 1 0 1 1 1 0 1 1 1 
429 20 236 1 1 0 1 1 1 1 1 1 1 0 1 1 1 1 1 1 0 1 1 
430 20 289 0 1 1 1 1 1 0 1 1 1 1 1 1 1 1 0 1 1 0 1 
431 20 238 1 1 1 1 1 1 1 0 1 1 0 1 0 1 1 1 0 1 1 1 
432 20 256 0 1 1 1 1 1 1 1 1 1 1 1 1 1 1 1 0 1 1 0 
433 20 301 1 1 1 1 1 0 1 1 0 1 1 1 1 1 0 1 1 1 1 1 
434 20 279 1 1 1 0 1 1 1 1 0 1 1 1 1 1 1 0 0 1 1 1 
435 20 223 1 1 1 1 1 1 1 1 1 1 1 1 1 0 0 1 1 1 1 1 
436 20 250 1 1 1 0 0 0 1 1 1 1 1 1 1 1 1 1 1 1 1 1 
437 20 236 1 1 1 0 1 1 0 1 1 1 1 0 1 1 0 1 0 1 1 1 
438 20 259 1 1 1 1 1 1 1 0 1 1 0 1 1 1 1 1 1 1 1 1 
439 20 234 1 1 1 1 1 1 1 0 1 0 1 1 1 1 1 1 1 0 1 1 
440 20 263 1 1 1 1 1 1 1 0 1 0 0 1 1 1 1 1 1 1 1 1 
441 20 236 1 1 1 1 1 1 1 0 1 1 1 0 1 0 1 1 1 1 1 1 
442 20 225 1 1 1 1 1 1 0 1 1 1 1 0 0 1 1 1 1 1 1 0 
443 20 243 1 0 1 1 1 1 1 1 1 1 1 1 1 1 1 1 1 0 1 0 
444 20 196 0 1 1 1 1 1 1 1 1 1 0 1 1 1 1 1 1 0 1 0 
445 20 228 1 0 1 1 0 1 1 0 1 0 1 1 1 1 1 1 1 1 1 1 
446 20 238 1 1 1 1 1 0 1 1 1 1 1 1 0 1 1 0 1 1 1 1 
447 20 312 0 0 1 1 1 1 1 1 0 1 1 1 1 1 1 1 1 1 1 1 
448 20 276 1 1 1 1 1 1 1 0 0 0 1 1 1 1 1 0 1 1 1 1 
449 20 235 1 1 1 1 1 1 1 1 1 1 1 0 1 1 1 1 1 0 1 0 
450 20 226 1 0 1 1 1 1 1 0 1 1 1 1 1 0 1 1 1 1 1 1 
451 20 234 1 1 0 1 1 1 1 0 1 1 1 1 1 1 1 1 0 1 1 1 
452 20 294 1 1 1 0 1 1 1 1 1 0 1 1 1 1 1 1 1 0 1 1 
453 20 283 1 0 1 1 1 0 1 1 1 1 1 1 1 1 1 0 1 1 1 1 
454 20 226 1 1 1 1 0 1 1 1 1 1 1 0 1 1 1 0 0 1 1 1 
455 20 284 1 1 0 1 1 1 0 1 1 1 1 1 0 1 1 1 0 1 1 1 
456 20 266 1 1 1 1 1 1 0 1 1 1 1 0 1 1 1 1 0 1 1 1 
457 20 274 1 0 1 1 1 1 1 1 1 1 1 1 1 1 1 1 0 1 1 0 
458 20 249 1 1 1 1 0 1 1 1 1 1 1 1 1 1 0 1 0 1 1 0 
459 20 238 0 1 1 1 1 1 0 1 1 1 1 1 1 1 1 1 1 1 0 1 
460 20 222 1 0 1 1 0 1 0 1 1 1 1 1 1 1 1 1 1 1 1 1 
461 20 226 0 1 1 0 1 1 0 1 1 1 1 1 1 1 1 1 1 1 1 1 
462 20 231 1 0 1 1 1 1 1 1 0 1 1 0 1 1 1 1 1 1 1 1 
463 20 287 1 1 0 1 1 1 1 1 1 1 1 1 1 0 1 1 1 1 1 1 
464 20 299 1 1 1 1 1 1 1 1 0 0 0 1 1 1 1 1 1 1 1 1 
465 20 299 1 1 1 1 1 1 0 1 1 1 1 1 1 1 1 0 1 1 0 1 
466 20 219 1 1 1 1 1 1 1 1 1 1 1 1 0 1 1 1 1 1 0 1 
467 20 268 1 1 1 1 1 0 1 1 1 1 1 1 1 0 1 1 1 0 1 1 
468 20 245 1 1 1 1 1 1 1 1 1 1 0 1 0 1 1 1 0 1 1 1 
469 20 264 1 1 1 1 1 1 1 1 0 1 1 1 0 1 1 1 1 1 1 1 
470 20 257 1 1 0 1 1 1 1 1 1 1 1 1 1 1 0 1 0 1 1 1 
471 20 254 1 1 1 1 1 1 1 1 1 1 1 1 0 1 1 0 1 0 1 1 
472 20 236 1 1 1 0 0 1 1 1 1 1 1 1 0 1 1 1 1 1 0 1 
473 20 249 1 1 1 1 1 0 1 1 1 1 0 1 1 1 1 1 1 1 0 1 
474 20 245 1 1 1 1 1 0 1 1 1 1 1 1 1 1 1 1 1 1 0 0 
475 20 267 1 1 0 1 1 1 1 1 1 1 1 1 1 1 1 0 1 1 1 0 
476 20 219 1 1 1 1 1 1 0 1 0 1 1 1 1 1 1 1 1 0 1 1 
477 20 239 1 0 1 1 1 1 0 1 1 1 1 1 1 1 0 1 1 1 1 1 
478 20 257 1 1 1 1 1 1 1 1 1 1 1 0 0 0 1 1 1 1 1 1 
479 20 244 0 1 1 1 1 1 1 1 1 1 1 1 1 1 1 1 0 0 1 1 
480 20 288 1 1 1 0 1 0 1 1 1 1 1 1 1 1 1 1 0 0 1 1 
481 20 227 1 1 1 1 0 1 1 1 1 1 1 1 1 0 0 1 1 1 1 1 
482 20 241 0 1 1 1 1 1 1 1 1 0 1 1 1 1 1 1 1 0 1 1 
483 20 262 0 1 1 1 1 1 1 0 1 1 1 0 1 1 1 1 1 1 1 0 
484 20 245 1 1 1 0 0 1 1 1 1 1 1 1 0 1 1 1 1 1 1 1 
485 20 287 0 1 1 1 1 1 1 1 0 1 1 1 1 1 1 1 1 1 1 0 
486 20 230 1 1 1 0 1 1 1 1 1 1 1 1 0 1 1 1 0 1 1 0 
487 20 213 0 0 1 1 1 0 1 1 1 1 1 1 1 1 1 1 1 1 1 1 
488 20 208 1 0 0 1 1 1 1 1 1 1 1 0 1 1 1 1 1 1 1 1 
489 20 238 1 1 1 1 1 1 1 1 1 1 1 0 1 1 0 1 1 1 0 1 
490 20 245 1 1 1 1 1 1 1 0 1 0 1 1 1 1 1 1 0 1 1 1 
491 20 225 1 1 1 1 1 1 1 0 1 0 1 0 1 1 1 1 1 1 1 1 
492 20 238 1 1 1 1 1 1 0 1 1 1 1 1 1 0 1 1 1 1 1 0 
493 20 264 1 0 0 1 1 1 1 1 1 1 1 1 1 1 1 1 1 1 1 0 
494 20 290 1 1 1 1 1 1 1 1 1 1 1 0 1 0 1 1 1 1 0 1 
495 20 225 1 1 1 1 1 0 0 1 1 1 1 1 1 1 1 0 1 1 1 1 
496 20 261 0 1 1 1 1 1 1 1 1 0 1 1 1 1 1 1 0 1 1 1 
497 20 287 0 1 1 1 1 0 0 1 1 1 1 1 0 1 1 1 1 1 1 1 
498 20 233 1 1 0 1 1 1 1 0 1 1 0 0 1 1 1 1 1 1 1 1 
499 20 266 1 1 1 1 1 0 1 1 1 0 1 0 1 1 0 1 1 1 1 1 
500 20 270 1 1 1 1 1 1 1 0 1 1 1 0 1 1 1 1 1 0 1 0 
