1 20 4030 1 1 0 1 1 1 0 1 1 1 1 1 1 1 1 1 1 0 1 1 
2 20 5565 1 1 1 1 1 0 1 0 1 1 1 1 1 1 0 1 1 1 1 1 
3 20 5434 1 1 1 0 1 1 1 1 0 1 1 1 0 1 1 1 1 1 1 1 
4 20 5051 1 1 1 1 1 1 1 1 0 0 1 1 1 1 0 1 1 0 1 1 
5 20 6116 1 1 1 1 0 1 1 1 1 1 0 1 1 1 1 1 0 1 1 1 
6 20 5584 1 1 0 1 1 1 1 1 1 1 1 1 1 1 0 1 1 1 1 0 
7 20 5143 1 1 0 1 1 1 1 1 1 1 0 1 1 1 1 1 0 1 1 1 
8 20 4439 1 0 1 1 1 1 1 1 1 1 0 1 1 0 1 1 1 1 1 1 
9 20 4625 1 1 1 0 1 1 1 0 1 1 1 0 1 1 1 1 1 1 1 1 
10 20 4207 1 1 1 1 1 0 1 1 1 1 1 1 1 0 1 0 1 1 1 1 
11 20 4260 1 1 1 1 1 1 1 0 0 1 1 1 1 1 1 1 1 1 0 1 
12 20 3870 1 1 0 1 1 1 0 1 1 1 0 1 1 1 1 1 0 1 1 1 
13 20 4725 1 1 0 1 1 1 1 1 1 0 1 1 1 1 0 1 0 1 1 1 
14 20 4095 1 1 1 1 1 1 1 0 1 1 0 1 1 1 0 1 0 1 1 1 
15 20 6039 1 1 1 1 1 0 0 1 1 1 1 1 1 1 1 1 1 0 1 1 
16 20 4658 1 1 0 1 1 0 1 1 1 1 1 1 1 0 1 1 1 1 1 1 
17 20 4660 1 1 1 0 0 1 1 1 1 1 1 1 0 1 1 1 1 1 1 1 
18 20 4737 1 1 1 1 1 0 1 1 1 1 1 1 0 0 1 1 1 0 1 1 
19 20 4699 1 1 1 1 1 1 1 1 0 1 1 1 1 1 0 1 0 1 1 1 
20 20 4806 1 0 1 1 1 0 1 1 1 1 1 1 1 1 1 1 1 1 1 1 
21 20 5207 1 1 0 1 1 1 0 1 1 1 1 0 1 1 0 1 1 1 1 1 
22 20 3961 1 0 1 1 1 1 1 1 1 1 1 1 0 0 1 0 1 1 1 1 
23 20 5717 1 1 1 0 1 1 1 1 1 1 1 1 1 1 1 1 1 0 1 1 
24 20 5320 1 1 1 1 0 1 1 1 1 1 1 1 1 1 0 1 0 1 1 1 
25 20 4423 1 1 0 1 1 1 1 1 1 1 1 0 0 1 1 1 1 1 1 1 
26 20 5754 1 0 1 1 1 1 1 1 1 1 1 1 1 1 1 1 0 1 1 0 
27 20 5671 1 0 1 0 1 1 1 1 1 1 0 0 1 1 1 1 1 1 1 1 
28 20 4720 1 1 0 1 1 1 1 1 1 1 1 1 1 1 0 1 1 1 0 1 
29 20 5441 1 0 1 1 0 1 1 1 1 1 1 1 1 1 0 1 1 1 1 1 
30 20 4754 1 1 0 1 1 1 1 1 1 1 1 1 1 1 0 1 0 1 1 1 
31 20 4723 0 1 1 1 1 1 1 1 1 1 1 1 1 1 1 1 0 1 0 1 
32 20 5109 1 1 1 1 0 1 1 1 1 1 0 1 1 1 1 0 0 0 1 1 
33 20 5288 1 1 1 1 1 0 0 1 0 1 1 1 1 1 1 1 1 1 1 1 
34 20 5232 0 1 1 1 0 1 1 0 1 1 1 1 1 1 1 1 1 0 1 1 
35 20 5221 0 1 1 1 1 1 1 1 1 1 1 1 0 1 1 1 0 1 1 1 
36 20 4575 1 1 0 1 1 1 0 1 1 1 1 1 1 1 1 1 0 1 1 1 
37 20 4889 1 1 1 1 1 0 1 1 0 1 1 1 0 1 0 1 1 1 1 1 
38 20 4198 1 1 0 1 1 1 1 1 1 1 0 1 1 1 0 1 1 1 0 1 
39 20 4650 1 1 0 1 1 1 1 1 1 1 1 1 1 1 1 1 0 1 1 1 
40 20 5207 1 1 1 1 1 1 1 0 1 1 0 1 1 1 1 1 1 1 0 1 
41 20 4356 1 0 1 1 1 1 1 1 1 1 1 1 0 1 1 1 1 1 0 1 
42 20 4339 1 0 1 1 1 1 1 1 1 1 1 1 1 1 0 1 0 1 1 1 
43 20 4027 0 1 1 1 1 1 1 1 1 1 0 0 1 1 1 1 0 1 1 1 
44 20 3765 1 1 1 1 1 0 1 1 0 1 1 1 1 1 1 0 0 1 1 1 
45 20 5109 1 0 1 0 1 1 0 1 1 1 1 1 1 1 1 1 1 1 1 1 
46 20 4163 0 0 1 1 1 1 1 1 0 1 1 1 1 1 1 1 0 1 1 1 
47 20 4102 1 1 1 1 0 1 1 1 1 1 1 1 1 0 1 1 1 1 0 1 
48 20 4946 1 1 1 1 1 1 1 1 1 1 1 1 1 0 0 1 1 1 1 0 
49 20 4777 1 1 1 1 1 1 1 1 1 0 1 0 1 0 0 1 1 1 1 1 
50 20 4318 1 0 1 1 0 1 1 1 1 1 1 1 0 0 1 1 0 1 1 1 
51 20 5268 1 1 0 1 1 1 1 1 0 1 1 1 1 1 1 1 0 1 1 1 
52 20 5151 1 1 1 1 1 1 1 1 0 1 1 1 1 1 0 0 1 1 1 1 
53 20 5508 1 1 1 1 1 1 1 1 1 1 0 0 1 0 1 1 1 1 1 1 
54 20 5246 1 1 1 1 1 1 1 1 1 1 1 1 0 0 1 0 1 1 1 1 
55 20 4561 1 1 0 1 1 1 1 1 1 1 0 0 1 1 1 1 1 1 1 1 
56 20 3472 1 0 1 1 1 1 1 1 1 1 1 0 1 0 1 1 1 1 1 1 
57 20 4043 1 1 1 1 1 1 0 1 0 1 0 1 1 1 1 1 1 1 1 1 
58 20 5823 1 1 1 1 0 1 1 1 1 1 1 1 0 1 1 1 0 1 1 1 
59 20 4905 1 1 1 0 1 1 1 1 1 1 0 1 1 1 1 1 1 0 1 1 
60 20 4908 1 1 1 1 1 1 1 0 1 1 1 1 1 1 1 0 0 1 0 1 
61 20 4314 1 0 1 0 0 1 1 1 1 1 1 1 1 1 0 1 1 1 1 1 
62 20 4996 1 1 1 1 1 1 1 1 1 0 1 0 1 1 1 1 1 1 0 1 
63 20 4697 1 1 1 1 1 1 1 0 1 1 0 1 1 1 0 1 1 1 1 1 
64 20 4669 1 1 1 1 1 0 1 1 1 1 0 1 1 1 1 1 1 0 1 1 
65 20 4989 1 1 1 1 1 1 0 0 1 1 1 1 1 1 1 1 0 1 1 1 
66 20 3973 1 0 1 1 1 1 1 1 1 1 1 0 1 0 1 1 1 1 1 1 
67 20 4974 0 1 1 1 1 1 0 1 1 1 1 1 1 1 1 1 1 1 1 0 
68 20 5807 1 1 1 1 0 1 1 1 1 0 1 0 1 1 1 1 1 1 1 1 
69 20 4675 1 1 1 1 1 1 1 1 1 1 1 0 1 0 0 1 1 1 1 1 
70 20 5012 0 1 1 1 1 1 1 1 1 0 1 1 0 1 1 1 1 1 1 1 
71 20 4788 1 1 1 1 1 1 1 1 1 1 1 0 1 0 1 0 1 1 1 1 
72 20 5038 1 1 0 1 1 1 1 1 1 1 1 0 1 1 0 1 1 1 1 1 
73 20 4970 1 0 1 1 1 1 0 1 1 1 1 1 1 0 1 0 1 1 1 1 
74 20 3929 1 1 1 0 1 1 1 1 0 1 1 1 1 1 1 1 1 1 0 1 
75 20 5641 1 1 1 1 1 1 1 1 1 1 1 1 1 0 1 1 0 1 1 0 
76 20 5561 1 1 1 1 1 1 0 0 1 1 1 1 1 1 1 0 1 1 1 1 
77 20 4116 0 1 1 1 1 1 1 0 1 1 1 0 1 1 1 0 1 1 0 1 
78 20 5676 1 1 1 1 1 0 1 1 1 1 1 1 0 1 1 1 0 1 1 1 
79 20 4295 1 1 1 1 1 0 1 1 1 1 1 1 1 1 1 1 0 1 1 0 
80 20 4249 1 1 1 0 0 0 1 1 1 1 1 0 1 1 1 1 1 1 1 1 
81 20 4470 1 1 0 1 1 1 1 1 1 0 1 0 1 1 1 1 1 1 1 1 
82 20 5575 1 1 0 1 1 1 1 1 1 1 1 1 1 1 1 1 0 1 0 1 
83 20 4127 1 1 1 1 0 1 1 1 1 1 1 0 1 1 1 1 1 1 1 1 
84 20 5065 1 1 1 1 0 1 1 1 1 0 1 1 1 1 1 1 1 0 1 1 
85 20 4711 1 1 0 1 1 1 1 1 0 1 1 1 0 1 1 1 1 0 1 1 
86 20 4862 0 1 1 1 1 1 1 1 1 1 0 1 1 1 1 1 1 0 0 1 
87 20 5586 1 1 1 1 1 0 1 1 0 1 1 1 1 1 1 1 0 1 0 1 
88 20 5270 0 1 1 1 1 1 1 1 0 1 1 1 1 1 0 1 1 1 0 1 
89 20 4467 1 1 1 0 1 1 0 1 0 1 1 1 1 1 1 1 1 1 1 1 
90 20 3565 1 1 1 1 1 1 1 1 1 1 1 1 1 1 0 1 1 0 1 1 
91 20 5358 0 1 1 1 1 0 0 1 1 1 1 1 1 0 1 1 1 1 1 0 
92 20 5338 1 0 1 1 1 1 0 1 1 1 1 1 0 1 1 1 1 1 1 1 
93 20 5338 1 1 1 1 1 1 1 1 0 1 1 1 1 1 1 1 1 0 1 0 
94 20 5816 1 1 1 0 1 1 1 1 0 1 1 1 1 1 1 1 0 1 1 1 
95 20 3950 1 1 1 1 1 1 1 1 1 1 1 0 1 1 1 1 1 1 0 0 
96 20 5013 1 1 1 0 0 1 1 1 1 1 0 1 1 1 1 1 1 1 1 1 
97 20 5259 1 0 1 1 1 1 1 1 1 1 0 1 1 1 1 1 1 1 0 1 
98 20 5630 1 1 1 0 1 1 1 1 1 1 1 1 1 1 1 0 1 1 1 1 
99 20 5536 1 1 1 1 1 1 1 1 1 1 1 1 1 1 0 1 1 0 1 0 
100 20 4784 1 1 1 1 1 1 1 1 1 1 1 1 0 0 1 1 1 1 0 1 
101 20 5259 1 1 1 1 1 1 0 1 1 1 1 1 1 1 1 1 1 0 0 1 
102 20 4584 1 1 1 1 0 1 1 0 1 0 1 1 1 1 1 1 1 1 1 1 
103 20 4544 1 1 1 1 0 1 1 1 1 0 1 1 1 1 1 1 1 1 1 0 
104 20 4280 0 1 1 1 1 1 1 1 1 1 1 1 1 1 0 1 0 1 1 1 
105 20 4929 1 1 1 1 1 0 1 1 1 0 1 1 1 1 1 1 1 1 1 0 
106 20 4203 1 1 0 1 1 1 1 1 0 1 1 1 1 1 1 0 1 1 1 1 
107 20 4185 1 1 1 1 1 1 1 1 1 1 0 1 1 0 1 1 1 1 1 1 
108 20 5752 1 1 1 1 1 1 0 1 1 1 0 0 0 1 1 1 1 1 1 1 
109 20 4099 1 0 1 1 1 1 1 0 1 1 1 0 1 1 0 1 1 1 1 1 
110 20 5185 1 1 0 1 1 1 1 0 1 1 0 1 1 1 1 1 1 1 1 0 
111 20 4751 1 1 1 1 1 0 1 1 1 1 1 1 1 0 1 1 0 0 1 1 
112 20 5009 1 1 1 0 1 1 1 1 0 1 1 1 0 1 0 1 1 1 1 1 
113 20 4153 1 1 1 1 1 1 1 0 1 0 1 1 0 0 1 1 1 1 1 1 
114 20 4391 1 0 1 1 0 1 1 0 1 1 1 1 1 1 1 1 1 1 1 1 
115 20 5307 1 1 1 1 1 1 1 1 1 1 1 0 0 0 1 1 1 1 1 1 
116 20 4813 1 0 0 0 1 1 1 1 1 1 1 1 1 1 1 1 1 1 1 1 
117 20 4257 1 1 1 1 1 1 1 0 1 1 0 1 1 1 1 1 1 1 1 0 
118 20 4628 1 1 1 0 1 1 1 0 1 1 1 1 1 1 1 1 1 0 1 1 
119 20 4673 0 1 0 1 1 1 1 1 1 1 1 1 1 1 1 1 1 1 0 1 
120 20 4849 1 1 0 1 1 1 1 1 1 1 1 1 1 1 0 1 1 1 1 0 
121 20 5434 1 1 1 0 1 1 1 1 1 1 1 0 1 1 1 1 0 1 1 1 
122 20 5471 1 1 1 0 1 1 1 1 1 1 0 1 1 1 1 1 1 1 1 0 
123 20 5397 1 1 1 0 1 1 1 1 1 0 1 1 1 1 1 1 0 1 1 1 
124 20 5125 1 1 1 1 0 0 1 1 0 1 1 1 1 0 1 1 1 1 1 1 
125 20 3374 1 1 1 0 1 1 1 1 1 1 0 1 1 0 1 0 1 1 1 1 
126 20 4785 1 0 1 1 1 1 1 1 1 0 1 1 1 0 1 1 1 1 1 1 
127 20 4726 0 1 1 1 0 1 1 1 1 1 1 1 1 1 1 1 1 0 1 1 
128 20 4948 1 1 1 1 1 1 1 0 1 1 1 0 1 1 1 1 1 0 1 1 
129 20 4369 1 0 1 0 1 1 1 1 1 0 1 1 1 1 1 1 1 1 1 1 
130 20 4656 1 1 1 1 1 1 1 0 1 1 1 0 1 1 1 1 1 1 0 1 
131 20 5374 1 0 1 1 1 1 1 0 1 1 1 1 1 1 1 1 1 0 1 1 
132 20 5093 1 1 1 1 1 1 0 1 1 1 1 1 1 1 0 1 0 1 1 1 
133 20 4747 1 1 1 0 1 1 1 1 1 1 1 0 0 1 1 1 1 0 1 1 
134 20 4368 1 1 1 1 0 1 1 1 1 1 1 1 1 0 1 1 1 0 1 1 
135 20 3402 0 0 1 1 1 1 1 0 1 1 1 1 1 1 1 1 1 1 1 1 
136 20 4165 1 1 1 1 1 1 0 1 1 0 1 1 1 1 1 1 0 1 1 1 
137 20 5493 1 1 1 0 1 1 1 1 1 1 0 1 0 1 1 1 1 1 1 1 
138 20 4431 1 1 0 1 1 1 1 0 0 1 1 1 1 1 1 0 1 1 1 1 
139 20 4552 1 1 1 1 1 1 1 1 1 0 1 1 1 1 1 1 1 0 1 0 
140 20 4070 1 1 1 1 1 1 1 1 1 1 0 1 1 0 1 1 1 1 1 0 
141 20 4430 0 1 1 1 1 1 1 1 1 1 1 1 1 1 1 0 1 1 0 1 
142 20 4946 0 1 1 0 1 1 1 1 1 1 1 0 1 1 1 1 1 1 1 1 
143 20 4998 1 1 1 1 1 1 1 0 1 1 1 1 0 1 1 1 1 1 1 0 
144 20 3429 0 1 1 1 1 1 0 0 1 1 1 1 1 1 1 0 1 1 1 1 
145 20 4616 0 1 1 1 1 1 0 1 1 1 1 1 0 1 1 1 1 1 1 0 
146 20 4428 1 1 1 1 1 1 0 1 1 1 1 0 1 1 1 1 0 1 1 1 
147 20 4360 1 1 1 1 1 1 0 1 0 1 1 1 1 1 1 1 1 1 1 0 
148 20 3753 1 1 1 1 1 1 1 1 1 0 1 0 1 1 0 1 1 1 1 1 
149 20 4845 1 1 1 1 1 0 1 0 1 1 1 1 1 1 0 1 1 1 0 1 
150 20 4624 1 1 1 1 0 0 1 0 1 1 1 1 1 1 1 1 1 1 1 1 
151 20 4673 1 1 1 1 1 1 1 1 1 0 1 1 1 0 1 1 0 1 1 1 
152 20 4441 1 1 1 1 1 1 1 0 1 1 1 1 1 0 1 1 1 1 1 0 
153 20 4446 1 1 1 1 1 1 1 0 1 1 0 1 1 1 1 1 1 0 0 1 
154 20 4954 1 1 1 1 1 1 0 1 0 1 1 1 0 1 1 1 1 1 1 0 
155 20 3951 0 1 1 1 1 1 1 1 1 1 1 1 1 0 1 1 1 0 1 1 
156 20 3988 1 0 1 1 1 1 1 1 0 1 1 1 1 1 1 1 1 1 0 1 
157 20 3848 1 1 0 0 1 1 1 1 0 1 1 1 1 1 1 0 1 1 1 1 
158 20 3873 0 0 1 1 1 0 1 1 1 1 1 1 1 1 1 1 1 1 1 1 
159 20 5142 1 1 1 1 1 1 0 0 0 1 1 1 1 1 1 1 1 1 1 1 
160 20 5522 1 1 1 1 0 1 1 1 1 1 1 1 1 1 1 1 0 1 0 1 
161 20 4956 1 1 1 1 1 0 1 1 1 1 1 1 0 1 0 0 1 1 1 1 
162 20 5505 1 1 1 1 1 1 1 0 1 1 1 1 1 0 1 1 1 0 1 1 
163 20 5820 1 1 1 1 1 1 0 1 1 0 1 1 1 1 0 1 1 1 1 1 
164 20 3934 1 1 1 1 1 1 0 1 0 1 1 1 1 1 1 1 1 0 1 1 
165 20 4713 1 0 1 1 0 1 0 1 1 1 1 1 1 1 0 1 0 1 1 1 
166 20 5056 1 0 1 0 1 1 0 1 1 1 0 1 1 1 1 1 1 1 1 1 
167 20 4178 1 1 0 1 1 1 1 1 0 1 1 1 1 1 1 0 0 1 1 1 
168 20 5026 1 1 0 1 1 1 1 0 1 1 0 1 1 1 1 1 1 1 1 1 
169 20 5047 1 0 1 0 1 1 1 1 1 0 1 1 1 1 1 1 1 1 0 1 
170 20 5430 1 1 1 1 1 1 1 1 1 1 0 1 0 1 1 1 1 1 1 0 
171 20 5916 1 1 0 1 1 1 0 1 1 1 1 1 1 0 1 1 1 1 1 1 
172 20 4073 1 1 1 1 1 1 1 1 1 1 1 1 1 1 0 0 1 1 1 1 
173 20 3835 1 1 1 1 0 1 1 1 1 1 1 1 1 0 0 1 1 0 1 1 
174 20 4500 1 1 1 1 1 1 0 1 1 0 1 1 1 1 1 1 1 0 1 1 
175 20 4203 1 0 1 1 1 1 1 1 1 1 1 1 1 1 1 1 0 1 1 1 
176 20 5820 1 0 1 1 0 1 1 1 1 1 1 1 1 1 1 1 1 1 1 1 
177 20 5103 0 1 1 1 1 0 1 1 1 0 1 1 0 1 1 1 1 1 1 1 
178 20 4888 0 1 1 1 1 1 1 1 1 1 1 0 0 1 1 1 1 1 1 1 
179 20 5045 1 1 1 1 1 1 0 0 1 1 1 1 1 1 1 1 1 1 1 1 
180 20 4032 1 1 1 1 1 1 1 1 1 1 1 1 0 0 1 0 1 1 1 1 
181 20 4250 1 1 0 0 0 1 1 1 1 1 1 1 1 1 1 1 1 0 1 1 
182 20 4872 0 1 1 1 1 1 1 1 0 1 1 1 1 1 1 1 1 0 1 1 
183 20 4513 1 1 0 1 1 1 1 1 1 1 1 1 1 1 1 0 1 1 0 0 
184 20 4212 1 1 1 1 1 0 1 1 1 0 1 1 1 1 1 0 1 0 0 1 
185 20 4198 1 1 1 0 1 1 1 0 1 1 1 1 1 1 1 1 1 1 0 1 
186 20 6719 1 1 1 1 1 1 1 0 0 1 1 1 1 1 1 1 1 1 1 1 
187 20 4869 1 1 1 1 1 0 0 1 1 1 1 1 1 1 0 1 1 1 1 1 
188 20 5142 1 1 1 1 0 1 1 1 1 1 0 1 1 0 1 1 1 1 1 1 
189 20 3749 0 1 1 1 1 1 1 1 1 1 0 1 1 1 1 1 1 1 0 1 
190 20 4593 1 1 1 0 1 1 1 0 1 1 1 1 0 1 1 1 1 1 1 1 
191 20 4662 1 1 0 1 1 1 1 1 1 1 1 1 0 1 1 1 1 1 0 1 
192 20 5184 1 1 0 1 1 1 1 1 1 1 1 1 1 0 0 1 1 1 1 1 
193 20 4834 0 1 1 1 1 1 1 1 1 0 1 1 1 1 1 1 0 1 1 0 
194 20 4223 1 0 1 1 1 1 1 1 1 1 1 1 1 1 0 1 1 1 1 0 
195 20 4033 1 1 0 1 1 1 1 1 1 1 1 1 1 1 1 0 1 0 1 1 
196 20 3897 1 1 1 1 1 1 1 1 0 1 1 1 0 1 0 1 1 1 1 1 
197 20 4775 0 1 1 1 1 1 0 1 1 1 1 0 1 1 1 1 1 1 1 1 
198 20 5287 1 1 1 1 1 1 1 1 0 1 1 0 1 1 1 1 1 1 1 0 
199 20 5002 0 0 1 1 1 1 1 1 1 1 1 1 1 1 0 1 1 1 1 1 
200 20 4506 0 1 1 0 1 1 1 1 0 0 1 1 1 1 1 1 1 1 1 1 
201 20 4186 1 1 1 1 1 1 0 1 1 1 1 1 1 1 0 1 1 1 0 1 
202 20 5293 1 1 0 1 1 1 1 1 1 1 0 1 1 1 1 1 0 0 1 1 
203 20 4923 1 1 1 1 1 1 1 0 0 1 1 1 0 1 1 1 1 1 1 1 
204 20 5257 1 1 1 1 1 1 1 1 1 0 0 1 1 1 1 1 1 1 1 1 
205 20 5234 1 1 1 0 1 1 1 1 1 1 1 0 0 1 0 1 1 1 1 1 
206 20 4905 1 1 1 0 1 1 1 1 1 1 1 0 1 0 1 1 1 1 1 1 
207 20 4797 1 1 1 1 1 1 1 1 1 0 1 1 1 1 0 1 1 1 1 0 
208 20 4813 1 1 1 1 0 1 1 0 1 1 1 1 1 1 1 1 1 1 1 1 
209 20 4448 0 1 1 1 1 1 0 1 1 1 0 1 1 1 1 1 1 1 1 1 
210 20 4674 1 1 0 0 1 1 1 1 1 1 1 1 1 1 1 0 1 1 0 1 
211 20 4797 1 1 1 1 1 1 0 1 1 1 1 0 1 1 1 1 1 0 1 1 
212 20 4939 1 1 1 1 1 1 1 1 1 1 1 0 0 1 1 1 1 1 0 1 
213 20 5296 1 1 1 1 1 1 1 0 1 1 1 1 1 1 1 0 1 1 1 0 
214 20 4533 1 1 1 1 0 1 1 1 1 1 1 1 0 1 1 1 1 1 0 1 
215 20 4896 1 1 1 0 0 1 1 1 0 1 1 0 1 1 1 1 1 1 1 1 
216 20 4763 1 1 1 1 1 1 1 1 1 1 1 1 1 0 0 1 1 1 1 1 
217 20 5266 0 1 1 1 1 1 1 1 1 0 1 1 1 1 1 0 1 1 1 1 
218 20 4540 1 1 1 1 1 1 1 1 0 0 1 1 1 1 1 0 1 1 1 1 
219 20 3672 1 1 1 1 0 1 1 1 0 1 1 1 1 0 1 1 1 1 1 1 
220 20 5700 1 1 1 1 1 0 1 1 1 1 1 1 1 1 1 0 1 1 0 1 
221 20 5281 1 1 1 1 1 1 1 1 0 1 1 0 0 1 1 1 1 1 1 1 
222 20 5018 1 1 1 1 1 0 1 0 0 0 1 1 1 1 1 1 1 1 1 1 
223 20 6410 1 1 1 1 1 1 1 1 1 1 1 1 1 1 0 1 0 1 1 1 
224 20 4543 1 1 0 0 1 1 1 1 1 1 1 1 1 1 1 1 1 0 1 0 
225 20 5231 1 0 1 1 1 1 1 1 1 1 1 0 1 1 0 1 1 0 1 1 
226 20 3774 1 1 0 1 1 0 1 1 0 1 1 1 0 1 1 1 1 1 1 1 
227 20 4462 1 0 1 0 1 1 1 1 0 1 1 1 1 1 1 1 1 1 1 1 
228 20 5086 1 0 1 1 1 1 1 1 1 1 0 1 1 1 0 1 1 1 1 1 
229 20 4522 1 1 1 1 1 1 0 1 1 0 1 1 1 1 1 1 0 1 1 1 
230 20 5149 0 0 1 1 1 1 1 1 1 1 1 1 0 1 1 1 1 1 1 1 
231 20 4999 1 1 1 0 1 0 1 1 1 1 1 1 1 1 1 1 1 1 1 0 
232 20 5631 1 1 1 1 1 1 1 1 0 1 1 1 1 0 1 0 1 1 1 1 
233 20 4448 1 1 1 1 1 1 1 1 1 0 1 1 0 1 1 1 1 1 1 0 
234 20 4710 0 1 0 1 1 0 1 1 1 1 1 1 1 0 1 1 1 1 1 1 
235 20 5004 0 1 1 1 0 1 0 1 1 1 1 1 1 1 1 1 1 1 1 1 
236 20 4479 1 1 1 1 1 1 1 1 1 0 0 1 0 1 1 1 1 1 1 1 
237 20 4286 0 1 1 1 1 1 1 0 1 1 1 0 1 1 1 1 1 1 1 0 
238 20 4410 1 1 1 1 1 1 1 0 1 1 1 1 1 0 1 0 1 0 1 1 
239 20 4638 1 1 1 1 1 1 1 1 1 1 0 1 1 0 1 1 1 1 0 1 
240 20 4967 1 1 1 1 1 1 1 0 1 1 1 1 0 1 0 1 1 1 1 1 
241 20 3630 1 1 1 1 1 1 1 1 1 1 0 1 1 1 1 0 0 1 1 1 
242 20 4525 0 1 1 1 1 1 1 1 1 0 1 1 1 1 1 1 1 1 0 1 
243 20 4217 0 1 1 1 1 1 1 1 1 1 1 0 1 1 0 1 1 1 1 1 
244 20 4745 1 1 1 1 1 1 1 1 1 0 1 1 1 1 1 1 1 1 1 0 
245 20 5260 1 1 1 1 1 1 0 1 1 1 0 1 1 1 1 0 1 1 1 1 
246 20 5157 1 1 1 1 1 1 1 1 1 0 1 1 0 0 1 1 1 1 1 1 
247 20 4764 1 1 0 0 1 1 1 1 0 1 1 1 1 1 0 1 1 1 1 1 
248 20 4780 1 1 1 1 1 1 0 0 1 1 1 1 1 1 1 1 1 0 1 1 
249 20 5519 1 1 1 1 1 1 1 1 1 1 0 1 1 1 0 0 1 1 1 1 
250 20 5272 0 1 1 1 1 1 1 1 1 1 1 1 1 1 1 1 0 1 0 1 
251 20 5488 1 1 1 1 1 1 1 1 0 1 1 1 1 1 1 1 1 1 0 1 
252 20 4885 1 1 1 1 1 1 1 0 1 1 1 0 1 1 1 1 0 1 1 1 
253 20 5211 1 1 1 1 1 1 1 1 0 1 1 0 1 1 0 1 1 1 1 1 
254 20 5312 0 1 0 1 1 1 1 1 1 1 1 1 1 1 1 1 1 1 0 1 
255 20 5145 1 1 0 0 1 1 1 1 1 0 1 1 1 1 1 0 1 1 1 1 
256 20 4182 1 1 1 1 1 0 1 0 1 1 1 0 1 1 1 1 0 1 1 1 
257 20 4048 1 0 1 1 1 1 1 1 1 1 0 1 1 1 0 1 1 1 1 1 
258 20 3683 1 1 0 1 1 1 1 0 1 1 1 1 1 1 1 1 0 1 1 1 
259 20 4812 1 1 1 1 1 1 1 1 1 0 1 1 1 0 1 1 1 0 1 1 
260 20 5002 1 1 1 1 1 1 1 0 1 1 1 1 1 0 1 1 1 1 0 1 
261 20 4654 1 1 1 0 1 1 0 1 1 1 1 1 1 1 1 1 1 1 1 0 
262 20 4067 0 1 1 1 0 1 1 1 1 1 1 1 1 0 1 1 1 0 1 1 
263 20 4963 1 0 1 1 1 1 0 1 1 1 1 1 1 1 0 1 1 1 1 1 
264 20 3628 1 1 1 1 1 1 1 1 1 1 1 1 1 1 1 1 0 1 0 1 
265 20 5608 1 1 1 0 1 1 1 1 0 1 1 1 1 0 0 1 1 1 1 1 
266 20 5653 1 1 0 1 1 1 1 1 0 0 1 0 1 1 1 1 1 1 1 1 
267 20 4850 0 1 1 1 1 1 1 1 1 0 0 1 1 1 1 1 1 1 1 1 
268 20 5131 0 0 1 1 1 1 1 0 0 1 1 1 0 1 1 1 1 1 1 1 
269 20 4216 1 0 1 1 1 1 1 1 1 1 1 1 0 1 1 0 1 1 1 1 
270 20 4821 1 1 1 1 1 1 1 0 1 1 1 1 0 1 0 1 1 1 0 1 
271 20 5620 1 1 1 1 1 1 1 0 1 1 0 1 1 0 1 1 1 1 1 0 
272 20 5170 1 0 1 1 1 1 1 1 1 1 1 1 1 1 0 0 1 0 1 1 
273 20 4682 1 0 1 1 1 1 0 0 1 1 1 1 1 0 1 1 1 1 1 1 
274 20 4873 0 1 1 1 1 1 1 1 1 1 0 1 1 1 1 1 1 1 1 0 
275 20 5603 1 0 1 1 1 1 1 1 1 1 1 1 0 1 1 1 1 1 1 1 
276 20 5196 1 1 1 1 1 0 0 1 1 0 1 1 1 1 1 1 1 1 1 1 
277 20 5132 0 1 1 1 1 0 1 1 1 0 1 1 1 1 1 1 1 0 1 1 
278 20 4677 1 1 1 1 1 1 1 1 1 0 1 1 1 0 1 1 1 1 1 1 
279 20 5487 1 1 1 1 1 1 1 1 0 0 1 1 0 1 1 1 1 1 1 1 
280 20 5060 1 1 1 0 1 1 1 1 1 0 1 0 1 1 1 1 1 1 1 1 
281 20 4449 1 1 0 1 1 1 1 1 1 1 1 1 1 0 1 1 1 0 1 1 
282 20 4263 1 0 1 1 1 1 1 1 1 1 0 0 1 1 1 1 1 1 1 1 
283 20 4252 1 1 1 1 0 1 1 0 1 1 1 1 1 1 0 1 1 1 0 1 
284 20 5107 0 1 1 1 1 1 1 1 1 1 1 1 1 1 1 1 1 1 0 1 
285 20 5623 1 1 1 1 1 1 0 1 1 1 1 1 1 1 0 1 0 0 1 1 
286 20 5146 0 1 0 1 1 0 0 0 1 1 1 1 1 0 1 1 1 1 1 1 
287 20 6139 1 1 1 1 1 1 1 1 1 1 0 0 1 1 1 1 1 1 1 1 
288 20 4310 1 0 1 0 1 1 1 1 1 1 1 1 1 1 1 0 1 1 1 0 
289 20 4238 1 1 1 1 1 0 1 1 1 1 1 1 1 0 1 1 1 0 1 1 
290 20 5735 1 1 1 1 1 1 1 1 1 1 1 1 0 1 0 0 1 1 1 1 
291 20 3983 1 1 1 1 1 1 1 0 1 0 1 0 1 1 1 1 1 0 0 1 
292 20 4355 1 0 1 1 1 1 1 1 1 1 1 1 1 1 0 0 1 1 1 1 
293 20 5075 0 1 1 1 1 1 1 1 1 0 1 1 1 1 1 1 0 1 1 1 
294 20 4946 0 1 1 0 1 0 1 1 1 1 1 1 1 1 1 1 1 1 1 1 
295 20 5123 1 1 1 1 1 0 1 1 1 1 1 0 1 1 1 1 1 1 0 1 
296 20 5152 1 0 1 0 1 1 1 1 1 1 1 1 0 1 0 1 1 1 1 1 
297 20 4936 1 1 1 1 0 1 1 1 1 1 1 0 1 1 0 1 1 1 1 1 
298 20 5737 0 1 1 1 1 1 1 1 1 1 1 1 1 1 0 0 1 1 1 1 
299 20 4704 1 1 1 1 1 1 1 1 1 0 1 0 1 0 1 1 1 1 1 1 
300 20 4619 1 1 0 0 0 1 1 1 1 1 1 1 1 1 1 1 1 1 0 1 
301 20 5050 0 1 1 1 1 1 1 1 1 1 1 1 1 0 1 1 1 1 1 1 
302 20 5189 1 1 1 1 1 1 0 1 1 1 0 0 1 1 1 1 1 1 1 1 
303 20 4845 1 0 1 1 1 1 1 1 1 1 1 1 0 0 1 1 1 1 1 1 
304 20 5212 1 1 1 1 1 1 1 1 1 0 1 1 1 1 1 1 0 1 1 0 
305 20 5212 1 1 1 1 0 1 1 1 1 1 1 1 0 1 1 1 1 1 0 1 
306 20 4928 1 1 1 1 0 1 0 1 1 1 0 1 1 1 1 1 0 1 1 1 
307 20 4548 0 1 1 1 1 1 1 0 1 1 1 1 1 0 1 1 1 1 1 1 
308 20 4297 1 0 1 1 1 1 1 1 1 1 1 1 0 1 1 1 0 1 0 1 
309 20 4177 1 0 0 0 1 1 1 1 1 1 1 1 1 1 1 1 1 1 1 1 
310 20 5089 1 1 0 1 1 1 1 1 1 1 1 1 1 1 1 0 1 0 1 1 
311 20 3882 1 1 0 1 1 0 1 0 1 1 1 1 1 1 0 1 1 1 1 1 
312 20 4942 1 1 1 0 0 1 1 1 1 1 1 0 1 0 1 0 1 1 1 1 
313 20 4266 1 1 1 1 1 1 1 1 1 1 1 1 1 1 1 1 1 0 0 0 
314 20 4225 1 1 1 0 0 1 1 1 1 1 0 1 1 1 1 1 0 1 1 1 
315 20 4849 1 1 1 0 1 0 1 1 1 1 1 1 1 0 1 1 1 1 1 1 
316 20 4906 1 1 1 1 0 1 1 0 1 1 1 1 1 1 1 1 1 1 0 1 
317 20 4596 1 0 0 1 1 1 1 0 1 0 1 1 1 1 1 1 0 1 1 1 
318 20 4422 1 0 1 1 1 1 1 1 1 1 1 1 1 0 0 1 1 0 1 1 
319 20 4014 1 0 1 1 1 1 1 1 1 0 1 1 1 0 1 1 0 1 1 1 
320 20 4197 1 1 1 1 0 1 1 1 0 1 1 1 1 1 1 1 0 1 1 1 
321 20 4752 1 1 1 1 1 0 1 1 1 1 1 1 1 1 1 0 1 1 1 0 
322 20 4204 1 1 1 0 1 1 1 1 1 1 1 1 1 0 0 1 1 1 1 1 
323 20 5356 1 0 1 1 1 1 1 1 1 1 1 1 1 1 0 1 0 1 1 1 
324 20 4945 0 1 1 1 1 1 1 1 1 1 1 1 1 1 1 0 0 1 1 1 
325 20 3885 1 1 1 1 1 1 1 1 0 0 1 1 1 1 1 0 1 1 0 1 
326 20 4947 1 1 1 1 1 1 1 1 1 0 1 1 1 0 1 1 0 1 1 1 
327 20 5156 1 0 1 1 1 1 1 1 1 1 1 1 1 0 1 1 0 1 1 1 
328 20 4389 0 1 0 1 0 1 1 1 1 1 1 1 1 1 1 1 1 1 1 1 
329 20 3832 1 1 1 0 1 1 1 1 1 0 1 0 1 1 1 1 1 1 1 1 
330 20 4721 1 1 0 1 1 1 1 1 1 1 1 0 1 1 1 0 1 1 1 1 
331 20 4269 1 1 1 0 1 1 1 1 0 0 1 1 1 1 1 1 1 1 1 1 
332 20 4051 1 0 1 1 1 1 1 0 1 0 1 1 1 1 0 1 1 1 1 1 
333 20 4409 1 1 0 0 1 1 1 1 1 0 1 1 1 1 0 1 1 1 1 1 
334 20 5044 1 1 0 1 1 1 1 1 1 1 1 1 1 0 1 1 1 1 1 0 
335 20 4901 1 1 1 1 1 1 1 1 0 1 1 1 1 1 0 0 1 1 1 1 
336 20 4938 0 1 1 1 1 1 1 1 1 1 1 1 1 1 1 1 1 0 1 0 
337 20 4655 1 0 1 1 0 1 1 1 1 1 1 1 1 1 1 1 1 1 1 0 
338 20 3908 1 1 0 1 1 1 1 1 0 1 1 1 1 1 0 1 1 1 0 1 
339 20 4903 0 1 1 1 1 1 1 1 1 1 1 1 1 0 1 1 0 1 1 1 
340 20 5254 1 1 1 1 1 0 1 1 1 0 1 1 1 1 1 0 1 1 1 1 
341 20 5484 0 1 0 1 1 1 1 1 1 1 1 1 1 1 1 1 1 1 0 1 
342 20 4622 1 1 1 1 1 1 1 0 1 1 0 1 1 1 0 1 1 1 1 1 
343 20 5402 1 1 0 1 1 1 1 1 1 1 1 1 1 1 0 1 1 1 1 0 
344 20 3776 1 1 1 1 1 1 1 1 1 0 1 0 0 1 1 1 1 1 1 1 
345 20 3732 1 1 1 1 0 1 1 1 0 1 0 1 1 1 1 1 1 1 1 1 
346 20 4753 1 1 1 1 0 1 1 1 0 1 1 1 1 1 0 1 0 1 1 1 
347 20 3662 1 1 0 0 1 1 1 1 1 1 1 1 1 1 1 0 1 1 0 1 
348 20 4732 1 0 1 1 1 1 1 1 1 1 1 1 1 1 1 0 1 0 1 0 
349 20 4835 1 1 1 0 1 1 1 1 1 1 1 1 1 1 1 1 1 1 0 0 
350 20 4901 1 0 1 1 1 0 1 1 1 1 0 1 1 1 1 1 1 1 1 1 
351 20 4764 1 1 1 1 0 1 1 1 1 0 1 1 1 1 1 0 1 1 1 1 
352 20 4009 1 1 1 1 1 1 1 1 1 1 0 1 1 1 0 1 1 1 1 0 
353 20 4546 1 1 1 1 1 1 1 1 1 1 0 1 1 1 1 1 0 1 0 1 
354 20 4787 1 0 1 1 1 1 1 1 1 1 1 1 1 0 1 0 1 1 1 0 
355 20 4796 1 1 1 0 1 1 1 1 1 1 1 1 1 1 1 1 0 1 1 0 
356 20 4841 1 1 0 1 1 1 1 1 1 1 0 1 1 0 0 1 1 1 1 1 
357 20 4799 1 1 0 1 1 0 0 1 1 1 1 1 1 1 1 1 1 1 1 1 
358 20 5545 1 1 1 1 1 1 1 1 1 1 1 1 0 1 1 0 1 1 0 1 
359 20 5753 1 1 1 0 1 1 1 1 1 0 1 1 1 1 1 1 1 0 1 1 
360 20 4437 1 0 1 1 1 1 1 0 1 1 0 1 1 1 1 1 0 1 1 1 
361 20 4129 0 1 1 1 1 1 0 1 1 1 1 1 1 1 1 1 1 1 0 1 
362 20 4874 1 1 1 1 1 1 1 1 1 1 0 1 1 1 1 1 1 1 0 0 
363 20 5765 1 1 1 1 0 0 1 0 1 1 1 1 1 1 1 1 1 1 1 1 
364 20 3901 1 1 1 1 1 1 1 0 1 0 1 1 1 0 1 1 1 1 0 0 
365 20 4785 0 1 1 1 1 1 1 1 1 1 0 0 1 1 1 1 1 1 1 1 
366 20 5128 1 1 1 1 1 1 1 1 1 1 0 1 1 0 1 1 1 1 1 0 
367 20 4637 1 0 1 1 1 1 1 1 1 0 1 1 1 1 1 1 1 0 1 1 
368 20 4259 0 1 1 1 1 1 1 1 1 1 0 1 1 0 1 1 0 1 1 1 
369 20 4717 1 1 1 1 1 1 0 1 0 1 1 0 1 1 1 0 1 1 1 1 
370 20 3921 1 1 1 1 1 0 0 0 1 1 1 1 1 1 0 1 1 0 1 1 
371 20 4920 1 1 1 1 0 1 1 1 1 1 1 1 1 1 0 0 1 1 0 1 
372 20 4959 1 1 1 1 1 1 1 1 1 1 0 0 1 1 1 1 0 1 1 1 
373 20 5011 1 1 1 1 1 1 0 1 1 0 1 0 1 1 1 1 1 0 1 1 
374 20 5166 1 0 1 1 1 1 1 1 1 1 1 1 1 1 0 1 1 1 1 1 
375 20 4927 1 1 1 1 1 0 1 1 1 0 1 1 1 1 1 1 1 1 1 0 
376 20 4956 1 1 1 1 1 1 1 1 1 1 0 1 1 1 1 1 1 0 1 0 
377 20 5599 1 0 0 1 1 1 1 1 1 1 1 0 1 1 1 1 1 1 1 1 
378 20 4836 1 0 0 1 0 1 1 1 1 1 1 1 1 1 1 1 1 1 1 1 
379 20 4296 1 1 0 1 1 0 1 1 1 1 1 1 1 1 1 1 1 0 1 1 
380 20 4372 1 1 1 1 1 1 0 1 1 0 1 1 1 1 1 0 1 1 1 1 
381 20 4591 1 0 1 1 1 1 1 0 1 1 1 0 1 1 1 0 1 1 1 1 
382 20 5170 1 0 1 0 1 1 0 1 1 1 0 1 1 1 1 1 1 1 1 1 
383 20 3406 1 1 0 1 1 1 1 1 0 1 1 1 1 0 1 1 1 0 1 1 
384 20 4443 1 1 1 0 0 1 1 1 1 1 1 1 1 1 1 1 0 1 1 1 
385 20 4575 1 1 1 1 1 1 0 0 1 0 1 1 1 1 1 1 1 1 0 1 
386 20 4542 1 1 1 1 1 1 1 1 1 0 0 1 0 1 1 1 1 1 1 1 
387 20 5143 1 1 1 1 1 1 1 0 1 1 1 1 1 0 1 1 1 1 0 1 
388 20 5145 0 0 1 1 1 1 1 1 1 1 0 1 1 1 1 1 1 1 1 1 
389 20 4914 1 1 1 1 0 1 1 1 1 1 1 1 0 1 1 0 1 1 1 1 
390 20 5370 1 1 1 1 1 1 0 1 1 1 1 1 0 1 1 1 0 1 1 1 
391 20 3894 1 1 1 1 1 0 1 0 1 1 1 1 1 1 1 1 1 1 0 1 
392 20 5869 1 1 1 0 0 0 1 1 0 1 1 1 1 1 1 1 1 1 1 1 
393 20 5470 1 1 0 0 1 1 1 1 0 1 1 1 1 1 1 0 1 1 1 1 
394 20 5268 1 1 1 0 1 1 0 1 1 0 0 1 1 1 1 1 1 1 1 1 
395 20 5092 1 1 1 1 0 1 1 1 1 1 0 1 1 1 1 1 1 0 1 1 
396 20 5247 1 1 1 0 1 1 0 1 1 1 1 1 1 1 1 1 0 1 1 1 
397 20 5314 1 1 1 0 0 1 1 1 1 1 1 1 1 1 1 1 0 1 1 1 
398 20 4604 1 1 1 1 1 1 1 1 0 1 1 1 1 1 1 1 1 1 1 0 
399 20 4303 1 1 1 0 1 1 1 1 1 1 1 1 1 1 0 0 1 1 1 1 
400 20 4717 1 1 1 1 1 0 1 0 1 0 1 1 1 1 1 1 1 1 1 0 
401 20 5442 1 1 1 1 1 0 1 1 1 1 1 1 0 1 1 1 1 1 1 1 
402 20 4619 0 1 0 1 1 1 1 1 1 1 1 1 1 1 1 1 1 1 1 0 
403 20 5418 1 0 1 1 1 1 1 1 1 1 0 1 1 1 1 1 1 1 1 1 
404 20 6258 0 1 1 1 1 1 1 1 1 1 1 1 1 1 1 1 0 1 1 0 
405 20 5372 0 1 1 1 1 1 1 1 1 0 1 1 1 1 1 1 1 1 1 0 
406 20 5016 0 1 1 1 1 1 1 1 1 0 1 1 1 0 1 1 1 1 1 1 
407 20 4390 1 1 1 0 1 1 1 1 1 1 1 1 1 0 1 0 1 1 0 1 
408 20 4294 1 1 1 1 1 0 1 1 1 1 1 1 1 1 1 1 0 1 1 0 
409 20 4229 1 1 1 0 1 1 1 1 0 1 1 1 1 0 1 1 1 1 1 1 
410 20 4564 1 1 1 1 1 0 1 1 1 1 1 0 1 1 0 1 1 1 1 1 
411 20 5205 1 0 1 1 1 1 0 1 1 1 1 1 1 1 1 1 1 1 1 1 
412 20 4907 1 1 1 1 1 0 0 1 1 1 1 1 1 1 1 1 1 1 0 1 
413 20 4142 1 1 0 1 0 1 1 1 1 0 1 1 1 1 1 1 0 1 0 1 
414 20 5073 1 0 1 1 1 1 1 1 1 1 1 1 1 1 1 1 0 1 1 0 
415 20 4588 1 1 0 1 1 0 1 1 1 1 1 1 1 0 1 1 1 1 1 1 
416 20 4131 1 1 1 1 1 0 1 1 0 1 1 1 1 0 1 1 1 1 1 1 
417 20 4532 1 1 1 1 0 1 1 1 1 1 1 1 1 1 1 0 0 1 1 1 
418 20 3982 1 1 1 1 1 0 1 1 1 0 0 1 1 1 1 1 1 1 1 1 
419 20 4784 1 1 0 1 0 1 1 1 1 1 1 1 1 0 1 1 1 1 1 1 
420 20 5130 1 1 1 0 1 1 1 1 1 1 1 1 0 1 1 1 1 1 0 1 
421 20 4091 1 1 1 1 1 1 1 0 1 1 1 1 1 1 1 1 0 1 0 1 
422 20 4648 0 1 0 1 1 1 1 1 0 1 1 0 1 1 1 1 1 0 1 1 
423 20 4210 1 1 1 1 0 1 1 1 1 1 1 1 1 1 1 1 1 0 1 1 
424 20 4916 1 1 1 1 0 1 0 1 1 1 1 1 1 0 1 0 1 1 0 1 
425 20 3754 1 1 1 1 1 1 1 1 1 1 1 1 1 1 1 0 1 1 0 1 
426 20 4283 1 1 1 1 1 1 0 1 0 1 1 1 1 1 1 1 1 1 1 0 
427 20 5279 1 1 1 1 1 0 1 1 1 1 0 1 1 1 1 1 0 1 1 1 
428 20 5176 1 1 0 1 1 1 1 1 1 1 1 1 0 1 1 1 0 1 1 1 
429 20 4545 1 1 0 1 1 1 0 1 1 1 1 0 1 1 1 1 1 0 1 1 
430 20 5652 0 1 1 1 1 1 0 1 1 1 1 1 1 1 1 0 1 1 0 1 
431 20 4608 1 1 1 1 1 1 1 0 1 1 0 1 0 1 1 1 0 1 1 1 
432 20 4982 1 1 1 1 1 1 1 1 1 1 1 1 1 1 1 1 0 0 1 0 
433 20 5819 1 1 1 1 1 0 1 1 0 1 1 1 1 1 0 1 1 1 1 1 
434 20 5431 1 1 1 0 1 1 1 1 0 1 1 1 1 1 1 0 0 1 1 1 
435 20 4308 0 1 1 1 1 1 1 1 1 1 1 1 1 0 1 1 1 1 0 1 
436 20 4783 1 1 1 0 0 0 1 1 1 1 1 1 1 1 1 1 1 1 1 1 
437 20 4569 1 1 1 0 1 1 0 1 1 1 1 0 1 1 0 1 0 1 1 1 
438 20 4994 1 1 1 1 1 1 1 0 1 1 0 1 1 1 1 1 1 1 1 1 
439 20 4512 1 1 1 1 1 1 1 0 1 0 1 1 1 1 1 1 1 0 1 1 
440 20 5088 1 1 1 1 1 1 1 0 1 0 0 1 1 1 1 1 1 1 1 1 
441 20 4575 1 1 1 1 1 1 1 0 1 1 1 0 1 0 1 1 1 1 1 1 
442 20 4314 1 1 1 1 1 1 0 1 1 1 1 0 0 1 1 1 1 1 1 0 
443 20 4717 1 0 1 1 1 1 1 1 1 1 1 1 1 1 1 1 1 0 1 0 
444 20 3760 0 1 1 1 1 1 1 1 1 1 0 1 1 1 1 1 1 0 1 0 
445 20 4404 1 0 1 1 0 1 1 0 1 0 1 1 1 1 1 1 1 1 1 1 
446 20 4585 1 1 1 1 1 0 1 1 1 1 1 1 0 1 1 0 1 1 1 1 
447 20 6049 0 0 1 1 1 1 1 1 0 1 1 1 1 1 1 1 1 1 1 1 
448 20 5403 1 1 1 1 1 1 1 0 0 0 1 1 1 1 1 0 1 1 1 1 
449 20 4569 1 1 1 1 1 1 1 1 1 1 1 0 1 1 1 1 1 0 1 0 
450 20 4374 1 0 1 1 1 1 1 0 1 1 1 1 1 0 1 1 1 1 1 1 
451 20 4547 1 1 0 1 1 1 1 0 1 1 1 1 1 1 1 1 0 1 1 1 
452 20 5720 1 1 1 0 1 1 1 1 1 0 1 1 1 0 1 1 1 1 1 1 
453 20 5519 1 0 1 1 1 0 1 1 1 1 1 1 1 1 1 0 1 1 1 1 
454 20 4382 1 1 1 1 0 1 1 1 1 1 1 0 1 1 1 0 0 1 1 1 
455 20 5586 1 1 0 1 1 1 0 1 1 1 1 1 0 1 1 1 0 1 1 1 
456 20 5172 1 1 1 1 1 1 0 1 1 1 1 0 1 1 1 1 0 1 1 1 
457 20 5334 1 0 1 1 1 1 1 1 1 1 1 1 1 1 1 1 0 1 1 0 
458 20 4853 1 1 1 1 0 1 1 1 1 1 1 1 1 1 0 1 0 1 1 0 
459 20 4616 0 1 1 1 1 1 0 1 1 1 1 1 1 1 1 1 1 1 0 1 
460 20 4323 1 0 1 1 0 1 0 1 1 1 1 1 1 1 1 1 1 1 1 1 
461 20 4403 0 1 1 0 1 1 0 1 1 1 1 1 1 1 1 1 1 1 1 1 
462 20 4515 1 1 1 1 1 1 1 1 0 1 0 0 1 1 1 1 1 1 1 1 
463 20 5557 1 1 0 1 1 1 1 1 1 1 1 1 1 0 1 1 1 1 1 1 
464 20 5856 1 1 1 1 1 1 1 1 0 0 0 1 1 1 1 1 1 1 1 1 
465 20 5853 0 1 1 1 1 1 0 1 1 1 1 1 1 1 1 1 1 1 0 1 
466 20 4185 1 1 1 1 1 1 1 1 1 1 1 1 0 1 1 1 1 1 0 1 
467 20 5227 1 1 1 1 1 0 1 1 1 1 1 1 1 0 1 1 1 0 1 1 
468 20 4792 1 1 1 1 1 1 1 1 1 0 0 1 0 1 1 1 1 1 1 1 
469 20 5077 1 1 1 1 1 1 1 1 0 1 1 1 0 1 1 1 1 1 1 1 
470 20 4922 1 1 0 1 1 1 1 1 1 1 1 1 1 1 0 1 0 1 1 1 
471 20 4909 1 1 1 1 1 1 1 1 1 1 1 1 0 1 1 0 1 0 1 1 
472 20 4581 1 1 1 0 0 1 1 1 1 1 1 1 0 1 1 1 1 1 0 1 
473 20 4817 1 1 1 1 1 0 1 1 1 1 0 1 1 1 1 1 1 1 0 1 
474 20 4709 1 1 1 1 1 0 1 1 1 0 1 1 1 1 1 1 0 1 0 1 
475 20 5225 1 1 0 1 1 1 1 1 0 1 1 1 1 1 1 1 1 1 1 0 
476 20 4237 1 1 1 1 1 1 0 1 0 1 1 1 1 1 1 1 1 0 1 1 
477 20 4613 1 0 1 1 1 1 0 1 1 1 1 1 1 1 0 1 1 1 1 1 
478 20 4981 1 1 1 1 1 1 1 1 1 1 1 0 0 0 1 1 1 1 1 1 
479 20 4691 0 1 1 1 1 1 1 1 1 1 1 1 1 1 1 1 0 0 1 1 
480 20 5609 1 1 1 0 1 0 1 1 1 1 1 1 1 1 1 1 0 0 1 1 
481 20 4374 1 1 1 1 0 1 1 1 1 1 1 1 1 0 0 1 1 1 1 1 
482 20 4663 0 1 1 1 1 1 1 1 1 0 1 1 1 1 1 1 1 0 1 1 
483 20 5060 0 1 1 1 1 1 1 0 1 1 1 0 1 1 1 1 1 1 1 0 
484 20 4758 1 1 1 0 0 1 1 1 1 1 1 1 0 1 1 1 1 1 1 1 
485 20 5589 0 1 1 1 1 1 1 1 0 1 1 1 1 1 1 1 1 1 1 0 
486 20 4454 1 1 1 0 1 1 1 1 1 1 1 1 0 1 1 1 0 1 1 0 
487 20 4106 0 0 1 1 1 0 1 1 1 1 1 1 1 1 1 1 1 1 1 1 
488 20 4028 1 0 1 1 1 1 1 1 1 1 1 0 0 1 1 1 1 1 1 1 
489 20 4606 1 1 1 0 1 1 1 1 1 1 1 0 1 1 0 1 1 1 1 1 
490 20 4707 1 1 1 1 1 1 1 0 1 0 1 1 1 1 1 1 0 1 1 1 
491 20 4389 1 1 1 1 1 1 1 0 1 0 1 0 1 1 1 1 1 1 1 1 
492 20 4589 1 1 1 1 1 1 0 1 1 1 1 1 1 0 1 1 1 1 1 0 
493 20 5116 1 0 0 1 1 1 1 1 1 1 1 1 1 1 1 1 1 1 1 0 
494 20 5634 1 1 1 1 1 1 1 1 1 1 1 0 1 0 1 0 0 1 1 1 
495 20 4342 1 1 1 1 1 0 0 1 1 1 1 1 1 1 1 0 1 1 1 1 
496 20 5070 0 1 1 1 1 1 1 1 1 0 1 1 1 1 1 1 0 1 1 1 
497 20 5619 0 1 1 1 1 0 0 1 1 1 1 1 0 1 1 1 1 1 1 1 
498 20 4555 1 1 0 1 1 1 1 0 1 1 0 0 1 1 1 1 1 1 1 1 
499 20 5157 1 1 1 1 1 0 1 1 1 0 1 0 1 1 0 1 1 1 1 1 
500 20 5236 1 1 1 1 1 1 1 0 1 1 1 0 1 1 1 1 1 0 1 0 
