1 20 6042 1 1 0 1 1 1 0 1 1 1 1 1 1 1 1 1 1 0 1 1 
2 20 8343 1 1 1 1 1 0 1 0 1 1 1 1 1 1 0 1 1 1 1 1 
3 20 8149 1 1 1 0 1 1 1 1 0 1 1 1 0 1 1 1 1 1 1 1 
4 20 7575 1 1 1 1 1 1 1 1 0 0 1 1 1 1 0 1 1 0 1 1 
5 20 9172 1 1 1 1 0 1 1 1 1 1 0 1 1 1 1 1 0 1 1 1 
6 20 8374 1 1 0 1 1 1 1 1 1 1 1 1 1 1 0 1 1 1 1 0 
7 20 7704 1 1 0 1 1 1 1 1 1 1 0 1 1 1 1 1 0 1 1 1 
8 20 6650 1 0 1 1 1 1 1 1 1 1 0 1 1 0 1 1 1 1 1 1 
9 20 6935 1 1 1 0 1 1 1 0 1 1 1 0 1 1 1 1 1 1 1 1 
10 20 6305 1 1 1 1 1 0 1 1 1 1 1 1 1 0 1 0 1 1 1 1 
11 20 6383 1 1 1 1 1 1 1 0 0 1 1 1 1 1 1 1 1 1 0 1 
12 20 5802 1 1 0 1 1 1 0 1 1 1 0 1 1 1 1 1 0 1 1 1 
13 20 7083 1 1 0 1 1 1 1 1 1 0 1 1 1 1 0 1 0 1 1 1 
14 20 6140 1 1 1 1 1 1 1 0 1 1 0 1 1 1 0 1 0 1 1 1 
15 20 9054 1 1 1 1 1 0 0 1 1 1 1 1 1 1 1 1 1 0 1 1 
16 20 6984 1 1 0 1 1 0 1 1 1 1 1 1 1 0 1 1 1 1 1 1 
17 20 6986 1 1 1 0 0 1 1 1 1 1 1 1 0 1 1 1 1 1 1 1 
18 20 7100 1 1 1 1 1 0 1 1 1 1 1 1 0 0 1 1 1 0 1 1 
19 20 7043 1 1 1 1 1 1 1 1 0 1 1 1 1 1 0 1 0 1 1 1 
20 20 7205 1 0 1 1 1 0 1 1 1 1 1 1 1 1 1 1 1 1 1 1 
21 20 7810 1 1 0 1 1 1 0 1 1 1 1 0 1 1 0 1 1 1 1 1 
22 20 5935 1 0 1 1 1 1 1 1 1 1 1 1 0 0 1 0 1 1 1 1 
23 20 8570 1 1 1 0 1 1 1 1 1 1 1 1 1 1 1 1 1 0 1 1 
24 20 7977 1 1 1 1 0 1 1 1 1 1 1 1 1 1 0 1 0 1 1 1 
25 20 6630 1 1 0 1 1 1 1 1 1 1 1 0 0 1 1 1 1 1 1 1 
26 20 8628 1 0 1 1 1 1 1 1 1 1 1 1 1 1 1 1 0 1 1 0 
27 20 8501 1 0 1 0 1 1 1 1 1 1 0 0 1 1 1 1 1 1 1 1 
28 20 7076 1 1 0 1 1 1 1 1 1 1 1 1 1 1 0 1 1 1 0 1 
29 20 8159 1 0 1 1 0 1 1 1 1 1 1 1 1 1 0 1 1 1 1 1 
30 20 7127 1 1 0 1 1 1 1 1 1 1 1 1 1 1 0 1 0 1 1 1 
31 20 7081 0 1 1 1 1 1 1 1 1 1 1 1 1 1 1 1 0 1 0 1 
32 20 7660 1 1 1 1 0 1 1 1 1 1 0 1 1 1 1 0 0 0 1 1 
33 20 7929 1 1 1 1 1 0 0 1 0 1 1 1 1 1 1 1 1 1 1 1 
34 20 7845 0 1 1 1 0 1 1 0 1 1 1 1 1 1 1 1 1 0 1 1 
35 20 7828 0 1 1 1 1 1 1 1 1 1 1 1 0 1 1 1 0 1 1 1 
36 20 6858 1 1 0 1 1 1 0 1 1 1 1 1 1 1 1 1 0 1 1 1 
37 20 7329 1 1 1 1 1 0 1 1 0 1 1 1 0 1 0 1 1 1 1 1 
38 20 6293 1 1 0 1 1 1 1 1 1 1 0 1 1 1 0 1 1 1 0 1 
39 20 6968 1 1 0 1 1 1 1 1 1 1 1 1 1 1 1 1 0 1 1 1 
40 20 7805 1 1 1 1 1 1 1 0 1 1 0 1 1 1 1 1 1 1 0 1 
41 20 6531 1 0 1 1 1 1 1 1 1 1 1 1 0 1 1 1 1 1 0 1 
42 20 6504 1 0 1 1 1 1 1 1 1 1 1 1 1 1 0 1 0 1 1 1 
43 20 6033 0 1 1 1 1 1 1 1 1 1 0 0 1 1 1 1 0 1 1 1 
44 20 5644 1 1 1 1 1 0 1 1 0 1 1 1 1 1 1 0 0 1 1 1 
45 20 7659 1 0 1 0 1 1 0 1 1 1 1 1 1 1 1 1 1 1 1 1 
46 20 6239 0 0 1 1 1 1 1 1 0 1 1 1 1 1 1 1 0 1 1 1 
47 20 6150 1 1 1 1 0 1 1 1 1 1 1 1 1 0 1 1 1 1 0 1 
48 20 7415 1 1 1 1 1 1 1 1 1 1 1 1 1 0 0 1 1 1 1 0 
49 20 7161 1 1 1 1 1 1 1 1 1 0 1 0 1 0 0 1 1 1 1 1 
50 20 6475 1 0 1 1 0 1 1 1 1 1 1 1 0 0 1 1 0 1 1 1 
51 20 7900 1 1 0 1 1 1 1 1 0 1 1 1 1 1 1 1 0 1 1 1 
52 20 7724 1 1 1 1 1 1 1 1 0 1 1 1 1 1 0 0 1 1 1 1 
53 20 8258 1 1 1 1 1 1 1 1 1 1 0 0 1 0 1 1 1 1 1 1 
54 20 7866 1 1 1 1 1 1 1 1 1 1 1 1 0 0 1 0 1 1 1 1 
55 20 6838 1 1 0 1 1 1 1 1 1 1 0 0 1 1 1 1 1 1 1 1 
56 20 5201 1 0 1 1 1 1 1 1 1 1 1 0 1 0 1 1 1 1 1 1 
57 20 6060 1 1 1 1 1 1 0 1 0 1 0 1 1 1 1 1 1 1 1 1 
58 20 8731 1 1 1 1 0 1 1 1 1 1 1 1 0 1 1 1 0 1 1 1 
59 20 7356 1 1 1 0 1 1 1 1 1 1 0 1 1 1 1 1 1 0 1 1 
60 20 7358 1 1 1 1 1 1 1 0 1 1 1 1 1 1 1 0 0 1 0 1 
61 20 6467 1 0 1 0 0 1 1 1 1 1 1 1 1 1 0 1 1 1 1 1 
62 20 7489 1 1 1 1 1 1 1 1 1 0 1 0 1 1 1 1 1 1 0 1 
63 20 7043 1 1 1 1 1 1 1 0 1 1 0 1 1 1 0 1 1 1 1 1 
64 20 7001 1 1 1 1 1 0 1 1 1 1 0 1 1 1 1 1 1 0 1 1 
65 20 7477 1 1 1 1 1 1 0 0 1 1 1 1 1 1 1 1 0 1 1 1 
66 20 5956 1 0 1 1 1 1 1 1 1 1 1 0 1 0 1 1 1 1 1 1 
67 20 7459 0 1 1 1 1 1 0 1 1 1 1 1 1 1 1 1 1 1 1 0 
68 20 8709 1 1 1 1 0 1 1 1 1 0 1 0 1 1 1 1 1 1 1 1 
69 20 7007 1 1 1 1 1 1 1 1 1 1 1 0 1 0 0 1 1 1 1 1 
70 20 7512 0 1 1 1 1 1 1 1 1 0 1 1 0 1 1 1 1 1 1 1 
71 20 7178 1 1 1 1 1 1 1 1 1 1 1 0 1 0 1 0 1 1 1 1 
72 20 7551 1 1 0 1 1 1 1 1 1 1 1 0 1 1 0 1 1 1 1 1 
73 20 7452 1 0 1 1 1 1 0 1 1 1 1 1 1 0 1 0 1 1 1 1 
74 20 5892 1 1 1 0 1 1 1 1 0 1 1 1 1 1 1 1 1 1 0 1 
75 20 8458 1 1 1 1 1 1 1 1 1 1 1 1 1 0 1 1 0 1 1 0 
76 20 8337 1 1 1 1 1 1 0 0 1 1 1 1 1 1 1 0 1 1 1 1 
77 20 6166 0 1 1 1 1 1 1 0 1 1 1 0 1 1 1 0 1 1 0 1 
78 20 8510 1 1 1 1 1 0 1 1 1 1 1 1 0 1 1 1 0 1 1 1 
79 20 6437 1 1 1 1 1 0 1 1 1 1 1 1 1 1 1 1 0 1 1 0 
80 20 6368 1 1 1 0 0 0 1 1 1 1 1 0 1 1 1 1 1 1 1 1 
81 20 6698 1 1 0 1 1 1 1 1 1 0 1 0 1 1 1 1 1 1 1 1 
82 20 8357 1 1 0 1 1 1 1 1 1 1 1 1 1 1 1 1 0 1 0 1 
83 20 6184 1 1 1 1 0 1 1 1 1 1 1 0 1 1 1 1 1 1 1 1 
84 20 7594 1 1 1 1 0 1 1 1 1 0 1 1 1 1 1 1 1 0 1 1 
85 20 7064 1 1 0 1 1 1 1 1 0 1 1 1 0 1 1 1 1 0 1 1 
86 20 7292 0 1 1 1 1 1 1 1 1 1 0 1 1 1 1 1 1 0 0 1 
87 20 8374 1 1 1 1 1 0 1 1 0 1 1 1 1 1 1 1 0 1 0 1 
88 20 7898 0 1 1 1 1 1 1 1 0 1 1 1 1 1 0 1 1 1 0 1 
89 20 6699 1 1 1 0 1 1 0 1 0 1 1 1 1 1 1 1 1 1 1 1 
90 20 5341 1 1 1 1 1 1 1 1 1 1 1 1 1 1 0 1 1 0 1 1 
91 20 8034 0 1 1 1 1 0 0 1 1 1 1 1 1 0 1 1 1 1 1 0 
92 20 8001 1 0 1 1 1 1 0 1 1 1 1 1 0 1 1 1 1 1 1 1 
93 20 8003 1 1 1 1 1 1 1 1 0 1 1 1 1 1 1 1 1 0 1 0 
94 20 8719 1 1 1 0 1 1 1 1 0 1 1 1 1 1 1 1 0 1 1 1 
95 20 5926 1 1 1 1 1 1 1 1 1 1 1 0 1 1 1 1 1 1 0 0 
96 20 7514 1 1 1 0 0 1 1 1 1 1 0 1 1 1 1 1 1 1 1 1 
97 20 7889 1 0 1 1 1 1 1 1 1 1 0 1 1 1 1 1 1 1 0 1 
98 20 8440 1 1 1 0 1 1 1 1 1 1 1 1 1 1 1 0 1 1 1 1 
99 20 8294 1 1 1 1 1 1 1 1 1 1 1 1 1 1 0 1 1 0 1 0 
100 20 7174 1 1 1 1 1 1 1 1 1 1 1 1 0 0 1 1 1 1 0 1 
101 20 7888 1 1 1 1 1 1 0 1 1 1 1 1 1 1 1 1 1 0 0 1 
102 20 6872 1 1 1 1 0 1 1 0 1 0 1 1 1 1 1 1 1 1 1 1 
103 20 6809 1 1 1 1 0 1 1 1 1 0 1 1 1 1 1 1 1 1 1 0 
104 20 6416 0 1 1 1 1 1 1 1 1 1 1 1 1 1 0 1 0 1 1 1 
105 20 7388 1 1 1 1 1 0 1 1 1 0 1 1 1 1 1 1 1 1 1 0 
106 20 6301 1 1 0 1 1 1 1 1 0 1 1 1 1 1 1 0 1 1 1 1 
107 20 6269 1 1 1 1 1 1 1 1 1 1 0 1 1 0 1 1 1 1 1 1 
108 20 8626 1 1 1 1 1 1 0 1 1 1 0 0 0 1 1 1 1 1 1 1 
109 20 6143 1 0 1 1 1 1 1 0 1 1 1 0 1 1 0 1 1 1 1 1 
110 20 7776 1 1 0 1 1 1 1 0 1 1 0 1 1 1 1 1 1 1 1 0 
111 20 7124 1 1 1 1 1 0 1 1 1 1 1 1 1 0 1 1 0 0 1 1 
112 20 7507 1 1 1 0 1 1 1 1 0 1 1 1 0 1 0 1 1 1 1 1 
113 20 6225 1 1 1 1 1 1 1 0 1 0 1 1 0 0 1 1 1 1 1 1 
114 20 6583 1 0 1 1 0 1 1 0 1 1 1 1 1 1 1 1 1 1 1 1 
115 20 7954 1 1 1 1 1 1 1 1 1 1 1 0 0 0 1 1 1 1 1 1 
116 20 7213 1 0 0 0 1 1 1 1 1 1 1 1 1 1 1 1 1 1 1 1 
117 20 6382 1 1 1 1 1 1 1 0 1 1 0 1 1 1 1 1 1 1 1 0 
118 20 6936 1 1 1 0 1 1 1 0 1 1 1 1 1 1 1 1 1 0 1 1 
119 20 7007 0 1 0 1 1 1 1 1 1 1 1 1 1 1 1 1 1 1 0 1 
120 20 7267 1 1 0 1 1 1 1 1 1 1 1 1 1 1 0 1 1 1 1 0 
121 20 8149 1 1 1 0 1 1 1 1 1 1 1 0 1 1 1 1 0 1 1 1 
122 20 8203 1 1 1 0 1 1 1 1 1 1 0 1 1 1 1 1 1 1 1 0 
123 20 8088 1 1 1 0 1 1 1 1 1 0 1 1 1 1 1 1 0 1 1 1 
124 20 7681 1 1 1 1 0 0 1 1 0 1 1 1 1 0 1 1 1 1 1 1 
125 20 5058 1 1 1 0 1 1 1 1 1 1 0 1 1 0 1 0 1 1 1 1 
126 20 7174 1 0 1 1 1 1 1 1 1 0 1 1 1 0 1 1 1 1 1 1 
127 20 7084 0 1 1 1 0 1 1 1 1 1 1 1 1 1 1 1 1 0 1 1 
128 20 7420 1 1 1 1 1 1 1 0 1 1 1 0 1 1 1 1 1 0 1 1 
129 20 6548 1 0 1 0 1 1 1 1 1 0 1 1 1 1 1 1 1 1 1 1 
130 20 6979 1 1 1 1 1 1 1 0 1 1 1 0 1 1 1 1 1 1 0 1 
131 20 8057 1 0 1 1 1 1 1 0 1 1 1 1 1 1 1 1 1 0 1 1 
132 20 7632 1 1 1 1 1 1 0 1 1 1 1 1 1 1 0 1 0 1 1 1 
133 20 7118 1 1 1 0 1 1 1 1 1 1 1 0 0 1 1 1 1 0 1 1 
134 20 6546 1 1 1 1 0 1 1 1 1 1 1 1 1 0 1 1 1 0 1 1 
135 20 5095 0 0 1 1 1 1 1 0 1 1 1 1 1 1 1 1 1 1 1 1 
136 20 6241 1 1 1 1 1 1 0 1 1 0 1 1 1 1 1 1 0 1 1 1 
137 20 8233 1 1 1 0 1 1 1 1 1 1 0 1 0 1 1 1 1 1 1 1 
138 20 6642 1 1 0 1 1 1 1 0 0 1 1 1 1 1 1 0 1 1 1 1 
139 20 6826 1 1 1 1 1 1 1 1 1 0 1 1 1 1 1 1 1 0 1 0 
140 20 6102 1 1 1 1 1 1 1 1 1 1 0 1 1 0 1 1 1 1 1 0 
141 20 6640 0 1 1 1 1 1 1 1 1 1 1 1 1 1 1 0 1 1 0 1 
142 20 7413 0 1 1 0 1 1 1 1 1 1 1 0 1 1 1 1 1 1 1 1 
143 20 7494 1 1 1 1 1 1 1 0 1 1 1 1 0 1 1 1 1 1 1 0 
144 20 5141 0 1 1 1 1 1 0 0 1 1 1 1 1 1 1 0 1 1 1 1 
145 20 6919 0 1 1 1 1 1 0 1 1 1 1 1 0 1 1 1 1 1 1 0 
146 20 6639 1 1 1 1 1 1 0 1 1 1 1 0 1 1 1 1 0 1 1 1 
147 20 6535 1 1 1 1 1 1 0 1 0 1 1 1 1 1 1 1 1 1 1 0 
148 20 5628 1 1 1 1 1 1 1 1 1 0 1 0 1 1 0 1 1 1 1 1 
149 20 7264 1 1 1 1 1 0 1 0 1 1 1 1 1 1 0 1 1 1 0 1 
150 20 6931 1 1 1 1 0 0 1 0 1 1 1 1 1 1 1 1 1 1 1 1 
151 20 7006 1 1 1 1 1 1 1 1 1 0 1 1 1 0 1 1 0 1 1 1 
152 20 6659 1 1 1 1 1 1 1 0 1 1 1 1 1 0 1 1 1 1 1 0 
153 20 6665 1 1 1 1 1 1 1 0 1 1 0 1 1 1 1 1 1 0 0 1 
154 20 7429 1 1 1 1 1 1 0 1 0 1 1 1 0 1 1 1 1 1 1 0 
155 20 5923 0 1 1 1 1 1 1 1 1 1 1 1 1 0 1 1 1 0 1 1 
156 20 5977 1 0 1 1 1 1 1 1 0 1 1 1 1 1 1 1 1 1 0 1 
157 20 5772 1 1 0 0 1 1 1 1 0 1 1 1 1 1 1 0 1 1 1 1 
158 20 5808 0 0 1 1 1 0 1 1 1 1 1 1 1 1 1 1 1 1 1 1 
159 20 7710 1 1 1 1 1 1 0 0 0 1 1 1 1 1 1 1 1 1 1 1 
160 20 8278 1 1 1 1 0 1 1 1 1 1 1 1 1 1 1 1 0 1 0 1 
161 20 7430 1 1 1 1 1 0 1 1 1 1 1 1 0 1 0 0 1 1 1 1 
162 20 8253 1 1 1 1 1 1 1 0 1 1 1 1 1 0 1 1 1 0 1 1 
163 20 8723 1 1 1 1 1 1 0 1 1 0 1 1 1 1 0 1 1 1 1 1 
164 20 5899 1 1 1 1 1 1 0 1 0 1 1 1 1 1 1 1 1 0 1 1 
165 20 7063 1 0 1 1 0 1 0 1 1 1 1 1 1 1 0 1 0 1 1 1 
166 20 7579 1 0 1 0 1 1 0 1 1 1 0 1 1 1 1 1 1 1 1 1 
167 20 6266 1 1 0 1 1 1 1 1 0 1 1 1 1 1 1 0 0 1 1 1 
168 20 7537 1 1 0 1 1 1 1 0 1 1 0 1 1 1 1 1 1 1 1 1 
169 20 7569 1 0 1 0 1 1 1 1 1 0 1 1 1 1 1 1 1 1 0 1 
170 20 8141 1 1 1 1 1 1 1 1 1 1 0 1 0 1 1 1 1 1 1 0 
171 20 8867 1 1 0 1 1 1 0 1 1 1 1 1 1 0 1 1 1 1 1 1 
172 20 6104 1 1 1 1 1 1 1 1 1 1 1 1 1 1 0 0 1 1 1 1 
173 20 5749 1 1 1 1 0 1 1 1 1 1 1 1 1 0 0 1 1 0 1 1 
174 20 6743 1 1 1 1 1 1 0 1 1 0 1 1 1 1 1 1 1 0 1 1 
175 20 6304 1 0 1 1 1 1 1 1 1 1 1 1 1 1 1 1 0 1 1 1 
176 20 8725 1 0 1 1 0 1 1 1 1 1 1 1 1 1 1 1 1 1 1 1 
177 20 7648 0 1 1 1 1 0 1 1 1 0 1 1 0 1 1 1 1 1 1 1 
178 20 7329 0 1 1 1 1 1 1 1 1 1 1 0 0 1 1 1 1 1 1 1 
179 20 7563 1 1 1 1 1 1 0 0 1 1 1 1 1 1 1 1 1 1 1 1 
180 20 6044 1 1 1 1 1 1 1 1 1 1 1 1 0 0 1 0 1 1 1 1 
181 20 6370 1 1 0 0 0 1 1 1 1 1 1 1 1 1 1 1 1 0 1 1 
182 20 7303 0 1 1 1 1 1 1 1 0 1 1 1 1 1 1 1 1 0 1 1 
183 20 6763 1 1 0 1 1 1 1 1 1 1 1 1 1 1 1 0 1 1 0 0 
184 20 6315 1 1 1 1 1 0 1 1 1 0 1 1 1 1 1 0 1 0 0 1 
185 20 6293 1 1 1 0 1 1 1 0 1 1 1 1 1 1 1 1 1 1 0 1 
186 20 10075 1 1 1 1 1 1 1 0 0 1 1 1 1 1 1 1 1 1 1 1 
187 20 7301 1 1 1 1 1 0 0 1 1 1 1 1 1 1 0 1 1 1 1 1 
188 20 7708 1 1 1 1 0 1 1 1 1 1 0 1 1 0 1 1 1 1 1 1 
189 20 5622 0 1 1 1 1 1 1 1 1 1 0 1 1 1 1 1 1 1 0 1 
190 20 6887 1 1 1 0 1 1 1 0 1 1 1 1 0 1 1 1 1 1 1 1 
191 20 6990 1 1 0 1 1 1 1 1 1 1 1 1 0 1 1 1 1 1 0 1 
192 20 7771 1 1 0 1 1 1 1 1 1 1 1 1 1 0 0 1 1 1 1 1 
193 20 7250 0 1 1 1 1 1 1 1 1 0 1 1 1 1 1 1 0 1 1 0 
194 20 6333 1 0 1 1 1 1 1 1 1 1 1 1 1 1 0 1 1 1 1 0 
195 20 6044 1 1 0 1 1 1 1 1 1 1 1 1 1 1 1 0 1 0 1 1 
196 20 5844 1 1 1 1 1 1 1 1 0 1 1 1 0 1 0 1 1 1 1 1 
197 20 7159 0 1 1 1 1 1 0 1 1 1 1 0 1 1 1 1 1 1 1 1 
198 20 7927 1 1 1 1 1 1 1 1 0 1 1 0 1 1 1 1 1 1 1 0 
199 20 7496 0 0 1 1 1 1 1 1 1 1 1 1 1 1 0 1 1 1 1 1 
200 20 6756 0 1 1 0 1 1 1 1 0 0 1 1 1 1 1 1 1 1 1 1 
201 20 6277 1 1 1 1 1 1 0 1 1 1 1 1 1 1 0 1 1 1 0 1 
202 20 7934 1 1 0 1 1 1 1 1 1 1 0 1 1 1 1 1 0 0 1 1 
203 20 7380 1 1 1 1 1 1 1 0 0 1 1 1 0 1 1 1 1 1 1 1 
204 20 7882 1 1 1 1 1 1 1 1 1 0 0 1 1 1 1 1 1 1 1 1 
205 20 7848 1 1 1 0 1 1 1 1 1 1 1 0 0 1 0 1 1 1 1 1 
206 20 7353 1 1 1 0 1 1 1 1 1 1 1 0 1 0 1 1 1 1 1 1 
207 20 7190 1 1 1 1 1 1 1 1 1 0 1 1 1 1 0 1 1 1 1 0 
208 20 7217 1 1 1 1 0 1 1 0 1 1 1 1 1 1 1 1 1 1 1 1 
209 20 6668 0 1 1 1 1 1 0 1 1 1 0 1 1 1 1 1 1 1 1 1 
210 20 7005 1 1 0 0 1 1 1 1 1 1 1 1 1 1 1 0 1 1 0 1 
211 20 7196 1 1 1 1 1 1 0 1 1 1 1 0 1 1 1 1 1 0 1 1 
212 20 7404 1 1 1 1 1 1 1 1 1 1 1 0 0 1 1 1 1 1 0 1 
213 20 7936 1 1 1 1 1 1 1 0 1 1 1 1 1 1 1 0 1 1 1 0 
214 20 6793 1 1 1 1 0 1 1 1 1 1 1 1 0 1 1 1 1 1 0 1 
215 20 7337 1 1 1 0 0 1 1 1 0 1 1 0 1 1 1 1 1 1 1 1 
216 20 7141 1 1 1 1 1 1 1 1 1 1 1 1 1 0 0 1 1 1 1 1 
217 20 7899 0 1 1 1 1 1 1 1 1 0 1 1 1 1 1 0 1 1 1 1 
218 20 6801 1 1 1 1 1 1 1 1 0 0 1 1 1 1 1 0 1 1 1 1 
219 20 5507 1 1 1 1 0 1 1 1 0 1 1 1 1 0 1 1 1 1 1 1 
220 20 8547 1 1 1 1 1 0 1 1 1 1 1 1 1 1 1 0 1 1 0 1 
221 20 7918 1 1 1 1 1 1 1 1 0 1 1 0 0 1 1 1 1 1 1 1 
222 20 7522 1 1 1 1 1 0 1 0 0 0 1 1 1 1 1 1 1 1 1 1 
223 20 9612 1 1 1 1 1 1 1 1 1 1 1 1 1 1 0 1 0 1 1 1 
224 20 6810 1 1 0 0 1 1 1 1 1 1 1 1 1 1 1 1 1 0 1 0 
225 20 7844 1 0 1 1 1 1 1 1 1 1 1 0 1 1 0 1 1 0 1 1 
226 20 5658 1 1 0 1 1 0 1 1 0 1 1 1 0 1 1 1 1 1 1 1 
227 20 6688 1 0 1 0 1 1 1 1 0 1 1 1 1 1 1 1 1 1 1 1 
228 20 7627 1 0 1 1 1 1 1 1 1 1 0 1 1 1 0 1 1 1 1 1 
229 20 6778 1 1 1 1 1 1 0 1 1 0 1 1 1 1 1 1 0 1 1 1 
230 20 7718 0 0 1 1 1 1 1 1 1 1 1 1 0 1 1 1 1 1 1 1 
231 20 7492 1 1 1 0 1 0 1 1 1 1 1 1 1 1 1 1 1 1 1 0 
232 20 8443 1 1 1 1 1 1 1 1 0 1 1 1 1 0 1 0 1 1 1 1 
233 20 6668 1 1 1 1 1 1 1 1 1 0 1 1 0 1 1 1 1 1 1 0 
234 20 7063 0 1 0 1 1 0 1 1 1 1 1 1 1 0 1 1 1 1 1 1 
235 20 7505 0 1 1 1 0 1 0 1 1 1 1 1 1 1 1 1 1 1 1 1 
236 20 6715 1 1 1 1 1 1 1 1 1 0 0 1 0 1 1 1 1 1 1 1 
237 20 6427 0 1 1 1 1 1 1 0 1 1 1 0 1 1 1 1 1 1 1 0 
238 20 6611 1 1 1 1 1 1 1 0 1 1 1 1 1 0 1 0 1 0 1 1 
239 20 6951 1 1 1 1 1 1 1 1 1 1 0 1 1 0 1 1 1 1 0 1 
240 20 7450 1 1 1 1 1 1 1 0 1 1 1 1 0 1 0 1 1 1 1 1 
241 20 5445 1 1 1 1 1 1 1 1 1 1 0 1 1 1 1 0 0 1 1 1 
242 20 6782 0 1 1 1 1 1 1 1 1 0 1 1 1 1 1 1 1 1 0 1 
243 20 6325 0 1 1 1 1 1 1 1 1 1 1 0 1 1 0 1 1 1 1 1 
244 20 7115 1 1 1 1 1 1 1 1 1 0 1 1 1 1 1 1 1 1 1 0 
245 20 7889 1 1 1 1 1 1 0 1 1 1 0 1 1 1 1 0 1 1 1 1 
246 20 7730 1 1 1 1 1 1 1 1 1 0 1 1 0 0 1 1 1 1 1 1 
247 20 7144 1 1 0 0 1 1 1 1 0 1 1 1 1 1 0 1 1 1 1 1 
248 20 7165 1 1 1 1 1 1 0 0 1 1 1 1 1 1 1 1 1 0 1 1 
249 20 8273 1 1 1 1 1 1 1 1 1 1 0 1 1 1 0 0 1 1 1 1 
250 20 7901 0 1 1 1 1 1 1 1 1 1 1 1 1 1 1 1 0 1 0 1 
251 20 8230 1 1 1 1 1 1 1 1 0 1 1 1 1 1 1 1 1 1 0 1 
252 20 7322 1 1 1 1 1 1 1 0 1 1 1 0 1 1 1 1 0 1 1 1 
253 20 7811 1 1 1 1 1 1 1 1 0 1 1 0 1 1 0 1 1 1 1 1 
254 20 7965 0 1 0 1 1 1 1 1 1 1 1 1 1 1 1 1 1 1 0 1 
255 20 7714 1 1 0 0 1 1 1 1 1 0 1 1 1 1 1 0 1 1 1 1 
256 20 6270 1 1 1 1 1 0 1 0 1 1 1 0 1 1 1 1 0 1 1 1 
257 20 6068 1 0 1 1 1 1 1 1 1 1 0 1 1 1 0 1 1 1 1 1 
258 20 5518 1 1 0 1 1 1 1 0 1 1 1 1 1 1 1 1 0 1 1 1 
259 20 7214 1 1 1 1 1 1 1 1 1 0 1 1 1 0 1 1 1 0 1 1 
260 20 7500 1 1 1 1 1 1 1 0 1 1 1 1 1 0 1 1 1 1 0 1 
261 20 6977 1 1 1 0 1 1 0 1 1 1 1 1 1 1 1 1 1 1 1 0 
262 20 6096 0 1 1 1 0 1 1 1 1 1 1 1 1 0 1 1 1 0 1 1 
263 20 7442 1 0 1 1 1 1 0 1 1 1 1 1 1 1 0 1 1 1 1 1 
264 20 5438 1 1 1 1 1 1 1 1 1 1 1 1 1 1 1 1 0 1 0 1 
265 20 8407 1 1 1 0 1 1 1 1 0 1 1 1 1 0 0 1 1 1 1 1 
266 20 8476 1 1 0 1 1 1 1 1 0 0 1 0 1 1 1 1 1 1 1 1 
267 20 7271 0 1 1 1 1 1 1 1 1 0 0 1 1 1 1 1 1 1 1 1 
268 20 7692 0 0 1 1 1 1 1 0 0 1 1 1 0 1 1 1 1 1 1 1 
269 20 6319 1 0 1 1 1 1 1 1 1 1 1 1 0 1 1 0 1 1 1 1 
270 20 7227 1 1 1 1 1 1 1 0 1 1 1 1 0 1 0 1 1 1 0 1 
271 20 8427 1 1 1 1 1 1 1 0 1 1 0 1 1 0 1 1 1 1 1 0 
272 20 7753 1 0 1 1 1 1 1 1 1 1 1 1 1 1 0 0 1 0 1 1 
273 20 7018 1 0 1 1 1 1 0 0 1 1 1 1 1 0 1 1 1 1 1 1 
274 20 7304 0 1 1 1 1 1 1 1 1 1 0 1 1 1 1 1 1 1 1 0 
275 20 8398 1 0 1 1 1 1 1 1 1 1 1 1 0 1 1 1 1 1 1 1 
276 20 7791 1 1 1 1 1 0 0 1 1 0 1 1 1 1 1 1 1 1 1 1 
277 20 7696 0 1 1 1 1 0 1 1 1 0 1 1 1 1 1 1 1 0 1 1 
278 20 7011 1 1 1 1 1 1 1 1 1 0 1 1 1 0 1 1 1 1 1 1 
279 20 8227 1 1 1 1 1 1 1 1 0 0 1 1 0 1 1 1 1 1 1 1 
280 20 7587 1 1 1 0 1 1 1 1 1 0 1 0 1 1 1 1 1 1 1 1 
281 20 6671 1 1 0 1 1 1 1 1 1 1 1 1 1 0 1 1 1 0 1 1 
282 20 6390 1 0 1 1 1 1 1 1 1 1 0 0 1 1 1 1 1 1 1 1 
283 20 6373 1 1 1 1 0 1 1 0 1 1 1 1 1 1 0 1 1 1 0 1 
284 20 7654 0 1 1 1 1 1 1 1 1 1 1 1 1 1 1 1 1 1 0 1 
285 20 8430 1 1 1 1 1 1 0 1 1 1 1 1 1 1 0 1 0 0 1 1 
286 20 7718 0 1 0 1 1 0 0 0 1 1 1 1 1 0 1 1 1 1 1 1 
287 20 9204 1 1 1 1 1 1 1 1 1 1 0 0 1 1 1 1 1 1 1 1 
288 20 6460 1 0 1 0 1 1 1 1 1 1 1 1 1 1 1 0 1 1 1 0 
289 20 6352 1 1 1 1 1 0 1 1 1 1 1 1 1 0 1 1 1 0 1 1 
290 20 8599 1 1 1 1 1 1 1 1 1 1 1 1 0 1 0 0 1 1 1 1 
291 20 5969 1 1 1 1 1 1 1 0 1 0 1 0 1 1 1 1 1 0 0 1 
292 20 6531 1 0 1 1 1 1 1 1 1 1 1 1 1 1 0 0 1 1 1 1 
293 20 7607 0 1 1 1 1 1 1 1 1 0 1 1 1 1 1 1 0 1 1 1 
294 20 7414 0 1 1 0 1 0 1 1 1 1 1 1 1 1 1 1 1 1 1 1 
295 20 7680 1 1 1 1 1 0 1 1 1 1 1 0 1 1 1 1 1 1 0 1 
296 20 7721 1 0 1 0 1 1 1 1 1 1 1 1 0 1 0 1 1 1 1 1 
297 20 7401 1 1 1 1 0 1 1 1 1 1 1 0 1 1 0 1 1 1 1 1 
298 20 8605 0 1 1 1 1 1 1 1 1 1 1 1 1 1 0 0 1 1 1 1 
299 20 7051 1 1 1 1 1 1 1 1 1 0 1 0 1 0 1 1 1 1 1 1 
300 20 6926 1 1 0 0 0 1 1 1 1 1 1 1 1 1 1 1 1 1 0 1 
301 20 7570 0 1 1 1 1 1 1 1 1 1 1 1 1 0 1 1 1 1 1 1 
302 20 7777 1 1 1 1 1 1 0 1 1 1 0 0 1 1 1 1 1 1 1 1 
303 20 7260 1 0 1 1 1 1 1 1 1 1 1 1 0 0 1 1 1 1 1 1 
304 20 7813 1 1 1 1 1 1 1 1 1 0 1 1 1 1 1 1 0 1 1 0 
305 20 7817 1 1 1 1 0 1 1 1 1 1 1 1 0 1 1 1 1 1 0 1 
306 20 7390 1 1 1 1 0 1 0 1 1 1 0 1 1 1 1 1 0 1 1 1 
307 20 6816 0 1 1 1 1 1 1 0 1 1 1 1 1 0 1 1 1 1 1 1 
308 20 6442 1 0 1 1 1 1 1 1 1 1 1 1 0 1 1 1 0 1 0 1 
309 20 6261 1 0 0 0 1 1 1 1 1 1 1 1 1 1 1 1 1 1 1 1 
310 20 7633 1 1 0 1 1 1 1 1 1 1 1 1 1 1 1 0 1 0 1 1 
311 20 5819 1 1 0 1 1 0 1 0 1 1 1 1 1 1 0 1 1 1 1 1 
312 20 7410 1 1 1 0 0 1 1 1 1 1 1 0 1 0 1 0 1 1 1 1 
313 20 6394 1 1 1 1 1 1 1 1 1 1 1 1 1 1 1 1 1 0 0 0 
314 20 6331 1 1 1 0 0 1 1 1 1 1 0 1 1 1 1 1 0 1 1 1 
315 20 7266 1 1 1 0 1 0 1 1 1 1 1 1 1 0 1 1 1 1 1 1 
316 20 7355 1 1 1 1 0 1 1 0 1 1 1 1 1 1 1 1 1 1 0 1 
317 20 6889 1 0 0 1 1 1 1 0 1 0 1 1 1 1 1 1 0 1 1 1 
318 20 6627 1 0 1 1 1 1 1 1 1 1 1 1 1 0 0 1 1 0 1 1 
319 20 6016 1 0 1 1 1 1 1 1 1 0 1 1 1 0 1 1 0 1 1 1 
320 20 6291 1 1 1 1 0 1 1 1 0 1 1 1 1 1 1 1 0 1 1 1 
321 20 7122 1 1 1 1 1 0 1 1 1 1 1 1 1 1 1 0 1 1 1 0 
322 20 6299 1 1 1 0 1 1 1 1 1 1 1 1 1 0 0 1 1 1 1 1 
323 20 8028 1 0 1 1 1 1 1 1 1 1 1 1 1 1 0 1 0 1 1 1 
324 20 7415 0 1 1 1 1 1 1 1 1 1 1 1 1 1 1 0 0 1 1 1 
325 20 5825 1 1 1 1 1 1 1 1 0 0 1 1 1 1 1 0 1 1 0 1 
326 20 7413 1 1 1 1 1 1 1 1 1 0 1 1 1 0 1 1 0 1 1 1 
327 20 7730 1 0 1 1 1 1 1 1 1 1 1 1 1 0 1 1 0 1 1 1 
328 20 6577 1 1 0 1 0 1 1 0 1 1 1 1 1 1 1 1 1 0 1 1 
329 20 5744 1 1 1 0 1 1 1 1 1 0 1 0 1 1 1 1 1 1 1 1 
330 20 7081 1 1 0 1 1 1 1 1 1 1 1 0 1 1 1 0 1 1 1 1 
331 20 6398 1 1 1 0 1 1 1 1 0 0 1 1 1 1 1 1 1 1 1 1 
332 20 6072 1 0 1 1 1 1 1 0 1 0 1 1 1 1 0 1 1 1 1 1 
333 20 6611 1 1 0 0 1 1 1 1 1 0 1 1 1 1 0 1 1 1 1 1 
334 20 7563 1 1 0 1 1 1 1 1 1 1 1 1 1 0 1 1 1 1 1 0 
335 20 7349 1 1 1 1 1 1 1 1 0 1 1 1 1 1 0 0 1 1 1 1 
336 20 7402 0 1 1 1 1 1 1 1 1 1 1 1 1 1 1 1 1 0 1 0 
337 20 6978 1 0 1 1 0 1 1 1 1 1 1 1 1 1 1 1 1 1 1 0 
338 20 5856 1 1 0 1 1 1 1 1 0 1 1 1 1 1 0 1 1 1 0 1 
339 20 7350 0 1 1 1 1 1 1 1 1 1 1 1 1 0 1 1 0 1 1 1 
340 20 7877 1 1 1 1 1 0 1 1 1 0 1 1 1 1 1 0 1 1 1 1 
341 20 8222 0 1 0 1 1 1 1 1 1 1 1 1 1 1 1 1 1 1 0 1 
342 20 6929 1 1 1 1 1 1 1 0 1 1 0 1 1 1 0 1 1 1 1 1 
343 20 8099 1 1 0 1 1 1 1 1 1 1 1 1 1 1 0 1 1 1 1 0 
344 20 5658 1 1 1 1 1 1 1 1 1 0 1 0 0 1 1 1 1 1 1 1 
345 20 5594 1 1 1 1 0 1 1 1 0 1 0 1 1 1 1 1 1 1 1 1 
346 20 7125 1 1 1 1 0 1 1 1 0 1 1 1 1 1 0 1 0 1 1 1 
347 20 5484 1 1 0 0 1 1 1 1 1 1 1 1 1 1 1 0 1 1 0 1 
348 20 7096 1 0 1 1 1 1 1 1 1 1 1 1 1 1 1 0 1 0 1 0 
349 20 7250 1 1 1 0 1 1 1 1 1 1 1 1 1 1 1 1 1 1 0 0 
350 20 7348 1 0 1 1 1 0 1 1 1 1 0 1 1 1 1 1 1 1 1 1 
351 20 7139 1 1 1 1 0 1 1 1 1 0 1 1 1 1 1 0 1 1 1 1 
352 20 6010 1 1 1 1 1 1 1 1 1 1 0 1 1 1 0 1 1 1 1 0 
353 20 6817 1 1 1 1 1 1 1 1 1 1 0 1 1 1 1 1 0 1 0 1 
354 20 7174 1 0 1 1 1 1 1 1 1 1 1 1 1 0 1 0 1 1 1 0 
355 20 7191 1 1 1 0 1 1 1 1 1 1 1 1 1 1 1 1 0 1 1 0 
356 20 7260 1 1 0 1 1 1 1 1 1 1 0 1 1 0 0 1 1 1 1 1 
357 20 7194 1 1 0 1 1 0 0 1 1 1 1 1 1 1 1 1 1 1 1 1 
358 20 8311 1 1 1 1 1 1 1 1 1 1 1 1 0 1 1 0 1 1 0 1 
359 20 8627 1 1 1 0 1 1 1 1 1 0 1 1 1 1 1 1 1 0 1 1 
360 20 6651 1 0 1 1 1 1 1 0 1 1 0 1 1 1 1 1 0 1 1 1 
361 20 6190 0 1 1 1 1 1 0 1 1 1 1 1 1 1 1 1 1 1 0 1 
362 20 7307 1 1 1 1 1 1 1 1 1 1 0 1 1 1 1 1 1 1 0 0 
363 20 8644 1 1 1 1 0 0 1 0 1 1 1 1 1 1 1 1 1 1 1 1 
364 20 5848 1 1 1 1 1 1 1 0 1 0 1 1 1 0 1 1 1 1 0 0 
365 20 7174 0 1 1 1 1 1 1 1 1 1 0 0 1 1 1 1 1 1 1 1 
366 20 7688 1 1 1 1 1 1 1 1 1 1 0 1 1 0 1 1 1 1 1 0 
367 20 6952 1 0 1 1 1 1 1 1 1 0 1 1 1 1 1 1 1 0 1 1 
368 20 6385 0 1 1 1 1 1 1 1 1 1 0 1 1 0 1 1 0 1 1 1 
369 20 7072 1 1 1 1 1 1 0 1 0 1 1 0 1 1 1 0 1 1 1 1 
370 20 5879 1 1 1 1 1 0 0 0 1 1 1 1 1 1 0 1 1 0 1 1 
371 20 7376 1 1 1 1 0 1 1 1 1 1 1 1 1 1 0 0 1 1 0 1 
372 20 7431 1 1 1 1 1 1 1 1 1 1 0 0 1 1 1 1 0 1 1 1 
373 20 7511 1 1 1 1 1 1 0 1 1 0 1 0 1 1 1 1 1 0 1 1 
374 20 7742 1 0 1 1 1 1 1 1 1 1 1 1 1 1 0 1 1 1 1 1 
375 20 7388 1 1 1 1 1 0 1 1 1 0 1 1 1 1 1 1 1 1 1 0 
376 20 7429 1 1 1 1 1 1 1 1 1 1 0 1 1 1 1 1 1 0 1 0 
377 20 8395 1 0 0 1 1 1 1 1 1 1 1 0 1 1 1 1 1 1 1 1 
378 20 7249 1 0 0 1 0 1 1 1 1 1 1 1 1 1 1 1 1 1 1 1 
379 20 6439 1 1 0 1 1 0 1 1 1 1 1 1 1 1 1 1 1 0 1 1 
380 20 6554 1 1 1 1 1 1 0 1 1 0 1 1 1 1 1 0 1 1 1 1 
381 20 6882 1 0 1 1 1 1 1 0 1 1 1 0 1 1 1 0 1 1 1 1 
382 20 7752 1 0 1 0 1 1 0 1 1 1 0 1 1 1 1 1 1 1 1 1 
383 20 5102 1 1 0 1 1 1 1 1 0 1 1 1 1 0 1 1 1 0 1 1 
384 20 6660 1 1 1 0 0 1 1 1 1 1 1 1 1 1 1 1 0 1 1 1 
385 20 6860 1 1 1 1 1 1 0 0 1 0 1 1 1 1 1 1 1 1 0 1 
386 20 6811 1 1 1 1 1 1 1 1 1 0 0 1 0 1 1 1 1 1 1 1 
387 20 7710 1 1 1 1 1 1 1 0 1 1 1 1 1 0 1 1 1 1 0 1 
388 20 7710 0 0 1 1 1 1 1 1 1 1 0 1 1 1 1 1 1 1 1 1 
389 20 7369 1 1 1 1 0 1 1 1 1 1 1 1 0 1 1 0 1 1 1 1 
390 20 8053 1 1 1 1 1 1 0 1 1 1 1 1 0 1 1 1 0 1 1 1 
391 20 5839 1 1 1 1 1 0 1 0 1 1 1 1 1 1 1 1 1 1 0 1 
392 20 8801 1 1 1 0 0 0 1 1 0 1 1 1 1 1 1 1 1 1 1 1 
393 20 8204 1 1 0 0 1 1 1 1 0 1 1 1 1 1 1 0 1 1 1 1 
394 20 7899 1 1 1 0 1 1 0 1 1 0 0 1 1 1 1 1 1 1 1 1 
395 20 7633 1 1 1 1 0 1 1 1 1 1 0 1 1 1 1 1 1 0 1 1 
396 20 7864 1 1 1 0 1 1 0 1 1 1 1 1 1 1 1 1 0 1 1 1 
397 20 7965 1 1 1 0 0 1 1 1 1 1 1 1 1 1 1 1 0 1 1 1 
398 20 6903 1 1 1 1 1 1 1 1 0 1 1 1 1 1 1 1 1 1 1 0 
399 20 6453 1 1 1 0 1 1 1 1 1 1 1 1 1 1 0 0 1 1 1 1 
400 20 7068 1 1 1 1 1 0 1 0 1 0 1 1 1 1 1 1 1 1 1 0 
401 20 8157 1 1 1 1 1 0 1 1 1 1 1 1 0 1 1 1 1 1 1 1 
402 20 6923 0 1 0 1 1 1 1 1 1 1 1 1 1 1 1 1 1 1 1 0 
403 20 8123 1 0 1 1 1 1 1 1 1 1 0 1 1 1 1 1 1 1 1 1 
404 20 9378 0 1 1 1 1 1 1 1 1 1 1 1 1 1 1 1 0 1 1 0 
405 20 8053 0 1 1 1 1 1 1 1 1 0 1 1 1 1 1 1 1 1 1 0 
406 20 7518 0 1 1 1 1 1 1 1 1 0 1 1 1 0 1 1 1 1 1 1 
407 20 6580 1 1 1 0 1 1 1 1 1 1 1 1 1 0 1 0 1 1 0 1 
408 20 6438 1 1 1 1 1 0 1 1 1 1 1 1 1 1 1 1 0 1 1 0 
409 20 6340 1 1 1 0 1 1 1 1 0 1 1 1 1 0 1 1 1 1 1 1 
410 20 6842 1 1 1 1 1 0 1 1 1 1 1 0 1 1 0 1 1 1 1 1 
411 20 7804 1 0 1 1 1 1 0 1 1 1 1 1 1 1 1 1 1 1 1 1 
412 20 7360 1 1 1 1 1 0 0 1 1 1 1 1 1 1 1 1 1 1 0 1 
413 20 6212 1 1 0 1 0 1 1 1 1 0 1 1 1 1 1 1 0 1 0 1 
414 20 7606 1 0 1 1 1 1 1 1 1 1 1 1 1 1 1 1 0 1 1 0 
415 20 6877 1 1 0 1 1 0 1 1 1 1 1 1 1 0 1 1 1 1 1 1 
416 20 6190 1 1 1 1 1 0 1 1 0 1 1 1 1 0 1 1 1 1 1 1 
417 20 6792 1 1 1 1 0 1 1 1 1 1 1 1 1 1 1 0 0 1 1 1 
418 20 5965 1 1 1 1 1 0 1 1 1 0 0 1 1 1 1 1 1 1 1 1 
419 20 7170 1 1 0 1 0 1 1 1 1 1 1 1 1 0 1 1 1 1 1 1 
420 20 7686 1 1 1 0 1 1 1 1 1 1 1 1 0 1 1 1 1 1 0 1 
421 20 6133 1 1 1 1 1 1 1 0 1 1 1 1 1 1 1 1 0 1 0 1 
422 20 6971 0 1 0 1 1 1 1 1 0 1 1 0 1 1 1 1 1 0 1 1 
423 20 6313 1 1 1 1 0 1 1 1 1 1 1 1 1 1 1 1 1 0 1 1 
424 20 7370 1 1 1 1 0 1 0 1 1 1 1 1 1 0 1 0 1 1 0 1 
425 20 5626 1 1 1 1 1 1 1 1 1 1 1 1 1 1 1 0 1 1 0 1 
426 20 6422 1 1 1 1 1 1 0 1 0 1 1 1 1 1 1 1 1 1 1 0 
427 20 7913 1 1 1 1 1 0 1 1 1 1 0 1 1 1 1 1 0 1 1 1 
428 20 7761 1 1 0 1 1 1 1 1 1 1 1 1 0 1 1 1 0 1 1 1 
429 20 6817 1 1 0 1 1 1 0 1 1 1 1 0 1 1 1 1 1 0 1 1 
430 20 8476 0 1 1 1 1 1 0 1 1 1 1 1 1 1 1 0 1 1 0 1 
431 20 6909 1 1 1 1 1 1 1 0 1 1 0 1 0 1 1 1 0 1 1 1 
432 20 7472 1 1 1 1 1 1 1 1 1 1 1 1 1 1 1 1 0 0 1 0 
433 20 8724 1 1 1 1 1 0 1 1 0 1 1 1 1 1 0 1 1 1 1 1 
434 20 8146 1 1 1 0 1 1 1 1 0 1 1 1 1 1 1 0 0 1 1 1 
435 20 6458 0 1 1 1 1 1 1 1 1 1 1 1 1 0 1 1 1 1 0 1 
436 20 7171 1 1 1 0 0 0 1 1 1 1 1 1 1 1 1 1 1 1 1 1 
437 20 6852 1 1 1 0 1 1 0 1 1 1 1 0 1 1 0 1 0 1 1 1 
438 20 7485 1 1 1 1 1 1 1 0 1 1 0 1 1 1 1 1 1 1 1 1 
439 20 6764 1 1 1 1 1 1 1 0 1 0 1 1 1 1 1 1 1 0 1 1 
440 20 7627 1 1 1 1 1 1 1 0 1 0 0 1 1 1 1 1 1 1 1 1 
441 20 6859 1 1 1 1 1 1 1 0 1 1 1 0 1 0 1 1 1 1 1 1 
442 20 6465 1 1 1 1 1 1 0 1 1 1 1 0 0 1 1 1 1 1 1 0 
443 20 7070 1 0 1 1 1 1 1 1 1 1 1 1 1 1 1 1 1 0 1 0 
444 20 5635 0 1 1 1 1 1 1 1 1 1 0 1 1 1 1 1 1 0 1 0 
445 20 6602 1 0 1 1 0 1 1 0 1 0 1 1 1 1 1 1 1 1 1 1 
446 20 6874 1 1 1 1 1 0 1 1 1 1 1 1 0 1 1 0 1 1 1 1 
447 20 9067 0 0 1 1 1 1 1 1 0 1 1 1 1 1 1 1 1 1 1 1 
448 20 8101 1 1 1 1 1 1 1 0 0 0 1 1 1 1 1 0 1 1 1 1 
449 20 6848 1 1 1 1 1 1 1 1 1 1 1 0 1 1 1 1 1 0 1 0 
450 20 6553 1 0 1 1 1 1 1 0 1 1 1 1 1 0 1 1 1 1 1 1 
451 20 6816 1 1 0 1 1 1 1 0 1 1 1 1 1 1 1 1 0 1 1 1 
452 20 8576 1 1 1 0 1 1 1 1 1 0 1 1 1 0 1 1 1 1 1 1 
453 20 8273 1 0 1 1 1 0 1 1 1 1 1 1 1 1 1 0 1 1 1 1 
454 20 6568 1 1 1 1 0 1 1 1 1 1 1 0 1 1 1 0 0 1 1 1 
455 20 8374 1 1 0 1 1 1 0 1 1 1 1 1 0 1 1 1 0 1 1 1 
456 20 7751 1 1 1 1 1 1 0 1 1 1 1 0 1 1 1 1 0 1 1 1 
457 20 7994 1 0 1 1 1 1 1 1 1 1 1 1 1 1 1 1 0 1 1 0 
458 20 7275 1 1 1 1 0 1 1 1 1 1 1 1 1 1 0 1 0 1 1 0 
459 20 6921 0 1 1 1 1 1 0 1 1 1 1 1 1 1 1 1 1 1 0 1 
460 20 6480 1 0 1 1 0 1 0 1 1 1 1 1 1 1 1 1 1 1 1 1 
461 20 6599 0 1 1 0 1 1 0 1 1 1 1 1 1 1 1 1 1 1 1 1 
462 20 6766 1 1 1 1 1 1 1 1 0 1 0 0 1 1 1 1 1 1 1 1 
463 20 8331 1 1 0 1 1 1 1 1 1 1 1 1 1 0 1 1 1 1 1 1 
464 20 8781 1 1 1 1 1 1 1 1 0 0 0 1 1 1 1 1 1 1 1 1 
465 20 8775 0 1 1 1 1 1 0 1 1 1 1 1 1 1 1 1 1 1 0 1 
466 20 6274 1 1 1 1 1 1 1 1 1 1 1 1 0 1 1 1 1 1 0 1 
467 20 7838 1 1 1 1 1 0 1 1 1 1 1 1 1 0 1 1 1 0 1 1 
468 20 7184 1 1 1 1 1 1 1 1 1 0 0 1 0 1 1 1 1 1 1 1 
469 20 7613 1 1 1 1 1 1 1 1 0 1 1 1 0 1 1 1 1 1 1 1 
470 20 7379 1 1 0 1 1 1 1 1 1 1 1 1 1 1 0 1 0 1 1 1 
471 20 7359 1 1 1 1 1 1 1 1 1 1 1 1 0 1 1 0 1 0 1 1 
472 20 6866 1 1 1 0 0 1 1 1 1 1 1 1 0 1 1 1 1 1 0 1 
473 20 7222 1 1 1 1 1 0 1 1 1 1 0 1 1 1 1 1 1 1 0 1 
474 20 7058 1 1 1 1 1 0 1 1 1 0 1 1 1 1 1 1 0 1 0 1 
475 20 7834 1 1 0 1 1 1 1 1 0 1 1 1 1 1 1 1 1 1 1 0 
476 20 6352 1 1 1 1 1 1 0 1 0 1 1 1 1 1 1 1 1 0 1 1 
477 20 6915 1 0 1 1 1 1 0 1 1 1 1 1 1 1 0 1 1 1 1 1 
478 20 7468 1 1 1 1 1 1 1 1 1 1 1 0 0 0 1 1 1 1 1 1 
479 20 7033 0 1 1 1 1 1 1 1 1 1 1 1 1 1 1 1 0 0 1 1 
480 20 8410 1 1 1 0 1 0 1 1 1 1 1 1 1 1 1 1 0 0 1 1 
481 20 6558 1 1 1 1 0 1 1 1 1 1 1 1 1 0 0 1 1 1 1 1 
482 20 6989 0 1 1 1 1 1 1 1 1 0 1 1 1 1 1 1 1 0 1 1 
483 20 7586 0 1 1 1 1 1 1 0 1 1 1 0 1 1 1 1 1 1 1 0 
484 20 7135 1 1 1 0 0 1 1 1 1 1 1 1 0 1 1 1 1 1 1 1 
485 20 8382 0 1 1 1 1 1 1 1 0 1 1 1 1 1 1 1 1 1 1 0 
486 20 6679 1 1 1 0 1 1 1 1 1 1 1 1 0 1 1 1 0 1 1 0 
487 20 6156 0 0 1 1 1 0 1 1 1 1 1 1 1 1 1 1 1 1 1 1 
488 20 6038 1 0 1 1 1 1 1 1 1 1 1 0 0 1 1 1 1 1 1 1 
489 20 6909 1 1 1 0 1 1 1 1 1 1 1 0 1 1 0 1 1 1 1 1 
490 20 7051 1 1 1 1 1 1 1 0 1 0 1 1 1 1 1 1 0 1 1 1 
491 20 6581 1 1 1 1 1 1 1 0 1 0 1 0 1 1 1 1 1 1 1 1 
492 20 6879 1 1 1 1 1 1 0 1 1 1 1 1 1 0 1 1 1 1 1 0 
493 20 7667 1 0 0 1 1 1 1 1 1 1 1 1 1 1 1 1 1 1 1 0 
494 20 8448 1 1 1 1 1 1 1 1 1 1 1 0 1 0 1 0 0 1 1 1 
495 20 6507 1 1 1 1 1 0 0 1 1 1 1 1 1 1 1 0 1 1 1 1 
496 20 7603 0 1 1 1 1 1 1 1 1 0 1 1 1 1 1 1 0 1 1 1 
497 20 8424 0 1 1 1 1 0 0 1 1 1 1 1 0 1 1 1 1 1 1 1 
498 20 6829 1 1 0 1 1 1 1 0 1 1 0 0 1 1 1 1 1 1 1 1 
499 20 7727 1 1 1 1 1 0 1 1 1 0 1 0 1 1 0 1 1 1 1 1 
500 20 7850 1 1 1 1 1 1 1 0 1 1 1 0 1 1 1 1 1 0 1 0 
