1 20 7132 144 1 172 46 808 4 595 84 109 26 216 30 586 12 602 25 61 57 856 46 269 91 951 62 977 57 29 9 28 78 547 52 660 47 731 20 486 61 89 41
2 20 6564 89 80 702 51 297 69 32 66 936 52 334 13 30 86 671 17 572 55 350 19 602 98 640 79 166 94 59 84 829 7 354 30 654 75 162 88 530 24 197 68
3 20 8624 298 86 549 95 629 96 956 22 588 87 535 84 199 22 951 43 592 7 345 8 270 65 634 71 701 25 86 97 477 61 743 46 782 76 691 31 708 82 46 45
4 20 7223 152 14 543 70 780 47 867 73 539 34 198 62 350 91 316 18 768 11 330 14 471 58 305 69 818 74 102 95 666 5 322 99 379 80 219 10 643 40 261 94
5 20 7516 313 93 927 52 437 68 638 95 966 21 202 58 801 77 774 74 68 84 228 62 484 11 776 78 138 89 773 91 96 87 639 41 553 19 260 42 161 63 162 76
6 20 7569 382 89 791 80 605 7 99 48 188 91 558 79 634 70 475 88 399 77 132 74 770 59 63 39 948 27 125 64 454 27 796 29 435 68 44 89 645 53 919 24
7 20 8570 646 88 324 6 660 18 575 58 809 66 242 35 114 60 502 87 980 76 642 86 586 31 698 83 471 38 430 35 281 85 167 58 933 20 990 71 265 52 398 51
8 20 8542 980 46 992 19 911 88 553 43 185 24 226 30 463 23 434 95 218 78 408 25 943 8 909 32 663 92 859 17 80 31 387 71 97 19 710 52 281 83 379 64
9 20 7435 841 46 925 36 10 7 807 11 559 34 361 54 223 45 631 16 295 53 203 99 288 45 789 9 124 79 167 49 801 83 71 48 52 81 822 41 468 46 857 85
10 20 7932 990 72 403 82 615 45 256 24 366 30 406 25 927 89 947 67 498 32 173 7 225 39 150 12 509 81 870 33 498 43 789 44 701 81 385 72 88 28 119 45
11 20 7684 300 58 110 27 604 41 234 88 378 94 386 97 622 47 500 5 659 1 928 25 269 33 348 68 910 30 258 100 340 32 98 1 945 57 642 32 933 17 142 29
12 20 8707 918 86 54 29 817 10 58 4 253 98 313 40 599 2 276 20 746 81 895 100 324 1 788 43 898 38 260 21 632 10 963 36 660 1 332 43 774 32 324 99
13 20 8785 1 21 928 54 489 8 150 54 706 79 839 56 348 7 963 61 120 78 557 16 632 90 875 48 386 28 836 48 501 23 321 77 730 20 141 65 867 98 592 89
14 20 8876 591 45 151 89 653 91 473 31 955 38 999 60 635 49 658 9 673 77 590 17 957 19 228 25 524 18 494 97 473 16 420 17 440 12 505 60 291 21 385 92
15 20 8817 421 77 120 82 362 78 921 70 633 90 799 17 898 6 851 79 415 41 100 38 695 44 898 73 393 15 736 83 536 88 163 96 116 91 798 1 751 80 416 87
16 20 7191 75 92 318 24 711 6 413 94 935 84 595 4 200 34 820 32 688 87 11 86 4 38 233 30 297 17 779 20 903 79 168 20 657 45 782 93 165 40 235 42
17 20 8125 412 30 59 79 409 42 955 20 564 2 798 98 280 76 141 14 430 28 626 87 794 91 514 47 751 30 738 36 543 97 349 62 33 46 863 32 861 58 37 14
18 20 8490 933 41 857 88 688 47 894 62 202 19 452 2 716 53 630 50 675 46 91 62 522 42 273 93 530 12 768 25 33 73 105 53 187 78 568 5 977 57 512 91
19 20 7618 141 63 144 51 365 52 931 32 75 60 176 13 749 36 284 22 526 14 39 87 470 85 661 93 820 46 737 84 913 15 783 70 506 27 230 32 458 31 515 89
20 20 6040 36 53 913 37 230 7 757 57 946 82 720 24 262 44 130 67 371 91 228 56 57 39 4 48 43 88 376 37 506 47 606 43 185 78 502 27 19 16 659 88
21 20 7784 67 25 117 84 973 27 419 87 816 95 572 90 612 13 123 47 246 54 485 34 57 68 309 17 280 57 996 69 237 16 873 75 990 66 950 60 78 66 530 70
22 20 9176 428 50 734 8 846 26 715 92 812 89 372 30 967 23 965 53 899 60 462 9 344 66 687 8 676 6 637 1 323 44 551 3 256 52 757 36 20 78 19 82
23 20 7427 568 71 640 97 7 66 970 25 118 27 607 10 754 100 82 37 573 100 375 94 648 50 9 52 100 90 288 74 457 93 75 4 620 49 944 29 735 87 714 49
24 20 8076 24 41 722 59 300 41 577 90 768 14 530 32 713 98 131 78 112 63 623 39 632 94 676 75 134 47 875 91 525 13 495 33 771 13 815 98 537 50 135 41
25 20 8329 37 10 747 32 793 12 858 24 391 54 320 93 828 76 682 56 426 94 297 17 966 40 369 21 997 2 381 84 450 33 480 57 542 97 540 56 288 14 20 54
26 20 7537 792 25 992 14 304 45 866 98 115 84 81 47 642 34 84 82 512 91 389 94 155 100 828 79 789 89 978 46 364 37 89 87 762 13 447 39 15 80 218 4
27 20 7215 766 88 165 26 158 94 457 3 535 50 673 76 18 40 289 64 387 72 459 35 398 22 857 2 766 99 411 46 900 100 580 48 179 79 716 93 141 91 164 66
28 20 7041 63 85 338 89 674 22 420 30 156 50 197 51 790 72 325 30 658 64 90 90 84 35 341 41 439 43 81 71 851 13 678 96 56 6 914 47 738 20 909 49
29 20 8681 946 53 871 8 928 66 301 92 895 12 840 39 402 84 850 67 454 14 507 84 920 97 125 36 174 52 7 68 578 11 222 74 302 87 84 96 533 14 913 71
30 20 8026 345 16 222 49 425 8 149 43 453 93 128 51 334 78 548 36 522 61 574 30 539 70 316 71 625 95 989 39 931 11 856 46 728 28 502 49 482 51 365 79
31 20 8315 976 12 677 65 181 74 803 50 556 59 381 36 469 64 476 97 300 43 597 76 188 3 700 34 946 62 114 100 389 84 142 28 856 23 113 12 724 11 806 65
32 20 7528 371 100 439 68 516 57 754 61 31 1 157 60 36 56 790 83 658 70 346 33 580 60 1000 77 5 39 927 76 583 78 224 6 401 2 636 16 705 92 252 79
33 20 6997 895 54 217 25 633 92 586 49 25 65 648 19 912 13 180 76 432 5 303 55 976 67 96 52 100 98 397 17 90 84 272 79 248 27 199 76 730 71 808 75
34 20 7076 181 18 254 38 483 97 392 100 998 47 315 88 591 56 221 11 153 19 38 69 895 52 51 36 727 91 346 55 686 48 720 85 480 48 515 9 196 76 604 95
35 20 5743 315 6 772 88 315 40 80 51 538 80 8 46 369 60 366 67 346 84 426 13 257 99 567 73 463 18 796 71 84 21 246 98 675 6 187 54 244 64 125 40
36 20 8767 824 37 574 4 547 1 448 65 260 59 306 25 800 7 756 72 555 33 677 80 978 97 164 92 916 15 360 47 209 21 278 74 974 3 376 67 579 95 378 37
37 20 6663 187 45 79 20 461 64 943 83 219 71 299 14 526 63 645 75 369 24 107 26 548 74 16 61 654 6 490 25 384 23 874 66 703 50 170 75 187 91 468 95
38 20 10177 842 57 532 88 606 2 303 17 901 100 799 17 416 11 9 36 973 18 976 96 614 16 964 71 490 82 372 7 938 2 630 75 549 24 540 82 422 6 846 65
39 20 6692 411 81 326 63 961 35 41 15 276 96 721 64 269 65 913 43 545 96 366 4 59 42 780 53 400 31 292 26 118 71 180 37 868 4 41 50 205 16 594 85
40 20 7884 872 88 465 70 367 23 940 40 419 92 511 55 500 79 840 4 183 67 397 49 737 9 197 42 337 89 348 28 933 92 1 56 484 33 51 64 726 3 548 81
41 20 8112 407 56 453 22 132 20 50 26 323 68 180 57 518 62 916 99 886 38 152 64 688 22 801 44 983 14 800 38 434 64 138 50 711 34 624 64 733 14 211 72
42 20 8701 982 46 806 6 804 73 662 26 650 23 251 42 9 56 398 31 15 27 618 88 951 82 201 64 685 31 101 89 979 38 386 56 683 22 201 23 569 61 926 55
43 20 9172 427 16 941 75 998 47 961 78 20 37 865 41 50 50 753 38 584 83 11 39 726 5 473 4 116 41 500 59 914 75 478 45 742 22 350 51 935 35 621 18
44 20 10510 372 82 907 57 941 32 841 22 699 78 703 4 898 40 760 62 854 9 537 49 596 67 131 21 400 18 840 41 385 47 978 7 765 16 69 72 538 26 924 46
45 20 7640 332 93 939 22 24 80 256 15 998 71 769 88 828 16 367 20 44 87 162 43 331 47 601 61 5 86 803 93 600 65 49 5 427 89 763 19 849 43 403 37
46 20 7182 272 1 653 5 341 7 586 83 605 66 315 52 340 29 321 64 816 1 447 40 475 80 540 25 589 61 374 29 259 28 398 90 124 3 377 80 506 61 640 44
47 20 9545 906 16 370 10 789 72 262 78 825 4 326 45 619 34 325 10 971 42 824 67 370 7 554 62 701 73 904 13 747 83 387 27 865 47 62 97 845 1 280 57
48 20 6924 501 52 100 93 741 32 45 10 991 44 209 64 113 90 577 27 51 62 160 58 697 98 194 84 558 22 843 20 728 1 345 67 628 16 150 99 652 76 373 13
49 20 6702 294 71 184 11 216 85 662 77 95 96 343 55 11 48 869 51 894 60 522 19 365 78 84 9 456 33 625 14 449 18 7 52 174 72 915 64 302 56 911 53
50 20 6248 182 48 713 8 717 47 218 54 433 6 685 45 801 54 651 55 10 55 162 51 407 67 407 72 55 2 146 29 863 43 746 88 248 6 125 85 75 35 167 70
51 20 8982 390 89 806 99 538 8 959 65 653 68 199 4 866 81 294 22 992 22 647 59 359 77 811 31 95 26 397 74 936 75 962 74 937 12 258 61 37 84 92 71
52 20 7933 688 71 606 63 71 68 415 81 345 41 700 96 563 48 833 81 489 24 336 85 242 42 482 86 642 30 78 81 798 23 930 20 106 20 640 36 556 74 397 35
53 20 7685 174 47 662 67 824 85 280 45 668 67 430 59 577 26 3 94 981 89 329 85 816 57 768 4 564 87 361 13 549 83 10 46 357 58 382 57 751 59 121 55
54 20 7960 880 56 934 72 840 82 10 21 143 55 319 78 585 41 315 43 386 82 17 100 676 70 141 21 569 17 709 32 771 88 724 28 743 68 681 47 149 51 359 82
55 20 8004 209 75 393 71 795 12 1 86 545 52 756 50 944 48 288 15 131 60 719 70 350 6 890 13 37 68 407 9 729 55 945 53 140 18 558 52 620 40 549 96
56 20 8173 864 25 569 2 364 34 374 43 332 63 859 60 694 69 126 5 795 32 150 72 185 34 884 7 973 26 887 10 158 62 145 11 296 25 513 99 848 39 201 1
57 20 6588 93 12 65 32 178 66 405 86 329 31 622 40 744 18 173 45 877 16 512 29 334 1 667 67 478 51 445 96 150 34 501 28 483 39 495 36 151 37 534 86
58 20 7595 220 100 389 83 529 75 493 36 918 2 447 82 37 85 764 65 376 71 695 59 714 58 217 30 378 1 156 80 364 57 853 71 855 38 182 92 364 28 543 98
59 20 7506 176 65 441 91 935 94 499 14 84 23 456 43 343 13 124 32 996 63 715 42 612 30 628 67 497 89 251 76 580 85 163 33 472 68 896 50 101 13 414 91
60 20 7525 996 100 298 53 23 25 358 24 346 25 461 24 518 78 844 31 655 48 361 91 858 61 215 77 794 44 70 83 308 90 205 16 487 15 436 97 433 22 741 70
61 20 8189 469 47 246 19 309 59 888 8 599 1 434 64 304 65 544 89 404 34 717 25 905 64 237 33 923 99 425 29 535 4 304 65 758 28 1 9 253 83 982 74
62 20 6449 160 43 55 18 975 76 690 77 380 72 478 43 823 86 262 40 735 65 653 38 266 58 859 17 350 95 395 24 82 78 31 94 354 89 30 13 125 13 359 35
63 20 8622 288 99 807 24 445 100 908 24 536 73 708 65 17 8 665 11 42 96 163 19 522 24 880 59 665 86 283 100 980 23 861 77 650 26 818 43 177 23 363 25
64 20 7528 133 45 11 57 559 48 266 42 484 65 606 12 561 52 935 28 28 90 631 58 772 2 268 49 742 40 422 70 330 91 659 78 650 39 552 19 617 74 184 15
65 20 6642 675 51 924 91 311 69 356 47 389 96 125 46 597 20 543 36 878 78 224 48 444 90 535 93 591 70 12 55 220 16 475 58 545 34 183 29 122 8 154 60
66 20 7888 101 36 758 13 832 32 231 51 100 34 435 22 155 31 453 81 847 69 838 23 850 49 824 13 98 41 433 6 783 67 629 28 423 62 34 68 134 92 902 15
67 20 9096 729 9 817 95 791 65 815 93 70 44 147 28 883 3 378 10 123 60 234 68 186 94 802 39 973 92 737 17 370 63 796 64 459 92 629 1 747 78 685 7
68 20 7643 648 77 449 83 675 60 176 27 858 10 138 76 491 95 990 38 142 41 498 36 98 84 615 9 469 100 804 90 480 36 330 40 724 73 155 71 55 95 759 84
69 20 6773 502 24 101 81 74 14 971 44 295 43 595 34 865 27 203 96 484 18 271 48 353 91 483 6 624 41 961 17 315 10 808 82 150 62 104 80 297 80 11 76
70 20 8445 995 7 866 14 295 88 91 45 265 22 636 100 909 95 66 6 103 83 876 9 850 51 951 93 977 9 69 90 319 77 371 75 114 5 661 56 956 82 187 27
71 20 6766 255 90 625 67 196 56 287 54 521 64 5 72 147 49 343 89 60 77 352 33 411 40 820 24 690 14 646 5 388 94 340 11 231 26 695 67 863 34 583 38
72 20 9027 348 58 422 98 801 5 743 51 969 97 832 71 409 54 199 52 316 14 55 28 234 29 742 1 971 61 791 96 768 43 300 28 719 67 853 84 657 89 155 38
73 20 9064 950 67 582 15 289 17 508 91 281 64 74 14 453 4 770 95 873 65 774 97 856 51 451 49 550 60 366 2 536 78 976 11 979 95 592 68 76 66 394 25
74 20 7486 216 82 962 47 186 25 393 4 275 15 70 4 284 21 116 55 711 16 597 97 863 65 502 25 6 41 486 14 977 76 694 86 234 24 786 81 790 21 210 34
75 20 6616 14 54 213 30 453 88 520 94 96 89 368 62 935 42 134 95 706 91 39 60 188 71 628 92 178 39 403 15 775 79 155 14 824 30 616 80 539 54 487 13
76 20 8564 133 57 489 91 328 71 394 19 67 35 564 91 620 13 698 19 617 29 156 95 648 70 996 68 628 81 606 58 759 48 889 10 363 70 723 93 460 81 567 60
77 20 10583 418 8 629 45 360 57 884 64 779 41 785 62 810 57 691 13 906 21 512 82 909 41 797 14 903 55 701 25 520 57 432 2 506 35 717 96 527 3 443 90
78 20 5270 118 74 337 79 969 49 279 55 360 71 524 30 299 17 41 94 382 94 505 81 769 97 3 56 663 17 101 70 148 76 431 79 226 5 147 39 207 45 79 65
79 20 7287 884 73 14 40 401 82 559 55 311 89 402 10 260 47 563 48 615 78 134 46 387 24 310 46 601 66 400 24 700 43 116 20 611 43 558 28 459 56 824 16
80 20 7628 353 96 1 63 960 46 80 9 874 26 585 7 906 41 676 57 802 47 128 79 284 31 401 10 140 96 24 9 648 20 519 70 902 87 768 73 324 32 160 12
81 20 8128 32 46 697 88 730 22 342 49 409 65 231 28 663 69 473 64 681 72 747 18 328 43 656 26 486 39 353 96 245 28 958 29 471 32 788 64 69 40 801 48
82 20 8680 694 25 3 60 760 13 786 51 309 62 231 95 728 54 368 12 669 61 190 98 974 87 41 84 571 91 991 70 285 78 795 80 911 32 144 47 663 13 738 64
83 20 6429 142 80 760 73 113 18 792 9 1000 9 114 27 43 31 359 83 274 6 658 67 607 96 777 1 494 18 239 99 789 42 224 46 367 12 238 35 3 13 44 75
84 20 8471 259 4 63 79 604 94 578 29 1000 5 397 87 306 58 434 67 485 43 593 24 766 97 710 31 48 13 288 80 805 93 698 61 678 83 748 16 810 78 319 22
85 20 8236 517 55 162 21 503 5 650 69 251 55 270 25 33 58 204 17 778 32 754 40 952 100 439 98 694 9 915 77 325 39 859 92 858 73 193 5 660 96 278 32
86 20 9179 197 1 765 35 80 21 565 73 824 45 567 31 514 36 757 76 191 63 370 62 336 18 779 41 901 91 699 98 289 82 757 73 445 72 984 10 929 24 525 81
87 20 9287 203 84 673 33 919 79 635 92 110 15 680 11 465 81 281 97 798 6 713 88 522 82 584 88 967 70 957 64 103 46 676 22 857 8 159 90 325 9 982 92
88 20 8890 937 44 702 60 83 66 638 65 537 51 109 51 861 72 498 88 431 11 571 87 507 87 944 59 291 38 529 82 535 18 763 56 578 74 804 46 736 16 59 77
89 20 6819 247 51 4 69 767 17 677 5 31 84 910 96 256 5 168 1 827 9 462 42 626 74 158 84 26 75 899 59 199 26 644 28 456 43 77 54 370 11 720 86
90 20 7198 256 42 403 38 203 48 544 65 752 63 354 21 166 32 805 62 137 44 68 49 913 27 112 83 239 51 53 6 960 24 239 16 667 33 948 10 473 19 706 22
91 20 8878 211 14 605 85 297 38 906 83 948 61 292 15 859 16 802 47 299 90 600 67 107 82 826 72 901 72 330 6 230 64 937 70 365 80 154 79 895 88 534 9
92 20 8690 483 79 842 15 566 75 653 44 441 89 204 97 410 19 151 80 869 46 848 74 595 48 673 75 970 8 442 43 192 57 139 23 942 41 545 40 610 93 288 70
93 20 9347 706 98 884 28 871 44 872 93 9 1 939 40 324 62 949 97 846 24 632 63 189 67 771 81 743 98 148 40 377 100 378 72 200 51 909 26 273 39 664 7
94 20 8839 662 98 570 12 915 98 714 3 731 75 186 81 846 24 220 96 798 1 533 90 151 62 272 81 517 70 237 38 447 46 803 66 882 2 941 90 561 80 63 62
95 20 8319 318 19 47 16 870 94 608 33 511 69 303 6 264 14 286 92 86 33 587 60 747 47 941 28 799 52 445 64 225 18 621 71 836 49 471 60 665 5 769 8
96 20 8101 838 60 229 17 669 43 316 16 966 43 434 100 531 42 34 27 233 10 282 79 772 22 757 46 578 100 303 35 781 94 817 37 493 59 271 90 18 88 805 82
97 20 7788 929 61 734 18 85 53 377 91 559 69 881 54 477 92 103 77 700 79 46 60 796 19 273 78 262 28 518 75 251 91 88 61 889 41 712 36 702 8 354 13
98 20 6336 544 99 298 8 342 69 739 6 687 85 60 87 101 62 101 54 255 30 876 80 464 48 648 82 446 67 106 64 78 64 973 23 254 13 77 48 247 91 624 83
99 20 8542 693 36 848 96 462 83 709 81 402 99 53 55 720 88 895 67 660 74 167 43 229 82 502 64 612 55 42 13 949 1 190 14 870 74 802 30 21 92 852 30
100 20 7872 379 16 395 62 12 50 434 61 371 75 437 73 183 63 947 82 267 58 975 70 251 100 373 54 456 5 924 13 503 19 100 50 345 6 806 79 824 12 859 45
101 20 7356 644 77 619 98 400 73 276 48 680 62 835 40 938 24 230 15 374 33 395 49 47 56 540 81 372 76 33 92 79 8 111 90 317 84 529 7 873 10 903 76
102 20 7125 826 69 872 97 332 31 172 57 318 11 928 94 22 5 883 37 732 64 651 27 488 96 154 8 503 30 168 84 143 37 227 85 179 25 656 30 369 90 284 20
103 20 7184 497 19 583 80 847 57 648 82 186 9 167 20 394 92 288 37 559 33 917 12 613 56 88 62 97 50 787 35 686 85 353 45 131 86 95 7 277 71 768 13
104 20 6990 870 26 451 9 518 35 285 43 299 41 321 84 372 50 115 34 659 70 48 36 771 40 130 7 773 90 927 91 140 7 168 62 855 14 558 51 359 63 119 57
105 20 8298 860 65 365 76 800 52 361 89 84 98 952 22 52 75 69 11 95 56 947 12 288 36 407 94 648 26 821 24 75 80 941 76 580 55 713 22 537 56 778 5
106 20 7700 965 63 365 36 630 39 943 64 375 57 179 27 438 48 766 66 887 34 112 14 551 64 758 82 577 94 9 9 639 45 536 9 89 30 95 21 150 44 562 84
107 20 6500 995 76 524 69 178 85 85 21 67 19 349 22 477 86 144 85 160 92 128 16 850 18 524 26 146 12 814 22 177 43 273 9 806 38 408 24 386 26 634 92
108 20 7335 298 79 707 56 976 58 264 84 141 69 117 81 616 9 377 72 783 100 379 46 560 7 423 21 257 22 581 81 864 91 476 61 187 78 311 79 772 65 80 57
109 20 6663 92 44 5 7 79 48 168 13 801 61 446 89 68 87 209 3 426 61 635 17 878 62 762 11 581 52 526 95 690 1 69 21 345 22 828 35 70 36 651 82
110 20 8069 595 58 574 73 939 23 642 20 929 91 531 86 185 53 234 9 815 96 691 75 837 22 37 42 574 48 349 59 133 21 931 38 464 100 263 84 274 99 90 8
111 20 8632 963 86 765 56 609 45 613 43 273 81 390 13 461 67 926 65 386 35 643 90 819 65 690 68 210 70 546 11 337 71 250 27 984 21 461 10 329 48 135 40
112 20 8446 374 59 754 37 785 65 933 31 863 69 366 40 967 98 579 51 130 8 855 97 451 63 114 25 278 1 177 86 846 27 685 92 139 47 290 10 921 75 51 95
113 20 6283 134 10 527 99 652 66 37 18 325 36 83 35 404 92 792 32 978 93 385 2 480 41 353 73 112 9 331 1 171 11 287 56 392 30 165 61 770 67 476 47
114 20 8888 957 30 682 24 345 12 313 29 999 12 588 89 213 79 782 11 831 73 454 27 370 19 571 88 540 54 845 43 846 62 554 45 344 30 235 36 258 72 384 95
115 20 7674 756 41 218 52 659 67 31 92 33 57 935 99 183 50 439 43 176 76 981 90 252 49 553 18 973 5 412 25 66 75 263 33 841 25 522 97 510 33 790 88
116 20 9016 992 52 816 17 986 11 536 21 704 41 729 46 130 41 990 99 878 42 628 82 443 44 151 70 610 95 201 31 945 99 977 52 146 6 16 17 188 98 204 54
117 20 8136 324 54 770 58 313 68 763 47 345 82 49 5 684 48 617 27 548 40 140 47 583 2 915 69 392 65 144 29 25 1 314 4 800 77 689 88 806 77 949 9
118 20 8177 319 58 566 91 631 7 798 8 539 15 978 65 171 51 399 3 792 85 19 81 580 32 279 34 283 49 724 90 781 30 84 94 488 59 958 14 118 15 715 77
119 20 7777 965 44 666 69 873 10 226 50 33 67 102 34 632 56 617 58 621 80 234 74 945 80 258 60 758 49 38 3 837 81 54 31 458 35 351 40 398 31 656 72
120 20 7456 456 52 95 71 797 6 111 58 916 53 60 21 986 53 593 95 377 68 272 79 252 9 654 92 315 20 977 69 617 44 11 88 866 73 40 24 451 53 475 12
121 20 7308 856 69 394 67 96 81 854 6 202 78 802 37 245 74 174 7 237 60 317 55 760 86 619 14 551 74 965 67 111 33 584 65 378 11 160 93 212 73 619 76
122 20 8189 551 25 911 65 266 20 489 5 711 86 470 84 428 90 86 61 145 84 892 98 707 29 408 53 179 52 225 9 961 42 64 89 658 66 968 93 206 84 912 10
123 20 8892 218 42 65 97 958 75 919 29 612 49 599 96 442 71 832 50 134 7 513 29 591 84 992 100 125 33 323 10 959 45 816 87 837 24 482 87 220 85 479 69
124 20 8792 552 76 24 76 471 31 44 22 456 21 481 10 614 58 356 40 860 45 680 51 641 91 499 60 914 47 438 14 557 70 324 66 503 52 951 96 867 96 758 100
125 20 7790 931 97 989 20 62 17 662 6 510 41 30 41 36 93 606 89 995 15 668 21 409 8 153 11 743 15 134 5 43 96 768 5 984 30 646 23 163 48 206 25
126 20 8344 935 87 617 13 744 41 104 8 80 92 985 16 296 59 322 12 75 93 631 6 286 9 230 100 182 61 891 7 420 90 676 47 963 24 809 55 498 94 687 77
127 20 7621 823 29 914 92 47 97 510 50 846 33 781 90 390 27 366 82 141 78 407 36 505 28 18 66 95 39 758 36 860 57 965 49 161 75 477 10 450 49 13 2
128 20 9024 41 99 517 24 398 55 851 95 277 62 798 65 315 27 958 49 119 35 158 89 928 55 682 16 901 55 628 71 85 31 829 68 482 43 978 38 530 27 806 95
129 20 7536 906 11 766 6 431 31 553 3 156 71 769 40 489 83 740 100 109 6 695 6 10 39 85 34 771 62 626 91 692 16 595 84 46 97 23 3 643 53 315 58
130 20 6188 682 24 203 97 144 37 895 76 540 91 277 12 575 30 852 4 321 41 268 17 183 48 370 11 229 87 952 27 340 71 1 94 11 52 278 79 541 13 74 55
131 20 6929 264 95 524 21 696 91 799 94 148 9 691 98 385 85 970 49 630 84 154 98 203 16 292 39 820 42 30 33 111 72 177 28 764 45 391 19 229 100 384 54
132 20 7945 248 91 402 68 936 25 509 58 239 94 49 47 659 5 565 90 22 54 378 41 753 72 644 54 416 82 690 47 957 12 45 15 789 15 453 37 754 90 424 63
133 20 8578 468 60 842 77 264 40 717 16 773 78 503 28 644 17 795 63 511 33 728 85 804 97 663 3 186 8 532 56 589 20 205 37 145 88 683 11 172 95 499 83
134 20 7697 684 13 632 72 171 11 295 91 412 7 620 11 529 75 743 89 394 60 276 18 766 86 768 100 139 78 620 4 336 52 560 53 52 16 970 18 331 24 324 34
135 20 8624 950 12 380 3 83 15 510 39 291 73 150 15 705 46 917 7 491 11 624 49 150 37 591 77 681 11 979 37 659 53 80 93 563 25 822 40 835 54 320 13
136 20 8196 995 66 528 31 377 50 442 86 237 59 509 92 627 21 35 5 767 63 646 9 749 47 1 12 756 83 999 50 993 75 8 54 868 14 144 36 178 18 387 13
137 20 8728 579 83 929 60 920 49 678 25 992 97 570 82 229 58 485 76 157 53 594 73 799 34 137 66 909 44 823 89 951 81 263 50 74 31 200 21 577 84 45 53
138 20 7830 888 38 890 64 878 15 192 74 179 79 64 52 271 85 69 2 57 19 674 76 363 38 388 50 500 62 501 39 524 27 979 30 221 40 963 37 248 83 939 50
139 20 7128 133 47 960 33 415 20 727 89 520 46 357 22 613 72 144 19 333 44 686 16 450 40 287 90 515 77 438 32 231 92 62 2 253 96 775 26 435 97 577 5
140 20 7312 284 17 836 65 587 50 619 56 672 43 251 100 251 78 478 35 807 20 238 24 685 8 140 39 188 37 517 15 25 64 175 78 564 30 419 35 498 49 907 11
141 20 8012 847 24 235 55 226 14 596 56 110 21 334 46 422 67 134 8 982 88 466 37 590 33 703 25 325 74 253 63 349 75 870 21 703 96 798 80 671 17 402 55
142 20 9263 732 8 717 50 355 46 782 5 999 12 441 13 92 64 840 28 538 96 706 98 54 73 941 2 634 79 681 98 572 10 643 92 378 56 184 84 602 78 688 17
143 20 9183 101 36 185 6 701 81 844 60 965 83 306 78 653 87 843 29 500 77 313 61 433 41 941 72 808 3 254 47 637 30 543 32 312 49 223 81 927 85 990 33
144 20 8487 529 5 733 13 654 57 827 56 22 31 221 21 922 7 598 2 33 58 999 32 409 47 824 17 467 93 967 58 383 19 342 7 672 28 450 10 437 89 120 63
145 20 8951 341 2 750 93 308 17 620 27 626 50 919 51 950 28 565 95 548 98 406 83 169 85 138 35 835 23 460 40 454 51 868 72 530 54 946 49 317 30 439 10
146 20 7701 95 21 571 27 326 70 271 17 600 38 809 94 557 1 29 60 39 60 689 99 112 74 657 30 986 57 500 48 157 71 979 33 735 16 279 6 666 58 570 60
147 20 6612 23 14 54 54 896 55 380 38 708 54 87 82 645 18 784 36 949 12 366 9 167 69 76 18 926 72 192 93 165 62 143 22 467 45 313 100 753 54 172 7
148 20 6782 931 82 285 5 82 58 569 24 428 6 324 81 999 27 365 4 122 69 483 4 586 34 583 1 238 77 476 12 981 7 63 27 102 60 210 74 154 87 497 30
149 20 8336 944 78 869 79 403 46 605 49 420 96 792 12 141 69 419 3 573 58 390 7 659 64 693 52 282 65 942 36 619 30 484 78 500 25 97 86 387 5 202 86
150 20 7047 147 62 381 82 42 73 670 16 93 4 790 10 178 26 947 27 479 36 185 95 976 31 177 78 828 27 710 22 94 81 891 84 579 74 91 82 115 23 436 41
151 20 8910 891 95 321 39 891 7 204 76 477 50 142 27 640 23 458 46 333 90 657 4 765 57 423 95 39 66 874 6 534 52 459 24 813 5 772 92 904 21 541 80
152 20 9154 912 52 223 76 82 42 933 70 892 65 414 8 74 76 970 6 846 51 871 47 900 57 548 62 843 51 633 18 350 56 432 58 200 17 5 41 435 66 880 22
153 20 7088 390 49 833 99 193 52 500 81 377 21 449 53 110 50 296 8 696 67 161 27 638 14 903 49 124 58 700 92 352 24 674 27 432 76 572 5 459 19 2 69
154 20 7756 154 21 500 58 102 64 502 73 764 33 828 97 669 19 759 99 126 4 636 94 541 44 171 72 990 25 833 81 100 64 238 24 961 46 257 63 401 67 164 18
155 20 8048 220 4 449 89 729 55 344 28 478 84 22 39 157 33 802 60 280 14 647 12 2 45 769 88 545 28 1000 2 555 4 166 29 517 38 877 7 897 58 604 92
156 20 8445 602 37 362 9 62 71 189 45 665 9 869 25 796 50 717 45 944 25 745 52 519 93 8 35 455 69 762 68 31 86 586 56 993 38 343 17 865 4 44 6
157 20 8433 1 90 490 18 641 2 895 22 159 52 501 20 603 22 556 16 438 7 576 24 357 97 966 70 791 35 973 31 695 84 150 2 348 52 362 64 225 17 815 84
158 20 7768 668 5 853 1 31 94 282 18 941 44 491 10 338 12 760 46 547 20 348 5 475 11 269 8 228 98 297 49 135 32 619 98 862 44 576 98 39 74 951 29
159 20 7176 226 3 173 60 268 90 74 78 277 41 197 61 819 28 965 18 415 2 841 56 482 49 612 90 370 89 353 88 479 53 132 7 748 32 663 83 810 53 66 100
160 20 7464 275 100 31 91 615 87 198 26 522 18 865 95 504 65 468 79 460 69 568 87 143 37 306 47 225 98 260 50 4 75 785 36 900 14 761 33 678 25 762 38
161 20 8580 155 85 133 16 528 88 821 64 153 27 897 38 349 97 715 51 478 57 358 49 523 42 722 91 755 4 977 71 304 15 265 12 380 93 707 71 900 54 606 42
162 20 9117 29 41 463 83 792 57 501 31 663 90 844 48 236 56 896 21 406 60 393 97 707 77 873 52 97 85 782 11 252 84 920 69 791 34 756 9 59 47 937 97
163 20 7521 588 78 204 94 234 89 359 73 568 100 379 20 844 20 140 82 687 81 850 14 13 28 465 51 628 89 211 53 574 14 430 27 37 100 492 72 931 94 768 40
164 20 7309 80 10 429 11 229 5 242 70 688 62 283 64 720 12 578 71 572 3 120 31 974 35 841 80 91 47 35 47 748 79 266 36 715 100 801 15 192 21 533 23
165 20 6292 396 82 275 1 77 82 958 64 662 33 917 79 335 1 231 28 306 86 53 38 235 41 795 74 220 58 795 95 151 2 476 35 200 20 60 27 21 66 703 93
166 20 8632 140 24 765 3 964 98 644 14 442 30 451 82 689 6 508 72 816 28 5 42 527 10 851 67 438 76 232 87 383 100 880 47 96 66 922 41 422 93 616 64
167 20 8788 504 23 395 60 664 17 718 45 6 12 463 45 878 72 44 15 431 22 379 57 690 73 102 31 775 94 984 50 986 62 684 31 471 7 899 67 85 62 828 73
168 20 8861 927 27 227 96 626 2 994 45 715 26 111 93 536 73 976 8 829 48 389 71 635 18 843 92 15 87 819 49 510 88 87 39 60 12 715 21 989 96 74 47
169 20 6965 800 68 919 27 71 67 312 17 400 78 629 25 62 78 831 54 161 46 168 3 275 81 626 59 323 27 304 96 200 72 1000 82 151 25 272 64 362 10 841 95
170 20 8344 865 69 344 78 157 96 823 60 917 91 343 36 234 67 53 90 969 49 410 62 721 45 307 71 770 14 133 57 60 45 637 63 890 52 797 51 314 56 686 25
171 20 6850 788 32 70 85 871 22 517 78 548 90 183 85 534 24 898 67 544 59 495 85 130 76 161 57 27 46 510 15 175 94 226 52 524 86 323 89 57 40 982 68
172 20 6680 126 11 17 59 26 67 384 89 18 11 966 32 232 19 911 75 282 55 340 35 388 68 246 42 732 82 57 37 804 16 890 26 169 66 810 43 164 10 789 20
173 20 8899 224 28 247 86 934 57 790 80 604 7 258 63 23 23 790 38 218 92 622 12 331 38 906 42 570 17 452 1 849 9 446 77 709 20 601 4 901 71 649 30
174 20 9742 894 89 608 18 978 86 608 56 595 57 638 53 674 7 698 56 351 33 1000 3 340 40 553 61 712 92 958 21 849 20 318 25 435 94 838 2 62 41 69 64
175 20 5378 367 21 728 22 561 56 158 19 162 72 288 25 253 18 565 20 142 8 21 93 782 54 121 95 138 89 429 77 188 21 698 62 745 14 108 95 197 12 72 10
176 20 6571 142 84 905 55 330 78 317 79 923 58 641 65 614 85 532 71 615 57 199 31 24 20 183 54 415 92 886 95 433 57 62 16 114 56 325 100 153 33 401 99
177 20 8228 749 16 540 56 827 66 728 28 530 99 655 23 834 66 216 96 20 99 622 13 17 61 898 90 203 2 885 73 342 29 798 66 167 7 185 93 958 68 112 29
178 20 7228 615 25 204 70 386 78 997 94 356 42 372 60 81 52 436 76 868 71 753 75 716 35 352 1 965 2 248 41 413 33 112 77 410 87 219 46 184 9 349 40
179 20 6636 339 28 129 54 443 94 476 98 334 37 795 86 989 5 798 9 584 86 221 1 177 1 291 40 220 38 131 70 578 81 429 83 500 26 148 8 74 85 640 100
180 20 8081 279 48 918 68 486 10 65 3 370 75 482 55 141 94 699 52 134 7 120 25 376 64 886 38 831 9 837 2 179 32 623 9 544 95 302 53 990 79 840 15
181 20 8294 130 21 761 51 591 13 483 9 899 15 199 64 484 63 751 90 459 69 884 35 246 62 205 88 629 61 815 31 21 35 780 58 843 67 185 5 785 48 218 14
182 20 7592 634 1 99 76 129 26 280 90 609 45 998 77 947 42 28 33 699 18 372 39 958 52 510 90 211 61 196 44 707 70 126 92 537 5 733 6 273 78 445 63
183 20 6220 525 78 326 93 298 7 517 82 78 36 76 39 308 47 73 16 413 62 861 56 461 76 377 74 521 98 154 17 473 50 373 18 412 37 437 47 440 19 652 5
184 20 7997 142 15 209 28 672 86 975 58 212 59 377 10 894 65 508 98 130 61 663 5 578 54 595 98 965 75 79 26 658 46 805 25 985 50 95 8 124 7 331 29
185 20 7905 233 45 922 87 377 86 462 7 115 10 249 54 417 42 663 11 690 69 390 31 440 77 782 51 275 90 973 30 745 40 75 42 954 61 63 10 902 5 155 24
186 20 5004 27 33 26 48 33 81 162 53 195 99 45 51 836 95 526 46 774 6 492 91 127 83 366 94 19 89 787 98 271 73 264 92 17 70 252 37 961 99 76 64
187 20 7129 424 91 528 27 140 2 443 77 453 98 820 22 755 21 553 28 548 86 61 28 934 72 830 42 342 78 146 86 701 21 374 32 201 37 361 60 218 77 80 60
188 20 7860 254 51 862 73 900 82 362 46 813 28 526 54 558 81 101 86 69 28 376 45 908 9 713 71 647 50 635 22 412 22 761 92 205 83 187 13 235 67 302 91
189 20 8566 610 2 787 32 711 18 79 17 862 45 799 57 766 27 552 50 335 46 407 92 666 8 873 70 299 85 8 34 673 9 493 26 259 47 15 82 933 13 581 18
190 20 7621 833 60 706 100 156 63 648 12 143 35 258 19 318 78 520 14 72 35 644 15 396 59 558 84 783 15 42 54 439 45 894 93 319 8 657 53 931 44 210 80
191 20 7697 670 100 615 60 555 15 537 84 518 78 967 44 40 62 175 43 543 60 358 22 246 50 598 84 577 19 494 73 83 85 728 27 121 14 659 21 934 10 204 31
192 20 6338 74 67 296 79 33 4 389 32 510 75 175 76 720 59 15 62 66 42 52 94 447 64 761 39 245 44 859 52 745 32 402 23 402 82 536 45 834 82 362 78
193 20 9633 437 22 825 65 710 24 283 49 735 53 265 78 958 39 138 45 479 78 968 21 828 76 831 50 636 50 366 85 871 59 374 92 547 7 594 74 493 57 704 8
194 20 7487 504 84 844 10 862 36 154 65 37 96 495 61 751 12 197 38 26 73 51 13 931 80 628 96 262 28 694 21 898 23 377 59 603 56 462 19 339 15 244 2
195 20 7876 335 21 37 31 920 14 371 61 174 11 982 53 434 99 225 46 399 42 214 83 411 58 80 8 268 42 276 26 592 79 540 7 902 38 908 25 858 26 919 91
196 20 8136 723 88 962 43 71 62 521 59 309 59 888 65 75 47 795 18 425 15 467 62 962 46 128 5 775 17 444 54 848 14 224 1 205 29 373 40 300 72 675 37
197 20 8097 688 12 997 31 229 40 571 37 821 86 225 65 376 17 609 48 470 21 284 97 145 37 987 17 935 89 508 83 470 71 354 75 513 46 815 62 118 26 7 49
198 20 8164 507 62 691 81 807 24 584 69 425 63 118 31 487 84 93 35 780 16 558 94 422 89 801 7 384 57 171 31 819 87 65 77 506 75 817 74 694 32 476 4
199 20 9268 648 8 732 3 980 74 563 93 140 42 707 62 777 71 814 47 33 77 22 43 834 36 619 29 90 46 647 79 987 25 749 38 442 81 513 40 697 57 591 93
200 20 7458 629 7 111 20 679 55 633 28 716 68 115 23 499 43 465 36 308 23 368 22 876 95 926 90 210 50 464 48 164 90 24 74 558 66 216 76 821 45 541 30
201 20 7937 518 31 107 55 941 49 422 34 458 15 334 12 789 6 433 78 107 62 191 41 169 43 805 46 948 80 493 64 715 16 708 92 573 50 344 42 667 6 200 50
202 20 10192 309 51 941 78 987 18 913 36 69 43 204 49 962 80 923 95 623 31 335 89 352 23 480 72 826 46 996 77 934 99 566 86 386 6 953 22 298 54 683 81
203 20 7711 253 64 552 46 148 36 569 71 701 66 279 77 936 70 822 50 590 11 147 43 301 83 15 26 656 22 664 83 899 55 694 56 152 27 438 71 255 68 568 49
204 20 6793 603 56 385 47 121 74 320 73 75 42 932 97 71 62 820 61 338 40 883 57 919 46 252 33 455 86 322 24 224 86 172 84 61 81 323 31 557 35 659 47
205 20 9193 802 96 529 95 25 99 100 1 837 45 48 97 654 52 801 45 400 38 883 80 69 51 505 4 968 36 53 24 765 22 789 54 880 29 905 67 895 82 584 97
206 20 7528 828 60 588 55 244 59 748 8 143 36 262 97 747 19 102 53 351 62 635 49 690 94 556 5 271 89 889 6 692 91 22 12 792 92 564 82 111 18 175 20
207 20 9782 724 68 610 14 995 37 726 90 896 84 590 33 88 75 655 41 834 26 918 8 678 87 129 86 677 56 33 11 818 13 916 73 108 75 800 16 276 94 757 5
208 20 5919 42 69 435 61 497 56 36 65 970 29 440 55 285 45 640 7 26 98 789 22 667 97 24 41 702 19 84 83 502 27 191 62 43 18 226 80 362 45 438 26
209 20 9321 813 12 779 20 699 90 900 46 549 56 84 93 678 4 30 58 915 72 792 14 978 20 699 50 371 13 436 93 974 70 459 62 395 24 429 94 500 11 172 28
210 20 6851 344 35 545 64 586 3 413 2 817 54 1 18 358 81 6 86 421 88 653 25 951 50 696 83 109 68 645 76 259 59 453 12 16 1 277 88 296 1 718 67
211 20 8599 849 96 933 79 22 5 860 69 59 57 234 5 458 2 922 63 942 64 555 25 789 91 838 27 211 72 754 99 434 100 101 69 569 43 897 21 64 1 258 28
212 20 7193 306 60 288 98 347 56 176 85 254 92 97 100 984 67 66 66 888 61 548 20 989 61 731 8 952 20 385 85 837 69 16 25 463 5 418 13 143 1 104 33
213 20 7907 673 87 118 18 253 38 64 89 857 63 332 35 106 44 891 31 691 39 950 49 512 51 642 98 676 31 357 94 348 72 979 7 243 99 98 67 687 93 407 18
214 20 8031 340 93 480 61 570 92 626 34 529 25 900 74 218 91 84 41 594 68 617 28 803 32 335 3 663 29 647 52 233 35 591 40 305 44 273 78 837 25 394 46
215 20 5208 140 97 324 67 357 24 515 16 373 18 31 91 503 22 188 10 29 2 686 82 117 59 403 9 162 96 216 77 212 62 384 48 975 91 388 32 150 78 357 48
216 20 6229 98 63 412 78 623 44 150 88 38 22 377 43 106 37 958 37 743 100 579 19 319 27 72 45 63 11 900 19 840 32 7 85 547 78 580 22 179 75 196 84
217 20 6821 905 42 337 51 751 45 746 69 559 88 571 79 369 32 907 46 205 86 268 26 10 72 17 62 500 89 2 11 114 59 616 1 412 57 269 75 933 92 36 48
218 20 9132 252 29 292 64 3 79 108 47 657 62 522 62 806 77 692 26 811 12 963 18 903 43 384 72 529 49 619 53 633 44 816 12 533 42 556 22 834 60 503 83
219 20 7413 264 75 57 46 492 36 68 44 809 5 673 91 146 28 805 47 511 3 687 52 711 17 591 23 438 33 648 10 203 82 133 53 867 18 517 7 216 73 431 15
220 20 8066 286 82 168 34 408 94 447 54 617 49 792 60 603 96 240 74 723 52 377 73 984 96 363 77 642 31 264 59 516 40 758 44 714 69 3 68 518 7 660 99
221 20 6438 55 14 486 92 355 46 989 26 422 65 130 80 553 33 329 69 159 2 401 100 46 82 578 7 999 25 24 35 231 92 195 78 950 91 317 91 684 52 145 19
222 20 8172 513 73 3 63 752 92 641 33 986 55 706 27 827 91 513 6 673 18 287 20 453 68 635 51 513 22 474 44 32 77 75 62 955 77 373 65 1 40 803 99
223 20 7265 323 78 691 71 295 48 446 92 402 96 136 73 753 82 202 75 481 74 418 58 812 83 115 51 20 76 10 77 995 87 502 32 975 28 251 95 840 68 415 61
224 20 10103 924 89 965 45 714 10 808 24 335 75 868 73 667 84 460 69 830 58 355 21 845 77 874 51 294 16 516 58 756 37 391 58 202 8 546 6 611 99 668 3
225 20 6201 65 69 643 43 566 98 666 80 4 35 162 84 423 42 46 85 747 63 428 62 61 54 142 12 180 13 598 52 618 32 268 86 700 66 204 9 598 81 633 85
226 20 7913 600 91 343 28 849 1 192 36 345 17 298 4 994 72 484 50 83 15 41 80 2 43 575 41 779 5 28 53 660 25 832 22 525 58 984 100 524 22 754 23
227 20 7945 405 63 963 15 524 87 228 14 523 66 617 21 803 59 599 79 804 9 981 69 199 61 218 82 400 65 343 36 501 19 500 38 154 20 603 60 476 57 91 16
228 20 5728 222 50 208 12 78 33 32 89 174 88 861 90 170 54 63 83 788 88 349 39 492 14 8 32 748 55 77 100 840 21 119 23 593 28 425 91 500 26 414 55
229 20 9410 330 26 39 38 204 37 896 98 899 47 876 53 838 8 392 37 463 61 643 17 415 28 958 64 345 57 332 80 987 45 620 49 983 19 159 37 509 79 875 75
230 20 8121 732 32 741 2 828 95 389 37 287 55 104 44 135 50 192 80 457 81 793 54 243 47 957 56 998 14 918 76 556 88 89 32 238 86 490 32 499 70 506 54
231 20 7798 522 63 65 77 44 63 665 3 714 64 657 20 323 47 861 39 174 91 635 40 410 33 292 37 911 63 562 57 864 54 150 65 240 71 272 90 451 52 936 21
232 20 7499 244 26 358 80 265 87 252 56 761 100 381 81 971 87 913 80 909 3 102 2 197 76 695 93 391 71 750 15 44 23 681 1 613 27 344 69 84 100 419 75
233 20 7544 37 53 2 42 110 6 193 26 472 52 432 42 375 11 309 100 818 10 885 10 736 77 232 61 232 4 394 93 955 61 847 20 492 67 749 97 395 79 765 3
234 20 7819 626 37 564 83 747 38 198 82 597 51 127 1 766 86 195 38 225 84 965 82 131 58 499 61 709 55 529 24 672 72 642 42 134 20 617 55 675 42 156 36
235 20 8046 860 21 434 23 561 51 388 52 955 31 488 82 634 5 255 29 723 65 96 89 247 54 384 67 868 71 621 98 704 43 300 44 282 57 29 69 257 24 972 93
236 20 8880 520 63 834 53 87 73 957 60 568 79 85 52 892 80 58 8 70 70 763 3 915 24 840 41 701 6 559 9 6 53 817 28 159 85 940 62 438 26 892 62
237 20 8074 721 2 930 65 771 20 523 12 607 43 888 60 794 64 667 5 76 7 153 34 814 35 319 2 499 62 231 99 457 88 63 98 463 21 274 64 293 91 550 3
238 20 8769 708 79 56 83 670 60 937 71 514 17 789 23 378 21 933 4 733 66 641 45 320 44 225 49 261 81 485 5 554 53 126 3 367 78 772 12 675 100 818 20
239 20 8182 508 60 663 39 795 76 394 31 247 37 834 46 468 59 28 31 18 52 134 57 826 1 815 84 15 94 938 37 491 76 844 40 340 49 944 90 592 7 334 13
240 20 7828 647 51 10 81 386 86 840 30 786 22 291 37 305 51 797 10 597 99 465 43 329 78 12 15 892 22 627 42 292 7 104 65 105 75 630 82 994 99 676 45
241 20 10251 607 17 463 24 575 90 720 22 95 34 195 13 907 100 615 38 737 72 647 23 876 4 581 42 496 33 909 26 567 30 845 22 957 20 680 72 572 18 770 77
242 20 7192 861 5 314 40 171 33 66 25 540 69 16 25 746 30 144 53 937 28 232 19 159 56 521 67 400 68 650 78 669 59 389 48 442 79 746 76 720 7 267 78
243 20 7012 864 2 287 30 953 39 41 8 437 78 573 32 28 50 471 70 298 16 732 29 996 66 379 1 189 87 576 76 609 5 19 22 547 45 1 67 638 62 127 74
244 20 6512 602 92 77 100 322 75 409 54 35 19 176 91 808 38 507 79 76 47 971 34 576 61 5 17 71 70 130 5 282 24 871 35 288 29 529 66 416 54 990 20
245 20 7833 727 34 738 96 130 99 1 48 351 32 884 59 691 24 536 79 680 94 214 42 852 3 564 69 507 52 186 98 13 50 821 28 328 37 793 70 709 49 67 51
246 20 8096 427 79 639 66 503 57 778 81 569 95 255 81 39 31 984 22 473 98 823 8 707 33 230 77 845 8 442 20 4 44 419 30 40 31 816 31 772 96 355 85
247 20 9329 7 40 960 98 629 29 638 1 501 36 878 53 763 61 323 73 882 29 995 50 828 100 47 3 569 56 852 91 197 2 505 39 644 82 557 83 382 56 505 38
248 20 9568 618 45 423 46 765 75 702 65 775 64 933 68 949 11 769 1 420 36 545 28 312 31 398 13 217 59 765 66 706 54 551 98 237 63 741 35 429 95 706 59
249 20 6004 150 95 563 52 137 85 355 74 318 97 55 57 298 51 706 93 278 36 16 44 828 8 799 98 328 34 179 10 280 5 411 34 12 46 377 86 469 87 947 66
250 20 7092 357 19 205 95 207 73 197 46 721 57 592 67 942 66 44 96 161 58 113 54 118 97 875 48 345 48 219 48 401 38 722 88 739 26 824 47 774 2 310 35
251 20 7020 842 90 68 57 308 97 981 34 241 28 584 23 269 81 241 59 977 10 241 87 128 9 476 65 822 71 102 81 217 92 452 44 52 97 737 66 880 29 157 25
252 20 8868 396 87 54 67 712 20 976 27 966 66 745 24 351 45 932 9 307 39 709 98 111 83 697 2 41 33 835 41 200 28 642 84 908 13 376 67 192 82 935 93
253 20 7774 462 86 154 58 216 28 433 73 594 52 406 61 696 43 69 93 770 4 673 68 339 34 906 15 668 66 220 33 580 16 309 51 70 90 509 82 776 47 868 84
254 20 8784 716 3 474 44 703 10 690 53 771 87 96 87 774 68 69 14 887 91 511 56 555 93 198 66 588 40 340 35 646 11 594 85 564 81 819 77 967 7 19 82
255 20 7772 772 48 224 91 324 13 604 15 4 19 824 84 161 78 754 89 75 44 731 35 341 77 964 99 698 55 132 46 725 44 329 31 666 75 869 78 508 79 10 32
256 20 10069 548 90 586 82 975 33 309 63 776 45 813 23 641 39 413 17 506 42 571 52 555 42 900 6 40 71 963 65 842 35 994 31 527 7 336 85 680 43 612 25
257 20 8539 172 77 721 9 983 44 738 88 635 37 926 29 378 30 415 36 459 97 402 11 812 7 567 21 649 28 32 49 988 22 1 61 126 99 342 44 920 25 408 41
258 20 6352 374 34 228 26 866 36 454 80 156 10 126 67 660 45 506 18 86 15 254 75 666 46 479 62 462 59 8 9 653 68 343 55 375 12 38 10 518 47 689 35
259 20 6248 356 49 41 96 180 23 90 96 263 56 896 46 27 19 8 46 827 41 827 14 866 52 257 68 269 36 219 9 39 71 899 75 459 77 720 24 538 44 29 75
260 20 9073 966 47 619 29 151 69 336 23 215 54 202 55 988 92 784 28 672 78 760 53 953 70 741 68 107 40 676 27 783 62 322 60 492 79 130 52 884 43 561 77
261 20 7506 290 63 939 70 489 76 519 17 51 20 588 98 620 33 501 62 834 66 189 53 105 11 739 81 362 40 658 37 647 44 474 89 328 63 243 50 24 13 783 25
262 20 8259 678 5 920 11 35 18 761 85 340 3 126 52 769 91 64 3 188 78 531 20 854 74 558 26 814 65 190 3 289 62 77 30 971 92 966 10 222 87 971 26
263 20 8308 668 92 755 20 736 53 395 40 285 14 600 97 781 25 687 47 92 98 977 26 734 40 153 50 868 35 108 50 661 13 659 29 295 90 696 59 187 97 48 82
264 20 6988 517 48 347 11 655 13 224 78 575 58 311 42 80 25 76 62 705 18 938 52 368 12 832 20 121 38 130 100 317 40 346 50 927 20 261 50 882 6 124 17
265 20 8775 500 70 406 77 907 85 748 21 860 84 228 9 979 66 408 83 87 6 552 56 740 87 782 70 669 92 828 24 578 10 357 87 585 53 218 58 482 67 55 83
266 20 8263 39 67 224 85 267 12 111 72 440 68 548 94 898 78 972 64 452 4 573 8 347 90 785 27 72 24 815 72 593 67 697 82 606 68 152 21 814 94 924 93
267 20 6372 310 21 598 37 763 55 472 99 217 24 539 79 425 88 413 98 51 22 725 35 661 17 291 54 131 87 312 34 888 55 168 18 135 94 413 67 433 57 21 9
268 20 10563 268 22 613 36 499 36 865 100 772 64 563 76 998 65 563 26 628 28 689 80 804 91 640 47 614 33 571 49 48 81 763 37 669 67 947 90 768 82 922 67
269 20 7324 13 17 701 14 50 11 54 59 568 36 832 35 495 55 78 62 452 42 419 78 740 90 677 84 706 9 326 35 629 73 538 3 223 74 576 24 228 40 851 35
270 20 9378 724 36 72 54 294 84 892 64 204 31 868 74 713 71 908 22 355 32 865 77 542 88 399 62 101 19 557 26 806 22 742 32 971 94 330 57 541 4 839 90
271 20 8475 188 69 472 80 690 59 78 69 931 75 817 61 488 66 600 22 53 56 554 63 522 27 962 73 792 67 873 18 319 99 212 58 363 65 364 72 787 98 529 25
272 20 8935 684 36 352 11 71 66 454 25 275 81 345 99 193 89 853 82 668 74 878 78 952 86 595 81 302 40 165 68 827 25 795 1 509 24 409 13 887 84 955 27
273 20 9372 932 47 583 1 192 48 968 95 799 28 538 86 295 6 768 7 96 99 306 78 642 12 432 53 845 88 881 7 614 87 729 23 477 45 812 25 38 73 768 56
274 20 8784 792 27 796 72 515 66 691 59 416 11 507 66 349 55 669 88 644 52 684 83 856 3 25 27 574 37 576 99 632 87 401 69 168 35 823 38 250 39 613 2
275 20 7576 701 54 990 52 155 53 128 60 149 92 490 88 521 51 545 100 57 67 760 55 317 40 944 64 925 22 468 67 440 84 697 50 144 22 330 11 485 100 225 71
276 20 7652 28 98 308 16 75 13 563 76 64 73 700 13 480 27 649 45 200 94 919 40 209 71 101 26 635 55 447 77 257 68 796 64 670 63 765 58 735 58 965 91
277 20 8605 495 7 476 75 485 42 908 93 845 70 709 6 894 84 416 65 961 92 602 14 484 96 104 85 379 67 143 32 423 27 508 26 648 85 803 17 444 77 30 17
278 20 6215 745 23 430 34 99 84 834 34 456 89 150 24 675 47 106 87 705 85 880 13 113 42 49 22 69 42 919 18 647 60 147 54 146 55 161 84 374 71 64 5
279 20 7352 198 45 440 64 327 83 205 33 140 46 464 84 151 76 406 57 885 26 573 38 247 81 101 79 462 27 185 17 994 69 966 80 638 49 898 78 454 96 457 67
280 20 6705 310 46 339 96 761 19 699 10 300 80 198 19 33 13 86 50 494 97 977 10 116 91 292 8 909 85 669 82 132 96 248 46 326 83 934 23 543 82 16 11
281 20 7748 150 20 149 57 650 15 324 22 534 89 739 80 958 45 532 26 884 98 524 25 114 32 397 31 200 83 961 33 166 27 664 92 842 79 347 3 21 13 530 77
282 20 8092 617 76 814 11 236 49 524 45 361 24 389 90 911 53 98 35 628 98 127 69 730 17 827 1 805 18 963 77 512 43 226 16 346 1 424 79 542 37 36 49
283 20 8674 73 36 100 34 795 37 563 58 292 1 237 61 967 59 990 55 930 57 982 77 235 49 926 82 735 91 160 35 212 15 977 38 258 38 727 57 668 13 16 49
284 20 7612 997 39 114 38 559 95 657 52 862 53 13 2 311 10 22 9 755 67 938 83 48 83 759 64 164 47 255 100 539 73 114 18 166 76 311 85 977 11 955 72
285 20 6626 792 61 262 67 760 80 200 15 639 91 412 80 160 1 691 66 527 66 403 91 155 38 597 85 40 72 143 77 588 21 662 93 367 2 631 7 209 90 45 60
286 20 4543 68 9 54 73 518 33 118 33 293 73 26 3 184 31 88 3 29 72 90 91 69 90 684 75 32 93 255 11 425 96 390 51 582 64 932 83 520 82 322 58
287 20 7228 754 93 331 42 956 98 425 50 686 25 470 45 102 100 415 53 9 90 202 88 862 62 969 29 298 60 545 79 377 85 257 37 164 77 39 49 426 70 748 95
288 20 7699 126 18 576 30 237 44 521 4 520 68 676 87 641 37 825 51 805 63 998 95 837 74 93 83 953 49 126 41 134 46 670 6 456 38 260 57 26 16 144 19
289 20 6843 27 73 517 65 582 16 504 31 172 58 600 1 814 71 620 58 184 29 790 23 13 5 272 23 111 100 958 10 421 27 249 93 824 73 289 3 146 67 461 43
290 20 9140 201 65 773 47 80 92 767 60 420 98 290 47 815 83 477 86 324 65 586 87 393 57 855 82 897 12 287 59 867 16 646 10 739 49 345 51 964 32 699 95
291 20 7672 311 12 377 47 635 45 505 76 795 62 270 29 363 89 408 2 59 94 366 3 181 33 218 6 691 29 800 49 93 39 911 87 715 75 503 21 423 8 966 39
292 20 6381 715 22 660 17 198 74 402 55 206 31 156 48 197 69 235 23 839 70 915 84 172 60 780 87 64 45 39 25 544 1 536 21 29 48 411 64 266 23 613 49
293 20 8640 778 36 131 100 682 50 574 94 476 36 83 46 823 89 414 27 445 20 813 17 350 74 965 49 902 56 190 56 607 80 743 66 676 32 403 33 631 50 115 97
294 20 7204 618 15 133 16 127 35 940 9 197 97 275 1 43 81 46 98 311 37 3 14 891 30 717 44 653 55 757 99 459 82 505 83 471 98 822 79 443 43 595 3
295 20 8355 248 58 487 88 410 76 173 18 269 67 845 16 405 78 285 74 880 85 476 51 773 51 985 34 252 26 349 79 675 73 902 55 473 19 447 39 459 14 651 95
296 20 9847 850 85 261 8 733 76 610 10 518 87 887 43 80 73 919 59 935 96 718 24 63 33 105 79 826 26 914 45 843 34 183 79 589 84 765 37 589 44 921 91
297 20 7464 766 39 245 19 468 93 24 11 599 13 198 85 564 41 370 94 963 59 215 45 268 24 967 21 532 54 548 80 801 5 677 96 67 65 333 43 508 82 218 64
298 20 6218 794 28 8 72 256 100 79 69 733 96 170 77 369 57 373 83 790 95 764 97 478 44 160 61 34 99 26 8 671 4 143 2 536 74 368 4 382 38 639 80
299 20 8548 477 76 806 34 681 74 562 18 410 87 421 49 93 18 309 7 365 59 857 10 601 65 869 3 888 88 432 4 386 69 616 10 757 100 720 99 270 93 166 1
300 20 6608 304 79 155 28 381 13 195 12 145 14 242 64 310 40 506 34 351 50 765 91 85 31 844 93 155 77 593 59 73 16 493 89 530 60 811 90 942 71 380 32
301 20 5048 997 12 532 6 220 51 141 73 430 16 620 60 168 96 69 83 993 39 224 46 273 62 161 62 498 72 412 5 68 26 237 78 69 62 154 85 5 21 39 80
302 20 7316 427 71 287 71 166 86 139 60 399 26 346 21 438 5 495 80 399 62 712 88 891 2 555 25 89 62 239 87 698 69 141 36 773 47 973 30 541 56 437 93
303 20 7552 80 42 348 4 87 13 166 49 1000 46 146 9 396 95 868 58 793 52 565 73 450 84 535 61 858 11 921 2 416 74 815 70 261 67 467 50 109 36 160 98
304 20 8092 341 93 496 94 125 63 416 69 780 65 431 55 780 45 67 44 116 74 855 15 328 38 559 47 547 55 775 65 539 77 516 48 307 2 826 24 357 95 954 32
305 20 7377 590 61 618 96 138 28 859 69 675 20 280 60 727 32 134 98 499 66 33 61 210 15 297 46 744 15 430 31 28 94 339 71 342 86 987 64 514 21 778 71
306 20 9599 643 93 838 74 226 87 937 52 957 13 942 33 389 14 779 45 631 15 88 33 752 13 999 100 497 30 736 97 318 52 639 61 354 7 391 90 6 46 877 85
307 20 8185 996 6 984 58 84 32 793 21 472 77 528 69 741 73 698 3 94 5 520 96 566 62 106 24 31 34 496 7 854 49 958 84 257 13 445 72 446 64 163 85
308 20 7904 506 26 148 8 106 58 785 55 391 25 121 92 483 28 998 81 913 74 99 23 347 33 338 99 482 5 422 29 370 85 519 40 841 32 917 34 558 12 536 85
309 20 8364 996 59 933 14 815 13 429 20 239 23 926 25 593 80 408 47 282 26 512 36 445 25 422 25 982 53 506 59 204 40 329 10 309 79 223 65 225 95 677 95
310 20 6283 289 2 720 57 530 2 175 57 300 25 301 97 399 97 330 35 284 24 804 51 524 98 45 86 80 24 290 75 481 92 676 16 951 62 550 1 28 74 97 69
311 20 9343 552 49 722 51 463 19 991 96 133 9 984 26 291 29 472 9 300 12 914 69 874 60 296 47 980 62 307 94 515 9 246 47 742 51 734 21 829 33 334 52
312 20 8880 605 31 599 31 720 90 534 6 186 10 42 32 642 86 212 89 116 100 294 100 888 27 528 1 925 61 836 1 717 74 136 8 538 87 935 34 669 69 978 84
313 20 7937 478 66 543 56 148 59 46 29 598 66 962 82 945 62 487 59 40 45 719 36 209 54 31 60 753 45 702 24 168 14 667 71 310 33 982 18 610 23 524 12
314 20 7971 337 28 960 67 689 87 534 9 666 20 699 32 565 48 496 31 227 20 706 71 158 9 665 80 666 37 725 48 197 23 510 52 739 25 399 73 21 71 5 82
315 20 7899 74 7 461 53 328 38 888 26 812 59 499 24 590 76 953 34 895 80 657 84 88 72 339 58 353 72 674 3 212 71 756 74 94 40 114 14 719 88 368 55
316 20 8343 796 93 501 74 818 32 550 99 722 4 241 34 156 52 500 2 817 89 749 91 453 49 77 88 46 55 814 40 167 3 268 15 363 75 953 4 922 1 516 95
317 20 8172 241 47 698 6 161 6 602 32 393 96 575 71 204 61 510 8 991 48 493 1 652 65 559 84 420 65 570 55 956 84 359 37 271 25 404 63 707 74 450 44
318 20 8672 591 41 523 4 846 35 790 47 56 58 39 41 956 43 586 37 886 93 100 78 674 17 558 58 730 82 780 8 432 16 834 80 65 46 700 7 449 90 246 45
319 20 8041 340 14 328 1 445 26 485 70 797 61 582 47 925 66 777 22 82 21 994 28 98 49 594 58 560 97 236 3 818 37 622 20 535 6 223 81 275 71 336 71
320 20 8372 854 80 337 26 282 18 480 32 477 10 207 43 523 54 749 43 713 12 523 32 307 33 638 70 810 26 216 78 202 89 404 33 941 19 99 38 895 63 808 88
321 20 7077 450 27 251 53 250 43 914 82 127 80 791 31 241 13 970 43 340 94 169 62 333 35 431 98 479 99 52 24 42 70 473 5 974 70 839 39 168 28 553 29
322 20 8933 800 57 914 44 614 24 741 6 356 50 545 41 302 28 978 39 363 91 225 64 417 22 331 16 553 40 940 13 660 7 657 48 873 65 46 35 664 84 188 99
323 20 6826 35 78 416 30 585 97 53 59 562 64 920 84 210 63 287 26 139 42 468 96 54 46 424 67 886 59 696 70 709 29 481 94 684 41 616 96 139 21 169 15
324 20 7314 518 28 201 20 91 25 887 98 617 35 849 35 361 54 829 82 328 17 318 24 652 83 254 46 268 95 871 63 389 70 708 4 756 19 64 91 45 69 137 89
325 20 9276 471 36 348 14 483 49 934 78 613 88 835 60 630 74 363 33 919 30 682 7 911 76 558 30 583 20 823 47 364 42 534 19 222 18 475 86 346 5 501 34
326 20 8002 38 80 934 84 410 73 144 46 931 46 239 30 202 53 305 63 874 29 760 28 955 52 812 61 721 100 981 24 140 31 238 82 285 10 53 82 135 15 846 68
327 20 7000 909 19 941 7 55 32 149 57 701 84 770 66 35 80 100 54 203 57 823 83 323 74 498 25 298 61 784 10 278 77 424 51 572 4 83 82 790 80 15 57
328 20 8528 817 13 281 50 857 12 785 83 846 2 720 33 600 100 270 5 996 80 264 26 263 32 490 93 439 13 555 88 218 47 533 51 61 28 436 9 775 65 454 83
329 20 8673 969 29 172 39 868 74 919 6 175 13 856 61 625 62 363 81 261 31 994 22 611 85 598 8 179 41 54 6 168 35 738 41 817 94 656 45 310 9 509 28
330 20 8987 527 23 109 72 944 15 378 35 621 32 984 59 789 70 17 55 891 37 9 57 933 87 772 16 714 29 414 44 560 70 809 18 358 89 709 98 469 32 227 62
331 20 8128 979 12 929 37 992 73 985 11 357 80 659 42 158 40 307 72 951 6 244 4 461 7 54 76 390 83 154 57 437 37 223 90 162 61 634 37 349 42 736 14
332 20 7762 502 99 585 2 816 58 877 72 176 38 149 30 875 99 284 2 153 22 576 12 123 96 728 67 738 29 585 18 507 2 902 63 87 40 444 14 184 49 412 21
333 20 7850 536 26 101 7 550 3 692 9 630 43 195 95 488 88 620 87 311 55 480 3 456 83 413 46 92 94 786 49 568 6 656 22 767 61 488 59 944 22 40 52
334 20 8724 263 98 260 34 986 14 667 44 965 91 818 83 27 55 473 65 870 81 578 98 256 93 330 52 254 12 712 2 223 36 136 43 661 48 985 24 933 59 509 15
335 20 7807 233 92 572 16 104 71 171 56 432 34 133 24 71 49 875 71 851 14 67 55 761 87 716 48 988 66 736 84 845 28 280 9 350 67 469 98 148 6 957 63
336 20 9110 570 8 555 71 121 100 275 22 543 60 319 99 432 73 617 87 929 51 306 92 590 54 773 83 799 47 63 19 213 3 950 31 626 79 909 1 843 22 955 1
337 20 7918 407 5 820 12 712 59 484 33 681 3 479 45 796 36 125 24 24 53 800 78 280 77 571 84 433 68 586 69 551 30 297 86 142 54 792 68 170 69 748 16
338 20 8198 894 41 475 54 763 19 724 62 183 89 551 41 711 37 1000 69 573 17 251 42 326 66 193 98 881 37 630 23 433 5 494 63 23 17 362 34 305 9 476 15
339 20 8096 765 14 91 98 808 71 627 38 121 69 384 3 638 88 5 28 510 28 554 35 356 92 317 71 382 72 407 4 754 54 61 63 865 7 872 96 736 48 868 32
340 20 8894 946 44 920 75 827 72 313 96 468 44 846 1 113 70 581 68 622 32 993 5 498 30 353 86 834 100 518 18 44 2 399 1 200 46 698 78 759 98 186 98
341 20 9796 689 12 732 68 820 21 454 93 506 99 286 39 346 96 974 86 847 82 962 36 291 68 652 28 971 34 946 100 64 73 511 95 69 24 769 37 977 31 380 44
342 20 8124 769 90 315 65 568 96 780 87 136 62 750 21 348 25 969 17 42 44 648 70 333 19 970 24 25 24 96 32 969 4 299 64 512 67 257 28 686 54 684 78
343 20 8091 633 63 489 65 534 4 768 61 966 80 211 74 98 67 452 89 497 94 57 86 572 12 542 46 100 67 671 38 635 11 819 88 210 73 911 64 24 21 925 15
344 20 8340 751 96 901 37 218 93 384 58 908 38 147 6 515 31 251 14 49 45 947 15 183 78 489 10 927 15 963 71 312 56 369 20 3 24 760 42 906 36 443 18
345 20 8352 269 12 628 31 154 85 994 45 705 17 129 29 334 42 494 71 712 24 350 45 705 18 932 45 638 48 23 20 762 33 855 51 163 91 787 42 207 11 599 52
346 20 10851 975 48 695 17 975 49 372 50 789 5 584 90 892 83 723 71 816 4 878 88 624 90 961 84 696 44 845 82 891 15 660 71 367 1 75 19 518 61 228 10
347 20 9188 923 55 518 54 765 3 452 10 363 47 533 38 301 63 202 36 708 93 419 17 416 60 198 35 640 19 696 73 977 26 342 2 1000 57 993 13 816 8 224 54
348 20 8943 472 45 872 10 698 38 570 21 367 54 559 79 847 100 891 48 165 20 868 81 477 99 9 30 425 68 416 46 736 99 281 12 549 48 809 6 845 76 323 3
349 20 7346 653 50 215 60 242 42 638 13 505 36 329 62 250 83 492 99 134 18 503 73 599 27 191 72 444 73 197 96 968 59 858 42 143 50 389 31 475 23 958 30
350 20 7801 892 61 379 26 214 49 226 87 461 91 693 15 916 83 46 49 173 17 233 50 900 13 93 83 453 40 834 62 39 33 538 76 860 85 235 24 721 37 846 61
351 20 8134 496 32 47 55 118 97 416 59 745 8 225 21 183 80 420 30 955 34 800 3 293 68 320 82 352 68 980 46 924 51 759 24 485 100 354 37 793 65 503 34
352 20 8598 143 13 601 47 263 49 698 91 754 59 136 66 427 57 910 24 458 27 19 57 897 13 791 52 826 72 912 17 742 6 221 49 132 35 765 51 302 41 751 7
353 20 7136 268 8 539 85 435 52 708 50 116 67 198 31 268 27 391 83 302 28 331 95 936 29 981 50 467 65 993 74 28 51 305 30 542 25 581 26 409 1 122 95
354 20 7268 627 68 110 2 977 92 191 74 93 73 871 81 952 79 125 6 194 23 741 92 665 72 60 15 699 70 181 18 443 50 829 29 507 81 28 34 66 51 727 19
355 20 8186 485 87 798 23 330 23 724 5 651 73 454 8 489 70 627 93 488 4 771 38 250 94 432 38 280 86 936 48 351 16 50 79 583 3 594 90 197 96 743 9
356 20 7740 900 47 261 16 965 2 586 52 842 60 414 41 628 45 525 83 121 81 62 79 376 1 537 48 663 100 543 10 170 7 787 68 201 98 112 99 422 14 561 44
357 20 8339 458 40 422 20 682 21 541 95 226 79 992 9 473 3 415 16 129 67 97 38 769 21 307 65 946 33 556 65 492 97 272 89 963 89 294 100 936 27 454 24
358 20 6792 867 95 755 70 717 75 173 82 212 94 148 26 51 79 157 48 157 71 535 37 523 57 794 81 573 37 68 24 518 43 394 20 601 87 82 64 748 56 417 83
359 20 6424 530 86 277 75 418 87 537 1 30 78 439 76 610 49 580 97 143 79 897 14 95 76 617 41 610 80 373 50 51 85 518 94 576 56 256 6 37 12 437 35
360 20 8185 771 40 584 11 609 66 966 42 870 36 587 53 11 8 655 6 127 42 405 62 491 28 260 45 592 55 405 95 785 99 128 69 330 6 982 56 656 32 18 93
361 20 7944 838 15 971 34 628 54 108 37 710 70 782 27 425 8 664 47 192 2 260 24 608 64 352 83 450 60 311 95 679 60 442 11 195 37 330 78 852 5 133 50
362 20 8216 596 98 148 37 331 27 415 35 863 77 344 8 748 58 35 99 242 75 852 37 520 17 5 86 711 67 648 57 272 16 399 67 851 39 646 100 710 23 934 16
363 20 7799 449 37 507 93 865 78 440 56 536 13 612 19 811 100 942 20 561 90 163 3 588 98 80 66 455 97 29 13 463 94 16 50 958 42 262 86 316 56 696 100
364 20 8193 420 34 234 80 724 63 919 81 333 23 824 76 465 86 256 8 226 16 511 5 899 39 438 50 437 25 210 6 453 71 884 33 462 34 414 74 297 7 836 27
365 20 8735 483 17 267 26 618 74 729 34 479 81 853 34 380 46 220 82 630 40 15 79 970 23 780 12 711 49 112 82 799 67 554 59 578 17 862 68 673 90 206 36
366 20 8293 924 88 401 100 874 75 308 29 282 31 674 44 62 64 537 81 219 30 738 70 907 15 343 55 90 79 999 9 607 53 399 63 509 84 663 25 313 60 518 22
367 20 6419 387 28 994 31 527 100 278 31 445 37 451 76 395 65 70 25 433 48 538 20 767 47 426 72 190 84 2 95 456 32 558 30 37 54 111 9 559 55 400 56
368 20 8848 464 9 266 51 362 82 529 73 801 78 966 47 664 46 144 47 628 61 27 61 830 26 883 62 469 45 304 7 569 22 327 85 660 5 485 35 692 12 991 50
369 20 7884 394 20 529 92 996 55 706 38 552 58 230 25 503 12 334 8 377 20 67 81 383 51 862 6 605 81 482 34 689 95 240 2 499 96 480 90 782 86 146 39
370 20 6487 139 26 46 38 227 92 236 30 202 64 224 7 358 5 460 12 452 69 834 94 406 62 337 70 572 28 846 45 182 2 522 65 847 77 404 4 644 15 171 16
371 20 6952 390 92 216 100 495 51 375 46 279 4 776 59 106 69 145 94 403 14 583 65 618 87 188 52 860 44 208 34 137 5 456 8 918 68 358 41 989 48 190 74
372 20 7222 741 57 348 34 477 43 536 37 439 60 25 56 234 39 448 96 557 74 963 72 547 10 691 31 353 72 288 100 483 32 302 95 701 49 247 68 200 32 448 32
373 20 7028 308 54 574 28 643 96 555 63 16 79 541 100 181 20 810 44 300 47 859 27 274 61 678 17 947 39 765 98 365 92 517 28 201 93 96 1 98 65 58 21
374 20 6312 101 17 977 59 200 55 676 58 236 27 68 87 1 59 360 72 497 29 770 82 242 55 391 74 573 97 38 28 625 12 873 49 168 41 223 71 710 81 161 60
375 20 8032 769 87 99 95 757 43 697 84 145 56 977 14 792 67 691 21 53 31 265 4 988 74 852 38 487 57 63 31 201 18 36 18 15 93 491 100 823 79 839 25
376 20 8138 518 41 487 33 716 53 89 47 631 24 64 30 286 85 920 84 546 70 759 90 916 30 778 26 208 52 222 77 138 51 813 86 545 82 993 28 350 65 194 7
377 20 7822 828 54 778 11 605 11 127 90 598 79 207 86 751 38 657 71 132 14 673 70 408 25 592 33 751 63 413 82 177 96 234 91 950 90 12 55 644 96 241 28
378 20 8808 339 45 561 2 774 30 531 41 916 11 905 32 975 91 611 37 508 51 387 30 557 10 330 53 162 96 307 62 507 24 518 61 539 92 771 95 374 87 438 66
379 20 9689 903 96 517 86 979 14 918 100 57 24 540 1 822 28 479 18 614 58 610 29 155 16 275 73 866 58 348 38 387 47 391 64 469 68 951 21 890 42 941 22
380 20 7869 585 74 784 57 179 5 268 53 322 80 255 26 994 46 248 85 719 46 343 9 687 81 619 87 287 15 820 58 583 52 799 12 289 20 312 19 286 57 458 66
381 20 8592 770 38 643 23 295 56 467 21 454 84 175 68 760 43 409 12 396 52 391 93 929 88 451 12 884 37 965 38 713 68 752 19 638 51 46 8 400 83 203 98
382 20 7366 328 80 799 9 71 36 186 8 233 88 526 92 504 32 78 23 367 55 413 94 455 17 717 96 875 58 976 58 453 33 414 72 791 91 779 89 204 73 39 1
383 20 7288 263 49 159 28 410 1 472 53 510 85 352 42 814 82 701 19 337 8 708 53 238 61 103 76 533 11 424 9 197 9 650 54 682 27 844 7 366 11 348 29
384 20 7405 64 62 679 19 563 74 811 3 619 7 39 50 68 28 158 60 758 62 848 62 603 30 29 59 22 27 152 96 464 56 673 42 619 13 966 68 228 55 894 47
385 20 8406 31 87 432 71 804 23 869 43 892 91 424 38 589 11 876 9 405 71 504 10 697 32 230 27 301 71 774 66 58 67 859 98 849 60 256 52 181 5 477 26
386 20 7888 261 33 569 72 607 57 352 93 368 7 102 20 640 57 245 68 257 41 802 26 647 13 922 68 750 36 593 62 611 52 211 47 295 89 522 53 160 46 947 50
387 20 8838 646 44 829 52 710 76 885 43 278 68 407 76 256 41 877 21 938 96 269 22 842 48 763 97 7 35 893 34 572 96 716 68 14 90 102 17 914 34 130 66
388 20 8180 979 45 185 9 405 81 599 73 955 55 165 67 5 51 840 50 432 22 381 72 973 45 363 59 707 56 337 45 566 49 331 83 862 47 719 75 119 97 303 52
389 20 8247 117 58 210 34 510 13 297 38 348 3 669 54 860 52 794 94 256 70 316 87 342 68 592 46 836 26 875 34 941 60 927 32 231 36 457 88 579 59 152 99
390 20 9148 142 39 814 38 461 30 688 73 732 32 92 87 883 29 630 39 335 85 493 85 809 98 7 96 871 16 760 74 735 32 986 59 805 11 438 23 167 99 587 93
391 20 8539 165 69 355 16 463 37 288 87 687 31 731 6 989 34 421 13 24 76 714 24 998 72 125 69 64 34 427 18 963 72 599 26 850 48 390 10 987 15 434 63
392 20 7292 816 98 342 93 847 92 912 67 364 15 344 30 473 72 261 34 315 14 145 91 104 73 47 62 254 80 353 87 568 63 796 58 773 67 300 89 563 81 538 40
393 20 9152 900 50 282 100 321 15 640 31 142 99 925 76 150 91 973 62 777 16 861 42 441 35 228 56 972 79 192 53 794 47 571 28 402 94 446 44 683 86 740 88
394 20 9124 641 53 522 73 760 98 479 14 500 81 850 97 751 28 302 30 630 64 790 43 363 22 892 88 820 97 540 41 603 87 542 40 137 66 546 54 16 16 721 75
395 20 7764 334 100 789 73 218 37 14 69 604 28 11 71 140 70 257 8 193 13 598 96 633 31 916 94 95 20 911 68 578 75 649 86 433 48 831 11 711 52 791 45
396 20 5977 65 100 377 91 49 84 572 22 24 46 349 66 868 28 930 50 78 59 495 26 329 49 410 71 44 95 503 66 820 31 872 80 431 3 44 91 182 33 30 19
397 20 8097 375 46 167 8 407 77 351 7 991 27 676 76 623 83 857 91 295 43 593 94 13 84 70 31 143 50 693 82 333 46 211 27 929 17 647 72 1000 72 748 86
398 20 5989 511 33 847 43 994 60 274 26 186 13 143 82 162 26 382 27 896 33 282 78 14 41 183 64 57 94 209 66 153 32 294 80 666 65 370 86 8 13 856 24
399 20 7367 498 41 360 38 75 34 602 13 24 99 371 74 658 36 582 39 137 48 858 81 898 69 680 52 113 16 883 66 972 13 331 12 496 55 189 71 435 24 47 26
400 20 7248 40 60 20 71 514 59 886 97 790 43 559 24 658 74 541 15 344 48 84 11 443 64 663 60 486 47 88 64 238 56 53 28 983 53 570 98 427 27 673 31
401 20 6696 258 86 72 36 654 100 434 71 360 71 754 19 75 17 356 92 850 91 38 71 130 51 138 70 994 34 924 45 381 47 327 50 161 34 829 50 75 45 560 70
402 20 9292 780 8 306 48 960 3 588 49 436 8 65 82 924 21 118 58 889 99 438 24 259 71 431 69 739 15 920 22 514 78 46 81 783 47 709 86 940 71 771 10
403 20 6447 134 99 886 4 139 40 41 87 906 71 607 70 224 91 143 87 326 80 121 54 972 16 573 57 329 86 106 43 791 74 604 7 204 49 703 57 45 16 205 23
404 20 8814 685 8 672 50 450 75 869 83 792 72 205 96 382 15 713 70 598 100 812 96 229 33 461 92 722 53 702 74 112 88 111 93 715 32 836 72 96 98 856 56
405 20 7194 906 29 803 96 779 51 818 86 93 34 94 70 925 73 859 87 57 48 647 3 51 32 541 71 291 60 102 73 297 18 924 35 228 74 181 91 51 84 346 13
406 20 8111 730 7 261 50 754 66 197 20 948 84 80 54 294 27 711 54 258 56 662 39 674 42 699 47 521 88 950 27 197 25 215 98 350 93 151 71 519 40 968 96
407 20 7349 782 33 424 29 969 86 441 20 226 39 580 94 113 92 479 20 135 90 180 66 220 56 642 31 534 45 657 24 422 23 541 5 465 35 692 85 261 6 424 63
408 20 7409 344 39 154 67 144 76 842 49 488 43 514 5 27 51 607 88 555 64 638 76 803 80 465 58 426 47 319 38 659 27 12 32 665 16 708 29 115 1 777 6
409 20 7310 101 79 919 21 36 16 871 17 697 30 57 6 133 9 22 82 722 13 66 70 706 76 686 91 112 91 548 6 351 14 970 46 202 68 100 76 996 59 843 19
410 20 8426 928 46 982 29 485 47 143 79 430 57 964 14 393 97 46 42 2 46 985 76 109 18 718 20 461 28 144 43 828 17 377 73 822 67 314 36 466 66 936 68
411 20 6728 875 46 797 20 162 31 31 4 186 16 660 66 980 28 137 99 494 96 2 47 162 3 696 58 277 7 512 78 423 100 414 28 484 92 283 94 189 84 647 98
412 20 8672 486 59 346 5 380 17 826 86 464 70 840 9 982 11 900 93 490 53 791 68 600 53 211 16 19 62 652 86 245 72 524 83 204 36 434 42 727 2 719 86
413 20 9298 150 65 989 56 366 8 767 52 753 2 667 28 953 46 636 47 40 98 807 10 87 29 554 73 982 96 340 50 564 46 645 24 253 2 834 33 243 8 993 90
414 20 8170 292 76 866 3 233 48 175 87 677 68 733 83 480 39 938 41 217 43 657 62 27 71 72 50 76 62 982 73 162 41 397 45 639 31 782 51 939 80 869 38
415 20 8084 696 49 749 65 834 8 207 32 174 51 961 7 869 34 722 47 604 94 270 58 574 41 674 54 504 71 277 16 73 96 257 70 466 41 96 9 283 72 816 41
416 20 8222 161 49 827 31 633 54 4 35 228 76 909 5 689 29 871 98 764 22 752 31 262 43 451 40 707 34 589 1 346 3 867 63 101 26 270 48 679 86 168 87
417 20 4997 24 40 114 71 237 18 172 86 135 5 68 25 549 26 453 41 632 61 74 77 464 65 583 49 180 25 551 94 135 30 935 43 226 13 349 67 124 54 242 83
418 20 9388 473 37 287 82 131 23 23 39 347 75 623 2 828 43 450 44 547 5 973 7 787 3 756 18 631 21 735 91 581 27 362 22 908 95 852 44 917 74 525 63
419 20 7664 961 72 713 90 569 1 267 94 974 26 4 77 359 16 270 55 477 77 301 57 60 49 911 55 571 34 497 3 603 79 320 17 243 21 724 48 74 93 682 30
420 20 10282 882 59 485 62 684 94 910 34 617 34 512 16 273 59 568 53 898 60 584 54 262 42 185 63 954 19 451 48 788 82 806 84 594 59 532 92 909 37 959 71
421 20 5956 311 57 75 69 345 13 92 42 155 63 6 53 342 84 626 12 456 51 346 33 960 50 875 42 108 28 270 70 256 17 297 58 642 3 617 27 391 1 276 69
422 20 6348 601 3 403 35 243 2 630 46 801 95 489 43 138 24 218 69 464 24 83 69 450 50 190 20 809 93 56 66 54 47 352 56 877 67 135 6 633 83 309 94
423 20 7168 124 40 462 81 644 27 274 24 982 15 22 47 131 76 463 80 275 55 718 63 276 92 231 25 9 31 895 32 495 69 507 22 171 26 989 5 301 22 992 39
424 20 9420 589 80 365 79 576 100 397 88 66 2 174 49 753 34 527 46 385 39 977 78 917 81 208 20 925 67 323 3 983 75 683 18 907 58 793 92 571 25 657 37
425 20 6868 81 6 193 8 477 32 40 76 6 58 964 84 385 51 892 34 298 76 782 24 476 96 46 26 709 21 4 9 134 28 992 6 802 30 250 90 768 13 286 9
426 20 7611 528 27 231 57 173 23 864 62 7 49 814 53 810 14 702 87 540 13 183 43 964 65 477 71 434 38 213 78 507 17 416 80 274 67 165 13 353 34 859 14
427 20 6864 635 76 847 67 530 31 10 81 271 73 548 10 120 58 629 74 827 80 113 95 665 5 591 74 113 25 313 4 88 74 720 31 638 9 637 56 3 69 282 96
428 20 8144 371 63 403 92 695 17 394 71 713 46 242 65 667 21 18 100 699 77 926 80 245 70 362 27 995 6 474 52 763 65 97 49 631 4 153 11 474 53 858 100
429 20 7789 147 21 721 61 760 5 827 44 748 42 805 41 459 23 273 88 293 90 819 39 865 28 309 5 859 92 65 68 3 37 223 63 267 74 560 21 39 61 695 66
430 20 7596 395 5 199 71 707 40 384 69 824 54 21 69 750 12 22 83 452 63 943 48 528 64 53 90 518 72 234 36 266 86 763 11 582 99 987 94 348 17 520 98
431 20 8248 384 66 645 87 654 52 123 7 557 63 786 60 731 92 560 24 521 64 85 57 888 2 784 61 274 2 257 85 15 27 547 73 475 3 895 31 795 65 335 37
432 20 7035 509 32 572 65 110 92 145 46 800 56 26 99 337 66 824 55 46 57 269 62 979 96 211 39 755 36 554 40 159 53 381 88 955 9 476 32 11 21 675 3
433 20 7616 221 34 22 61 223 37 862 65 990 82 542 27 748 75 868 96 544 42 923 61 584 53 260 68 343 85 341 41 893 8 157 54 196 93 158 83 560 86 86 96
434 20 7083 781 52 534 73 10 94 351 18 240 19 266 98 306 36 401 84 891 39 772 41 588 67 529 88 279 98 112 65 215 56 350 14 510 12 689 58 284 81 746 81
435 20 5882 673 35 191 77 182 28 610 66 124 59 182 70 745 46 350 44 97 3 259 50 21 12 118 57 823 43 690 4 981 42 284 78 25 48 624 55 134 5 240 91
436 20 8500 771 25 849 42 579 73 795 18 504 19 934 14 136 3 637 22 171 89 567 77 53 78 763 42 72 86 788 65 119 79 948 98 22 63 881 56 126 9 911 57
437 20 9501 890 67 620 93 596 93 692 23 997 53 613 25 354 5 759 68 359 56 253 29 145 56 638 19 797 97 609 66 649 20 968 71 189 1 412 88 980 39 357 18
438 20 6925 172 81 481 68 736 42 771 93 935 79 252 31 712 51 875 28 480 55 146 53 972 28 629 29 271 63 120 18 81 58 38 72 396 34 292 67 193 74 105 38
439 20 7324 131 36 944 45 187 47 844 53 562 43 97 67 611 94 975 8 630 37 758 10 77 79 417 74 191 15 68 73 718 21 644 27 324 73 155 5 217 60 605 64
440 20 6644 228 29 35 80 63 63 293 69 274 86 298 22 427 65 614 2 467 94 453 21 688 10 963 74 963 26 790 47 353 82 451 98 123 20 2 60 394 35 426 75
441 20 8010 600 77 646 39 961 79 180 38 535 20 387 20 88 27 352 14 948 79 350 27 945 84 815 16 33 66 961 36 45 89 695 48 243 98 46 44 824 58 359 29
442 20 8714 648 51 561 54 324 49 359 64 845 35 634 54 221 2 846 80 383 81 476 17 603 81 733 23 875 18 591 33 388 100 904 97 9 9 662 28 427 38 404 9
443 20 7797 929 95 681 10 686 59 84 76 96 100 74 48 569 51 120 19 398 81 440 18 365 53 424 65 373 38 616 73 569 16 786 84 744 26 843 4 365 47 585 14
444 20 8126 183 1 28 35 422 73 896 34 437 20 108 53 541 44 975 76 894 45 719 45 951 25 3 39 161 80 963 80 31 21 463 53 432 23 376 10 916 38 659 14
445 20 6877 36 76 548 5 222 20 631 18 438 2 539 26 376 70 659 10 183 4 318 1 49 6 437 82 86 85 229 37 367 98 715 55 746 82 483 47 763 87 772 93
446 20 6676 220 65 80 42 320 64 219 43 395 29 779 3 323 94 122 46 494 98 385 89 45 53 328 36 798 4 220 35 195 34 702 20 694 43 761 51 919 65 347 36
447 20 8708 389 3 918 35 181 20 336 99 735 82 353 62 287 17 972 85 978 55 942 95 612 97 642 67 122 90 169 98 706 70 450 86 792 79 656 66 209 18 437 87
448 20 8137 104 60 898 51 404 80 412 39 319 31 66 70 789 88 912 13 471 23 516 27 764 63 502 98 692 45 729 91 436 46 428 10 696 60 249 84 240 81 545 100
449 20 8020 49 28 537 80 104 69 637 34 676 62 691 100 105 63 787 100 408 43 146 28 14 42 764 8 908 38 1000 80 254 10 638 65 93 25 861 12 660 52 694 19
450 20 8995 399 20 783 1 763 66 403 17 751 61 292 16 284 97 796 18 824 41 569 42 85 76 840 88 354 32 835 11 888 32 785 95 827 53 145 16 236 70 385 59
451 20 7327 253 20 683 38 757 28 186 94 77 40 52 19 262 43 530 13 680 64 623 92 273 83 744 37 267 17 732 75 330 26 621 82 641 8 803 88 421 13 224 84
452 20 7628 460 85 733 58 75 96 839 8 234 27 614 80 291 92 908 72 116 97 630 12 856 73 592 94 19 75 462 20 408 50 390 43 824 93 622 20 70 75 393 21
453 20 8252 523 78 885 30 454 44 105 86 833 48 938 10 527 79 357 46 778 41 240 69 361 24 812 48 903 56 198 98 154 86 395 15 374 79 951 55 42 79 485 94
454 20 9228 575 75 862 37 482 69 816 97 743 16 930 20 329 91 536 44 249 86 877 39 6 16 669 9 581 81 558 35 858 78 191 3 782 3 598 43 789 43 104 28
455 20 6387 305 83 944 72 164 20 196 81 4 53 983 40 984 4 978 80 56 16 770 64 69 44 435 100 370 8 37 91 283 82 128 71 141 1 337 99 667 63 133 84
456 20 7822 334 28 576 82 913 54 609 88 863 87 810 97 525 6 188 83 91 29 146 36 594 34 869 39 17 13 132 23 130 96 744 90 826 18 653 70 648 63 110 68
457 20 7003 869 80 824 11 297 68 215 89 3 87 575 92 87 78 583 53 892 41 565 55 498 80 375 32 16 46 670 79 13 83 282 57 387 18 146 20 899 34 558 9
458 20 7143 656 44 737 91 272 99 954 89 323 22 378 48 879 54 55 27 146 82 762 60 964 83 49 12 922 42 125 89 466 13 10 52 505 7 1 47 41 58 684 10
459 20 7164 415 13 783 40 130 72 689 32 837 91 229 13 890 37 496 41 126 80 679 53 132 96 39 30 867 94 249 48 71 74 973 47 516 73 55 12 659 2 121 34
460 20 7060 441 90 943 18 766 20 893 20 513 7 270 30 475 12 171 76 321 91 280 35 581 40 744 30 167 39 186 90 381 36 97 10 263 38 384 96 239 40 711 90
461 20 8548 712 6 684 76 747 60 878 7 772 52 695 11 915 7 175 73 585 50 230 82 58 48 152 40 937 58 289 14 452 80 455 8 548 34 419 100 779 90 203 11
462 20 7920 152 83 937 11 394 9 786 52 506 38 535 27 786 28 84 83 467 6 211 66 785 9 853 2 320 94 149 4 658 96 620 56 584 79 393 20 300 68 381 96
463 20 6631 356 80 257 20 763 16 11 27 303 49 350 61 592 97 60 46 964 65 408 88 563 11 449 96 645 45 921 29 189 85 12 64 87 21 225 97 684 96 450 72
464 20 8842 28 49 1000 85 534 80 531 76 470 54 93 87 749 65 779 54 557 32 921 59 766 49 458 88 353 68 55 55 653 76 532 91 940 72 708 74 209 16 717 88
465 20 7286 760 37 677 75 481 92 831 62 524 99 524 100 423 5 238 58 31 82 66 16 8 90 314 46 281 39 46 27 379 84 896 40 703 91 420 97 914 14 592 78
466 20 6071 798 82 358 50 27 20 125 67 223 81 54 65 112 54 25 29 702 15 375 89 807 15 817 96 987 7 90 38 9 39 157 72 258 14 117 2 633 3 915 17
467 20 9454 847 72 849 67 470 87 299 20 777 40 948 33 920 66 260 86 158 14 535 91 614 78 236 75 134 14 899 23 247 21 418 96 992 47 575 32 836 100 804 78
468 20 7827 439 38 11 63 294 94 609 20 494 27 777 66 56 36 642 86 615 97 863 18 770 8 128 52 568 2 372 72 295 79 725 40 928 19 611 99 427 68 160 8
469 20 7354 620 54 980 93 665 92 877 69 645 25 171 11 59 42 416 82 932 14 305 61 18 46 568 47 937 13 255 97 785 63 47 91 370 24 166 29 182 46 195 52
470 20 8399 15 38 262 61 884 11 770 37 170 3 940 33 775 85 439 21 107 62 140 48 639 87 980 91 8 27 996 73 487 17 973 98 905 32 207 77 631 97 171 53
471 20 8318 940 81 341 28 919 94 194 29 124 43 946 92 791 48 250 49 164 66 395 59 356 43 413 28 934 28 625 94 242 49 789 48 57 25 690 20 608 94 620 66
472 20 9411 62 82 803 29 413 28 813 1 603 4 908 36 587 78 883 78 628 28 779 75 15 57 170 64 691 14 401 46 292 84 522 61 974 63 956 75 539 5 725 39
473 20 8039 771 42 533 45 702 32 545 57 622 27 958 7 365 93 277 99 532 47 454 66 506 8 819 18 281 36 171 79 632 83 22 68 457 62 617 49 585 4 200 68
474 20 7226 595 43 166 83 466 17 81 39 791 77 545 10 126 29 100 77 543 82 392 16 428 76 717 80 990 74 94 47 563 57 298 69 224 13 360 69 672 4 882 29
475 20 8728 987 34 570 70 812 19 267 84 492 64 750 38 643 30 210 79 650 22 24 99 999 31 919 98 82 84 255 16 221 74 859 24 637 48 464 83 336 96 734 5
476 20 8933 667 24 279 10 637 39 717 91 523 82 282 47 979 23 135 64 883 29 453 55 45 9 903 36 318 34 800 80 313 78 628 92 401 9 440 2 857 61 907 43
477 20 10354 666 75 851 17 747 15 940 53 812 59 736 39 853 14 994 77 11 1 337 11 239 16 434 35 746 81 260 91 943 12 579 77 758 92 411 71 810 57 816 79
478 20 9258 536 86 704 64 982 66 64 85 992 44 647 66 306 85 689 50 161 28 686 84 655 77 924 2 907 1 973 2 78 49 947 26 275 38 259 67 154 72 634 14
479 20 7773 679 17 226 18 365 93 221 75 634 59 490 54 21 14 301 46 625 83 91 1 559 53 506 47 979 44 388 81 304 93 305 78 812 21 768 4 539 62 904 43
480 20 8016 328 91 738 88 549 77 289 12 92 39 327 7 215 54 831 84 378 82 281 99 691 62 347 36 688 48 882 93 330 40 672 97 780 75 626 39 523 97 453 42
481 20 9610 755 26 819 77 181 49 912 74 585 16 834 83 881 29 874 80 477 24 320 47 433 19 694 79 329 16 883 25 969 30 949 51 176 57 361 16 303 70 278 85
482 20 6613 301 17 83 93 263 99 86 70 368 42 583 58 967 66 454 91 189 28 973 35 238 31 128 39 347 48 505 56 568 35 522 44 96 25 640 27 144 31 812 85
483 20 8682 640 3 603 44 548 13 48 69 539 78 2 19 731 74 770 9 938 28 931 86 139 98 461 10 819 86 190 77 875 91 872 73 633 85 584 30 91 67 439 4
484 20 7737 188 90 482 31 606 69 849 28 615 24 164 7 492 41 214 77 78 55 831 99 479 45 257 40 674 20 164 24 932 63 256 24 309 90 983 43 104 95 995 64
485 20 6588 351 26 469 35 55 97 914 55 622 31 320 29 87 24 183 71 414 6 798 94 255 59 732 61 72 92 72 34 52 87 402 93 655 87 647 86 145 87 991 2
486 20 10936 780 59 947 25 917 63 913 15 647 43 798 22 849 43 903 80 642 69 881 66 598 76 593 90 407 15 552 88 690 79 123 9 775 7 16 26 809 60 831 2
487 20 8695 388 16 969 26 723 39 145 72 633 24 851 16 71 64 134 90 899 46 875 54 154 1 606 78 211 18 777 42 366 97 324 59 459 32 793 43 725 46 766 22
488 20 8407 173 23 689 6 670 12 579 97 33 16 767 56 97 25 462 61 419 19 655 60 930 17 952 8 641 9 290 47 796 17 456 91 522 95 287 88 376 36 715 52
489 20 7614 332 57 213 32 635 46 454 14 760 55 158 33 77 85 442 59 322 71 701 83 320 16 652 3 981 80 53 21 893 5 84 92 106 10 877 93 610 16 848 77
490 20 7616 461 58 442 70 508 15 675 59 747 45 26 63 124 93 953 18 782 30 275 12 796 82 872 85 3 75 7 54 458 21 301 15 752 1 916 69 315 42 108 71
491 20 7466 410 71 921 71 96 31 146 76 187 49 467 83 373 20 787 26 290 54 400 7 419 91 954 6 276 22 844 68 703 32 954 90 139 24 7 60 421 16 539 25
492 20 8687 148 17 128 94 243 54 639 17 272 57 805 32 925 6 750 100 368 44 557 14 420 94 859 40 693 76 847 4 912 24 13 85 647 65 152 42 703 70 778 5
493 20 7736 88 68 872 7 691 4 86 97 162 98 87 70 870 9 405 92 342 45 899 73 47 93 943 67 653 23 314 88 94 35 174 42 848 16 883 55 214 58 999 1
494 20 8428 366 37 483 96 383 90 361 94 614 55 410 98 808 82 474 71 614 76 313 61 755 97 688 37 432 77 507 1 120 7 669 43 269 26 583 46 972 70 715 74
495 20 6816 229 29 756 98 684 74 34 59 305 60 718 3 773 9 139 24 682 83 912 43 422 21 91 80 521 27 54 27 575 98 241 1 770 27 244 74 178 51 193 1
496 20 7514 996 27 732 60 270 40 248 26 963 81 127 66 390 82 268 50 762 49 525 29 334 91 429 76 691 96 213 50 38 79 182 19 637 8 381 31 754 45 453 80
497 20 8418 628 7 397 76 580 96 810 74 921 86 892 22 499 1 31 99 695 54 751 91 708 80 239 31 593 2 577 90 761 80 291 38 61 54 401 99 85 40 603 43
498 20 9344 771 56 135 39 490 3 784 43 744 96 962 99 871 65 423 10 430 31 111 56 766 13 722 34 786 63 706 82 599 38 398 19 571 63 589 52 587 19 236 94
499 20 8408 911 49 914 98 732 67 99 80 431 94 527 3 374 74 295 39 292 67 761 21 487 26 450 10 658 37 370 56 556 9 900 25 731 77 125 70 41 95 857 83
500 20 9127 877 72 496 86 141 57 123 97 821 93 994 83 760 55 505 21 499 27 707 47 766 80 700 30 114 47 179 9 782 86 758 74 458 93 670 22 615 47 444 19
