1 20 3924 79 1 95 46 445 4 327 84 60 26 119 30 322 12 331 25 34 57 471 46 148 91 523 62 538 57 16 9 16 78 301 52 363 47 402 20 267 61 49 41
2 20 3615 49 80 386 51 163 69 18 66 515 52 184 13 17 86 369 17 315 55 193 19 331 98 352 79 92 94 33 84 456 7 195 30 360 75 90 88 292 24 109 68
3 20 4746 164 86 302 95 346 96 526 22 323 87 295 84 109 22 523 43 326 7 190 8 149 65 349 71 386 25 48 97 263 61 409 46 430 76 380 31 389 82 26 45
4 20 3978 84 14 299 70 429 47 477 73 297 34 109 62 193 91 174 18 423 11 182 14 260 58 168 69 450 74 56 95 367 5 177 99 209 80 121 10 354 40 144 94
5 20 4139 172 93 510 52 241 68 351 95 532 21 111 58 441 77 426 74 38 84 126 62 267 11 427 78 76 89 425 91 53 87 352 41 305 19 143 42 89 63 89 76
6 20 4168 210 89 435 80 333 7 55 48 104 91 307 79 349 70 262 88 220 77 73 74 424 59 35 39 522 27 69 64 250 27 438 29 239 68 24 89 355 53 506 24
7 20 4720 356 88 179 6 363 18 317 58 445 66 134 35 63 60 276 87 539 76 353 86 323 31 384 83 260 38 237 35 155 85 92 58 514 20 545 71 146 52 219 51
8 20 4703 539 46 546 19 501 88 305 43 102 24 125 30 255 23 239 95 120 78 225 25 519 8 500 32 365 92 473 17 44 31 213 71 54 19 391 52 155 83 208 64
9 20 4092 463 46 509 36 6 7 444 11 308 34 199 54 123 45 347 16 162 53 112 99 159 45 434 9 68 79 92 49 441 83 39 48 29 81 452 41 257 46 472 85
10 20 4366 545 72 222 82 338 45 141 24 201 30 224 25 510 89 521 67 274 32 95 7 124 39 83 12 280 81 479 33 274 43 434 44 386 81 212 72 49 28 66 45
11 20 4230 165 58 61 27 332 41 129 88 208 94 213 97 342 47 275 5 363 1 511 25 148 33 192 68 501 30 142 100 187 32 54 1 520 57 353 32 513 17 79 29
12 20 4793 505 86 30 29 449 10 32 4 140 98 173 40 330 2 152 20 411 81 493 100 179 1 433 43 494 38 143 21 348 10 530 36 363 1 183 43 426 32 178 99
13 20 4836 1 21 511 54 269 8 82 54 389 79 462 56 192 7 530 61 66 78 307 16 348 90 481 48 212 28 460 48 276 23 177 77 402 20 78 65 477 98 326 89
14 20 4886 326 45 83 89 359 91 261 31 526 38 550 60 349 49 362 9 370 77 325 17 526 19 126 25 289 18 272 97 261 16 231 17 242 12 278 60 160 21 212 92
15 20 4852 232 77 66 82 199 78 507 70 349 90 440 17 494 6 468 79 229 41 55 38 382 44 494 73 216 15 405 83 295 88 90 96 64 91 439 1 413 80 229 87
16 20 3956 42 92 175 24 391 6 227 94 514 84 327 4 110 34 451 32 379 87 6 86 2 38 128 30 163 17 428 20 497 79 93 20 361 45 431 93 91 40 130 42
17 20 4473 227 30 33 79 225 42 526 20 311 2 439 98 154 76 78 14 237 28 345 87 437 91 283 47 413 30 406 36 299 97 192 62 18 46 475 32 474 58 20 14
18 20 4675 513 41 472 88 379 47 492 62 112 19 249 2 394 53 346 50 371 46 50 62 287 42 151 93 292 12 423 25 19 73 58 53 103 78 313 5 538 57 282 91
19 20 4193 78 63 79 51 201 52 513 32 41 60 97 13 412 36 157 22 289 14 22 87 259 85 364 93 451 46 405 84 502 15 431 70 278 27 127 32 252 31 284 89
20 20 3327 20 53 503 37 127 7 416 57 521 82 396 24 144 44 72 67 204 91 126 56 31 39 3 48 24 88 207 37 279 47 334 43 102 78 276 27 11 16 363 88
21 20 4283 37 25 64 84 535 27 231 87 449 95 315 90 337 13 68 47 135 54 267 34 32 68 170 17 154 57 548 69 130 16 480 75 545 66 523 60 43 66 291 70
22 20 5051 236 50 404 8 466 26 393 92 447 89 205 30 532 23 531 53 495 60 254 9 189 66 378 8 372 6 351 1 178 44 303 3 141 52 417 36 11 78 11 82
23 20 4088 313 71 352 97 4 66 534 25 65 27 334 10 415 100 46 37 316 100 206 94 357 50 5 52 55 90 159 74 251 93 41 4 341 49 519 29 405 87 393 49
24 20 4446 14 41 397 59 165 41 318 90 423 14 292 32 392 98 72 78 62 63 343 39 348 94 372 75 74 47 481 91 289 13 273 33 425 13 448 98 296 50 74 41
25 20 4583 21 10 411 32 436 12 472 24 215 54 176 93 456 76 375 56 234 94 163 17 531 40 203 21 548 2 210 84 248 33 264 57 299 97 297 56 159 14 11 54
26 20 4148 436 25 546 14 167 45 476 98 64 84 45 47 353 34 46 82 282 91 214 94 85 100 456 79 434 89 538 46 201 37 49 87 419 13 246 39 9 80 120 4
27 20 3970 422 88 91 26 87 94 251 3 294 50 370 76 10 40 159 64 213 72 253 35 219 22 472 2 421 99 226 46 495 100 319 48 99 79 394 93 78 91 90 66
28 20 3877 35 85 186 89 371 22 231 30 86 50 109 51 435 72 179 30 362 64 50 90 46 35 188 41 242 43 45 71 469 13 373 96 31 6 503 47 406 20 500 49
29 20 4776 520 53 479 8 511 66 166 92 492 12 462 39 221 84 468 67 250 14 279 84 506 97 69 36 96 52 4 68 318 11 122 74 166 87 46 96 293 14 503 71
30 20 4416 190 16 122 49 234 8 82 43 249 93 71 51 184 78 301 36 287 61 316 30 297 70 174 71 344 95 544 39 512 11 471 46 401 28 276 49 265 51 201 79
31 20 4576 537 12 373 65 100 74 442 50 306 59 210 36 258 64 262 97 165 43 329 76 104 3 385 34 521 62 63 100 214 84 78 28 471 23 62 12 398 11 443 65
32 20 4144 205 100 242 68 284 57 415 61 17 1 86 60 20 56 435 83 362 70 190 33 319 60 550 77 3 39 510 76 321 78 123 6 221 2 350 16 388 92 139 79
33 20 3853 493 54 119 25 349 92 323 49 14 65 357 19 502 13 99 76 238 5 167 55 537 67 53 52 55 98 219 17 50 84 150 79 136 27 110 76 402 71 444 75
34 20 3893 100 18 140 38 266 97 216 100 549 47 173 88 325 56 122 11 84 19 21 69 492 52 28 36 400 91 190 55 377 48 396 85 264 48 284 9 108 76 332 95
35 20 3164 174 6 425 88 174 40 44 51 296 80 5 46 203 60 202 67 190 84 235 13 141 99 312 73 255 18 438 71 47 21 135 98 372 6 103 54 135 64 69 40
36 20 4822 453 37 316 4 301 1 246 65 143 59 168 25 440 7 416 72 306 33 372 80 538 97 90 92 504 15 198 47 115 21 153 74 536 3 207 67 318 95 208 37
37 20 3670 103 45 44 20 254 64 519 83 121 71 165 14 290 63 355 75 203 24 59 26 301 74 9 61 360 6 270 25 212 23 481 66 387 50 94 75 103 91 258 95
38 20 5600 463 57 293 88 333 2 167 17 496 100 440 17 229 11 5 36 535 18 537 96 338 16 530 71 270 82 205 7 516 2 347 75 302 24 297 82 232 6 465 65
39 20 3684 226 81 180 63 529 35 23 15 152 96 397 64 148 65 502 43 300 96 201 4 32 42 429 53 220 31 161 26 65 71 99 37 478 4 23 50 113 16 327 85
40 20 4338 480 88 256 70 202 23 517 40 231 92 281 55 275 79 462 4 101 67 219 49 405 9 108 42 185 89 192 28 513 92 1 56 266 33 28 64 400 3 301 81
41 20 4465 224 56 250 22 73 20 28 26 178 68 99 57 285 62 504 99 488 38 84 64 379 22 441 44 541 14 440 38 239 64 76 50 391 34 343 64 403 14 116 72
42 20 4788 540 46 444 6 442 73 364 26 358 23 138 42 5 56 219 31 8 27 340 88 523 82 111 64 377 31 56 89 539 38 212 56 376 22 111 23 313 61 510 55
43 20 5047 235 16 518 75 549 47 529 78 11 37 476 41 28 50 414 38 321 83 6 39 400 5 260 4 64 41 275 59 503 75 263 45 408 22 193 51 514 35 342 18
44 20 5784 205 82 499 57 518 32 463 22 385 78 387 4 494 40 418 62 470 9 296 49 328 67 72 21 220 18 462 41 212 47 538 7 421 16 38 72 296 26 508 46
45 20 4204 183 93 516 22 13 80 141 15 549 71 423 88 456 16 202 20 24 87 90 43 182 47 331 61 3 86 442 93 330 65 27 5 235 89 420 19 467 43 222 37
46 20 3952 150 1 360 5 188 7 322 83 333 66 173 52 187 29 177 64 449 1 246 40 261 80 297 25 324 61 206 29 143 28 219 90 68 3 207 80 279 61 352 44
47 20 5253 499 16 204 10 434 72 144 78 454 4 179 45 341 34 179 10 534 42 454 67 204 7 305 62 386 73 497 13 411 83 213 27 476 47 34 97 465 1 154 57
48 20 3812 276 52 55 93 408 32 25 10 545 44 115 64 62 90 317 27 28 62 88 58 384 98 107 84 307 22 464 20 401 1 190 67 346 16 83 99 359 76 205 13
49 20 3690 162 71 101 11 119 85 364 77 53 96 189 55 6 48 478 51 492 60 287 19 201 78 47 9 251 33 344 14 247 18 4 52 96 72 504 64 166 56 502 53
50 20 3440 101 48 393 8 394 47 120 54 239 6 377 45 441 54 358 55 6 55 89 51 224 67 224 72 30 2 81 29 475 43 411 88 136 6 69 85 41 35 92 70
51 20 4943 215 89 443 99 296 8 528 65 359 68 110 4 476 81 162 22 546 22 356 59 198 77 446 31 52 26 218 74 515 75 529 74 516 12 142 61 21 84 51 71
52 20 4365 379 71 333 63 39 68 228 81 190 41 385 96 310 48 458 81 269 24 185 85 134 42 265 86 354 30 43 81 439 23 512 20 58 20 352 36 306 74 218 35
53 20 4232 96 47 365 67 453 85 154 45 368 67 237 59 317 26 2 94 540 89 181 85 449 57 423 4 311 87 199 13 302 83 6 46 196 58 211 57 413 59 67 55
54 20 4383 484 56 514 72 462 82 6 21 79 55 176 78 322 41 174 43 213 82 10 100 372 70 78 21 313 17 390 32 424 88 398 28 409 68 375 47 82 51 198 82
55 20 4405 115 75 216 71 437 12 1 86 300 52 416 50 519 48 159 15 72 60 396 70 193 6 490 13 21 68 224 9 401 55 520 53 77 18 307 52 341 40 302 96
56 20 4501 476 25 313 2 200 34 206 43 183 63 472 60 382 69 70 5 438 32 83 72 102 34 487 7 536 26 488 10 87 62 80 11 163 25 283 99 467 39 111 1
57 20 3625 51 12 36 32 98 66 223 86 181 31 342 40 410 18 95 45 482 16 282 29 184 1 367 67 263 51 245 96 82 34 276 28 266 39 272 36 83 37 294 86
58 20 4180 121 100 214 83 291 75 271 36 505 2 246 82 21 85 420 65 207 71 383 59 393 58 120 30 208 1 86 80 200 57 470 71 470 38 100 92 200 28 299 98
59 20 4132 97 65 243 91 515 94 275 14 46 23 251 43 189 13 68 32 548 63 394 42 337 30 345 67 274 89 138 76 319 85 90 33 260 68 493 50 56 13 228 91
60 20 4143 548 100 164 53 13 25 197 24 190 25 254 24 285 78 464 31 360 48 199 91 472 61 119 77 437 44 39 83 170 90 113 16 268 15 240 97 239 22 408 70
61 20 4508 258 47 136 19 170 59 489 8 330 1 239 64 167 65 299 89 222 34 395 25 498 64 131 33 508 99 234 29 295 4 167 65 417 28 1 9 139 83 540 74
62 20 3552 88 43 30 18 537 76 379 77 209 72 263 43 453 86 144 40 405 65 359 38 147 58 473 17 193 95 218 24 46 78 17 94 195 89 17 13 69 13 198 35
63 20 4747 158 99 444 24 245 100 500 24 295 73 390 65 10 8 366 11 23 96 90 19 288 24 484 59 366 86 156 100 539 23 474 77 358 26 450 43 98 23 200 25
64 20 4140 74 45 6 57 307 48 146 42 266 65 333 12 309 52 514 28 15 90 347 58 425 2 147 49 408 40 232 70 182 91 363 78 358 39 304 19 339 74 101 15
65 20 3656 372 51 509 91 171 69 196 47 214 96 69 46 329 20 299 36 483 78 124 48 244 90 294 93 325 70 7 55 121 16 261 58 300 34 101 29 67 8 85 60
66 20 4340 56 36 417 13 458 32 127 51 55 34 239 22 85 31 249 81 466 69 461 23 468 49 454 13 54 41 238 6 431 67 346 28 233 62 19 68 74 92 496 15
67 20 5007 401 9 450 95 435 65 449 93 39 44 81 28 486 3 208 10 68 60 129 68 102 94 441 39 535 92 406 17 204 63 438 64 253 92 346 1 411 78 377 7
68 20 4207 357 77 247 83 372 60 97 27 472 10 76 76 270 95 545 38 79 41 274 36 54 84 339 9 258 100 442 90 264 36 182 40 398 73 85 71 30 95 418 84
69 20 3729 277 24 56 81 41 14 534 44 162 43 328 34 476 27 112 96 266 18 149 48 195 91 266 6 343 41 529 17 173 10 445 82 83 62 57 80 164 80 6 76
70 20 4648 548 7 476 14 162 88 50 45 146 22 350 100 500 95 37 6 57 83 482 9 468 51 523 93 537 9 38 90 176 77 204 75 63 5 364 56 526 82 103 27
71 20 3726 140 90 344 67 108 56 158 54 287 64 3 72 81 49 189 89 33 77 194 33 226 40 451 24 380 14 356 5 214 94 187 11 128 26 383 67 475 34 321 38
72 20 4967 192 58 232 98 441 5 409 51 533 97 458 71 225 54 110 52 174 14 30 28 129 29 408 1 534 61 435 96 423 43 165 28 396 67 469 84 361 89 85 38
73 20 4988 523 67 320 15 159 17 279 91 155 64 41 14 250 4 424 95 480 65 426 97 471 51 248 49 303 60 201 2 295 78 537 11 539 95 326 68 42 66 217 25
74 20 4123 119 82 530 47 102 25 216 4 151 15 39 4 156 21 64 55 391 16 329 97 475 65 277 25 4 41 268 14 538 76 382 86 129 24 433 81 435 21 116 34
75 20 3643 8 54 117 30 249 88 286 94 53 89 203 62 514 42 74 95 389 91 22 60 104 71 346 92 98 39 222 15 427 79 86 14 453 30 339 80 296 54 268 13
76 20 4713 73 57 269 91 180 71 217 19 37 35 310 91 341 13 384 19 340 29 86 95 357 70 548 68 346 81 334 58 418 48 489 10 200 70 398 93 253 81 312 60
77 20 5824 230 8 346 45 198 57 486 64 429 41 432 62 446 57 380 13 498 21 282 82 500 41 439 14 497 55 386 25 286 57 238 2 279 35 395 96 290 3 244 90
78 20 2903 65 74 186 79 533 49 154 55 198 71 288 30 165 17 23 94 210 94 278 81 423 97 2 56 365 17 56 70 82 76 237 79 125 5 81 39 114 45 44 65
79 20 4012 486 73 8 40 221 82 308 55 171 89 221 10 143 47 310 48 339 78 74 46 213 24 171 46 331 66 220 24 385 43 64 20 337 43 307 28 253 56 453 16
80 20 4199 194 96 1 63 528 46 44 9 481 26 322 7 499 41 372 57 441 47 70 79 156 31 221 10 77 96 14 9 357 20 286 70 497 87 423 73 178 32 88 12
81 20 4475 18 46 384 88 401 22 188 49 225 65 127 28 365 69 260 64 375 72 411 18 181 43 361 26 268 39 195 96 135 28 527 29 260 32 434 64 38 40 441 48
82 20 4777 382 25 2 60 418 13 432 51 170 62 127 95 401 54 203 12 368 61 105 98 536 87 23 84 315 91 545 70 157 78 437 80 501 32 79 47 365 13 406 64
83 20 3540 78 80 418 73 63 18 436 9 550 9 63 27 24 31 198 83 151 6 362 67 334 96 428 1 272 18 131 99 434 42 123 46 202 12 131 35 2 13 25 75
84 20 4663 143 4 35 79 332 94 318 29 550 5 219 87 168 58 239 67 267 43 327 24 422 97 391 31 27 13 158 80 443 93 384 61 373 83 411 16 446 78 176 22
85 20 4532 284 55 89 21 277 5 358 69 138 55 149 25 18 58 113 17 428 32 415 40 524 100 241 98 382 9 503 77 179 39 473 92 472 73 106 5 363 96 153 32
86 20 5052 108 1 421 35 44 21 311 73 453 45 312 31 283 36 417 76 105 63 204 62 185 18 429 41 496 91 385 98 159 82 417 73 245 72 542 10 511 24 289 81
87 20 5113 112 84 370 33 506 79 350 92 61 15 374 11 256 81 155 97 439 6 393 88 288 82 322 88 532 70 527 64 57 46 372 22 471 8 87 90 179 9 541 92
88 20 4893 516 44 386 60 46 66 351 65 296 51 60 51 474 72 274 88 238 11 314 87 279 87 519 59 160 38 291 82 295 18 420 56 318 74 443 46 405 16 32 77
89 20 3754 136 51 2 69 422 17 373 5 17 84 500 96 141 5 93 1 455 9 254 42 345 74 87 84 15 75 495 59 110 26 354 28 251 43 43 54 204 11 396 86
90 20 3963 141 42 222 38 112 48 300 65 414 63 195 21 91 32 443 62 76 44 37 49 502 27 62 83 132 51 29 6 528 24 132 16 367 33 522 10 260 19 389 22
91 20 4887 116 14 333 85 163 38 499 83 522 61 161 15 472 16 441 47 165 90 330 67 59 82 455 72 496 72 182 6 127 64 516 70 201 80 85 79 492 88 294 9
92 20 4782 266 79 463 15 311 75 359 44 243 89 112 97 226 19 83 80 478 46 467 74 327 48 371 75 534 8 243 43 106 57 76 23 518 41 300 40 336 93 159 70
93 20 5140 388 98 486 28 479 44 480 93 5 1 516 40 178 62 522 97 465 24 348 63 104 67 424 81 409 98 81 40 207 100 208 72 110 51 500 26 151 39 365 7
94 20 4864 364 98 314 12 503 98 393 3 402 75 102 81 466 24 121 96 439 1 293 90 83 62 150 81 284 70 131 38 246 46 442 66 485 2 518 90 309 80 35 62
95 20 4580 175 19 26 16 479 94 335 33 281 69 167 6 146 14 157 92 47 33 323 60 411 47 518 28 440 52 245 64 124 18 342 71 460 49 260 60 366 5 423 8
96 20 4459 461 60 126 17 368 43 174 16 532 43 239 100 292 42 19 27 129 10 155 79 425 22 416 46 318 100 167 35 430 94 449 37 272 59 149 90 10 88 443 82
97 20 4287 511 61 404 18 47 53 208 91 308 69 485 54 263 92 57 77 385 79 25 60 438 19 150 78 144 28 285 75 138 91 49 61 489 41 392 36 386 8 195 13
98 20 3488 300 99 164 8 188 69 406 6 378 85 33 87 56 62 56 54 140 30 482 80 255 48 357 82 246 67 58 64 43 64 535 23 140 13 43 48 136 91 344 83
99 20 4700 381 36 467 96 255 83 390 81 221 99 29 55 396 88 492 67 363 74 92 43 126 82 276 64 337 55 23 13 522 1 105 14 479 74 441 30 12 92 469 30
100 20 4334 209 16 218 62 7 50 239 61 204 75 241 73 101 63 521 82 147 58 536 70 138 100 205 54 251 5 509 13 277 19 55 50 190 6 444 79 453 12 473 45
101 20 4048 355 77 341 98 220 73 152 48 374 62 459 40 516 24 127 15 206 33 217 49 26 56 297 81 205 76 18 92 44 8 61 90 175 84 291 7 480 10 497 76
102 20 3924 454 69 480 97 183 31 95 57 175 11 511 94 12 5 486 37 403 64 358 27 269 96 85 8 277 30 93 84 79 37 125 85 99 25 361 30 203 90 157 20
103 20 3957 274 19 321 80 466 57 357 82 102 9 92 20 217 92 159 37 308 33 505 12 337 56 49 62 53 50 433 35 378 85 195 45 72 86 53 7 153 71 423 13
104 20 3848 479 26 248 9 285 35 157 43 165 41 177 84 205 50 63 34 363 70 27 36 424 40 72 7 425 90 510 91 77 7 93 62 470 14 307 51 197 63 66 57
105 20 4569 473 65 201 76 440 52 199 89 47 98 524 22 29 75 38 11 53 56 521 12 159 36 224 94 357 26 452 24 42 80 518 76 319 55 393 22 295 56 428 5
106 20 4240 531 63 201 36 347 39 519 64 207 57 99 27 241 48 422 66 488 34 62 14 303 64 417 82 318 94 5 9 352 45 295 9 49 30 52 21 83 44 310 84
107 20 3580 548 76 288 69 98 85 47 21 37 19 192 22 263 86 80 85 88 92 71 16 468 18 289 26 80 12 448 22 98 43 151 9 444 38 224 24 213 26 349 92
108 20 4039 164 79 389 56 537 58 146 84 78 69 65 81 339 9 207 72 431 100 209 46 308 7 233 21 142 22 320 81 476 91 262 61 103 78 171 79 425 65 44 57
109 20 3669 51 44 3 7 44 48 93 13 441 61 245 89 38 87 115 3 235 61 349 17 483 62 419 11 320 52 290 95 380 1 38 21 190 22 456 35 39 36 358 82
110 20 4443 327 58 316 73 517 23 354 20 511 91 292 86 102 53 129 9 448 96 380 75 461 22 21 42 316 48 192 59 74 21 512 38 256 100 145 84 151 99 50 8
111 20 4750 530 86 421 56 335 45 337 43 150 81 214 13 254 67 510 65 212 35 354 90 451 65 380 68 116 70 300 11 186 71 138 27 541 21 254 10 181 48 74 40
112 20 4650 206 59 415 37 432 65 514 31 475 69 202 40 532 98 319 51 72 8 470 97 248 63 63 25 153 1 98 86 466 27 377 92 77 47 159 10 507 75 28 95
113 20 3459 74 10 290 99 359 66 21 18 179 36 46 35 222 92 436 32 538 93 212 2 264 41 194 73 62 9 182 1 94 11 158 56 216 30 91 61 424 67 262 47
114 20 4892 527 30 375 24 190 12 172 29 549 12 324 89 117 79 431 11 457 73 250 27 204 19 314 88 297 54 465 43 466 62 305 45 189 30 130 36 142 72 212 95
115 20 4224 416 41 120 52 363 67 17 92 18 57 514 99 101 50 242 43 97 76 540 90 139 49 304 18 535 5 227 25 37 75 145 33 463 25 287 97 281 33 435 88
116 20 4963 546 52 449 17 543 11 295 21 387 41 401 46 72 41 545 99 483 42 346 82 244 44 83 70 336 95 111 31 520 99 537 52 81 6 9 17 104 98 112 54
117 20 4477 179 54 424 58 172 68 420 47 190 82 27 5 376 48 340 27 302 40 77 47 321 2 503 69 216 65 79 29 14 1 173 4 440 77 379 88 443 77 522 9
118 20 4501 176 58 312 91 347 7 439 8 297 15 538 65 94 51 219 3 436 85 11 81 319 32 154 34 156 49 399 90 430 30 46 94 269 59 527 14 65 15 393 77
119 20 4280 531 44 367 69 480 10 124 50 18 67 56 34 348 56 340 58 342 80 129 74 520 80 142 60 417 49 21 3 461 81 30 31 252 35 193 40 219 31 361 72
120 20 4104 251 52 52 71 439 6 61 58 504 53 33 21 543 53 326 95 207 68 150 79 139 9 360 92 173 20 538 69 340 44 6 88 477 73 22 24 248 53 261 12
121 20 4021 471 69 217 67 53 81 470 6 111 78 441 37 135 74 96 7 130 60 174 55 418 86 340 14 303 74 531 67 61 33 322 65 208 11 88 93 117 73 341 76
122 20 4508 303 25 501 65 147 20 269 5 391 86 259 84 236 90 47 61 80 84 491 98 389 29 225 53 99 52 124 9 529 42 35 89 362 66 532 93 114 84 502 10
123 20 4894 120 42 36 97 527 75 506 29 337 49 330 96 243 71 458 50 74 7 282 29 325 84 546 100 69 33 178 10 527 45 449 87 461 24 265 87 121 85 264 69
124 20 4838 304 76 13 76 259 31 24 22 251 21 265 10 338 58 196 40 473 45 374 51 353 91 275 60 503 47 241 14 307 70 178 66 277 52 523 96 477 96 417 100
125 20 4288 512 97 544 20 34 17 364 6 281 41 17 41 20 93 334 89 547 15 368 21 225 8 84 11 409 15 74 5 24 96 423 5 541 30 355 23 90 48 114 25
126 20 4592 515 87 340 13 409 41 58 8 44 92 542 16 163 59 177 12 41 93 347 6 157 9 127 100 100 61 490 7 231 90 372 47 530 24 445 55 274 94 378 77
127 20 4196 453 29 503 92 26 97 281 50 466 33 430 90 215 27 201 82 78 78 224 36 278 28 10 66 53 39 417 36 473 57 531 49 89 75 263 10 248 49 7 2
128 20 4966 23 99 284 24 219 55 468 95 153 62 439 65 173 27 527 49 65 35 87 89 511 55 375 16 496 55 346 71 47 31 456 68 265 43 538 38 292 27 444 95
129 20 4146 499 11 422 6 237 31 304 3 86 71 423 40 269 83 407 100 60 6 382 6 6 39 47 34 424 62 344 91 381 16 327 84 25 97 13 3 354 53 173 58
130 20 3409 376 24 112 97 79 37 493 76 297 91 153 12 317 30 469 4 177 41 148 17 101 48 204 11 126 87 524 27 187 71 1 94 6 52 153 79 298 13 41 55
131 20 3815 145 95 288 21 383 91 440 94 82 9 380 98 212 85 534 49 347 84 85 98 112 16 161 39 451 42 17 33 61 72 98 28 420 45 215 19 126 100 212 54
132 20 4372 136 91 221 68 515 25 280 58 132 94 27 47 363 5 311 90 12 54 208 41 414 72 354 54 229 82 380 47 527 12 25 15 434 15 249 37 415 90 233 63
133 20 4719 257 60 463 77 145 40 394 16 426 78 277 28 354 17 437 63 281 33 400 85 442 97 365 3 102 8 293 56 324 20 113 37 80 88 376 11 95 95 275 83
134 20 4236 376 13 348 72 94 11 162 91 227 7 341 11 291 75 409 89 217 60 152 18 421 86 423 100 77 78 341 4 185 52 308 53 29 16 534 18 182 24 179 34
135 20 4746 523 12 209 3 46 15 281 39 160 73 83 15 388 46 504 7 270 11 343 49 83 37 325 77 375 11 539 37 363 53 44 93 310 25 452 40 459 54 176 13
136 20 4512 548 66 291 31 207 50 243 86 131 59 280 92 345 21 20 5 422 63 356 9 412 47 1 12 416 83 550 50 546 75 4 54 478 14 79 36 98 18 213 13
137 20 4804 319 83 511 60 506 49 373 25 546 97 314 82 126 58 267 76 86 53 327 73 440 34 76 66 500 44 453 89 523 81 145 50 41 31 110 21 318 84 25 53
138 20 4311 488 38 490 64 483 15 106 74 99 79 35 52 149 85 38 2 31 19 371 76 200 38 214 50 275 62 276 39 289 27 539 30 122 40 530 37 137 83 517 50
139 20 3924 74 47 528 33 228 20 400 89 286 46 197 22 338 72 79 19 183 44 378 16 248 40 158 90 283 77 241 32 127 92 34 2 140 96 426 26 240 97 317 5
140 20 4025 156 17 460 65 323 50 341 56 370 43 138 100 138 78 263 35 444 20 131 24 377 8 77 39 104 37 285 15 14 64 97 78 311 30 230 35 274 49 499 11
141 20 4409 466 24 130 55 124 14 328 56 61 21 184 46 233 67 74 8 540 88 256 37 324 33 387 25 179 74 139 63 192 75 479 21 387 96 439 80 369 17 221 55
142 20 5098 403 8 394 50 196 46 430 5 550 12 243 13 51 64 462 28 296 96 388 98 30 73 518 2 349 79 375 98 315 10 354 92 208 56 101 84 331 78 379 17
143 20 5056 56 36 102 6 386 81 465 60 531 83 168 78 360 87 464 29 275 77 172 61 238 41 518 72 445 3 140 47 351 30 299 32 172 49 123 81 510 85 545 33
144 20 4672 291 5 404 13 360 57 455 56 12 31 122 21 508 7 329 2 18 58 550 32 225 47 453 17 257 93 532 58 211 19 188 7 370 28 248 10 241 89 66 63
145 20 4926 188 2 413 93 169 17 341 27 344 50 505 51 523 28 311 95 301 98 224 83 93 85 76 35 459 23 253 40 250 51 478 72 292 54 521 49 175 30 242 10
146 20 4240 53 21 314 27 180 70 150 17 330 38 445 94 306 1 16 60 22 60 379 99 62 74 362 30 542 57 275 48 86 71 539 33 404 16 154 6 367 58 314 60
147 20 3640 13 14 30 54 493 55 209 38 389 54 48 82 355 18 432 36 522 12 201 9 92 69 42 18 510 72 106 93 91 62 79 22 257 45 172 100 414 54 95 7
148 20 3732 512 82 157 5 45 58 313 24 235 6 178 81 550 27 201 4 67 69 266 4 322 34 321 1 131 77 262 12 540 7 35 27 56 60 116 74 85 87 273 30
149 20 4588 520 78 478 79 222 46 333 49 231 96 436 12 78 69 231 3 315 58 215 7 363 64 381 52 155 65 518 36 341 30 266 78 275 25 54 86 213 5 111 86
150 20 3880 81 62 210 82 23 73 369 16 51 4 435 10 98 26 521 27 264 36 102 95 537 31 98 78 456 27 391 22 52 81 490 84 318 74 50 82 64 23 240 41
151 20 4905 490 95 177 39 490 7 113 76 263 50 78 27 352 23 252 46 184 90 361 4 421 57 233 95 22 66 481 6 294 52 253 24 448 5 425 92 497 21 298 80
152 20 5039 502 52 123 76 45 42 514 70 491 65 228 8 41 76 534 6 465 51 479 47 495 57 302 62 464 51 348 18 193 56 238 58 110 17 3 41 240 66 484 22
153 20 3902 215 49 458 99 106 52 275 81 208 21 247 53 61 50 163 8 383 67 89 27 351 14 497 49 69 58 385 92 194 24 371 27 238 76 315 5 252 19 1 69
154 20 4268 85 21 275 58 56 64 276 73 420 33 456 97 368 19 417 99 70 4 350 94 298 44 95 72 544 25 458 81 55 64 131 24 529 46 141 63 221 67 90 18
155 20 4428 121 4 247 89 401 55 189 28 263 84 12 39 87 33 441 60 154 14 356 12 1 45 423 88 300 28 550 2 306 4 92 29 285 38 483 7 493 58 332 92
156 20 4647 331 37 199 9 34 71 104 45 366 9 478 25 438 50 395 45 519 25 410 52 286 93 5 35 250 69 420 68 17 86 322 56 546 38 189 17 476 4 24 6
157 20 4643 1 90 270 18 353 2 493 22 87 52 276 20 332 22 306 16 241 7 317 24 197 97 532 70 435 35 535 31 382 84 83 2 192 52 199 64 124 17 449 84
158 20 4276 368 5 469 1 18 94 156 18 518 44 270 10 186 12 418 46 301 20 192 5 261 11 148 8 126 98 163 49 74 32 341 98 474 44 317 98 22 74 523 29
159 20 3952 124 3 95 60 148 90 41 78 153 41 109 61 451 28 531 18 229 2 463 56 265 49 337 90 204 89 194 88 264 53 73 7 412 32 365 83 446 53 37 100
160 20 4108 151 100 17 91 338 87 109 26 288 18 476 95 277 65 258 79 253 69 313 87 79 37 169 47 124 98 143 50 3 75 432 36 495 14 419 33 373 25 419 38
161 20 4724 86 85 73 16 291 88 452 64 85 27 494 38 192 97 393 51 263 57 197 49 288 42 397 91 416 4 538 71 167 15 146 12 209 93 389 71 495 54 334 42
162 20 5018 16 41 255 83 436 57 276 31 365 90 465 48 130 56 493 21 223 60 216 97 389 77 480 52 54 85 430 11 139 84 506 69 435 34 416 9 33 47 516 97
163 20 4139 324 78 112 94 129 89 197 73 313 100 209 20 465 20 77 82 378 81 468 14 7 28 256 51 345 89 116 53 316 14 237 27 20 100 271 72 512 94 422 40
164 20 4021 44 10 236 11 126 5 133 70 378 62 156 64 396 12 318 71 315 3 66 31 536 35 463 80 50 47 19 47 412 79 146 36 393 100 441 15 106 21 293 23
165 20 3464 218 82 151 1 43 82 527 64 364 33 505 79 185 1 127 28 169 86 29 38 129 41 437 74 121 58 438 95 84 2 262 35 110 20 33 27 12 66 387 93
166 20 4751 77 24 421 3 531 98 355 14 243 30 248 82 379 6 280 72 449 28 3 42 290 10 468 67 241 76 128 87 211 100 484 47 53 66 507 41 232 93 339 64
167 20 4837 277 23 217 60 365 17 395 45 3 12 255 45 483 72 25 15 238 22 209 57 380 73 56 31 427 94 542 50 542 62 376 31 259 7 495 67 47 62 456 73
168 20 4875 510 27 125 96 344 2 547 45 394 26 61 93 295 73 537 8 456 48 214 71 349 18 464 92 8 87 450 49 281 88 48 39 33 12 393 21 544 96 41 47
169 20 3835 440 68 505 27 40 67 172 17 220 78 346 25 34 78 457 54 89 46 93 3 152 81 345 59 178 27 168 96 110 72 550 82 83 25 150 64 199 10 463 95
170 20 4594 476 69 190 78 87 96 453 60 505 91 189 36 129 67 29 90 533 49 226 62 397 45 169 71 424 14 73 57 33 45 350 63 490 52 439 51 173 56 378 25
171 20 3772 434 32 39 85 479 22 285 78 302 90 101 85 294 24 494 67 300 59 273 85 72 76 89 57 15 46 281 15 96 94 124 52 288 86 178 89 32 40 540 68
172 20 3676 69 11 10 59 14 67 211 89 10 11 531 32 128 19 501 75 155 55 187 35 213 68 136 42 403 82 32 37 443 16 490 26 93 66 446 43 90 10 434 20
173 20 4897 124 28 136 86 514 57 435 80 332 7 142 63 13 23 435 38 120 92 342 12 182 38 499 42 313 17 249 1 467 9 245 77 390 20 331 4 496 71 357 30
174 20 5361 492 89 334 18 538 86 334 56 328 57 351 53 371 7 384 56 194 33 550 3 187 40 304 61 392 92 527 21 467 20 175 25 240 94 461 2 35 41 38 64
175 20 2963 202 21 401 22 309 56 87 19 90 72 159 25 139 18 311 20 79 8 12 93 430 54 67 95 76 89 236 77 104 21 384 62 410 14 60 95 108 12 40 10
176 20 3618 78 84 498 55 182 78 175 79 508 58 353 65 338 85 293 71 339 57 110 31 13 20 101 54 229 92 487 95 238 57 34 16 63 56 179 100 84 33 221 99
177 20 4528 412 16 297 56 455 66 401 28 292 99 360 23 459 66 119 96 11 99 342 13 10 61 494 90 112 2 487 73 188 29 439 66 92 7 102 93 527 68 62 29
178 20 3978 338 25 112 70 213 78 548 94 196 42 205 60 45 52 240 76 477 71 415 75 394 35 194 1 531 2 136 41 227 33 62 77 226 87 121 46 101 9 192 40
179 20 3652 187 28 71 54 244 94 262 98 184 37 438 86 544 5 439 9 321 86 122 1 97 1 160 40 121 38 72 70 318 81 236 83 275 26 82 8 41 85 352 100
180 20 4447 154 48 505 68 267 10 36 3 204 75 265 55 78 94 385 52 74 7 66 25 207 64 487 38 457 9 460 2 98 32 343 9 299 95 167 53 545 79 462 15
181 20 4565 72 21 419 51 325 13 266 9 495 15 110 64 267 63 413 90 252 69 486 35 135 62 113 88 346 61 449 31 12 35 429 58 464 67 102 5 432 48 120 14
182 20 4178 349 1 55 76 71 26 154 90 335 45 549 77 521 42 15 33 384 18 205 39 527 52 281 90 116 61 108 44 389 70 69 92 296 5 404 6 150 78 245 63
183 20 3427 289 78 180 93 164 7 285 82 43 36 42 39 170 47 40 16 228 62 474 56 254 76 208 74 287 98 85 17 260 50 206 18 227 37 241 47 242 19 359 5
184 20 4401 78 15 115 28 370 86 536 58 117 59 208 10 492 65 280 98 71 61 365 5 318 54 327 98 531 75 44 26 362 46 443 25 542 50 53 8 68 7 182 29
185 20 4351 128 45 507 87 208 86 254 7 63 10 137 54 230 42 365 11 380 69 215 31 242 77 430 51 151 90 535 30 410 40 42 42 525 61 35 10 496 5 86 24
186 20 2757 15 33 15 48 19 81 89 53 108 99 25 51 460 95 290 46 426 6 271 91 70 83 202 94 10 89 433 98 149 73 145 92 10 70 139 37 529 99 42 64
187 20 3925 233 91 291 27 77 2 244 77 249 98 451 22 416 21 305 28 301 86 34 28 514 72 457 42 188 78 81 86 386 21 206 32 111 37 199 60 120 77 44 60
188 20 4326 140 51 474 73 495 82 200 46 447 28 290 54 307 81 56 86 38 28 207 45 499 9 393 71 356 50 349 22 227 22 419 92 113 83 103 13 129 67 166 91
189 20 4716 336 2 433 32 391 18 44 17 475 45 440 57 422 27 304 50 184 46 224 92 366 8 480 70 165 85 4 34 371 9 271 26 143 47 8 82 514 13 320 18
190 20 4194 459 60 388 100 86 63 356 12 79 35 142 19 175 78 286 14 40 35 354 15 218 59 307 84 431 15 24 54 242 45 492 93 175 8 361 53 512 44 116 80
191 20 4237 369 100 338 60 305 15 296 84 285 78 532 44 22 62 97 43 299 60 197 22 135 50 329 84 318 19 272 73 46 85 401 27 67 14 363 21 514 10 112 31
192 20 3488 41 67 163 79 18 4 214 32 280 75 96 76 396 59 9 62 37 42 29 94 246 64 419 39 135 44 473 52 410 32 221 23 221 82 295 45 459 82 199 78
193 20 5302 241 22 454 65 391 24 156 49 404 53 146 78 527 39 76 45 264 78 532 21 456 76 458 50 350 50 202 85 479 59 206 92 301 7 327 74 271 57 387 8
194 20 4120 277 84 464 10 474 36 85 65 21 96 272 61 413 12 109 38 14 73 28 13 512 80 346 96 144 28 382 21 494 23 208 59 332 56 254 19 187 15 134 2
195 20 4335 184 21 21 31 506 14 204 61 96 11 540 53 239 99 124 46 220 42 118 83 226 58 44 8 148 42 152 26 326 79 297 7 496 38 500 25 472 26 506 91
196 20 4476 398 88 529 43 39 62 287 59 170 59 489 65 41 47 437 18 234 15 257 62 529 46 70 5 427 17 244 54 467 14 123 1 113 29 205 40 165 72 371 37
197 20 4456 379 12 549 31 126 40 314 37 452 86 124 65 207 17 335 48 259 21 156 97 80 37 543 17 514 89 280 83 259 71 195 75 282 46 448 62 65 26 4 49
198 20 4492 279 62 380 81 444 24 321 69 234 63 65 31 268 84 52 35 429 16 307 94 232 89 441 7 211 57 94 31 451 87 36 77 279 75 449 74 382 32 262 4
199 20 5100 357 8 403 3 539 74 310 93 77 42 389 62 427 71 448 47 18 77 12 43 459 36 341 29 50 46 356 79 543 25 412 38 243 81 282 40 384 57 325 93
200 20 4104 346 7 61 20 374 55 348 28 394 68 63 23 275 43 256 36 170 23 203 22 482 95 509 90 116 50 255 48 90 90 13 74 307 66 119 76 452 45 298 30
201 20 4368 285 31 59 55 518 49 232 34 252 15 184 12 434 6 238 78 59 62 105 41 93 43 443 46 522 80 271 64 394 16 390 92 315 50 189 42 367 6 110 50
202 20 5608 170 51 518 78 543 18 502 36 38 43 112 49 530 80 508 95 343 31 185 89 194 23 264 72 455 46 548 77 514 99 311 86 212 6 524 22 164 54 376 81
203 20 4245 139 64 304 46 82 36 313 71 386 66 154 77 515 70 452 50 325 11 81 43 166 83 9 26 361 22 365 83 495 55 382 56 84 27 241 71 140 68 313 49
204 20 3740 332 56 212 47 67 74 176 73 41 42 513 97 39 62 451 61 186 40 486 57 506 46 139 33 250 86 177 24 123 86 95 84 34 81 178 31 307 35 363 47
205 20 5060 442 96 291 95 14 99 55 1 460 45 27 97 360 52 441 45 220 38 486 80 38 51 278 4 532 36 30 24 421 22 434 54 484 29 498 67 493 82 322 97
206 20 4140 455 60 323 55 134 59 412 8 79 36 144 97 411 19 56 53 193 62 349 49 380 94 306 5 149 89 489 6 381 91 12 12 436 92 310 82 61 18 96 20
207 20 5384 399 68 336 14 547 37 399 90 493 84 325 33 49 75 361 41 459 26 505 8 373 87 71 86 373 56 18 11 450 13 504 73 60 75 440 16 152 94 416 5
208 20 3258 23 69 239 61 274 56 20 65 534 29 242 55 157 45 352 7 14 98 434 22 367 97 13 41 386 19 47 83 277 27 105 62 24 18 125 80 199 45 241 26
209 20 5129 447 12 429 20 385 90 495 46 302 56 46 93 373 4 17 58 503 72 436 14 538 20 385 50 204 13 240 93 536 70 253 62 217 24 236 94 275 11 95 28
210 20 3770 189 35 300 64 322 3 227 2 449 54 1 18 197 81 4 86 232 88 359 25 523 50 383 83 60 68 355 76 143 59 249 12 9 1 153 88 163 1 395 67
211 20 4732 467 96 514 79 12 5 473 69 33 57 129 5 252 2 507 63 518 64 306 25 434 91 461 27 116 72 415 99 239 100 56 69 313 43 493 21 35 1 142 28
212 20 3959 169 60 158 98 191 56 97 85 140 92 53 100 541 67 36 66 489 61 302 20 544 61 402 8 524 20 212 85 461 69 9 25 255 5 230 13 79 1 57 33
213 20 4353 371 87 65 18 140 38 35 89 472 63 183 35 59 44 490 31 380 39 523 49 282 51 353 98 372 31 196 94 192 72 539 7 134 99 54 67 378 93 224 18
214 20 4421 187 93 264 61 314 92 344 34 291 25 495 74 120 91 46 41 327 68 340 28 442 32 185 3 365 29 356 52 128 35 326 40 168 44 151 78 461 25 217 46
215 20 2868 77 97 178 67 197 24 284 16 205 18 17 91 277 22 104 10 16 2 377 82 65 59 222 9 89 96 119 77 117 62 212 48 537 91 214 32 83 78 196 48
216 20 3430 54 63 227 78 343 44 83 88 21 22 208 43 58 37 527 37 409 100 319 19 176 27 40 45 35 11 495 19 462 32 4 85 301 78 319 22 99 75 108 84
217 20 3756 498 42 186 51 413 45 411 69 308 88 314 79 203 32 499 46 113 86 148 26 6 72 10 62 275 89 1 11 63 59 339 1 227 57 148 75 514 92 20 48
218 20 5027 139 29 161 64 2 79 60 47 361 62 287 62 444 77 381 26 447 12 530 18 497 43 211 72 291 49 340 53 348 44 449 12 294 42 306 22 459 60 277 83
219 20 4079 145 75 31 46 271 36 38 44 445 5 370 91 81 28 443 47 281 3 378 52 391 17 325 23 241 33 357 10 112 82 73 53 477 18 284 7 119 73 237 15
220 20 4441 157 82 93 34 225 94 246 54 340 49 436 60 332 96 132 74 398 52 208 73 542 96 200 77 354 31 145 59 284 40 417 44 393 69 2 68 285 7 363 99
221 20 3543 30 14 267 92 195 46 544 26 232 65 72 80 304 33 181 69 88 2 221 100 25 82 318 7 550 25 13 35 128 92 107 78 523 91 175 91 376 52 80 19
222 20 4498 282 73 2 63 414 92 353 33 543 55 389 27 455 91 282 6 370 18 158 20 249 68 350 51 282 22 261 44 18 77 42 62 525 77 205 65 1 40 442 99
223 20 4000 178 78 380 71 162 48 246 92 221 96 75 73 414 82 111 75 265 74 230 58 447 83 64 51 11 76 6 77 548 87 276 32 537 28 138 95 462 68 229 61
224 20 5560 509 89 531 45 393 10 444 24 185 75 478 73 367 84 253 69 457 58 196 21 465 77 481 51 162 16 284 58 416 37 215 58 111 8 300 6 336 99 368 3
225 20 3415 36 69 354 43 312 98 367 80 3 35 89 84 233 42 26 85 411 63 235 62 34 54 79 12 99 13 329 52 340 32 147 86 385 66 112 9 329 81 349 85
226 20 4354 330 91 189 28 467 1 106 36 190 17 164 4 547 72 266 50 46 15 23 80 1 43 316 41 429 5 15 53 363 25 458 22 289 58 541 100 288 22 415 23
227 20 4374 223 63 530 15 288 87 126 14 288 66 340 21 442 59 330 79 442 9 540 69 110 61 120 82 220 65 189 36 276 19 275 38 85 20 332 60 262 57 50 16
228 20 3153 122 50 114 12 43 33 18 89 96 88 474 90 93 54 35 83 434 88 192 39 271 14 5 32 411 55 43 100 462 21 66 23 326 28 234 91 275 26 228 55
229 20 5178 182 26 22 38 112 37 493 98 494 47 482 53 461 8 216 37 255 61 354 17 228 28 527 64 190 57 183 80 543 45 341 49 541 19 88 37 280 79 481 75
230 20 4469 403 32 408 2 456 95 214 37 158 55 57 44 74 50 106 80 252 81 436 54 134 47 526 56 549 14 505 76 306 88 49 32 131 86 270 32 275 70 278 54
231 20 4295 288 63 36 77 24 63 366 3 393 64 362 20 178 47 474 39 96 91 350 40 226 33 161 37 502 63 310 57 475 54 83 65 132 71 150 90 248 52 515 21
232 20 4125 134 26 197 80 146 87 139 56 419 100 210 81 534 87 502 80 500 3 56 2 108 76 382 93 215 71 413 15 24 23 375 1 337 27 189 69 46 100 231 75
233 20 4152 20 53 1 42 61 6 106 26 260 52 238 42 206 11 170 100 450 10 487 10 405 77 128 61 128 4 217 93 526 61 466 20 271 67 412 97 217 79 421 3
234 20 4302 344 37 310 83 411 38 109 82 329 51 70 1 422 86 107 38 124 84 531 82 72 58 274 61 390 55 291 24 370 72 353 42 74 20 340 55 371 42 86 36
235 20 4428 473 21 239 23 309 51 214 52 525 31 269 82 349 5 140 29 398 65 53 89 136 54 211 67 478 71 342 98 387 43 165 44 155 57 16 69 141 24 535 93
236 20 4888 286 63 459 53 48 73 527 60 313 79 47 52 491 80 32 8 39 70 420 3 504 24 462 41 386 6 308 9 4 53 449 28 87 85 517 62 241 26 491 62
237 20 4445 397 2 511 65 424 20 288 12 334 43 489 60 437 64 367 5 42 7 84 34 448 35 176 2 275 62 127 99 252 88 35 98 255 21 151 64 162 91 303 3
238 20 4827 390 79 31 83 369 60 515 71 283 17 434 23 208 21 513 4 403 66 353 45 176 44 124 49 144 81 267 5 305 53 70 3 202 78 425 12 372 100 450 20
239 20 4502 279 60 365 39 437 76 217 31 136 37 459 46 258 59 16 31 10 52 74 57 454 1 449 84 8 94 516 37 270 76 464 40 187 49 519 90 326 7 184 13
240 20 4309 356 51 5 81 213 86 462 30 433 22 160 37 168 51 438 10 329 99 256 43 181 78 7 15 491 22 345 42 161 7 58 65 58 75 347 82 547 99 372 45
241 20 5643 334 17 255 24 317 90 396 22 53 34 108 13 499 100 338 38 406 72 356 23 482 4 320 42 273 33 500 26 312 30 465 22 527 20 374 72 315 18 424 77
242 20 3959 474 5 173 40 94 33 36 25 297 69 9 25 410 30 80 53 516 28 128 19 88 56 287 67 220 68 358 78 368 59 214 48 243 79 411 76 396 7 147 78
243 20 3858 476 2 158 30 524 39 23 8 240 78 315 32 16 50 259 70 164 16 403 29 548 66 208 1 104 87 317 76 335 5 10 22 301 45 1 67 351 62 70 74
244 20 3587 331 92 43 100 177 75 225 54 20 19 97 91 445 38 279 79 42 47 534 34 317 61 3 17 40 70 72 5 156 24 479 35 159 29 291 66 229 54 545 20
245 20 4310 400 34 406 96 72 99 1 48 193 32 486 59 380 24 295 79 374 94 118 42 469 3 310 69 279 52 102 98 7 50 452 28 181 37 436 70 390 49 37 51
246 20 4455 235 79 352 66 277 57 428 81 313 95 140 81 22 31 541 22 261 98 453 8 389 33 127 77 465 8 243 20 2 44 230 30 22 31 449 31 425 96 195 85
247 20 5134 4 40 528 98 346 29 351 1 276 36 483 53 420 61 178 73 485 29 547 50 456 100 26 3 313 56 469 91 109 2 278 39 354 82 307 83 210 56 278 38
248 20 5267 340 45 233 46 421 75 387 65 427 64 513 68 522 11 423 1 231 36 300 28 172 31 219 13 120 59 421 66 389 54 303 98 131 63 408 35 236 95 388 59
249 20 3305 83 95 310 52 76 85 195 74 175 97 31 57 164 51 388 93 153 36 9 44 455 8 440 98 181 34 99 10 154 5 226 34 7 46 207 86 258 87 521 66
250 20 3906 196 19 113 95 114 73 109 46 397 57 326 67 518 66 25 96 89 58 62 54 65 97 482 48 190 48 121 48 221 38 397 88 407 26 454 47 426 2 171 35
251 20 3865 464 90 38 57 169 97 540 34 133 28 321 23 148 81 133 59 538 10 133 87 71 9 262 65 452 71 56 81 119 92 249 44 29 97 406 66 484 29 87 25
252 20 4880 218 87 30 67 392 20 537 27 531 66 410 24 194 45 513 9 169 39 390 98 61 83 383 2 23 33 459 41 110 28 353 84 500 13 207 67 106 82 515 93
253 20 4277 254 86 85 58 119 28 238 73 327 52 223 61 383 43 38 93 424 4 370 68 186 34 498 15 368 66 121 33 319 16 170 51 39 90 280 82 427 47 478 84
254 20 4833 394 3 261 44 387 10 380 53 424 87 53 87 426 68 38 14 488 91 281 56 305 93 109 66 324 40 187 35 355 11 327 85 310 81 451 77 532 7 10 82
255 20 4279 425 48 124 91 178 13 333 15 3 19 454 84 89 78 415 89 41 44 402 35 188 77 530 99 384 55 73 46 399 44 181 31 366 75 478 78 280 79 6 32
256 20 5542 302 90 323 82 536 33 170 63 427 45 448 23 353 39 228 17 278 42 314 52 306 42 495 6 22 71 530 65 463 35 547 31 290 7 185 85 374 43 337 25
257 20 4700 95 77 397 9 541 44 406 88 349 37 510 29 208 30 228 36 252 97 221 11 447 7 312 21 357 28 18 49 544 22 1 61 70 99 188 44 506 25 225 41
258 20 3497 206 34 125 26 477 36 250 80 86 10 70 67 363 45 278 18 48 15 140 75 367 46 264 62 254 59 4 9 359 68 189 55 207 12 21 10 285 47 379 35
259 20 3440 196 49 23 96 99 23 50 96 145 56 493 46 15 19 5 46 455 41 455 14 476 52 142 68 148 36 121 9 21 71 495 75 253 77 396 24 296 44 16 75
260 20 4992 531 47 340 29 83 69 185 23 118 54 111 55 543 92 432 28 370 78 418 53 524 70 408 68 59 40 372 27 431 62 178 60 271 79 72 52 486 43 309 77
261 20 4131 160 63 516 70 269 76 286 17 28 20 323 98 341 33 276 62 459 66 104 53 58 11 407 81 199 40 362 37 356 44 261 89 181 63 134 50 13 13 431 25
262 20 4545 373 5 506 11 19 18 419 85 187 3 70 52 423 91 35 3 104 78 292 20 470 74 307 26 448 65 105 3 159 62 43 30 534 92 531 10 122 87 535 26
263 20 4574 368 92 415 20 405 53 217 40 157 14 330 97 430 25 378 47 51 98 538 26 404 40 85 50 478 35 60 50 364 13 362 29 163 90 383 59 103 97 27 82
264 20 3848 285 48 191 11 361 13 123 78 317 58 171 42 44 25 42 62 388 18 516 52 202 12 458 20 67 38 72 100 175 40 191 50 510 20 144 50 485 6 69 17
265 20 4829 275 70 223 77 499 85 412 21 473 84 126 9 539 66 225 83 48 6 304 56 407 87 430 70 368 92 456 24 318 10 196 87 322 53 120 58 265 67 31 83
266 20 4548 22 67 123 85 147 12 62 72 242 68 301 94 494 78 535 64 249 4 315 8 191 90 432 27 40 24 448 72 326 67 384 82 334 68 84 21 448 94 509 93
267 20 3510 171 21 329 37 420 55 260 99 120 24 297 79 234 88 227 98 28 22 399 35 364 17 160 54 73 87 172 34 489 55 93 18 75 94 227 67 238 57 12 9
268 20 5812 147 22 337 36 275 36 476 100 425 64 310 76 549 65 310 26 346 28 379 80 443 91 352 47 338 33 314 49 27 81 420 37 368 67 521 90 422 82 507 67
269 20 4032 8 17 386 14 28 11 30 59 313 36 458 35 272 55 43 62 249 42 230 78 407 90 372 84 388 9 180 35 346 73 296 3 123 74 317 24 126 40 468 35
270 20 5164 399 36 40 54 162 84 491 64 112 31 478 74 393 71 500 22 195 32 476 77 299 88 220 62 56 19 307 26 444 22 408 32 534 94 182 57 298 4 461 90
271 20 4664 103 69 260 80 380 59 43 69 512 75 450 61 269 66 330 22 29 56 305 63 287 27 529 73 436 67 480 18 176 99 117 58 200 65 200 72 433 98 291 25
272 20 4919 377 36 194 11 39 66 250 25 151 81 190 99 106 89 470 82 368 74 483 78 524 86 327 81 167 40 91 68 455 25 438 1 280 24 225 13 488 84 526 27
273 20 5157 513 47 321 1 106 48 532 95 440 28 296 86 163 6 423 7 53 99 168 78 353 12 238 53 465 88 485 7 338 87 401 23 262 45 447 25 21 73 422 56
274 20 4835 436 27 438 72 283 66 380 59 229 11 279 66 192 55 368 88 354 52 377 83 471 3 14 27 316 37 317 99 348 87 221 69 93 35 453 38 138 39 337 2
275 20 4172 386 54 545 52 86 53 71 60 82 92 270 88 287 51 300 100 32 67 418 55 174 40 520 64 509 22 258 67 242 84 384 50 79 22 182 11 267 100 124 71
276 20 4212 16 98 170 16 41 13 310 76 35 73 385 13 264 27 357 45 110 94 506 40 115 71 56 26 349 55 246 77 141 68 438 64 369 63 421 58 405 58 531 91
277 20 4737 272 7 262 75 267 42 500 93 465 70 390 6 492 84 229 65 529 92 332 14 266 96 58 85 209 67 79 32 233 27 280 26 357 85 442 17 244 77 16 17
278 20 3421 410 23 237 34 55 84 459 34 251 89 83 24 371 47 58 87 388 85 484 13 62 42 27 22 38 42 506 18 356 60 81 54 81 55 89 84 206 71 35 5
279 20 4045 109 45 242 64 180 83 113 33 77 46 255 84 84 76 223 57 487 26 315 38 136 81 56 79 254 27 102 17 547 69 531 80 351 49 494 78 250 96 251 67
280 20 3692 171 46 187 96 419 19 385 10 165 80 109 19 18 13 47 50 272 97 538 10 64 91 161 8 500 85 368 82 73 96 136 46 180 83 514 23 299 82 9 11
281 20 4266 83 20 82 57 358 15 178 22 294 89 407 80 527 45 293 26 486 98 288 25 63 32 219 31 110 83 529 33 92 27 366 92 463 79 191 3 12 13 292 77
282 20 4455 340 76 448 11 130 49 289 45 199 24 214 90 501 53 54 35 345 98 70 69 402 17 455 1 443 18 530 77 282 43 125 16 190 1 234 79 298 37 20 49
283 20 4775 41 36 55 34 437 37 310 58 161 1 131 61 532 59 545 55 512 57 540 77 130 49 509 82 404 91 88 35 117 15 538 38 142 38 400 57 368 13 9 49
284 20 4191 549 39 63 38 308 95 362 52 474 53 7 2 171 10 12 9 416 67 516 83 27 83 418 64 90 47 141 100 296 73 63 18 91 76 171 85 538 11 526 72
285 20 3647 436 61 144 67 418 80 110 15 352 91 227 80 88 1 380 66 290 66 222 91 86 38 328 85 22 72 79 77 324 21 364 93 202 2 347 7 115 90 25 60
286 20 2502 38 9 30 73 285 33 65 33 161 73 15 3 101 31 48 3 16 72 50 91 38 90 377 75 18 93 141 11 234 96 215 51 320 64 513 83 286 82 177 58
287 20 3977 415 93 182 42 526 98 234 50 377 25 259 45 56 100 228 53 5 90 111 88 474 62 533 29 164 60 300 79 208 85 141 37 91 77 21 49 235 70 412 95
288 20 4238 70 18 317 30 130 44 287 4 286 68 372 87 353 37 454 51 443 63 549 95 461 74 51 83 524 49 70 41 74 46 369 6 251 38 143 57 14 16 80 19
289 20 3765 15 73 285 65 320 16 277 31 95 58 330 1 448 71 341 58 101 29 435 23 7 5 150 23 61 100 527 10 232 27 137 93 453 73 159 3 80 67 254 43
290 20 5032 111 65 426 47 44 92 422 60 231 98 160 47 449 83 263 86 179 65 323 87 216 57 471 82 494 12 158 59 477 16 355 10 407 49 190 51 530 32 385 95
291 20 4224 172 12 207 47 349 45 278 76 438 62 149 29 200 89 225 2 33 94 201 3 100 33 120 6 380 29 440 49 52 39 502 87 393 75 277 21 233 8 531 39
292 20 3513 394 22 363 17 109 74 221 55 113 31 86 48 109 69 130 23 462 70 504 84 95 60 429 87 35 45 22 25 299 1 295 21 16 48 226 64 147 23 337 49
293 20 4756 428 36 72 100 376 50 316 94 262 36 46 46 453 89 228 27 245 20 447 17 193 74 531 49 496 56 105 56 334 80 409 66 372 32 222 33 347 50 64 97
294 20 3966 340 15 74 16 70 35 517 9 109 97 151 1 24 81 26 98 172 37 2 14 490 30 394 44 359 55 417 99 253 82 278 83 259 98 452 79 244 43 327 3
295 20 4597 137 58 268 88 226 76 95 18 148 67 465 16 223 78 157 74 484 85 262 51 425 51 542 34 139 26 192 79 371 73 496 55 260 19 246 39 253 14 358 95
296 20 5420 468 85 144 8 403 76 336 10 285 87 488 43 44 73 506 59 515 96 395 24 35 33 58 79 454 26 503 45 464 34 101 79 324 84 421 37 324 44 507 91
297 20 4108 421 39 135 19 258 93 13 11 329 13 109 85 311 41 204 94 530 59 118 45 148 24 532 21 293 54 301 80 441 5 373 96 37 65 183 43 280 82 120 64
298 20 3422 437 28 4 72 141 100 44 69 403 96 94 77 203 57 206 83 435 95 420 97 263 44 88 61 19 99 14 8 369 4 79 2 295 74 202 4 211 38 351 80
299 20 4708 263 76 443 34 375 74 309 18 226 87 232 49 52 18 170 7 201 59 472 10 331 65 478 3 489 88 238 4 213 69 339 10 417 100 396 99 149 93 92 1
300 20 3636 168 79 85 28 210 13 108 12 80 14 133 64 171 40 278 34 193 50 421 91 47 31 464 93 85 77 326 59 40 16 272 89 291 60 446 90 518 71 209 32
301 20 2779 549 12 293 6 121 51 78 73 236 16 341 60 93 96 38 83 546 39 124 46 150 62 89 62 274 72 227 5 37 26 131 78 38 62 85 85 3 21 21 80
302 20 4029 235 71 158 71 91 86 77 60 220 26 191 21 241 5 273 80 220 62 392 88 490 2 306 25 49 62 132 87 384 69 78 36 425 47 536 30 298 56 241 93
303 20 4156 44 42 191 4 48 13 91 49 550 46 80 9 218 95 478 58 437 52 311 73 248 84 294 61 472 11 507 2 229 74 448 70 144 67 257 50 60 36 88 98
304 20 4455 188 93 273 94 69 63 229 69 429 65 237 55 429 45 37 44 64 74 471 15 181 38 307 47 301 55 427 65 297 77 284 48 169 2 455 24 197 95 525 32
305 20 4060 324 61 340 96 76 28 473 69 371 20 154 60 400 32 74 98 275 66 18 61 116 15 164 46 409 15 237 31 15 94 187 71 189 86 543 64 283 21 428 71
306 20 5284 354 93 461 74 125 87 515 52 527 13 518 33 214 14 429 45 347 15 48 33 414 13 550 100 274 30 405 97 175 52 352 61 195 7 215 90 4 46 483 85
307 20 4506 548 6 542 58 47 32 436 21 260 77 290 69 408 73 384 3 52 5 286 96 312 62 58 24 17 34 273 7 470 49 527 84 142 13 245 72 246 64 90 85
308 20 4350 278 26 82 8 59 58 432 55 215 25 67 92 266 28 549 81 502 74 55 23 191 33 186 99 265 5 232 29 204 85 286 40 463 32 504 34 307 12 295 85
309 20 4602 548 59 513 14 449 13 236 20 132 23 509 25 326 80 225 47 155 26 282 36 245 25 232 25 540 53 279 59 112 40 181 10 170 79 123 65 124 95 372 95
310 20 3458 159 2 396 57 292 2 96 57 165 25 166 97 219 97 181 35 156 24 443 51 288 98 25 86 44 24 160 75 265 92 372 16 523 62 303 1 16 74 54 69
311 20 5141 304 49 397 51 255 19 545 96 73 9 542 26 160 29 260 9 165 12 503 69 481 60 163 47 539 62 169 94 283 9 136 47 408 51 404 21 456 33 184 52
312 20 4885 333 31 329 31 396 90 294 6 102 10 23 32 354 86 117 89 64 100 162 100 488 27 291 1 509 61 460 1 394 74 75 8 296 87 514 34 368 69 538 84
313 20 4368 263 66 299 56 82 59 26 29 329 66 529 82 520 62 268 59 22 45 395 36 115 54 17 60 414 45 386 24 93 14 367 71 171 33 541 18 336 23 288 12
314 20 4388 186 28 528 67 379 87 294 9 367 20 385 32 311 48 273 31 125 20 389 71 87 9 366 80 366 37 399 48 109 23 281 52 407 25 219 73 12 71 3 82
315 20 4350 41 7 254 53 181 38 489 26 447 59 274 24 325 76 525 34 493 80 361 84 49 72 187 58 194 72 371 3 117 71 416 74 52 40 63 14 396 88 203 55
316 20 4592 438 93 276 74 450 32 303 99 397 4 133 34 86 52 275 2 450 89 412 91 250 49 42 88 25 55 448 40 92 3 147 15 200 75 525 4 507 1 284 95
317 20 4498 133 47 384 6 89 6 331 32 216 96 317 71 112 61 281 8 545 48 271 1 359 65 308 84 231 65 314 55 526 84 198 37 149 25 222 63 389 74 248 44
318 20 4774 326 41 288 4 465 35 435 47 31 58 22 41 526 43 322 37 488 93 55 78 371 17 307 58 402 82 429 8 238 16 459 80 36 46 385 7 247 90 136 45
319 20 4426 187 14 181 1 245 26 267 70 439 61 320 47 509 66 428 22 45 21 547 28 54 49 327 58 308 97 130 3 450 37 342 20 295 6 123 81 151 71 185 71
320 20 4609 470 80 186 26 156 18 264 32 263 10 114 43 288 54 412 43 392 12 288 32 169 33 351 70 445 26 119 78 111 89 223 33 518 19 55 38 493 63 445 88
321 20 3896 248 27 138 53 138 43 503 82 70 80 435 31 133 13 534 43 187 94 93 62 183 35 237 98 264 99 29 24 23 70 261 5 536 70 461 39 93 28 304 29
322 20 4916 440 57 503 44 338 24 408 6 196 50 300 41 166 28 538 39 200 91 124 64 229 22 182 16 305 40 517 13 363 7 361 48 480 65 26 35 366 84 104 99
323 20 3759 19 78 229 30 322 97 30 59 309 64 506 84 116 63 158 26 77 42 258 96 30 46 234 67 488 59 383 70 390 29 265 94 377 41 339 96 76 21 93 15
324 20 4026 285 28 111 20 50 25 488 98 339 35 467 35 199 54 456 82 181 17 175 24 359 83 140 46 148 95 479 63 214 70 390 4 416 19 35 91 25 69 76 89
325 20 5107 259 36 192 14 266 49 514 78 337 88 460 60 347 74 200 33 506 30 375 7 501 76 307 30 321 20 453 47 201 42 294 19 122 18 262 86 191 5 276 34
326 20 4404 21 80 514 84 226 73 79 46 512 46 132 30 111 53 168 63 481 29 418 28 525 52 447 61 397 100 540 24 77 31 131 82 157 10 29 82 75 15 466 68
327 20 3854 500 19 518 7 30 32 82 57 386 84 424 66 19 80 55 54 112 57 453 83 178 74 274 25 164 61 431 10 153 77 234 51 315 4 46 82 435 80 9 57
328 20 4694 450 13 155 50 471 12 432 83 466 2 396 33 330 100 149 5 548 80 145 26 145 32 270 93 242 13 306 88 120 47 293 51 34 28 240 9 426 65 250 83
329 20 4775 533 29 95 39 478 74 506 6 96 13 471 61 344 62 200 81 144 31 547 22 336 85 329 8 99 41 30 6 93 35 406 41 450 94 361 45 171 9 280 28
330 20 4945 290 23 60 72 519 15 208 35 342 32 542 59 434 70 10 55 490 37 5 57 513 87 425 16 393 29 228 44 308 70 445 18 197 89 390 98 258 32 125 62
331 20 4474 539 12 511 37 546 73 542 11 197 80 363 42 87 40 169 72 523 6 134 4 254 7 30 76 215 83 85 57 240 37 123 90 89 61 349 37 192 42 405 14
332 20 4271 276 99 322 2 449 58 482 72 97 38 82 30 481 99 156 2 84 22 317 12 68 96 401 67 406 29 322 18 279 2 496 63 48 40 245 14 101 49 227 21
333 20 4322 295 26 56 7 303 3 381 9 347 43 108 95 269 88 341 87 171 55 264 3 251 83 227 46 51 94 432 49 313 6 361 22 422 61 269 59 520 22 22 52
334 20 4802 145 98 143 34 542 14 367 44 531 91 450 83 15 55 261 65 479 81 318 98 141 93 182 52 140 12 392 2 123 36 75 43 364 48 542 24 513 59 280 15
335 20 4297 129 92 315 16 57 71 94 56 238 34 74 24 39 49 481 71 468 14 37 55 419 87 394 48 543 66 405 84 465 28 154 9 193 67 258 98 82 6 527 63
336 20 5013 314 8 305 71 67 100 152 22 299 60 175 99 238 73 339 87 511 51 168 92 325 54 425 83 440 47 35 19 117 3 523 31 345 79 500 1 464 22 525 1
337 20 4357 224 5 451 12 392 59 266 33 375 3 264 45 438 36 69 24 13 53 440 78 154 77 314 84 239 68 322 69 303 30 164 86 78 54 436 68 94 69 411 16
338 20 4515 492 41 262 54 420 19 399 62 101 89 304 41 391 37 550 69 315 17 138 42 180 66 106 98 485 37 347 23 239 5 272 63 13 17 200 34 168 9 262 15
339 20 4457 421 14 50 98 445 71 345 38 67 69 212 3 351 88 3 28 280 28 305 35 196 92 175 71 210 72 224 4 415 54 34 63 476 7 480 96 405 48 478 32
340 20 4894 520 44 506 75 455 72 172 96 258 44 465 1 62 70 320 68 343 32 546 5 274 30 195 86 459 100 285 18 24 2 220 1 110 46 384 78 417 98 103 98
341 20 5388 379 12 403 68 451 21 250 93 278 99 157 39 190 96 536 86 466 82 529 36 160 68 359 28 534 34 520 100 35 73 281 95 38 24 423 37 538 31 209 44
342 20 4472 423 90 173 65 313 96 429 87 75 62 413 21 192 25 533 17 23 44 357 70 183 19 534 24 14 24 53 32 533 4 165 64 282 67 142 28 377 54 376 78
343 20 4452 348 63 269 65 294 4 422 61 532 80 116 74 54 67 249 89 274 94 31 86 315 12 298 46 55 67 369 38 350 11 451 88 116 73 501 64 13 21 509 15
344 20 4590 413 96 496 37 120 93 212 58 500 38 81 6 283 31 138 14 27 45 521 15 101 78 269 10 510 15 530 71 172 56 203 20 2 24 418 42 498 36 244 18
345 20 4597 148 12 346 31 85 85 547 45 388 17 71 29 184 42 272 71 392 24 193 45 388 18 513 45 351 48 13 20 419 33 470 51 90 91 433 42 114 11 330 52
346 20 5973 537 48 382 17 537 49 205 50 434 5 322 90 491 83 398 71 449 4 483 88 344 90 529 84 383 44 465 82 490 15 363 71 202 1 42 19 285 61 126 10
347 20 5056 508 55 285 54 421 3 249 10 200 47 293 38 166 63 111 36 390 93 231 17 229 60 109 35 352 19 383 73 537 26 188 2 550 57 547 13 449 8 123 54
348 20 4921 260 45 480 10 384 38 313 21 202 54 308 79 466 100 490 48 91 20 478 81 262 99 5 30 234 68 229 46 405 99 155 12 302 48 445 6 465 76 178 3
349 20 4044 359 50 118 60 133 42 351 13 278 36 181 62 138 83 271 99 74 18 277 73 330 27 105 72 245 73 109 96 533 59 472 42 79 50 214 31 262 23 527 30
350 20 4293 491 61 209 26 118 49 124 87 254 91 381 15 504 83 26 49 95 17 129 50 495 13 51 83 249 40 459 62 22 33 296 76 473 85 129 24 397 37 465 61
351 20 4476 273 32 26 55 65 97 229 59 410 8 124 21 101 80 231 30 526 34 440 3 161 68 176 82 194 68 539 46 508 51 418 24 267 100 195 37 436 65 277 34
352 20 4734 79 13 331 47 145 49 384 91 415 59 75 66 235 57 501 24 252 27 11 57 494 13 436 52 454 72 502 17 408 6 122 49 73 35 421 51 167 41 413 7
353 20 3928 148 8 297 85 239 52 390 50 64 67 109 31 147 27 215 83 166 28 182 95 515 29 540 50 257 65 546 74 16 51 168 30 298 25 320 26 225 1 68 95
354 20 4002 345 68 61 2 538 92 105 74 51 73 479 81 524 79 69 6 107 23 408 92 366 72 33 15 385 70 100 18 244 50 456 29 279 81 16 34 37 51 400 19
355 20 4505 267 87 439 23 182 23 399 5 358 73 250 8 269 70 345 93 269 4 424 38 137 94 238 38 154 86 515 48 193 16 28 79 321 3 327 90 108 96 409 9
356 20 4260 495 47 144 16 531 2 322 52 463 60 228 41 346 45 289 83 67 81 34 79 207 1 295 48 365 100 299 10 94 7 433 68 111 98 62 99 232 14 309 44
357 20 4590 252 40 233 20 375 21 298 95 124 79 546 9 260 3 229 16 71 67 54 38 423 21 169 65 520 33 306 65 271 97 150 89 530 89 162 100 515 27 250 24
358 20 3740 477 95 415 70 394 75 95 82 117 94 82 26 28 79 87 48 87 71 294 37 288 57 437 81 316 37 38 24 285 43 217 20 331 87 45 64 412 56 230 83
359 20 3535 292 86 152 75 230 87 295 1 16 78 242 76 336 49 319 97 79 79 494 14 52 76 339 41 336 80 205 50 28 85 285 94 317 56 141 6 20 12 241 35
360 20 4506 424 40 321 11 335 66 532 42 479 36 323 53 7 8 360 6 70 42 223 62 271 28 143 45 326 55 223 95 432 99 71 69 182 6 540 56 361 32 10 93
361 20 4372 461 15 534 34 346 54 60 37 391 70 430 27 234 8 365 47 106 2 143 24 334 64 194 83 248 60 171 95 374 60 243 11 108 37 182 78 469 5 73 50
362 20 4523 328 98 82 37 182 27 229 35 475 77 189 8 412 58 20 99 133 75 469 37 286 17 3 86 391 67 356 57 150 16 220 67 468 39 356 100 391 23 514 16
363 20 4292 247 37 279 93 476 78 242 56 295 13 337 19 446 100 518 20 309 90 90 3 323 98 44 66 251 97 16 13 255 94 9 50 527 42 145 86 174 56 383 100
364 20 4510 231 34 129 80 399 63 506 81 183 23 454 76 256 86 141 8 124 16 281 5 495 39 241 50 240 25 116 6 250 71 487 33 254 34 228 74 163 7 460 27
365 20 4807 266 17 147 26 340 74 401 34 264 81 469 34 209 46 121 82 347 40 8 79 534 23 429 12 391 49 62 82 440 67 305 59 318 17 474 68 370 90 114 36
366 20 4566 509 88 221 100 481 75 169 29 156 31 371 44 34 64 296 81 120 30 406 70 499 15 189 55 50 79 550 9 334 53 220 63 280 84 365 25 173 60 285 22
367 20 3535 213 28 547 31 290 100 153 31 245 37 248 76 217 65 39 25 239 48 296 20 422 47 235 72 105 84 1 95 251 32 307 30 21 54 62 9 308 55 220 56
368 20 4872 256 9 147 51 199 82 291 73 441 78 532 47 365 46 80 47 346 61 15 61 457 26 486 62 258 45 168 7 313 22 180 85 363 5 267 35 381 12 546 50
369 20 4340 217 20 291 92 548 55 389 38 304 58 127 25 277 12 184 8 207 20 37 81 211 51 474 6 333 81 265 34 379 95 132 2 275 96 264 90 430 86 81 39
370 20 3572 77 26 26 38 125 92 130 30 112 64 124 7 197 5 253 12 249 69 459 94 224 62 185 70 315 28 466 45 100 2 287 65 466 77 222 4 354 15 94 16
371 20 3824 215 92 119 100 272 51 206 46 153 4 427 59 58 69 80 94 222 14 321 65 340 87 103 52 473 44 115 34 75 5 251 8 505 68 197 41 544 48 105 74
372 20 3976 408 57 192 34 263 43 295 37 242 60 14 56 129 39 246 96 307 74 530 72 301 10 380 31 194 72 158 100 266 32 166 95 386 49 136 68 110 32 247 32
373 20 3870 170 54 316 28 354 96 306 63 9 79 298 100 100 20 446 44 165 47 472 27 151 61 373 17 521 39 421 98 201 92 285 28 111 93 53 1 54 65 32 21
374 20 3475 56 17 538 59 110 55 372 58 130 27 37 87 1 59 198 72 274 29 424 82 133 55 215 74 315 97 21 28 344 12 480 49 93 41 123 71 391 81 89 60
375 20 4423 423 87 55 95 417 43 384 84 80 56 538 14 436 67 380 21 29 31 146 4 544 74 469 38 268 57 35 31 111 18 20 18 9 93 270 100 453 79 462 25
376 20 4480 285 41 268 33 394 53 49 47 347 24 36 30 158 85 506 84 300 70 418 90 504 30 428 26 115 52 122 77 76 51 448 86 300 82 546 28 193 65 107 7
377 20 4308 456 54 428 11 333 11 70 90 329 79 114 86 413 38 362 71 73 14 371 70 224 25 326 33 414 63 227 82 98 96 129 91 523 90 7 55 355 96 133 28
378 20 4846 187 45 309 2 426 30 292 41 504 11 498 32 536 91 336 37 280 51 213 30 306 10 182 53 89 96 169 62 279 24 285 61 296 92 424 95 206 87 241 66
379 20 5332 497 96 284 86 539 14 505 100 32 24 297 1 452 28 263 18 338 58 336 29 85 16 151 73 477 58 192 38 213 47 215 64 258 68 524 21 490 42 518 22
380 20 4332 322 74 431 57 99 5 148 53 177 80 141 26 547 46 137 85 395 46 189 9 378 81 341 87 158 15 451 58 321 52 440 12 159 20 172 19 157 57 252 66
381 20 4730 424 38 354 23 162 56 257 21 250 84 97 68 418 43 225 12 218 52 215 93 511 88 248 12 487 37 531 38 393 68 414 19 351 51 26 8 220 83 112 98
382 20 4054 181 80 440 9 39 36 102 8 128 88 290 92 278 32 43 23 202 55 227 94 251 17 394 96 481 58 537 58 249 33 228 72 435 91 429 89 112 73 22 1
383 20 4016 145 49 88 28 226 1 260 53 281 85 194 42 448 82 386 19 186 8 390 53 131 61 57 76 293 11 234 9 109 9 358 54 376 27 464 7 202 11 192 29
384 20 4076 36 62 374 19 310 74 446 3 341 7 21 50 38 28 87 60 417 62 466 62 332 30 16 59 12 27 84 96 256 56 370 42 341 13 531 68 126 55 492 47
385 20 4628 17 87 238 71 442 23 478 43 491 91 233 38 324 11 482 9 223 71 278 10 384 32 127 27 166 71 426 66 32 67 473 98 467 60 141 52 100 5 263 26
386 20 4343 144 33 313 72 334 57 194 93 203 7 57 20 352 57 135 68 142 41 441 26 356 13 507 68 413 36 327 62 336 52 116 47 163 89 287 53 88 46 521 50
387 20 4865 355 44 456 52 391 76 487 43 153 68 224 76 141 41 483 21 516 96 148 22 464 48 420 97 4 35 492 34 315 96 394 68 8 90 56 17 503 34 72 66
388 20 4504 539 45 102 9 223 81 330 73 525 55 91 67 3 51 462 50 238 22 210 72 535 45 200 59 389 56 186 45 312 49 182 83 474 47 396 75 66 97 167 52
389 20 4540 64 58 116 34 281 13 163 38 192 3 368 54 473 52 437 94 141 70 174 87 188 68 326 46 460 26 482 34 518 60 510 32 127 36 252 88 319 59 84 99
390 20 5036 78 39 448 38 254 30 379 73 403 32 51 87 486 29 347 39 185 85 272 85 445 98 4 96 479 16 418 74 404 32 543 59 443 11 241 23 92 99 323 93
391 20 4700 91 69 196 16 255 37 159 87 378 31 402 6 544 34 232 13 13 76 393 24 549 72 69 69 35 34 235 18 530 72 330 26 468 48 215 10 543 15 239 63
392 20 4012 449 98 188 93 466 92 502 67 201 15 189 30 260 72 144 34 173 14 80 91 57 73 26 62 140 80 195 87 312 63 438 58 425 67 165 89 310 81 296 40
393 20 5038 495 50 155 100 177 15 352 31 78 99 509 76 83 91 536 62 428 16 474 42 243 35 125 56 535 79 106 53 437 47 315 28 221 94 246 44 376 86 407 88
394 20 5022 353 53 287 73 418 98 264 14 275 81 468 97 413 28 166 30 347 64 435 43 200 22 491 88 451 97 297 41 332 87 298 40 76 66 301 54 9 16 397 75
395 20 4271 184 100 434 73 120 37 8 69 332 28 6 71 77 70 142 8 106 13 329 96 348 31 504 94 52 20 501 68 318 75 357 86 238 48 457 11 391 52 435 45
396 20 3289 36 100 207 91 27 84 315 22 13 46 192 66 477 28 512 50 43 59 272 26 181 49 226 71 24 95 277 66 451 31 480 80 238 3 24 91 100 33 17 19
397 20 4456 206 46 92 8 224 77 193 7 545 27 372 76 343 83 472 91 162 43 326 94 7 84 39 31 79 50 382 82 183 46 116 27 511 17 356 72 550 72 412 86
398 20 3299 281 33 466 43 547 60 151 26 103 13 79 82 90 26 211 27 493 33 155 78 8 41 101 64 32 94 115 66 84 32 162 80 367 65 204 86 4 13 471 24
399 20 4055 274 41 198 38 41 34 332 13 14 99 204 74 362 36 320 39 76 48 472 81 494 69 374 52 63 16 486 66 535 13 182 12 273 55 104 71 239 24 26 26
400 20 3989 22 60 11 71 283 59 487 97 435 43 308 24 362 74 298 15 189 48 46 11 244 64 365 60 268 47 49 64 131 56 29 28 541 53 314 98 235 27 370 31
401 20 3688 142 86 40 36 360 100 239 71 198 71 415 19 42 17 196 92 468 91 21 71 72 51 76 70 547 34 509 45 210 47 180 50 89 34 456 50 42 45 308 70
402 20 5114 429 8 168 48 528 3 324 49 240 8 36 82 509 21 65 58 489 99 241 24 143 71 237 69 407 15 506 22 283 78 26 81 431 47 390 86 517 71 424 10
403 20 3551 74 99 488 4 77 40 23 87 499 71 334 70 123 91 79 87 180 80 67 54 535 16 315 57 181 86 58 43 435 74 333 7 113 49 387 57 25 16 113 23
404 20 4850 377 8 370 50 248 75 478 83 436 72 113 96 210 15 392 70 329 100 447 96 126 33 254 92 397 53 386 74 62 88 61 93 393 32 460 72 53 98 471 56
405 20 3960 499 29 442 96 429 51 450 86 51 34 52 70 509 73 473 87 31 48 356 3 28 32 298 71 160 60 56 73 164 18 508 35 125 74 100 91 28 84 191 13
406 20 4465 402 7 144 50 415 66 108 20 522 84 44 54 162 27 391 54 142 56 365 39 371 42 384 47 287 88 523 27 108 25 119 98 193 93 83 71 286 40 533 96
407 20 4045 430 33 233 29 533 86 243 20 124 39 319 94 62 92 264 20 75 90 99 66 121 56 353 31 294 45 362 24 233 23 298 5 256 35 381 85 144 6 233 63
408 20 4080 189 39 85 67 79 76 463 49 269 43 283 5 15 51 334 88 306 64 351 76 442 80 256 58 235 47 176 38 363 27 7 32 366 16 390 29 64 1 428 6
409 20 4023 56 79 505 21 20 16 479 17 384 30 31 6 73 9 12 82 397 13 36 70 389 76 378 91 62 91 302 6 193 14 534 46 111 68 55 76 548 59 464 19
410 20 4637 511 46 540 29 267 47 79 79 237 57 531 14 216 97 25 42 1 46 542 76 60 18 395 20 254 28 79 43 455 17 208 73 452 67 173 36 257 66 515 68
411 20 3703 481 46 439 20 89 31 17 4 103 16 363 66 539 28 75 99 272 96 1 47 89 3 383 58 153 7 282 78 233 100 228 28 266 92 156 94 104 84 356 98
412 20 4770 267 59 190 5 209 17 455 86 255 70 462 9 540 11 495 93 270 53 435 68 330 53 116 16 11 62 359 86 135 72 288 83 112 36 239 42 400 2 395 86
413 20 5118 83 65 544 56 202 8 422 52 415 2 367 28 524 46 350 47 22 98 444 10 48 29 305 73 541 96 187 50 311 46 355 24 139 2 459 33 134 8 546 90
414 20 4496 161 76 476 3 128 48 96 87 373 68 403 83 264 39 516 41 120 43 362 62 15 71 40 50 42 62 541 73 89 41 219 45 351 31 430 51 517 80 478 38
415 20 4453 383 49 412 65 459 8 114 32 96 51 529 7 478 34 398 47 333 94 149 58 316 41 371 54 278 71 153 16 41 96 142 70 257 41 53 9 156 72 449 41
416 20 4525 89 49 455 31 349 54 2 35 126 76 500 5 379 29 479 98 421 22 414 31 144 43 248 40 389 34 324 1 190 3 477 63 56 26 149 48 373 86 93 87
417 20 2749 13 40 63 71 130 18 95 86 74 5 38 25 302 26 249 41 348 61 41 77 255 65 321 49 99 25 303 94 74 30 515 43 124 13 192 67 68 54 133 83
418 20 5167 260 37 158 82 72 23 13 39 191 75 343 2 455 43 248 44 301 5 535 7 433 3 416 18 347 21 405 91 320 27 199 22 500 95 469 44 505 74 289 63
419 20 4216 529 72 392 90 313 1 147 94 536 26 2 77 198 16 149 55 262 77 166 57 33 49 501 55 314 34 273 3 332 79 176 17 134 21 398 48 41 93 375 30
420 20 5658 485 59 267 62 376 94 501 34 339 34 282 16 150 59 313 53 494 60 321 54 144 42 102 63 525 19 248 48 434 82 444 84 327 59 293 92 500 37 528 71
421 20 3280 171 57 41 69 190 13 51 42 85 63 4 53 188 84 345 12 251 51 191 33 528 50 482 42 60 28 149 70 141 17 163 58 353 3 340 27 215 1 152 69
422 20 3494 331 3 222 35 134 2 347 46 441 95 269 43 76 24 120 69 256 24 46 69 248 50 104 20 445 93 31 66 30 47 194 56 482 67 74 6 348 83 170 94
423 20 3944 68 40 254 81 355 27 151 24 540 15 13 47 72 76 255 80 151 55 395 63 152 92 127 25 5 31 492 32 272 69 279 22 94 26 544 5 166 22 546 39
424 20 5185 324 80 201 79 317 100 218 88 37 2 96 49 414 34 290 46 212 39 538 78 505 81 115 20 509 67 178 3 541 75 376 18 499 58 437 92 314 25 361 37
425 20 3782 45 6 106 8 263 32 22 76 4 58 531 84 212 51 491 34 164 76 431 24 262 96 26 26 390 21 2 9 74 28 546 6 441 30 138 90 423 13 157 9
426 20 4188 291 27 127 57 95 23 475 62 4 49 448 53 446 14 386 87 297 13 101 43 530 65 262 71 239 38 117 78 279 17 229 80 151 67 91 13 194 34 473 14
427 20 3777 350 76 466 67 292 31 6 81 149 73 301 10 66 58 346 74 455 80 62 95 366 5 325 74 62 25 172 4 49 74 396 31 351 9 351 56 2 69 155 96
428 20 4482 204 63 222 92 382 17 217 71 393 46 133 65 367 21 10 100 385 77 510 80 135 70 199 27 547 6 261 52 420 65 54 49 347 4 84 11 261 53 472 100
429 20 4288 81 21 397 61 418 5 455 44 412 42 443 41 253 23 150 88 161 90 451 39 476 28 170 5 473 92 36 68 2 37 123 63 147 74 308 21 22 61 383 66
430 20 4183 217 5 109 71 389 40 212 69 454 54 12 69 413 12 13 83 249 63 519 48 291 64 30 90 285 72 129 36 147 86 420 11 320 99 543 94 191 17 286 98
431 20 4539 211 66 355 87 360 52 68 7 307 63 433 60 402 92 308 24 287 64 47 57 489 2 431 61 151 2 142 85 8 27 301 73 261 3 492 31 437 65 184 37
432 20 3875 280 32 315 65 61 92 80 46 440 56 14 99 186 66 454 55 26 57 148 62 539 96 116 39 416 36 305 40 88 53 210 88 526 9 262 32 7 21 371 3
433 20 4191 122 34 12 61 123 37 474 65 545 82 298 27 412 75 477 96 299 42 508 61 321 53 143 68 189 85 188 41 491 8 87 54 108 93 87 83 308 86 47 96
434 20 3900 430 52 294 73 5 94 193 18 132 19 146 98 169 36 221 84 490 39 425 41 324 67 291 88 154 98 62 65 119 56 193 14 281 12 379 58 156 81 411 81
435 20 3237 370 35 105 77 100 28 336 66 68 59 100 70 410 46 193 44 53 3 143 50 12 12 65 57 453 43 380 4 540 42 156 78 14 48 343 55 74 5 132 91
436 20 4680 425 25 467 42 319 73 437 18 277 19 514 14 75 3 351 22 94 89 312 77 29 78 420 42 40 86 434 65 66 79 522 98 12 63 485 56 70 9 501 57
437 20 5228 490 67 341 93 328 93 381 23 549 53 338 25 195 5 418 68 197 56 139 29 80 56 351 19 439 97 335 66 357 20 532 71 104 1 227 88 539 39 196 18
438 20 3813 95 81 265 68 405 42 424 93 515 79 139 31 392 51 482 28 264 55 80 53 535 28 346 29 149 63 66 18 45 58 21 72 218 34 161 67 107 74 58 38
439 20 4030 72 36 519 45 103 47 464 53 309 43 53 67 336 94 537 8 347 37 417 10 43 79 230 74 105 15 38 73 395 21 354 27 178 73 85 5 120 60 333 64
440 20 3658 126 29 20 80 35 63 161 69 151 86 164 22 235 65 338 2 257 94 249 21 379 10 530 74 530 26 435 47 194 82 248 98 68 20 1 60 217 35 235 75
441 20 4412 330 77 356 39 529 79 99 38 295 20 213 20 49 27 194 14 522 79 193 27 520 84 448 16 18 66 529 36 25 89 383 48 134 98 26 44 454 58 198 29
442 20 4798 357 51 309 54 179 49 198 64 465 35 349 54 122 2 466 80 211 81 262 17 332 81 403 23 482 18 325 33 214 100 498 97 5 9 364 28 235 38 222 9
443 20 4292 511 95 375 10 378 59 46 76 53 100 41 48 313 51 66 19 219 81 242 18 201 53 233 65 205 38 339 73 313 16 433 84 410 26 464 4 201 47 322 14
444 20 4473 101 1 16 35 232 73 493 34 241 20 60 53 298 44 536 76 492 45 395 45 523 25 2 39 89 80 530 80 17 21 255 53 238 23 207 10 504 38 363 14
445 20 3784 20 76 302 5 122 20 347 18 241 2 296 26 207 70 363 10 101 4 175 1 27 6 240 82 47 85 126 37 202 98 394 55 410 82 266 47 420 87 425 93
446 20 3676 121 65 44 42 176 64 120 43 217 29 429 3 178 94 68 46 272 98 212 89 25 53 181 36 439 4 121 35 108 34 386 20 382 43 419 51 506 65 191 36
447 20 4794 214 3 505 35 100 20 185 99 405 82 194 62 158 17 535 85 538 55 519 95 337 97 354 67 68 90 93 98 388 70 248 86 436 79 361 66 115 18 240 87
448 20 4477 57 60 494 51 223 80 227 39 175 31 37 70 434 88 502 13 259 23 284 27 420 63 276 98 381 45 401 91 240 46 235 10 383 60 137 84 132 81 300 100
449 20 4416 27 28 296 80 58 69 351 34 372 62 380 100 58 63 433 100 225 43 81 28 8 42 420 8 500 38 550 80 140 10 351 65 52 25 474 12 363 52 382 19
450 20 4951 220 20 431 1 420 66 222 17 413 61 161 16 157 97 438 18 454 41 313 42 47 76 462 88 195 32 459 11 488 32 432 95 455 53 80 16 130 70 212 59
451 20 4035 140 20 376 38 416 28 103 94 43 40 29 19 144 43 292 13 374 64 343 92 150 83 409 37 147 17 403 75 182 26 342 82 353 8 442 88 232 13 124 84
452 20 4200 253 85 404 58 41 96 462 8 129 27 338 80 160 92 500 72 64 97 347 12 471 73 326 94 11 75 254 20 225 50 215 43 454 93 342 20 39 75 216 21
453 20 4541 288 78 487 30 250 44 58 86 459 48 516 10 290 79 196 46 428 41 132 69 199 24 447 48 497 56 109 98 85 86 217 15 206 79 523 55 23 79 267 94
454 20 5080 317 75 475 37 265 69 449 97 409 16 512 20 181 91 295 44 137 86 483 39 4 16 368 9 320 81 307 35 472 78 105 3 430 3 329 43 434 43 58 28
455 20 3517 168 83 520 72 91 20 108 81 2 53 541 40 542 4 538 80 31 16 424 64 38 44 239 100 204 8 21 91 156 82 71 71 78 1 185 99 367 63 73 84
456 20 4305 184 28 317 82 502 54 335 88 475 87 446 97 289 6 104 83 50 29 81 36 327 34 478 39 9 13 73 23 72 96 410 90 454 18 359 70 356 63 61 68
457 20 3853 478 80 453 11 164 68 118 89 2 87 316 92 48 78 321 53 491 41 311 55 274 80 206 32 9 46 369 79 7 83 155 57 213 18 80 20 495 34 307 9
458 20 3934 361 44 406 91 150 99 525 89 178 22 208 48 484 54 31 27 81 82 419 60 530 83 27 12 507 42 69 89 257 13 6 52 278 7 1 47 23 58 377 10
459 20 3945 229 13 431 40 72 72 379 32 460 91 126 13 490 37 273 41 70 80 374 53 73 96 22 30 477 94 137 48 39 74 535 47 284 73 31 12 363 2 67 34
460 20 3886 243 90 519 18 421 20 491 20 283 7 149 30 261 12 94 76 177 91 154 35 320 40 410 30 92 39 102 90 210 36 53 10 145 38 211 96 132 40 391 90
461 20 4705 392 6 376 76 411 60 483 7 425 52 383 11 503 7 96 73 322 50 127 82 32 48 84 40 516 58 159 14 249 80 251 8 301 34 231 100 429 90 112 11
462 20 4359 84 83 516 11 217 9 433 52 278 38 294 27 432 28 47 83 257 6 116 66 432 9 469 2 176 94 82 4 362 96 341 56 321 79 217 20 165 68 210 96
463 20 3651 196 80 142 20 420 16 6 27 167 49 193 61 326 97 33 46 530 65 225 88 310 11 247 96 355 45 507 29 104 85 7 64 48 21 124 97 376 96 248 72
464 20 4865 15 49 550 85 294 80 292 76 259 54 51 87 412 65 429 54 306 32 507 59 421 49 252 88 195 68 30 55 359 76 293 91 517 72 390 74 115 16 395 88
465 20 4012 418 37 373 75 265 92 457 62 289 99 289 100 233 5 131 58 17 82 37 16 4 90 173 46 155 39 26 27 209 84 493 40 387 91 231 97 503 14 326 78
466 20 3343 439 82 197 50 15 20 69 67 123 81 30 65 62 54 14 29 386 15 206 89 444 15 450 96 543 7 50 38 5 39 87 72 142 14 65 2 349 3 503 17
467 20 5203 466 72 467 67 258 87 165 20 427 40 522 33 506 66 143 86 87 14 295 91 338 78 130 75 74 14 495 23 136 21 230 96 546 47 316 32 460 100 443 78
468 20 4308 242 38 6 63 162 94 335 20 272 27 428 66 31 36 353 86 338 97 475 18 424 8 71 52 313 2 205 72 162 79 399 40 510 19 336 99 235 68 88 8
469 20 4049 341 54 539 93 366 92 483 69 355 25 94 11 33 42 229 82 513 14 168 61 10 46 313 47 516 13 141 97 432 63 26 91 204 24 92 29 100 46 107 52
470 20 4622 8 38 145 61 486 11 424 37 94 3 517 33 426 85 242 21 59 62 77 48 352 87 539 91 5 27 548 73 268 17 535 98 498 32 114 77 347 97 94 53
471 20 4578 517 81 188 28 506 94 107 29 68 43 521 92 435 48 138 49 90 66 217 59 196 43 227 28 514 28 344 94 134 49 434 48 31 25 380 20 335 94 341 66
472 20 5180 34 82 442 29 227 28 447 1 332 4 500 36 323 78 486 78 346 28 429 75 9 57 94 64 380 14 221 46 161 84 287 61 536 63 526 75 297 5 399 39
473 20 4422 424 42 293 45 386 32 300 57 342 27 527 7 201 93 152 99 293 47 250 66 278 8 450 18 155 36 94 79 348 83 12 68 251 62 340 49 322 4 110 68
474 20 3978 328 43 92 83 256 17 45 39 435 77 300 10 70 29 55 77 299 82 216 16 236 76 394 80 545 74 52 47 310 57 164 69 123 13 198 69 370 4 485 29
475 20 4807 543 34 314 70 447 19 147 84 271 64 413 38 354 30 116 79 358 22 14 99 550 31 506 98 45 84 141 16 122 74 473 24 351 48 255 83 185 96 404 5
476 20 4917 367 24 154 10 350 39 395 91 288 82 155 47 539 23 75 64 486 29 249 55 25 9 497 36 175 34 440 80 172 78 346 92 221 9 242 2 472 61 499 43
477 20 5697 366 75 468 17 411 15 517 53 447 59 405 39 469 14 547 77 6 1 186 11 132 16 239 35 411 81 143 91 519 12 318 77 417 92 226 71 446 57 449 79
478 20 5092 295 86 387 64 540 66 35 85 546 44 356 66 168 85 379 50 89 28 377 84 361 77 508 2 499 1 535 2 43 49 521 26 151 38 142 67 85 72 349 14
479 20 4280 374 17 125 18 201 93 122 75 349 59 270 54 12 14 166 46 344 83 50 1 308 53 278 47 539 44 213 81 167 93 168 78 447 21 423 4 297 62 498 43
480 20 4412 181 91 406 88 302 77 159 12 51 39 180 7 119 54 457 84 208 82 155 99 380 62 191 36 379 48 485 93 182 40 370 97 429 75 344 39 288 97 250 42
481 20 5289 415 26 451 77 100 49 502 74 322 16 459 83 485 29 481 80 263 24 176 47 238 19 382 79 181 16 486 25 533 30 522 51 97 57 199 16 167 70 153 85
482 20 3641 166 17 46 93 145 99 48 70 203 42 321 58 532 66 250 91 104 28 536 35 131 31 70 39 191 48 278 56 313 35 287 44 53 25 352 27 79 31 447 85
483 20 4780 352 3 332 44 302 13 27 69 297 78 2 19 402 74 423 9 516 28 512 86 77 98 254 10 451 86 105 77 481 91 480 73 349 85 321 30 50 67 242 4
484 20 4260 104 90 265 31 333 69 467 28 338 24 91 7 271 41 118 77 43 55 457 99 264 45 142 40 371 20 91 24 513 63 141 24 170 90 541 43 57 95 548 64
485 20 3628 193 26 258 35 30 97 503 55 343 31 176 29 48 24 101 71 228 6 439 94 141 59 403 61 40 92 40 34 29 87 222 93 361 87 356 86 80 87 545 2
486 20 6018 429 59 521 25 505 63 502 15 356 43 439 22 467 43 497 80 353 69 485 66 329 76 326 90 224 15 304 88 380 79 68 9 427 7 9 26 445 60 457 2
487 20 4786 214 16 533 26 398 39 80 72 348 24 468 16 39 64 74 90 495 46 482 54 85 1 334 78 116 18 427 42 202 97 178 59 253 32 437 43 399 46 421 22
488 20 4627 95 23 379 6 369 12 319 97 18 16 422 56 53 25 255 61 231 19 360 60 512 17 524 8 353 9 160 47 438 17 251 91 287 95 158 88 207 36 393 52
489 20 4191 183 57 118 32 349 46 250 14 418 55 87 33 43 85 243 59 177 71 386 83 176 16 359 3 540 80 29 21 491 5 47 92 58 10 482 93 336 16 467 77
490 20 4192 254 58 243 70 280 15 371 59 411 45 14 63 68 93 524 18 430 30 151 12 438 82 480 85 2 75 4 54 252 21 166 15 414 1 504 69 174 42 60 71
491 20 4110 226 71 507 71 53 31 80 76 103 49 257 83 205 20 433 26 160 54 220 7 231 91 525 6 152 22 464 68 387 32 525 90 77 24 4 60 232 16 297 25
492 20 4782 82 17 71 94 134 54 352 17 150 57 443 32 509 6 413 100 203 44 306 14 231 94 472 40 382 76 466 4 502 24 7 85 356 65 84 42 387 70 428 5
493 20 4259 49 68 480 7 381 4 47 97 90 98 48 70 479 9 223 92 188 45 494 73 26 93 519 67 359 23 173 88 52 35 96 42 466 16 486 55 118 58 550 1
494 20 4640 202 37 266 96 211 90 199 94 338 55 226 98 445 82 261 71 338 76 172 61 415 97 379 37 238 77 279 1 66 7 368 43 148 26 321 46 535 70 394 74
495 20 3752 126 29 416 98 376 74 19 59 168 60 395 3 425 9 77 24 375 83 502 43 232 21 50 80 287 27 30 27 317 98 133 1 424 27 134 74 98 51 107 1
496 20 4138 548 27 403 60 149 40 137 26 530 81 70 66 215 82 148 50 420 49 289 29 184 91 236 76 380 96 118 50 21 79 101 19 350 8 210 31 415 45 249 80
497 20 4634 346 7 219 76 319 96 446 74 507 86 491 22 275 1 17 99 382 54 413 91 390 80 132 31 326 2 317 90 419 80 160 38 34 54 221 99 47 40 332 43
498 20 5144 424 56 75 39 270 3 431 43 410 96 529 99 479 65 233 10 237 31 61 56 421 13 398 34 433 63 389 82 330 38 219 19 314 63 324 52 323 19 130 94
499 20 4628 501 49 503 98 403 67 55 80 237 94 290 3 206 74 163 39 161 67 419 21 268 26 248 10 362 37 204 56 306 9 495 25 402 77 69 70 23 95 471 83
500 20 5022 482 72 273 86 78 57 68 97 452 93 547 83 418 55 278 21 275 27 389 47 422 80 385 30 63 47 98 9 430 86 417 74 252 93 369 22 338 47 244 19
