139
101
154
114
64
93
110
101
99
495
100
154
212
212
89
99
127
97
174
94
143
167
111
83
132
75
115
141
94
203
89
209
106
167
66
75
185
154
94
70
103
151
124
136
107
84
84
109
199
78
106
123
127
134
148
74
139
116
317
289
99
108
168
88
112
111
90
104
108
119
152
126
109
263
116
127
102
92
166
222
144
70
109
117
137
109
98
120
122
110
97
66
83
69
111
281
58
72
100
111
119
254
88
99
117
183
196
100
138
104
98
167
241
118
94
72
154
96
153
112
78
78
198
388
153
148
93
319
85
85
150
90
130
106
91
106
183
143
126
95
193
110
137
108
121
116
116
161
109
153
107
80
95
141
117
79
191
108
145
112
226
88
126
113
146
99
271
80
113
106
77
122
131
90
94
173
122
77
121
156
85
66
102
110
82
94
137
96
73
132
93
229
79
74
136
175
81
77
69
286
97
104
177
199
209
79
92
106
97
85
137
112
89
225
277
161
158
161
110
170
91
215
137
95
248
121
83
111
115
74
96
98
157
204
97
128
80
140
78
125
168
74
65
180
88
122
175
119
154
79
115
108
113
78
323
152
131
253
128
177
162
124
108
88
127
214
124
670
73
132
154
103
111
65
83
194
85
65
233
110
123
111
200
120
74
596
115
86
111
88
181
78
170
60
186
177
98
135
144
721
51
149
78
132
128
150
84
174
129
65
293
119
103
177
96
108
151
80
179
145
131
96
165
97
164
166
64
94
126
84
97
125
108
89
140
86
64
97
89
147
94
111
79
185
165
82
94
70
121
106
91
94
92
142
100
88
114
231
76
128
105
152
170
249
103
102
103
105
180
151
209
154
105
102
127
110
90
104
146
157
140
152
132
70
121
202
133
154
163
99
119
297
170
238
183
95
110
137
108
227
101
69
67
132
68
158
123
74
219
104
164
73
105
105
64
100
179
129
85
168
83
154
66
294
94
101
99
90
136
61
111
58
115
152
88
155
185
111
76
139
415
254
95
122
225
86
136
145
113
83
112
72
84
143
109
138
61
90
76
110
95
138
85
317
82
121
266
124
88
178
210
84
71
89
73
157
258
188
113
438
178
216
77
227
71
83
152
107
107
97
150
91
64
256
83
92
87
148
126
208
