1 20 873 1 0 1 1 1 0 1 1 1 1 1 1 1 1 0 1 1 0 1 1 
2 20 1065 1 1 1 0 1 1 1 0 1 1 1 1 0 0 1 1 1 1 1 1 
3 20 1203 1 1 1 1 1 1 1 0 1 0 1 1 1 1 1 0 1 0 1 1 
4 20 927 1 0 1 1 1 0 1 1 0 1 1 1 1 0 1 1 1 1 1 1 
5 20 812 1 1 1 1 1 1 1 1 1 1 1 0 1 1 0 1 1 1 0 1 
6 20 816 0 0 1 1 1 1 1 1 1 0 1 1 1 1 1 1 1 1 0 1 
7 20 1149 1 1 1 0 1 1 0 1 1 1 1 1 1 1 1 1 1 0 1 0 
8 20 925 1 1 1 0 0 1 1 1 1 0 1 1 1 1 1 1 1 1 1 1 
9 20 878 1 1 1 1 0 1 0 1 1 1 1 1 1 1 1 1 0 1 0 1 
10 20 1097 1 1 1 1 1 0 1 1 1 1 1 1 0 1 1 1 1 1 0 0 
11 20 1088 1 1 0 1 1 0 1 1 1 1 1 1 1 0 1 0 1 1 1 1 
12 20 1040 1 1 0 0 1 1 1 1 0 0 1 1 1 0 1 1 1 1 1 1 
13 20 902 1 1 1 1 1 0 1 1 1 1 0 1 1 1 0 0 1 1 1 1 
14 20 920 1 1 0 1 1 1 1 1 0 1 1 1 1 1 0 1 1 1 1 0 
15 20 731 1 1 1 1 1 1 1 1 1 1 0 1 1 1 1 1 0 0 0 1 
16 20 950 1 1 1 0 1 1 0 1 1 0 1 1 1 1 1 1 1 1 1 1 
17 20 771 1 1 1 1 0 1 1 1 1 1 1 0 1 0 1 1 1 1 0 1 
18 20 908 1 1 1 0 1 1 1 1 1 1 1 0 0 1 1 1 1 1 1 0 
19 20 673 1 1 1 1 0 1 1 1 1 1 1 1 1 1 1 0 1 0 1 0 
20 20 946 1 0 1 1 1 1 1 1 1 1 1 1 1 1 1 0 1 1 0 1 
21 20 825 1 1 0 1 1 1 1 0 1 0 1 1 1 1 1 1 1 0 1 1 
22 20 1003 0 1 1 1 1 0 1 1 1 0 1 1 1 1 1 1 1 1 1 1 
23 20 993 0 0 1 1 0 1 1 1 1 1 1 1 1 1 1 1 1 1 1 0 
24 20 1013 1 1 1 1 1 0 1 1 1 1 1 0 1 1 1 1 1 1 1 0 
25 20 936 1 1 1 1 1 1 1 1 1 1 1 1 1 1 0 1 1 0 0 1 
26 20 970 1 1 1 0 1 0 1 1 1 1 1 0 1 1 1 1 1 1 0 1 
27 20 1040 1 1 1 1 1 1 1 1 1 1 1 0 1 0 1 1 1 0 1 1 
28 20 1042 1 1 0 1 1 1 1 1 1 1 1 1 1 1 1 0 1 1 0 1 
29 20 1082 1 1 1 0 1 1 0 1 1 1 1 1 1 1 1 0 1 1 1 0 
30 20 800 1 1 1 1 0 1 1 0 1 1 1 1 1 0 1 0 1 1 1 1 
31 20 815 1 0 1 1 1 0 1 1 1 1 1 1 1 1 1 1 1 0 1 1 
32 20 847 1 0 0 1 1 0 1 1 1 1 1 1 1 1 1 1 0 1 1 1 
33 20 1067 1 0 1 1 0 1 1 1 1 1 1 1 1 0 1 1 1 1 0 1 
34 20 890 1 1 1 1 1 1 0 1 1 1 1 0 1 0 0 1 1 1 1 1 
35 20 1168 1 1 1 1 1 1 1 1 1 0 0 1 1 0 1 1 1 1 0 1 
36 20 898 1 1 1 1 1 1 1 0 1 1 1 1 1 1 0 1 0 1 1 1 
37 20 1007 1 0 1 1 1 0 1 1 1 1 1 1 1 1 1 1 1 0 1 0 
38 20 977 1 1 1 1 1 0 1 0 1 1 0 1 0 1 1 1 1 1 1 1 
39 20 887 1 1 0 1 1 1 0 1 0 1 1 1 1 1 0 1 1 1 1 1 
40 20 1110 0 1 1 1 1 0 1 1 1 1 0 1 1 1 1 1 1 1 1 1 
41 20 867 1 1 1 1 0 1 0 1 1 1 0 1 1 1 1 1 1 1 1 1 
42 20 825 0 1 1 1 1 0 0 1 1 0 1 1 1 1 1 1 1 1 1 1 
43 20 808 1 1 0 0 1 1 1 1 1 1 1 1 1 0 1 1 1 0 1 1 
44 20 1040 1 1 1 1 0 1 0 1 1 1 1 1 1 1 1 1 1 0 1 1 
45 20 1001 1 1 1 1 0 1 1 1 1 0 1 0 0 1 1 1 1 1 1 1 
46 20 980 1 1 1 1 1 0 1 1 1 1 0 1 1 1 0 1 1 1 1 1 
47 20 1143 1 1 1 1 1 1 1 1 1 1 1 1 1 0 0 0 1 1 1 1 
48 20 802 1 0 1 1 1 1 0 1 1 1 1 1 1 1 0 0 1 1 1 1 
49 20 1122 1 1 0 1 0 1 1 1 1 1 1 1 1 1 1 1 0 0 1 1 
50 20 949 1 1 0 1 1 1 1 1 1 1 1 1 1 1 0 1 1 0 0 0 
51 20 1054 0 1 1 1 1 1 1 1 1 0 1 1 1 1 1 0 1 1 1 0 
52 20 965 0 1 1 1 1 1 1 1 1 1 0 1 1 1 1 0 1 1 1 1 
53 20 1102 1 0 0 0 1 1 1 1 1 1 0 1 1 1 1 1 1 1 1 1 
54 20 912 1 1 1 1 1 1 1 1 1 0 1 0 1 0 1 1 1 1 1 0 
55 20 969 1 1 1 1 1 1 1 1 1 0 0 1 1 0 1 1 1 1 0 1 
56 20 793 1 1 1 1 1 1 1 1 1 1 1 1 1 1 0 1 0 0 1 1 
57 20 955 1 0 1 0 1 1 0 1 0 1 1 1 1 1 1 1 1 1 1 1 
58 20 1189 0 1 1 1 1 0 0 1 1 1 1 1 1 1 1 1 1 0 1 1 
59 20 980 1 0 1 1 1 1 1 1 0 1 0 1 1 1 1 0 1 1 1 1 
60 20 790 1 1 1 1 1 1 1 0 1 1 0 1 1 1 1 1 0 1 1 1 
61 20 991 1 1 1 1 1 0 1 1 1 1 0 1 1 1 1 1 1 1 1 0 
62 20 1001 1 1 1 0 1 1 1 1 1 1 1 1 1 1 0 1 1 1 0 0 
63 20 993 1 1 0 1 1 1 1 1 1 0 1 1 1 1 1 1 0 1 1 0 
64 20 1088 1 0 0 1 1 1 1 1 0 1 1 0 1 1 1 1 1 1 1 1 
65 20 1127 1 1 1 1 1 1 1 1 0 1 1 1 1 0 0 1 1 0 1 1 
66 20 1030 1 1 0 0 1 1 1 1 1 0 1 1 1 1 1 1 1 0 1 1 
67 20 563 1 1 1 0 1 0 1 0 1 1 1 1 1 0 1 1 1 1 1 1 
68 20 1064 1 1 1 1 0 0 1 1 1 1 1 1 1 1 1 1 1 1 0 0 
69 20 970 1 1 1 1 0 0 1 1 1 1 1 0 1 1 1 1 0 1 1 1 
70 20 911 1 0 1 1 1 1 1 1 1 1 0 1 0 1 0 1 1 1 1 1 
71 20 809 1 1 1 1 0 1 1 1 0 1 1 1 1 1 1 1 1 1 1 0 
72 20 896 1 0 0 1 1 1 1 1 1 1 1 1 1 1 1 1 1 1 0 1 
73 20 868 1 1 0 1 1 0 1 1 1 1 1 1 1 1 1 0 1 0 1 1 
74 20 820 0 1 0 0 1 1 1 1 1 1 1 1 1 1 1 0 1 1 1 1 
75 20 924 0 1 1 0 1 1 1 1 1 1 0 1 1 1 0 1 1 1 1 1 
76 20 1030 0 1 1 0 1 1 1 1 1 1 1 1 1 1 1 1 1 1 1 0 
77 20 794 1 1 1 1 1 0 1 1 1 1 1 1 0 1 1 1 0 1 1 1 
78 20 861 0 1 1 1 1 1 1 0 1 1 0 1 1 1 1 1 1 1 1 0 
79 20 931 1 0 1 1 1 1 1 1 1 0 0 1 1 1 1 1 1 1 1 0 
80 20 1140 0 1 1 1 0 1 1 1 1 1 1 0 1 1 1 1 1 0 1 1 
81 20 963 1 1 0 1 1 1 1 1 0 1 1 1 1 1 1 0 0 1 1 1 
82 20 975 1 0 1 1 1 0 1 1 1 1 1 1 1 1 0 1 1 1 1 1 
83 20 1044 1 1 1 1 0 1 0 1 1 1 1 1 1 1 0 1 1 1 1 1 
84 20 814 1 1 1 0 1 1 0 1 1 1 0 1 1 1 1 1 1 0 1 1 
85 20 795 1 1 1 1 1 1 1 1 0 1 0 1 1 1 1 1 1 1 1 0 
86 20 1017 1 1 1 0 1 1 0 0 1 1 1 1 1 1 1 1 1 1 1 1 
87 20 977 1 1 1 1 1 1 1 1 0 1 0 0 0 1 1 1 1 1 1 1 
88 20 881 1 0 1 1 1 0 1 1 1 1 1 1 1 0 1 1 1 1 0 1 
89 20 958 1 1 1 1 1 0 1 1 1 1 0 1 1 1 1 0 1 1 0 1 
90 20 980 1 1 1 0 1 1 1 1 1 1 1 1 1 1 1 1 0 0 1 0 
91 20 1053 0 1 1 1 0 1 1 1 1 1 1 1 1 1 1 1 1 1 0 1 
92 20 828 0 1 1 1 1 1 1 0 0 1 0 1 1 1 1 1 1 1 1 1 
93 20 1034 1 1 1 1 1 1 1 1 1 1 1 1 0 1 1 0 1 0 1 1 
94 20 836 0 1 1 1 1 1 1 1 0 1 1 1 1 1 1 1 1 1 0 0 
95 20 1119 1 1 1 1 1 1 1 0 1 1 1 0 0 1 1 0 1 1 1 1 
96 20 1017 1 1 1 0 1 0 1 1 0 1 1 1 1 1 1 1 0 1 1 1 
97 20 772 1 1 0 1 1 0 1 1 1 0 1 1 1 0 1 1 1 1 1 1 
98 20 978 1 1 0 0 1 0 1 1 1 1 1 1 1 1 0 1 1 1 1 1 
99 20 1014 1 1 1 1 0 1 1 1 1 1 1 1 1 0 1 0 1 1 1 1 
100 20 965 1 1 1 1 1 0 1 1 0 1 1 0 1 1 1 1 1 1 1 0 
101 20 900 1 1 1 1 1 0 0 1 1 1 0 1 1 0 1 1 1 1 1 1 
102 20 1024 1 1 0 0 1 1 1 1 0 1 1 1 1 1 1 1 1 1 1 0 
103 20 898 1 1 1 1 1 1 1 1 1 1 1 0 1 1 0 1 1 0 0 1 
104 20 973 1 1 0 1 1 0 1 1 1 0 1 1 1 1 0 1 1 1 1 0 
105 20 779 1 1 1 1 0 1 0 0 1 1 1 1 1 1 0 1 1 1 1 1 
106 20 805 0 1 1 1 1 0 1 1 1 1 1 0 1 1 1 1 0 1 1 1 
107 20 1090 0 1 1 1 1 1 1 0 1 1 0 1 1 1 1 1 1 1 0 1 
108 20 957 1 0 1 1 1 1 1 1 1 1 1 0 1 1 1 1 1 1 0 0 
109 20 1025 1 0 1 1 1 1 1 1 1 1 0 1 0 1 0 1 1 1 1 1 
110 20 1079 0 1 1 1 1 1 0 1 1 1 0 1 1 0 1 1 1 1 1 1 
111 20 1049 1 0 1 1 1 1 1 1 0 1 1 1 1 1 1 0 0 1 1 1 
112 20 923 1 1 1 1 1 1 1 1 0 0 0 1 1 1 0 1 1 1 1 1 
113 20 774 1 1 1 1 1 1 0 0 0 1 1 1 0 1 1 1 1 1 1 1 
114 20 950 1 0 1 1 0 1 1 1 1 1 1 1 0 1 1 1 0 1 1 1 
115 20 1008 1 1 0 0 1 1 1 1 1 1 1 1 1 1 1 0 1 1 0 1 
116 20 916 1 0 1 1 1 1 1 1 1 1 1 0 1 0 1 1 0 1 1 1 
117 20 1014 1 1 1 1 1 1 0 1 1 1 1 1 1 0 1 1 1 1 0 1 
118 20 1034 0 0 0 1 1 1 0 1 1 1 1 1 1 1 1 1 1 1 1 1 
119 20 996 1 1 1 1 0 0 0 1 1 1 1 1 1 1 1 1 0 1 1 1 
120 20 914 0 1 1 1 1 1 1 1 1 1 1 1 1 1 0 1 0 0 1 1 
121 20 951 1 0 1 0 1 1 1 1 1 1 1 0 1 1 1 1 1 1 0 1 
122 20 1032 1 0 1 1 1 1 1 1 0 1 1 0 0 1 1 1 1 1 0 1 
123 20 1109 1 1 1 0 1 1 1 1 1 1 1 1 1 1 0 1 0 1 1 1 
124 20 938 1 1 1 1 0 0 1 1 1 1 1 0 1 1 1 1 1 1 1 1 
125 20 832 0 1 1 1 1 1 0 1 1 0 1 1 1 0 1 1 1 1 1 1 
126 20 930 1 0 1 1 1 1 1 1 1 1 1 1 1 0 1 1 0 1 0 1 
127 20 1092 0 1 1 1 1 1 0 1 1 1 0 1 1 0 1 1 1 1 1 1 
128 20 1015 1 1 1 1 1 0 1 1 1 1 0 1 1 1 0 0 1 1 1 1 
129 20 975 1 0 1 1 1 1 1 1 0 1 0 1 1 1 1 1 1 1 1 1 
130 20 947 1 1 1 1 1 0 1 1 1 1 0 1 1 0 1 1 1 1 0 1 
131 20 888 1 1 1 1 1 1 1 0 1 1 1 1 1 1 0 0 0 1 1 1 
132 20 806 1 1 1 1 1 0 1 0 1 1 1 1 1 1 0 1 1 1 1 1 
133 20 898 1 1 1 1 1 1 0 1 1 1 1 1 1 0 1 1 1 0 1 0 
134 20 1008 1 1 1 1 1 0 1 0 1 1 1 1 1 1 1 1 1 0 1 0 
135 20 1154 1 1 1 1 1 1 1 1 1 0 1 0 1 1 1 1 0 1 1 1 
136 20 956 1 1 1 1 1 0 1 0 1 0 1 0 0 1 1 1 1 1 1 1 
137 20 1315 1 1 1 1 1 0 1 0 1 1 1 1 1 1 1 0 1 1 1 0 
138 20 937 1 1 1 1 1 1 1 1 1 0 1 1 0 1 1 0 1 1 0 1 
139 20 1003 1 1 0 0 1 1 0 1 1 1 1 1 1 1 0 1 1 1 1 1 
140 20 986 1 1 1 0 1 0 1 1 1 1 1 1 1 1 0 1 1 1 1 1 
141 20 933 1 0 1 1 1 1 1 1 1 0 1 1 1 0 1 1 1 1 1 1 
142 20 783 1 1 1 0 1 1 1 1 1 1 1 0 0 1 1 0 1 1 1 1 
143 20 1046 1 0 1 1 1 1 1 1 1 0 1 1 1 1 0 1 1 1 1 1 
144 20 1009 1 1 1 0 0 1 1 1 1 1 1 1 1 1 1 0 1 1 1 0 
145 20 1013 1 1 0 1 1 1 0 0 1 1 1 1 1 1 1 0 1 1 1 1 
146 20 911 1 0 0 1 1 1 1 0 1 1 1 1 1 1 0 1 1 1 1 1 
147 20 867 1 1 1 1 1 1 0 1 1 1 1 1 0 1 1 0 1 1 1 0 
148 20 973 0 1 1 1 1 1 1 0 0 1 1 1 1 1 1 1 1 1 1 0 
149 20 984 1 1 1 0 1 1 0 1 1 0 1 1 1 1 1 1 0 1 1 1 
150 20 1018 1 0 0 1 1 1 1 1 1 1 1 1 1 0 1 1 1 1 1 1 
151 20 929 1 1 1 1 1 1 1 1 0 0 0 0 1 1 1 1 1 1 1 1 
152 20 962 1 1 1 0 1 1 1 1 0 1 1 1 1 0 1 1 1 1 1 0 
153 20 1083 1 1 1 1 1 1 1 1 1 0 1 0 1 1 1 0 1 0 1 1 
154 20 1014 1 1 0 1 1 1 0 1 0 1 0 1 1 1 1 1 1 1 1 1 
155 20 933 0 1 1 1 1 1 1 1 1 1 1 1 1 0 0 1 1 0 1 1 
156 20 936 0 1 1 1 0 1 1 1 1 1 1 1 1 0 1 1 0 1 1 1 
157 20 1176 1 0 1 1 0 0 1 1 1 1 1 0 1 1 1 1 1 1 1 1 
158 20 1029 1 1 0 1 1 1 1 1 1 1 1 1 1 1 0 0 1 1 1 0 
159 20 921 1 1 1 1 0 1 1 1 1 0 1 1 0 1 0 1 1 1 1 1 
160 20 1007 0 1 1 1 1 1 1 0 1 1 0 1 1 1 1 1 1 0 1 1 
161 20 904 1 1 0 0 1 1 0 1 1 1 1 1 1 1 0 1 1 1 1 1 
162 20 1050 1 0 1 1 1 0 1 1 0 1 1 1 1 0 1 1 1 1 1 1 
163 20 1324 0 1 1 1 1 1 1 1 1 1 1 1 1 0 1 0 0 1 1 1 
164 20 789 1 1 1 1 0 1 1 1 1 1 0 0 1 1 0 1 1 1 1 1 
165 20 796 1 1 1 1 0 1 1 0 1 1 1 1 1 1 1 0 1 1 1 1 
166 20 1052 1 1 1 1 0 1 1 0 1 1 1 1 1 1 1 1 0 1 1 0 
167 20 949 1 0 1 0 1 1 1 0 1 0 1 1 1 1 1 1 1 1 1 1 
168 20 743 0 1 1 1 1 0 1 1 1 1 0 1 1 0 1 1 1 1 1 1 
169 20 906 1 1 1 0 0 0 1 0 1 1 1 1 1 1 1 1 1 1 1 1 
170 20 838 1 1 1 1 1 1 1 1 1 0 1 1 0 1 0 1 1 1 1 0 
171 20 843 1 1 0 1 1 1 1 1 0 1 1 1 1 1 1 1 1 1 1 0 
172 20 762 1 1 1 1 1 1 0 0 1 1 1 1 1 1 1 0 1 1 1 0 
173 20 926 1 1 1 1 1 0 1 1 1 1 1 1 0 1 1 1 0 1 1 0 
174 20 1000 0 1 1 1 1 1 1 1 1 1 1 1 0 1 1 1 0 1 0 1 
175 20 1143 1 1 1 1 1 1 1 0 1 1 0 1 1 1 0 1 1 1 1 1 
176 20 1104 1 1 0 1 1 1 1 1 0 1 0 1 1 1 1 1 1 1 0 1 
177 20 918 1 1 1 1 1 1 1 1 1 1 0 1 1 1 1 0 1 0 1 1 
178 20 921 1 0 1 1 1 1 1 0 1 1 1 1 1 0 1 1 1 1 1 1 
179 20 980 1 1 1 1 1 1 1 1 0 1 1 0 1 0 1 1 1 0 1 1 
180 20 938 1 1 0 1 1 1 1 1 1 1 0 1 1 1 0 0 1 1 1 1 
181 20 979 1 0 1 1 1 1 1 1 1 1 1 1 1 1 1 0 1 1 0 0 
182 20 1069 1 1 1 1 0 1 1 1 1 1 1 1 0 1 1 1 0 0 1 1 
183 20 867 1 0 1 1 1 1 1 1 1 1 1 1 0 1 1 0 1 0 1 1 
184 20 1001 1 1 0 0 1 0 1 1 1 1 1 1 1 0 1 1 1 1 1 1 
185 20 889 1 1 1 1 1 1 1 1 0 0 1 1 1 1 1 1 1 0 1 1 
186 20 963 1 1 0 1 1 1 1 1 0 1 1 1 1 0 0 1 1 1 1 1 
187 20 1075 1 1 0 1 0 1 1 1 1 0 1 1 1 1 1 1 1 1 0 1 
188 20 1172 1 1 1 1 1 1 1 1 0 0 0 1 1 1 1 1 1 1 1 1 
189 20 1072 1 1 0 1 0 1 1 1 1 1 1 1 1 0 0 1 1 1 1 1 
190 20 879 1 1 1 1 0 0 1 1 1 1 1 1 1 0 1 1 1 1 0 1 
191 20 982 1 1 0 1 1 1 1 0 1 1 1 1 1 0 1 1 1 0 1 1 
192 20 968 1 1 1 1 1 0 1 1 1 1 1 1 0 0 1 1 1 1 0 1 
193 20 1138 1 1 1 1 1 1 1 0 1 0 1 1 1 1 0 1 1 0 1 1 
194 20 844 1 1 1 0 1 1 1 1 1 0 0 1 1 1 0 1 1 1 1 1 
195 20 1050 1 1 1 0 1 1 1 0 1 1 1 1 1 1 1 1 0 1 1 0 
196 20 1115 1 1 0 1 1 1 1 1 0 1 1 0 0 1 1 1 1 1 1 1 
197 20 1148 1 1 1 1 1 1 1 0 1 1 1 1 0 0 1 1 1 1 1 1 
198 20 842 1 1 1 0 0 1 1 1 1 1 1 1 0 1 1 1 1 1 1 1 
199 20 946 1 0 1 1 1 1 1 1 1 0 1 1 1 1 0 0 1 1 1 1 
200 20 862 1 0 1 1 1 1 1 1 1 1 0 1 1 1 1 1 0 1 1 1 
201 20 1027 0 1 1 1 1 1 1 1 0 0 1 1 1 1 1 1 1 0 1 1 
202 20 1001 1 1 0 1 1 1 0 1 1 1 1 0 1 1 1 0 1 1 1 1 
203 20 931 1 0 1 1 1 1 1 1 1 1 1 0 1 1 1 0 0 1 1 1 
204 20 930 0 0 1 1 1 0 1 1 0 1 1 1 1 1 1 1 1 1 1 1 
205 20 1131 1 1 0 1 1 1 1 1 1 1 1 1 1 1 0 1 0 1 1 1 
206 20 870 1 1 1 1 1 0 1 1 1 1 0 1 1 1 1 1 1 0 1 0 
207 20 1028 1 1 1 0 0 1 1 1 1 1 1 0 1 1 1 1 1 1 1 1 
208 20 1089 0 1 1 0 1 1 1 1 1 1 1 1 1 1 1 0 1 0 1 1 
209 20 951 1 0 1 1 1 1 1 1 0 1 1 1 1 1 0 1 1 0 1 1 
210 20 831 1 1 0 0 1 1 1 1 1 0 1 1 1 1 1 1 1 1 1 1 
211 20 884 1 1 1 0 1 1 1 1 1 1 1 1 0 1 1 1 0 1 1 0 
212 20 1118 1 1 1 1 1 1 0 1 1 1 1 1 1 1 1 1 1 0 0 1 
213 20 947 1 0 1 1 0 1 1 1 1 0 1 1 1 1 0 1 1 1 1 1 
214 20 916 0 0 1 1 1 1 1 1 1 0 1 1 0 0 1 1 1 1 1 1 
215 20 852 1 0 1 1 0 1 1 0 1 0 1 1 1 1 1 1 1 1 1 1 
216 20 1040 1 0 1 1 1 1 0 1 1 1 1 1 0 1 1 0 1 1 1 1 
217 20 972 1 0 1 1 1 1 1 1 1 1 1 1 1 1 0 1 1 1 0 0 
218 20 1089 1 1 1 1 1 1 1 1 0 0 1 1 1 1 1 1 1 1 0 0 
219 20 828 0 1 1 1 1 1 1 1 1 1 0 1 1 1 0 1 1 0 1 1 
220 20 818 1 1 0 1 1 1 1 1 1 0 0 1 1 1 1 1 1 0 1 1 
221 20 887 1 1 1 0 1 1 1 1 1 1 1 1 1 0 1 1 1 0 1 1 
222 20 719 1 1 1 1 1 1 1 1 1 1 1 1 0 1 0 0 1 1 1 1 
223 20 1135 1 1 1 1 1 1 1 0 1 0 1 1 1 0 1 1 1 1 0 1 
224 20 1116 1 1 1 1 1 1 1 0 1 0 0 1 1 1 0 1 1 1 1 1 
225 20 854 1 1 1 1 1 1 1 1 1 0 1 1 0 1 1 1 1 1 1 0 
226 20 774 1 0 0 0 1 1 1 1 1 1 1 1 1 1 1 1 0 1 1 1 
227 20 920 1 0 1 1 0 1 1 0 1 1 1 1 1 1 1 1 1 1 1 0 
228 20 1049 1 1 0 0 1 1 1 1 1 1 1 0 1 0 1 1 1 1 1 1 
229 20 805 0 1 0 1 1 0 1 1 1 1 1 1 1 0 1 1 1 1 1 1 
230 20 766 1 1 1 1 0 1 1 1 1 1 1 1 1 1 0 1 0 1 0 1 
231 20 919 0 1 1 1 1 1 1 1 1 1 0 1 0 1 1 1 1 0 1 1 
232 20 950 1 0 0 1 1 1 1 1 1 1 1 1 1 1 0 1 1 1 1 1 
233 20 926 0 1 1 1 1 0 0 1 1 0 0 1 1 1 1 1 1 1 1 1 
234 20 1129 1 0 1 1 1 0 1 1 1 1 1 1 1 1 1 0 0 1 1 1 
235 20 1153 1 1 1 1 1 1 1 1 0 0 1 1 1 0 1 1 1 1 1 0 
236 20 733 1 1 1 1 1 1 0 1 1 1 1 0 0 1 1 0 1 1 1 1 
237 20 1065 1 1 1 1 1 0 1 1 1 0 1 1 1 0 1 1 0 1 1 1 
238 20 899 1 1 0 0 1 1 1 0 0 1 1 1 1 1 1 1 1 1 1 1 
239 20 1036 1 1 1 1 1 0 0 0 1 0 1 1 1 1 1 1 1 1 1 1 
240 20 792 1 1 1 1 1 1 1 0 1 1 1 0 1 0 1 1 1 1 1 1 
241 20 1012 1 0 1 1 1 0 1 1 1 1 0 1 1 1 0 1 1 1 1 1 
242 20 966 1 1 0 1 1 1 1 0 0 1 1 1 0 1 1 1 1 1 1 1 
243 20 1000 0 1 1 0 1 0 1 1 1 1 0 1 1 1 1 1 1 1 1 1 
244 20 996 1 1 1 1 1 0 1 1 1 1 1 0 0 1 1 1 1 1 0 1 
245 20 912 1 0 1 1 1 1 1 1 0 1 1 0 1 1 1 1 1 1 1 0 
246 20 846 1 1 1 1 1 1 1 1 0 1 1 1 1 1 1 0 1 1 1 0 
247 20 878 1 1 1 1 0 1 0 1 0 1 1 1 1 0 1 1 1 1 1 1 
248 20 754 1 0 0 1 1 1 1 1 1 1 1 0 1 1 1 1 1 1 1 1 
249 20 828 1 1 1 1 1 1 1 1 1 1 0 1 1 1 0 0 1 1 0 1 
250 20 1103 0 1 1 1 1 1 1 1 1 1 1 1 0 1 1 1 1 0 1 1 
251 20 874 1 0 0 1 1 1 1 1 0 1 1 1 1 1 1 1 1 1 1 1 
252 20 888 1 1 1 0 1 1 1 0 1 0 1 1 0 1 1 0 1 1 1 1 
253 20 980 1 1 0 1 0 1 1 1 0 1 1 1 1 1 1 0 1 1 1 1 
254 20 913 1 1 1 1 1 0 1 1 1 1 1 0 1 1 1 1 1 1 1 0 
255 20 888 1 1 1 1 0 1 1 0 1 1 1 0 1 1 1 1 1 1 1 1 
256 20 932 1 0 1 1 1 1 1 1 1 1 0 1 1 1 0 1 1 1 1 0 
257 20 1209 1 0 1 1 1 1 0 1 1 1 1 1 1 1 1 1 0 1 1 1 
258 20 981 1 1 0 1 1 1 0 1 1 1 1 1 1 0 1 1 1 0 1 1 
259 20 1101 1 1 1 0 1 0 1 1 1 1 1 0 1 1 1 1 1 1 0 1 
260 20 1028 1 0 1 1 1 1 1 1 1 1 0 1 1 1 1 1 1 0 1 1 
261 20 720 1 1 1 1 1 0 1 1 1 1 1 1 0 1 1 1 1 1 0 0 
262 20 1012 1 1 1 1 1 1 1 1 0 1 1 1 0 0 1 1 1 1 0 1 
263 20 1149 1 0 1 1 1 1 1 1 1 1 1 0 1 0 1 0 1 1 1 1 
264 20 1005 1 0 1 1 1 1 0 1 0 1 1 1 1 1 1 1 1 1 1 0 
265 20 957 1 0 1 0 1 1 1 1 1 1 0 0 1 0 1 1 1 1 1 1 
266 20 976 1 0 1 1 1 1 1 1 1 1 1 1 0 0 1 1 1 1 1 0 
267 20 874 1 0 1 1 1 0 1 1 1 1 0 1 1 1 1 1 1 1 1 0 
268 20 920 0 0 1 1 1 1 0 1 0 1 1 1 1 1 1 1 1 1 1 1 
269 20 878 1 1 1 0 1 1 0 1 1 1 1 1 1 1 1 1 1 0 1 0 
270 20 1054 1 1 1 1 1 0 1 1 1 1 1 1 1 1 1 0 0 1 1 1 
271 20 921 1 1 1 1 1 0 1 1 0 1 1 1 1 1 1 1 0 0 1 1 
272 20 936 1 1 0 0 0 1 1 1 1 1 1 1 1 1 1 1 1 1 1 1 
273 20 808 1 1 1 1 1 0 0 1 1 1 1 1 1 1 1 0 0 0 1 1 
274 20 956 1 1 0 1 1 1 1 1 0 0 1 1 0 1 1 1 1 1 1 1 
275 20 907 1 1 0 1 1 1 1 1 0 1 1 0 1 1 1 1 1 1 1 1 
276 20 1180 0 1 1 1 1 1 0 1 1 0 1 1 1 1 1 1 1 0 1 1 
277 20 1008 0 1 1 1 1 1 0 0 1 1 0 1 1 1 1 1 1 1 1 1 
278 20 975 1 0 1 1 1 0 1 1 1 1 1 1 0 1 1 1 0 1 1 1 
279 20 889 1 0 1 1 0 1 1 1 1 1 1 1 1 1 1 0 1 1 1 0 
280 20 897 1 1 1 1 1 1 1 1 1 0 0 0 1 1 1 1 1 1 1 1 
281 20 810 1 1 1 0 1 1 1 1 1 1 1 1 1 1 0 1 1 1 1 0 
282 20 992 1 1 1 1 1 1 1 1 1 1 0 0 1 0 1 1 1 1 1 0 
283 20 834 1 0 1 1 1 1 1 1 1 1 0 0 1 1 1 0 1 1 1 1 
284 20 1128 1 1 0 0 1 1 1 1 1 0 1 1 1 1 1 1 1 1 1 0 
285 20 874 1 1 1 1 1 1 1 0 0 1 1 1 1 0 0 0 1 1 1 1 
286 20 818 0 1 1 1 1 1 1 1 1 0 1 0 1 1 1 1 1 1 1 0 
287 20 1048 0 1 1 1 0 1 1 1 0 0 1 1 1 1 1 1 1 1 1 1 
288 20 1137 1 1 1 1 1 1 1 1 1 1 1 0 1 1 0 1 1 0 0 1 
289 20 849 1 1 1 0 0 1 1 1 1 1 1 0 1 1 1 0 1 0 1 1 
290 20 936 1 1 0 0 1 1 1 1 1 1 1 1 0 1 1 1 1 1 1 0 
291 20 825 1 1 0 1 1 1 1 1 1 1 1 1 0 1 1 1 1 0 0 1 
292 20 1125 1 1 1 1 1 1 1 1 0 1 0 1 1 1 1 1 0 1 0 1 
293 20 1111 1 1 1 1 1 1 1 1 0 0 1 1 0 1 1 1 1 1 1 0 
294 20 906 1 1 1 0 1 1 1 0 0 1 1 1 0 1 1 1 1 1 1 1 
295 20 713 1 1 0 1 1 1 1 0 1 1 1 1 1 1 1 0 1 1 1 0 
296 20 893 1 1 0 1 1 1 0 1 1 1 1 0 1 1 1 1 0 1 1 1 
297 20 1093 1 0 1 1 1 1 1 1 1 0 1 1 1 0 1 1 1 1 0 1 
298 20 957 1 1 1 0 1 1 1 0 1 0 1 1 0 1 1 1 1 1 1 1 
299 20 1014 1 1 1 0 1 1 1 1 1 1 1 0 0 1 1 1 0 1 1 1 
300 20 1070 0 1 1 0 1 1 1 1 1 1 1 1 1 1 1 0 1 1 1 1 
301 20 1026 1 1 0 1 1 1 1 1 1 1 0 1 1 1 1 1 1 0 1 0 
302 20 844 1 1 1 1 1 1 0 1 1 1 1 1 0 1 1 0 1 1 1 0 
303 20 1038 1 0 1 1 0 1 1 1 1 1 0 1 1 1 1 1 0 1 1 0 
304 20 841 1 0 1 1 1 1 1 1 1 1 1 1 1 0 1 0 1 1 1 1 
305 20 858 1 1 1 0 1 0 1 0 1 1 1 1 0 1 1 1 1 1 1 1 
306 20 910 0 1 1 1 0 1 1 1 1 1 0 1 1 1 1 1 1 0 1 1 
307 20 666 1 1 1 0 0 0 1 1 1 1 1 1 1 1 0 1 1 1 1 1 
308 20 859 1 1 1 1 1 0 0 1 1 1 1 1 0 1 1 1 1 1 1 1 
309 20 853 1 1 1 1 1 1 1 0 0 0 1 1 1 1 1 0 1 1 1 1 
310 20 930 1 1 1 1 0 0 1 1 1 1 0 1 1 0 1 1 1 1 1 1 
311 20 782 1 1 1 1 0 1 1 1 1 1 1 0 1 1 1 1 1 1 1 0 
312 20 1093 1 1 1 1 1 1 1 1 0 1 0 1 1 1 1 1 0 1 1 1 
313 20 892 1 1 1 1 1 1 1 0 1 1 1 0 1 1 0 1 1 1 0 1 
314 20 971 1 1 0 1 1 0 1 1 1 1 1 1 1 0 1 0 1 1 1 1 
315 20 1060 1 1 1 0 1 1 1 1 1 0 0 1 1 0 1 1 1 1 1 1 
316 20 800 1 0 1 1 1 1 1 1 1 0 1 0 1 1 1 1 1 0 1 1 
317 20 806 1 1 1 1 1 1 1 1 0 1 1 1 1 1 1 1 1 0 0 1 
318 20 1007 0 0 1 1 1 1 1 1 1 1 1 1 1 0 1 1 1 1 1 1 
319 20 922 1 1 1 0 1 0 0 1 1 1 1 1 1 1 1 1 1 1 1 1 
320 20 981 1 1 1 1 1 1 1 1 1 1 0 0 0 1 0 1 1 1 1 1 
321 20 1074 0 1 0 1 1 1 1 1 1 1 1 1 1 1 1 0 1 1 1 1 
322 20 873 1 1 1 1 1 1 1 1 0 1 1 0 1 1 1 1 0 1 1 0 
323 20 1020 1 1 0 0 1 1 1 1 0 1 1 1 1 1 1 1 1 1 1 1 
324 20 897 1 1 0 1 1 1 1 1 0 1 1 1 1 0 1 1 0 1 1 1 
325 20 1072 1 1 0 1 0 0 1 1 1 1 1 1 1 0 1 1 1 1 1 1 
326 20 787 1 1 0 1 1 1 1 1 1 1 1 1 1 0 0 0 1 1 1 1 
327 20 891 1 1 0 1 1 1 1 1 1 0 1 1 1 1 1 1 0 1 1 1 
328 20 946 1 1 1 0 1 1 1 1 0 1 1 1 1 1 0 1 1 1 0 1 
329 20 905 1 1 1 1 0 1 1 1 1 1 0 1 1 1 1 1 1 0 1 1 
330 20 1035 0 1 0 0 1 1 1 1 1 1 1 0 1 1 1 1 1 1 1 1 
331 20 1107 1 1 0 1 1 0 1 1 1 1 1 1 0 1 0 1 1 1 1 1 
332 20 911 1 1 1 1 1 0 0 1 1 1 1 1 1 1 0 1 1 1 1 0 
333 20 1017 1 0 1 1 1 0 1 1 1 1 1 1 1 1 0 1 1 1 0 1 
334 20 1167 1 1 1 1 1 1 1 1 1 1 1 0 1 1 0 1 1 0 1 0 
335 20 1236 1 1 1 0 0 1 1 0 0 1 1 1 1 1 1 1 1 1 1 1 
336 20 858 1 1 0 1 1 0 1 1 1 1 1 0 1 1 1 1 1 1 0 1 
337 20 998 1 1 1 1 1 1 1 1 0 0 1 0 1 1 1 1 1 0 1 1 
338 20 1062 1 1 1 1 1 1 0 1 1 1 1 1 1 1 0 1 1 1 0 1 
339 20 1089 1 1 1 1 0 1 1 0 1 1 1 1 1 1 0 1 0 1 1 1 
340 20 1193 1 0 0 1 1 1 1 1 1 1 1 1 1 0 0 1 1 1 1 1 
341 20 848 1 1 0 1 1 1 1 1 1 1 1 1 1 1 1 0 0 1 1 1 
342 20 1096 0 1 0 1 1 1 0 1 1 1 1 1 1 1 1 1 1 1 1 0 
343 20 1018 1 1 1 0 1 1 0 1 1 1 1 1 1 0 0 1 1 1 1 1 
344 20 1030 1 1 1 1 1 1 0 1 1 1 0 1 1 1 0 1 0 1 1 1 
345 20 889 0 1 1 1 0 0 1 1 1 1 1 1 1 1 1 1 1 1 1 0 
346 20 1087 1 1 0 1 1 1 1 1 0 1 1 1 1 1 1 1 1 1 1 0 
347 20 1082 1 1 1 1 1 1 0 1 1 1 1 1 1 1 0 1 0 1 1 0 
348 20 728 0 1 1 1 1 1 1 0 1 1 1 1 1 1 0 1 1 1 0 1 
349 20 988 1 0 1 0 1 1 1 1 0 1 0 1 1 1 1 1 1 1 1 1 
350 20 1015 1 0 1 1 1 0 1 1 1 0 1 1 0 1 1 1 1 1 1 1 
351 20 836 1 1 1 1 1 1 1 1 1 1 1 1 0 0 1 0 1 1 1 1 
352 20 992 0 1 1 1 1 1 1 1 1 1 0 1 1 1 1 1 1 1 0 1 
353 20 874 1 1 1 0 0 1 1 1 1 1 1 1 1 1 0 1 1 0 1 1 
354 20 955 0 1 0 1 1 1 1 0 1 1 1 1 1 1 0 1 1 1 1 1 
355 20 738 1 1 1 0 0 1 1 1 1 1 1 0 1 1 0 1 1 1 1 0 
356 20 824 0 1 1 1 1 1 1 1 0 1 0 1 1 1 1 1 1 0 1 1 
357 20 868 1 0 1 1 0 1 0 1 1 1 1 1 1 1 1 1 1 1 1 0 
358 20 1060 1 1 1 1 1 0 1 1 0 1 1 1 1 0 1 1 1 1 1 1 
359 20 793 1 0 1 1 1 1 0 1 1 1 1 1 1 1 1 1 0 1 1 0 
360 20 1036 1 1 1 1 0 1 1 1 1 1 1 1 0 0 1 1 1 1 0 1 
361 20 921 0 1 1 1 1 1 1 1 1 1 0 0 1 1 1 1 0 1 1 1 
362 20 836 0 1 1 1 1 1 1 1 0 1 0 1 1 1 1 1 1 1 1 0 
363 20 884 0 1 1 1 1 1 1 1 1 1 1 1 0 1 1 1 1 1 1 0 
364 20 1155 1 1 1 1 0 1 1 0 0 1 1 1 1 1 1 1 1 0 1 1 
365 20 1076 1 0 0 1 1 1 1 1 1 1 1 0 1 1 1 1 1 1 1 1 
366 20 1010 1 1 1 1 1 1 1 0 0 1 1 1 1 1 1 0 0 1 1 1 
367 20 947 1 1 0 1 1 0 1 1 1 1 1 1 1 1 1 0 0 1 1 1 
368 20 942 1 1 1 1 1 1 0 1 1 0 1 1 1 1 1 1 1 1 0 1 
369 20 793 1 1 1 1 1 1 1 0 0 1 1 1 1 0 1 0 1 1 1 1 
370 20 988 1 1 1 1 1 0 1 1 1 1 1 1 1 1 1 0 0 1 0 1 
371 20 1036 0 1 1 1 1 1 0 1 1 0 1 1 1 0 1 1 1 1 1 1 
372 20 962 0 0 1 1 1 1 1 1 1 1 1 1 1 1 1 1 1 1 0 1 
373 20 1162 0 1 1 1 1 1 1 1 1 1 1 0 1 0 0 1 1 1 1 1 
374 20 1003 1 0 1 1 0 1 1 1 0 1 1 1 1 1 0 1 0 1 1 1 
375 20 910 1 1 1 1 1 1 1 1 1 1 1 1 1 0 0 0 1 1 1 0 
376 20 848 1 1 0 0 1 1 0 1 1 1 1 1 1 1 1 1 1 1 0 1 
377 20 920 1 1 1 0 1 1 1 1 1 0 1 0 1 1 1 1 1 1 1 1 
378 20 761 1 1 1 1 1 1 1 1 0 0 1 0 1 1 1 1 1 0 1 1 
379 20 881 1 1 1 1 0 1 1 0 1 1 1 1 1 1 1 1 0 1 0 1 
380 20 713 1 1 1 1 1 1 1 1 1 1 1 1 1 0 1 1 0 0 1 0 
381 20 950 1 0 1 1 0 1 0 1 1 1 1 1 1 0 1 1 1 1 1 1 
382 20 853 1 1 0 1 1 1 1 1 0 1 1 1 1 0 1 1 0 1 1 1 
383 20 1112 1 1 0 1 1 0 1 1 0 1 1 1 1 0 0 1 1 1 1 1 
384 20 969 1 1 0 1 0 1 1 1 1 1 1 1 1 1 0 1 1 1 0 1 
385 20 801 1 1 1 1 1 1 1 1 0 1 0 1 0 1 1 1 1 1 0 1 
386 20 926 1 0 1 1 1 1 1 1 1 1 1 1 0 1 0 1 1 1 1 0 
387 20 1061 0 0 1 1 1 1 1 1 0 1 1 1 1 1 1 0 1 1 1 1 
388 20 946 1 1 1 0 1 1 0 1 1 1 1 1 1 1 0 1 0 1 1 1 
389 20 934 1 1 1 1 1 1 1 0 1 1 1 1 0 1 1 0 1 0 1 1 
390 20 734 0 1 1 1 0 1 1 1 1 1 1 1 1 1 1 0 1 1 1 1 
391 20 812 0 1 1 1 1 0 1 0 1 1 1 1 1 1 0 1 1 1 1 1 
392 20 1018 1 1 1 1 1 0 1 0 1 1 0 1 1 0 1 1 1 1 1 1 
393 20 1021 0 0 1 1 1 1 1 1 1 1 1 1 1 1 1 0 1 1 1 1 
394 20 946 1 1 1 1 1 1 1 1 1 0 1 1 0 1 0 1 0 1 1 1 
395 20 964 1 1 1 1 1 1 1 1 0 1 1 1 1 0 0 1 1 0 1 1 
396 20 1023 1 1 0 1 1 1 0 1 1 0 0 1 1 1 1 1 1 1 1 1 
397 20 859 1 0 1 0 1 1 1 1 1 1 1 1 0 1 1 1 0 1 1 1 
398 20 979 0 0 1 1 0 1 1 1 1 1 1 1 1 1 1 0 1 1 1 1 
399 20 1216 1 1 1 1 1 1 1 1 1 1 1 1 1 0 1 0 1 1 0 1 
400 20 996 0 1 1 1 1 1 1 1 0 1 1 1 1 1 0 0 1 1 1 1 
401 20 925 1 1 1 1 0 1 1 1 1 0 0 1 1 1 1 1 0 1 1 1 
402 20 944 1 1 1 1 1 0 1 1 1 1 0 0 1 1 1 1 1 1 0 1 
403 20 1021 1 1 0 1 1 1 0 1 1 0 1 1 1 1 0 1 1 1 1 1 
404 20 912 1 1 0 0 1 1 1 1 1 1 1 1 1 1 1 1 1 0 1 1 
405 20 799 1 1 0 1 1 1 1 1 1 0 1 1 1 1 1 1 0 0 1 1 
406 20 897 1 1 1 1 0 1 1 1 1 1 1 1 1 1 1 1 0 0 0 1 
407 20 959 1 1 1 1 1 1 1 1 1 1 1 0 1 1 0 0 1 1 1 0 
408 20 776 1 1 0 1 0 1 1 1 0 1 1 1 1 1 1 0 1 1 1 1 
409 20 824 1 1 1 1 1 1 0 1 1 1 1 1 1 0 1 0 1 1 1 0 
410 20 673 0 1 1 1 1 1 1 1 1 1 1 1 1 0 0 1 1 0 1 1 
411 20 1102 1 1 0 0 1 1 1 1 1 1 1 1 1 1 0 1 1 1 1 1 
412 20 1054 1 1 1 1 1 0 1 1 1 1 1 1 1 1 1 0 0 0 1 1 
413 20 799 1 1 1 1 1 1 1 0 0 1 1 1 0 1 1 0 1 1 1 1 
414 20 1156 1 1 1 1 1 0 1 1 1 1 0 1 0 1 1 0 1 1 1 1 
415 20 1123 1 1 1 0 1 1 1 0 0 1 0 1 1 1 1 1 1 1 1 1 
416 20 978 0 1 1 1 1 1 1 1 1 1 1 0 1 1 1 1 0 0 1 1 
417 20 975 1 1 1 1 1 1 0 1 1 1 1 1 1 0 0 0 1 1 1 1 
418 20 892 1 1 1 1 0 1 1 1 1 0 1 1 1 0 1 1 1 1 1 1 
419 20 1124 1 1 1 1 1 1 1 1 0 1 1 0 1 1 0 1 1 1 1 1 
420 20 967 1 1 1 0 1 1 0 1 1 1 1 1 1 0 1 1 0 1 1 1 
421 20 986 1 1 1 1 1 1 0 0 1 1 1 0 1 1 1 1 1 0 1 1 
422 20 863 1 0 1 1 1 1 1 1 0 1 1 1 1 1 1 0 1 0 1 1 
423 20 888 1 1 1 1 1 1 0 1 0 1 1 1 1 1 1 1 1 1 0 0 
424 20 1010 1 0 0 1 1 1 1 1 1 1 1 1 1 1 1 1 0 1 1 1 
425 20 1007 0 1 0 0 1 1 1 1 1 1 1 0 1 1 1 1 1 1 1 1 
426 20 1050 1 1 0 1 1 1 1 1 1 0 1 1 1 1 0 1 1 1 0 1 
427 20 1115 1 1 1 1 1 1 1 1 1 1 1 1 0 0 1 1 0 1 1 1 
428 20 912 1 1 1 0 1 1 1 0 1 1 1 0 1 1 0 1 1 1 0 1 
429 20 737 1 1 1 0 1 1 1 1 1 0 1 1 1 1 0 1 1 1 0 1 
430 20 1145 0 1 1 1 0 1 1 1 1 1 1 1 1 0 1 0 1 1 1 1 
431 20 1088 1 0 1 1 1 1 1 1 0 1 1 1 1 1 1 0 0 1 1 1 
432 20 1066 1 1 1 1 1 0 1 1 1 1 1 1 1 0 0 1 1 0 1 1 
433 20 1044 1 0 1 1 1 1 1 1 1 1 1 1 1 1 1 1 0 0 1 0 
434 20 890 0 0 1 1 1 1 0 1 1 0 0 1 1 1 1 1 1 1 1 1 
435 20 836 1 1 1 0 1 0 1 1 1 1 0 1 1 1 1 0 1 1 1 1 
436 20 997 1 0 1 1 1 1 1 1 1 0 1 0 0 1 1 1 1 1 1 1 
437 20 1093 1 1 1 1 1 1 1 1 0 0 1 0 1 1 1 1 1 1 1 1 
438 20 947 0 1 1 1 1 0 1 1 1 1 1 1 1 0 0 1 1 1 1 1 
439 20 1032 1 1 1 1 1 1 1 1 0 1 1 1 0 1 0 1 1 1 1 0 
440 20 1026 1 1 1 1 1 0 0 1 1 1 1 0 1 1 1 1 1 1 1 1 
441 20 1113 0 0 1 1 1 1 1 1 1 1 1 1 1 0 1 1 0 1 1 1 
442 20 1011 1 1 0 1 1 1 0 1 0 1 1 0 1 1 1 1 1 1 1 1 
443 20 1118 1 1 1 1 1 1 1 1 1 1 1 0 1 0 1 1 0 1 1 0 
444 20 892 1 1 1 1 1 1 1 1 1 1 1 0 1 1 0 0 1 1 1 0 
445 20 956 1 1 1 1 1 1 1 1 1 0 1 0 1 0 1 0 1 1 1 1 
446 20 909 1 1 1 0 1 1 1 1 1 1 0 1 1 1 1 1 0 1 0 1 
447 20 858 1 1 1 1 1 0 1 1 1 1 1 1 0 1 1 1 1 1 0 0 
448 20 989 1 1 1 1 1 1 1 1 1 1 1 1 0 1 0 0 1 0 1 1 
449 20 908 1 1 1 1 1 1 0 1 0 1 0 1 1 1 1 0 1 1 1 1 
450 20 1132 1 1 1 1 1 1 0 1 0 1 0 1 1 1 1 1 0 1 1 1 
451 20 893 1 1 1 1 0 1 1 1 1 1 1 1 0 1 0 0 1 1 1 1 
452 20 944 0 0 0 1 1 1 1 1 1 1 1 1 1 1 1 1 1 0 1 1 
453 20 841 1 1 1 1 1 1 1 1 0 0 1 1 1 1 1 0 1 1 1 1 
454 20 1076 0 0 1 1 1 1 0 1 1 1 1 1 1 0 1 1 1 1 1 1 
455 20 940 1 1 0 1 1 0 1 1 1 1 1 1 1 1 1 1 1 1 1 0 
456 20 1072 1 1 1 1 0 1 1 1 1 1 1 1 1 1 1 1 1 0 1 0 
457 20 856 1 1 1 1 1 1 1 1 1 1 1 0 1 0 1 1 1 0 1 0 
458 20 990 0 1 1 0 1 1 1 1 0 1 1 1 1 1 0 1 1 1 1 1 
459 20 1062 1 1 0 1 1 1 1 0 1 1 1 1 0 1 1 1 1 1 1 1 
460 20 807 1 1 0 1 0 1 1 0 0 1 1 1 1 1 1 1 1 1 1 1 
461 20 1124 1 1 0 1 1 1 0 1 1 1 0 1 1 1 1 1 1 0 1 1 
462 20 946 1 1 1 1 0 1 1 1 1 1 1 1 0 1 1 1 0 1 0 1 
463 20 902 1 1 1 1 1 1 1 0 1 1 1 1 0 1 1 1 0 1 1 1 
464 20 844 0 1 1 1 1 1 1 1 1 1 1 0 1 1 1 0 1 0 1 1 
465 20 1087 1 1 1 1 1 1 1 1 1 1 1 0 0 1 1 1 0 1 1 0 
466 20 842 1 1 1 1 0 1 1 1 0 0 1 1 1 1 0 1 1 1 1 1 
467 20 956 1 1 1 1 1 0 1 1 1 0 0 1 1 1 1 1 1 0 1 1 
468 20 1108 1 1 1 1 1 1 1 1 1 0 1 1 1 1 1 0 1 1 0 1 
469 20 995 0 1 1 1 1 0 1 1 1 1 0 1 1 0 1 1 1 1 1 1 
470 20 805 1 1 1 1 1 1 1 0 1 0 1 0 0 1 1 1 1 1 1 1 
471 20 903 1 1 1 1 1 1 1 1 1 1 1 1 1 1 0 0 1 1 0 1 
472 20 982 1 1 1 1 1 1 1 0 0 1 1 0 1 0 1 1 1 1 1 1 
473 20 829 1 1 1 0 1 1 1 1 1 1 1 1 1 0 0 0 1 1 1 1 
474 20 969 1 1 1 1 0 1 1 1 0 1 1 1 1 1 1 0 1 1 0 1 
475 20 907 1 0 1 1 0 0 1 1 1 1 1 1 1 1 1 1 1 1 0 1 
476 20 870 1 0 0 0 1 1 1 1 1 1 1 1 1 1 1 1 0 1 1 1 
477 20 975 1 1 1 1 1 1 1 1 1 1 1 1 0 1 1 1 0 0 1 0 
478 20 979 1 1 1 1 0 1 1 0 1 0 1 1 1 1 0 1 1 1 1 1 
479 20 885 1 1 1 1 1 0 1 1 0 0 0 1 1 1 1 1 1 1 1 1 
480 20 882 1 1 0 1 0 1 1 1 1 1 1 0 0 1 1 1 1 1 1 1 
481 20 1043 1 1 0 1 1 1 0 1 1 1 1 1 0 1 0 1 1 1 1 1 
482 20 965 1 0 0 1 1 1 0 1 1 1 1 1 1 1 1 0 1 1 1 1 
483 20 914 1 0 1 1 1 1 1 1 1 1 0 0 1 0 1 1 1 1 1 1 
484 20 1001 1 1 0 0 1 1 0 1 1 1 1 1 1 1 1 1 1 0 1 1 
485 20 958 1 1 1 0 0 1 1 1 1 0 1 1 1 1 1 1 1 0 1 1 
486 20 952 0 1 1 1 1 1 0 1 1 1 1 1 1 1 1 1 1 1 1 0 
487 20 1144 1 1 1 1 1 1 0 1 1 0 0 1 1 1 1 0 1 1 1 1 
488 20 903 1 0 1 1 1 1 1 1 0 1 1 1 1 0 1 1 0 1 1 1 
489 20 866 1 1 1 1 0 1 0 1 1 1 1 1 1 1 1 1 0 0 1 1 
490 20 763 1 0 1 1 1 1 1 1 1 1 1 1 1 1 1 0 0 1 1 0 
491 20 1037 1 1 1 1 0 1 1 1 1 1 1 0 0 1 1 0 1 1 1 1 
492 20 853 1 1 1 1 1 0 0 1 1 1 0 1 1 0 1 1 1 1 1 1 
493 20 961 1 1 0 0 1 1 1 1 1 1 1 0 1 1 1 0 1 1 1 1 
494 20 885 1 1 1 1 1 1 1 0 1 1 1 1 1 0 1 1 1 0 1 0 
495 20 951 1 1 1 1 1 1 0 1 1 0 0 1 1 1 1 1 1 1 1 1 
496 20 990 0 1 1 0 1 0 1 1 1 1 0 1 1 1 1 1 1 1 1 1 
497 20 919 1 1 1 0 1 1 1 1 1 1 1 1 0 1 1 1 0 1 0 1 
498 20 876 1 0 0 1 1 1 1 1 1 1 1 1 1 1 0 1 1 1 0 1 
499 20 903 1 0 0 1 1 1 0 1 1 1 1 1 0 1 1 1 1 1 1 1 
500 20 957 0 1 1 1 1 1 1 1 1 0 1 1 1 1 1 0 1 1 1 0 
