231
128
123
208
99
225
105
106
113
191
266
165
143
154
195
101
128
87
140
104
127
78
106
136
91
124
103
105
128
276
100
103
186
191
106
106
79
121
371
82
119
120
78
167
231
164
152
93
117
95
107
90
216
166
182
83
200
150
120
144
129
82
77
94
114
88
120
105
121
197
308
56
120
97
106
449
178
114
195
406
312
195
183
136
107
139
300
100
124
106
89
203
116
78
94
109
174
177
102
218
230
223
107
196
194
148
123
142
131
118
205
202
161
133
69
181
101
91
95
131
135
241
202
128
116
124
125
120
165
178
136
122
231
126
147
209
89
124
127
115
156
153
158
112
138
109
167
104
135
111
248
90
127
172
127
110
298
182
178
89
139
174
113
197
217
110
166
222
91
181
274
134
104
101
134
123
112
93
123
132
157
177
109
197
178
180
112
152
191
108
110
118
94
274
134
201
113
107
137
110
188
433
110
79
194
104
149
113
226
220
113
157
116
258
128
179
100
126
107
106
90
143
172
122
92
89
83
160
94
77
130
81
172
213
158
145
177
209
200
197
285
151
221
181
201
81
218
139
152
105
96
148
99
103
108
81
67
155
101
93
130
129
115
104
271
153
103
110
64
87
226
158
122
173
121
134
174
115
112
178
97
393
123
166
189
158
119
143
164
76
132
91
116
310
120
138
94
219
157
73
106
131
136
137
159
93
175
175
159
161
84
100
381
132
207
109
114
133
99
226
386
78
128
101
114
154
78
98
181
78
99
86
369
140
172
67
141
267
164
131
106
99
120
233
182
59
103
141
123
107
123
131
161
154
122
127
242
88
123
161
142
139
96
162
101
134
132
94
132
86
194
99
126
158
130
108
92
189
112
128
131
132
255
94
145
153
167
299
85
73
203
222
91
113
148
362
105
116
146
210
107
147
105
98
118
205
134
132
95
202
86
225
180
101
156
89
117
87
136
115
108
114
185
92
122
170
105
225
197
118
125
119
60
190
120
215
340
114
209
145
128
148
151
142
226
178
127
85
135
206
161
92
151
85
95
105
138
111
206
136
153
142
105
128
123
182
132
93
135
180
154
117
127
92
164
218
111
253
117
114
117
156
158
149
150
121
155
165
111
105
122
136
152
152
111
130
89
107
92
87
