191
115
240
162
111
81
120
91
85
116
112
103
89
99
78
91
85
97
67
95
83
98
98
106
96
99
104
105
111
78
79
128
171
90
152
180
204
174
96
111
87
171
131
127
104
102
118
79
114
96
106
98
112
93
98
78
94
159
103
77
99
100
101
106
122
100
55
107
96
92
80
84
86
81
90
108
78
85
105
125
107
100
100
80
77
105
99
89
99
99
124
155
117
85
113
102
82
96
96
106
90
174
113
102
79
80
111
98
102
114
109
96
81
94
96
92
104
100
101
95
94
105
116
93
81
95
106
101
101
99
90
79
100
101
118
100
135
104
119
100
97
79
102
105
99
90
87
99
99
100
94
93
112
102
96
94
123
105
96
103
90
102
136
81
77
103
96
77
89
87
88
76
91
97
116
106
95
92
99
95
100
110
89
98
88
98
105
117
142
92
97
96
129
87
109
114
111
84
97
84
109
109
94
91
118
89
104
111
97
81
88
114
94
91
83
109
97
114
84
83
86
71
119
111
86
74
93
108
80
75
93
90
94
118
118
74
108
89
104
80
143
97
102
99
96
85
90
77
86
110
83
88
95
91
88
92
124
102
113
101
73
105
114
101
97
102
86
91
86
103
92
96
80
98
90
124
113
94
88
89
79
104
82
114
90
86
102
115
86
93
83
138
122
95
71
89
114
99
118
112
112
86
112
86
86
91
71
88
103
100
77
111
96
97
108
79
81
104
90
103
116
89
101
89
105
84
91
93
95
98
107
91
110
121
126
87
99
111
113
124
88
126
100
113
91
103
111
74
99
99
89
100
86
95
73
81
89
102
78
109
90
83
89
117
109
101
98
93
80
97
107
97
117
105
93
83
94
77
88
75
90
88
115
99
81
99
108
117
94
71
104
241
100
94
94
107
84
96
127
97
93
94
97
88
80
90
102
76
83
72
107
112
83
114
114
95
98
86
110
95
96
91
91
100
99
113
117
93
76
115
113
107
103
87
84
104
115
147
130
104
113
102
117
92
100
97
87
99
91
114
92
92
85
106
92
105
87
96
116
79
115
98
88
83
111
83
96
111
96
80
91
100
83
95
91
90
99
101
87
90
103
94
90
103
96
95
116
92
172
86
104
83
95
92
91
97
88
85
87
99
