1 20 901 0 1 1 1 1 0 1 1 1 1 1 1 1 1 0 1 1 1 1 1 
2 20 1019 1 1 1 0 1 1 1 1 1 1 1 1 0 1 0 1 1 1 1 1 
3 20 1171 1 1 1 1 1 0 1 0 1 0 1 1 1 1 1 0 1 1 1 1 
4 20 961 1 1 1 1 1 1 1 1 0 1 1 1 1 0 1 1 1 1 0 1 
5 20 796 1 1 1 1 1 1 1 1 0 1 1 0 1 1 1 1 1 1 1 0 
6 20 823 0 1 1 1 1 1 1 1 1 1 1 0 1 1 1 1 1 1 0 1 
7 20 1167 1 1 1 1 1 1 1 1 1 1 1 1 0 1 1 1 1 0 1 1 
8 20 869 1 1 0 1 0 1 1 1 1 0 0 1 1 1 0 1 1 1 1 1 
9 20 887 0 1 1 1 1 1 0 1 1 1 1 1 1 1 1 1 1 1 0 1 
10 20 1109 1 0 1 1 1 1 1 1 1 1 1 1 0 1 1 1 1 1 1 1 
11 20 1156 1 1 0 1 1 0 1 1 1 1 1 1 1 1 1 1 0 1 1 1 
12 20 1069 1 1 0 1 1 1 1 1 0 1 1 1 1 0 1 1 1 1 1 1 
13 20 899 1 1 1 1 1 0 1 1 1 1 1 1 1 1 0 0 1 1 0 1 
14 20 929 1 1 1 1 1 1 0 1 1 1 1 1 1 1 0 1 1 1 1 0 
15 20 750 1 1 1 1 1 1 1 1 1 0 0 1 1 1 1 1 1 0 1 1 
16 20 918 1 1 1 1 1 1 0 1 0 1 0 1 1 1 1 1 1 1 1 1 
17 20 780 1 1 1 1 1 1 1 1 1 1 1 0 1 1 0 1 1 1 1 1 
18 20 925 1 1 1 1 1 1 1 1 1 1 1 1 1 1 1 0 1 1 1 0 
19 20 671 1 1 1 1 1 1 1 1 1 0 1 1 1 1 1 0 1 1 1 0 
20 20 931 1 1 1 0 1 1 1 1 1 1 1 1 1 1 0 1 1 1 0 1 
21 20 812 1 1 1 1 1 1 1 0 1 1 1 0 1 1 1 1 1 1 1 1 
22 20 966 0 1 0 1 1 1 1 1 1 0 1 1 0 1 1 1 0 1 1 1 
23 20 971 0 1 1 1 0 1 1 1 1 1 1 1 1 0 1 1 1 1 1 0 
24 20 1026 0 1 1 1 1 1 1 0 0 1 1 1 1 1 1 1 1 1 1 1 
25 20 950 0 1 1 1 1 0 1 1 1 1 1 1 1 1 1 1 1 1 0 1 
26 20 987 1 1 1 1 1 0 1 1 1 1 1 1 1 1 1 1 1 0 0 1 
27 20 1013 1 1 0 1 1 1 1 1 1 1 1 1 1 0 1 0 1 1 1 1 
28 20 1032 0 1 1 1 1 0 1 1 1 1 1 1 0 1 1 1 1 1 1 1 
29 20 1129 1 1 1 0 1 1 1 1 1 0 1 1 1 1 1 0 1 1 1 1 
30 20 823 1 0 1 1 0 1 1 1 1 1 1 1 1 0 1 1 1 1 1 1 
31 20 808 1 1 1 0 1 1 1 1 1 1 1 0 1 0 1 1 1 1 1 1 
32 20 846 1 1 1 1 0 1 1 1 0 1 1 1 1 1 1 1 0 1 1 1 
33 20 1111 1 1 1 1 1 1 1 0 1 1 1 1 1 0 1 1 1 1 1 1 
34 20 915 1 1 1 1 1 0 0 1 1 1 1 1 1 1 1 1 1 1 1 1 
35 20 1148 1 1 1 1 1 1 1 0 1 0 1 1 1 0 1 1 1 1 1 1 
36 20 881 1 1 1 1 1 0 1 1 1 1 1 1 1 0 0 1 1 1 1 1 
37 20 1035 1 1 1 1 1 0 1 1 1 1 1 0 1 1 1 1 1 1 1 1 
38 20 958 1 1 1 1 1 1 1 1 1 1 0 1 1 0 1 1 1 1 1 1 
39 20 943 1 1 0 1 1 0 1 1 1 1 1 1 1 1 1 1 1 1 1 1 
40 20 1108 1 1 1 1 1 0 1 1 0 1 1 1 1 1 1 1 1 1 0 1 
41 20 855 1 1 1 1 1 1 1 0 1 1 1 1 1 1 1 1 0 1 1 1 
42 20 825 1 1 1 1 1 0 0 1 1 0 1 1 1 1 1 0 1 1 1 1 
43 20 815 1 0 1 0 1 1 1 1 1 1 1 1 1 0 1 1 1 1 1 1 
44 20 1047 1 1 1 1 0 1 1 1 1 1 1 0 1 1 1 1 1 1 0 1 
45 20 1021 1 1 1 0 1 1 1 1 1 1 1 1 0 1 1 1 1 1 1 1 
46 20 987 1 1 0 1 1 0 1 1 1 1 1 1 1 1 1 0 1 1 1 1 
47 20 1154 1 1 1 1 0 1 1 1 1 1 1 0 1 0 1 1 1 1 1 1 
48 20 794 1 0 1 1 1 1 1 1 1 1 1 1 1 1 1 0 1 1 1 0 
49 20 1136 1 0 0 1 0 1 1 1 1 1 1 1 1 1 1 1 1 1 1 1 
50 20 985 1 1 0 1 1 1 1 1 1 1 1 1 1 1 0 1 1 1 1 1 
51 20 1090 0 0 1 1 1 1 1 1 1 1 1 1 1 1 1 0 1 1 1 1 
52 20 953 1 1 1 1 1 1 1 1 1 1 1 1 1 1 1 0 1 0 0 1 
53 20 1139 1 0 1 0 1 1 1 1 0 1 1 1 1 1 1 1 1 1 1 1 
54 20 920 1 1 1 1 1 1 1 1 1 1 1 1 0 1 1 1 1 1 1 0 
55 20 980 1 1 1 1 1 1 1 1 1 0 0 1 1 1 0 1 1 1 1 1 
56 20 790 0 1 0 1 1 1 1 1 1 1 1 1 1 1 1 1 1 1 1 1 
57 20 966 1 1 0 0 1 1 1 1 0 1 1 1 1 1 1 1 1 1 1 1 
58 20 1214 0 1 1 1 1 1 0 1 1 1 1 1 1 1 1 0 1 0 1 1 
59 20 979 1 1 1 1 1 1 1 1 0 1 0 1 1 1 1 0 1 1 1 0 
60 20 795 1 1 1 0 1 1 1 0 1 1 1 1 1 1 1 1 1 1 0 1 
61 20 996 1 1 0 0 1 1 1 1 1 1 1 1 1 1 1 1 1 0 1 1 
62 20 1032 1 1 1 0 1 1 1 1 0 1 1 1 1 1 1 1 1 1 1 0 
63 20 977 1 1 1 1 1 1 1 1 1 0 0 1 1 1 1 1 0 1 1 0 
64 20 1095 1 0 1 1 1 1 1 1 1 1 1 1 1 1 1 1 1 0 1 1 
65 20 1109 1 0 1 1 1 1 1 1 0 1 1 1 1 0 1 1 1 0 1 1 
66 20 994 1 1 0 1 1 0 1 1 1 0 1 1 1 1 1 1 1 0 1 1 
67 20 547 1 1 1 0 1 0 1 1 1 1 1 1 0 0 1 1 1 0 1 1 
68 20 1049 1 1 1 1 1 1 1 1 1 1 1 1 1 1 1 1 1 0 0 0 
69 20 972 0 1 1 1 1 0 1 1 1 1 1 1 1 1 1 1 0 1 1 1 
70 20 956 1 1 1 1 0 1 1 1 1 1 1 1 0 1 1 1 1 1 1 1 
71 20 831 1 1 1 1 1 1 1 0 1 1 1 1 0 1 1 1 1 1 1 1 
72 20 861 1 0 1 1 0 1 1 1 1 1 1 1 1 1 1 1 1 1 0 0 
73 20 874 0 1 1 1 1 1 1 1 0 1 1 1 1 1 1 0 1 1 1 1 
74 20 809 1 1 0 1 1 1 1 1 1 1 1 1 0 1 1 0 1 1 1 1 
75 20 920 0 1 1 0 0 1 1 1 1 1 1 1 1 1 1 1 1 1 1 1 
76 20 1118 1 0 1 1 1 1 1 1 1 1 1 1 0 1 1 1 1 1 1 1 
77 20 784 1 1 0 1 1 0 1 1 1 1 1 1 1 1 1 1 1 0 1 1 
78 20 841 0 1 1 1 1 1 1 0 1 1 0 1 1 1 0 1 1 1 1 0 
79 20 948 0 0 1 1 1 1 1 1 1 0 0 1 1 1 1 1 1 1 1 1 
80 20 1224 1 1 1 1 0 1 1 1 1 1 1 1 1 1 1 1 1 1 0 1 
81 20 1013 1 1 1 1 0 1 1 1 0 1 1 1 1 1 1 1 0 1 1 1 
82 20 990 1 1 1 1 1 1 1 1 1 1 0 0 1 1 1 1 0 1 1 1 
83 20 1009 1 1 1 0 1 0 1 1 1 1 1 0 1 1 1 1 1 1 1 1 
84 20 810 1 1 1 0 1 1 1 1 1 1 0 1 0 1 1 1 1 0 1 1 
85 20 802 1 1 1 1 1 1 1 0 0 1 1 1 1 1 1 1 1 0 1 1 
86 20 1015 1 1 0 1 1 1 1 1 1 1 1 1 1 1 0 1 1 1 1 0 
87 20 1003 1 1 1 1 1 1 1 0 1 1 1 0 0 1 1 1 1 1 1 1 
88 20 864 1 1 1 0 1 1 1 1 1 1 1 1 1 0 1 1 1 1 0 1 
89 20 988 1 1 1 1 1 1 1 1 1 1 1 1 1 1 1 0 1 0 1 1 
90 20 987 1 1 1 0 0 1 1 1 1 1 1 1 1 1 1 1 1 0 1 0 
91 20 1044 1 1 1 1 0 1 0 1 1 1 1 1 1 1 1 1 1 1 1 0 
92 20 838 1 1 1 1 1 1 0 0 0 1 1 1 1 1 1 1 1 1 1 1 
93 20 1053 1 1 1 1 1 1 1 1 1 0 1 1 1 1 1 1 1 1 0 1 
94 20 821 1 1 1 0 1 1 1 1 0 1 1 1 1 1 1 1 1 1 1 1 
95 20 1117 1 1 1 1 1 1 1 0 1 1 1 0 1 1 1 0 0 1 1 1 
96 20 1037 1 1 1 0 1 1 1 1 1 1 0 1 1 1 1 1 0 1 1 1 
97 20 807 1 1 1 1 1 1 1 1 1 1 1 1 1 1 0 1 1 1 1 0 
98 20 1000 1 1 0 0 1 1 1 1 1 1 1 1 0 1 1 1 1 1 1 1 
99 20 979 1 1 1 1 1 1 0 0 1 1 1 1 1 1 1 1 1 1 1 1 
100 20 1016 1 1 1 1 1 0 1 1 1 0 1 1 1 1 1 1 1 1 1 1 
101 20 921 1 1 1 1 1 0 1 1 0 1 1 1 1 0 1 1 1 1 1 1 
102 20 1071 1 1 1 0 1 1 1 1 0 1 1 1 1 1 1 1 0 1 1 1 
103 20 887 1 1 1 1 1 1 1 0 1 1 1 1 1 1 0 1 1 0 1 1 
104 20 1016 1 1 0 1 1 1 1 1 1 0 1 1 1 1 0 1 1 1 1 1 
105 20 796 1 1 1 1 0 1 1 1 1 1 1 1 1 0 0 1 1 1 1 1 
106 20 813 1 1 1 1 1 0 1 1 1 1 1 0 1 1 1 0 1 1 1 1 
107 20 1095 1 1 1 1 1 1 1 0 1 1 0 0 1 1 1 1 1 1 1 1 
108 20 946 1 1 1 1 1 1 1 1 1 1 1 0 1 1 1 1 1 0 0 0 
109 20 1025 1 1 1 1 1 1 1 1 1 1 1 1 0 1 0 1 1 1 0 1 
110 20 1108 1 1 1 1 1 1 1 1 1 1 0 1 1 0 1 1 1 1 1 0 
111 20 1088 1 0 1 1 1 1 1 1 0 1 1 0 1 1 1 1 1 1 1 1 
112 20 953 1 1 1 1 1 1 1 1 1 1 0 1 1 1 1 0 1 1 1 1 
113 20 786 1 1 1 1 1 1 1 1 1 1 1 1 0 1 1 1 1 1 1 0 
114 20 971 1 0 1 0 1 1 1 1 1 1 1 1 0 1 1 1 1 1 1 1 
115 20 1007 1 1 0 0 1 1 1 1 1 1 1 1 1 1 1 1 1 1 1 0 
116 20 965 0 0 1 1 1 1 1 1 1 1 1 1 1 1 1 1 1 1 1 1 
117 20 998 0 1 1 1 1 1 0 1 1 1 1 1 1 0 1 1 1 1 1 0 
118 20 1018 1 0 0 1 0 1 1 1 1 1 1 1 1 1 1 1 1 1 1 1 
119 20 991 1 1 1 1 0 1 1 1 1 1 1 1 1 0 1 1 0 1 1 1 
120 20 914 0 1 1 1 1 1 0 1 1 1 1 1 1 1 0 1 1 1 1 1 
121 20 954 1 0 1 0 1 1 1 0 1 1 1 0 1 1 1 1 1 1 1 1 
122 20 1091 1 0 1 1 1 1 1 1 1 1 1 0 0 1 1 1 1 1 1 1 
123 20 1150 1 1 1 1 1 1 0 1 1 1 1 1 0 1 1 1 1 1 1 1 
124 20 940 1 1 1 1 1 1 0 1 1 1 1 1 1 1 1 1 1 1 1 0 
125 20 847 1 1 1 1 1 1 0 1 1 1 1 1 1 1 1 1 1 0 1 1 
126 20 949 1 1 1 1 1 1 1 1 1 1 0 1 1 1 1 0 1 1 1 1 
127 20 1085 0 1 1 0 1 1 0 1 1 1 0 1 1 1 1 1 1 1 1 1 
128 20 1002 1 1 1 1 1 1 1 1 1 1 1 0 1 1 0 1 1 1 1 1 
129 20 993 1 1 1 1 0 1 1 1 1 0 1 1 1 1 1 1 1 1 1 1 
130 20 964 1 1 1 1 1 1 1 1 1 1 1 0 1 0 1 1 1 1 0 1 
131 20 904 1 1 1 1 1 1 0 0 1 1 1 1 1 1 1 0 1 1 1 1 
132 20 808 1 1 1 1 1 1 1 1 0 1 1 1 1 1 1 0 1 1 1 1 
133 20 928 1 1 1 1 1 1 1 1 1 1 1 1 1 0 1 1 1 0 0 1 
134 20 1031 1 1 1 1 1 1 1 1 1 1 1 1 1 1 1 0 1 0 1 0 
135 20 1134 1 0 1 1 1 1 1 1 1 1 1 0 1 1 1 0 1 1 1 1 
136 20 973 1 1 1 1 1 1 1 0 1 0 1 0 0 1 1 1 1 1 1 1 
137 20 1356 1 1 1 1 1 0 1 0 1 1 1 1 1 1 1 1 1 1 0 1 
138 20 951 1 1 1 1 1 1 1 1 1 1 1 1 1 0 1 1 1 1 0 1 
139 20 1031 1 0 1 0 1 1 1 1 1 1 1 1 1 1 1 1 1 1 1 1 
140 20 982 1 1 1 1 1 0 1 1 1 1 1 1 1 0 1 1 1 1 0 1 
141 20 925 0 1 1 1 1 1 1 1 1 1 1 0 1 1 1 1 1 1 0 1 
142 20 784 1 1 1 0 1 1 1 1 1 1 1 0 1 1 1 0 0 1 1 1 
143 20 1016 1 0 1 1 0 0 1 1 0 1 1 1 1 1 1 1 1 1 1 1 
144 20 1009 0 1 1 1 1 1 1 1 1 1 1 1 1 1 1 0 1 1 1 1 
145 20 1027 1 1 1 0 1 1 0 0 1 1 1 1 1 1 1 0 1 1 1 1 
146 20 905 0 0 0 1 1 1 1 1 1 1 1 1 1 1 1 1 1 1 1 1 
147 20 892 1 1 1 0 1 1 0 1 1 1 1 1 0 1 1 1 1 1 1 1 
148 20 967 0 1 1 1 1 1 1 1 1 1 1 1 1 1 1 1 1 0 1 0 
149 20 974 1 1 1 0 1 1 0 1 1 0 1 1 1 1 1 1 1 0 1 1 
150 20 1011 1 0 1 0 1 1 1 1 1 1 0 1 1 1 1 1 1 1 1 1 
151 20 952 1 1 1 0 1 1 1 1 1 0 0 1 1 1 1 1 1 1 1 1 
152 20 950 1 1 1 0 1 1 1 1 0 1 1 1 1 0 1 1 0 1 1 1 
153 20 1111 1 1 1 0 1 1 1 1 1 1 1 0 1 1 1 1 1 1 1 1 
154 20 1027 1 1 1 1 1 1 0 1 0 0 0 1 1 1 1 1 1 1 1 1 
155 20 973 1 1 1 0 1 1 1 1 1 1 1 1 1 0 1 1 1 0 1 1 
156 20 919 0 1 1 1 1 1 1 1 1 1 1 1 1 1 1 1 1 0 1 1 
157 20 1220 1 1 1 1 1 0 1 1 1 0 1 1 1 1 1 1 0 1 1 1 
158 20 1075 1 1 1 1 1 1 1 1 0 1 1 1 1 1 1 0 1 1 1 1 
159 20 951 1 1 1 1 1 1 1 1 1 0 1 1 1 1 0 1 0 1 1 1 
160 20 1018 0 1 1 1 1 1 1 0 1 1 0 1 1 1 1 1 0 1 1 1 
161 20 922 1 1 0 1 1 1 0 1 1 1 1 1 1 1 0 1 0 1 1 1 
162 20 1056 1 0 1 1 1 0 1 0 0 1 1 1 1 1 1 1 1 1 1 1 
163 20 1351 0 1 1 1 1 0 1 1 1 1 1 1 1 1 1 1 0 1 1 1 
164 20 792 1 1 1 1 1 1 1 0 1 1 1 0 1 1 0 1 1 1 1 1 
165 20 820 1 1 0 1 1 1 0 1 1 1 1 1 1 1 1 1 1 1 1 1 
166 20 1045 1 1 1 1 0 1 1 0 1 1 1 1 1 0 1 1 0 1 1 1 
167 20 1004 1 0 1 1 1 1 1 1 1 1 1 1 1 1 1 1 1 1 0 1 
168 20 770 0 1 1 1 1 1 1 1 1 0 1 1 1 1 1 1 1 1 1 1 
169 20 865 1 1 1 0 1 0 1 0 1 1 1 1 1 1 1 1 0 1 1 1 
170 20 870 1 0 1 1 1 1 1 1 1 0 1 1 0 1 1 1 1 1 1 1 
171 20 882 1 1 1 1 1 0 1 1 1 1 1 1 1 1 0 1 1 1 1 1 
172 20 778 0 1 1 1 1 1 0 1 1 1 1 1 1 1 1 1 1 1 1 0 
173 20 928 1 1 1 1 1 0 1 1 1 1 1 0 1 1 1 1 0 1 1 1 
174 20 1000 0 1 1 1 1 1 1 1 1 1 1 1 0 1 1 1 0 1 0 1 
175 20 1161 1 1 1 1 0 1 1 1 1 1 0 1 1 0 1 1 1 1 1 1 
176 20 1111 1 1 0 1 1 0 1 1 1 1 1 1 1 1 1 1 1 1 0 1 
177 20 921 1 1 1 1 1 1 1 0 1 1 1 1 1 1 0 1 1 0 1 1 
178 20 910 1 0 1 1 1 1 1 1 0 1 1 1 1 0 1 1 1 1 1 0 
179 20 977 1 1 1 1 1 1 1 1 0 1 1 1 1 0 1 1 1 1 0 1 
180 20 947 1 1 0 0 1 1 1 1 1 1 1 1 1 1 0 1 1 1 1 1 
181 20 1012 1 0 1 1 1 0 1 1 1 1 1 1 1 1 1 1 1 1 0 1 
182 20 1028 1 1 1 1 0 1 1 1 1 0 0 1 0 1 1 1 0 1 1 1 
183 20 855 1 0 1 1 1 1 1 1 1 1 1 1 1 1 1 0 1 0 0 1 
184 20 1033 1 1 1 0 1 0 1 1 1 1 1 1 1 1 1 0 1 1 1 1 
185 20 884 1 1 0 1 1 1 0 1 1 1 1 0 1 1 1 1 1 1 1 1 
186 20 987 1 1 0 0 1 1 1 1 0 1 1 1 1 1 1 1 1 1 1 1 
187 20 1077 1 0 1 1 1 1 1 0 1 1 1 1 1 1 1 1 1 1 1 1 
188 20 1174 1 0 1 1 1 1 1 1 1 0 0 1 0 1 1 1 1 1 1 1 
189 20 1160 1 1 1 1 1 1 1 1 1 1 1 1 1 0 1 1 1 1 0 1 
190 20 894 1 0 1 1 1 1 1 1 1 1 1 1 1 0 1 1 1 1 0 1 
191 20 964 1 1 0 1 1 1 1 1 1 1 1 1 1 0 1 1 1 1 1 0 
192 20 962 1 1 1 1 1 1 1 0 1 1 1 1 1 0 1 1 1 1 0 1 
193 20 1129 1 1 1 1 1 1 1 1 1 1 1 1 1 1 1 1 1 0 0 1 
194 20 885 1 1 0 0 1 1 1 1 1 1 1 1 1 1 1 1 1 1 1 1 
195 20 1089 1 1 1 1 1 1 1 0 1 1 1 1 1 1 1 1 0 1 0 1 
196 20 1159 1 0 1 1 1 1 1 1 0 1 1 1 1 1 1 1 1 1 1 1 
197 20 1130 0 1 1 1 1 1 1 0 1 1 1 0 1 1 1 1 1 1 1 1 
198 20 833 1 1 1 0 1 1 1 1 1 1 1 0 0 1 1 1 1 1 0 1 
199 20 947 1 1 1 0 1 1 1 1 1 0 1 1 1 1 1 0 1 1 1 1 
200 20 848 1 0 1 1 1 1 1 1 0 0 0 1 1 1 1 1 1 1 1 1 
201 20 1058 1 1 1 1 1 1 1 1 0 0 1 0 1 1 1 1 1 1 1 1 
202 20 1069 1 1 1 1 1 1 1 1 1 0 1 1 1 1 1 0 1 0 1 1 
203 20 958 1 1 1 1 1 1 1 1 0 1 1 0 1 1 1 1 1 1 1 1 
204 20 925 1 0 1 1 1 1 1 1 0 1 1 1 1 1 1 1 1 0 1 1 
205 20 1138 1 1 1 1 1 1 1 0 1 1 1 0 1 1 0 1 1 1 1 1 
206 20 861 1 1 1 1 1 1 1 1 1 1 0 1 1 1 1 1 0 0 1 0 
207 20 1038 1 1 1 1 1 1 1 0 1 1 1 1 0 1 1 1 1 1 0 1 
208 20 1103 0 1 1 1 1 1 1 1 1 1 1 1 1 1 0 0 1 1 1 1 
209 20 1014 0 1 1 1 1 1 1 1 1 1 1 1 1 1 1 1 1 0 1 1 
210 20 826 1 1 0 1 1 1 1 1 1 0 1 0 1 1 1 1 0 1 1 1 
211 20 871 1 1 1 0 1 1 1 1 1 1 1 1 0 0 1 1 0 1 1 0 
212 20 1085 1 1 0 1 1 1 0 1 1 1 1 1 0 1 1 1 1 1 1 0 
213 20 956 1 1 1 1 1 1 1 1 1 1 1 0 1 1 0 1 1 1 1 1 
214 20 951 0 0 1 1 1 1 1 1 1 1 1 1 1 0 1 1 1 1 1 1 
215 20 849 1 1 0 1 0 1 1 0 1 0 1 1 1 1 1 1 1 1 1 1 
216 20 1105 1 0 1 1 1 1 1 1 1 1 1 1 1 1 1 1 1 0 1 1 
217 20 963 1 0 1 1 1 1 1 1 1 1 1 1 1 0 0 1 1 1 1 0 
218 20 1103 1 1 1 1 1 0 1 1 1 0 1 1 1 1 1 1 1 1 0 1 
219 20 812 0 1 1 1 1 1 1 1 1 1 1 1 1 1 0 1 0 0 0 1 
220 20 824 1 1 0 1 1 1 0 1 1 0 1 1 1 1 1 1 1 0 1 1 
221 20 865 1 1 1 1 0 0 1 1 1 1 1 1 0 1 1 1 1 1 1 1 
222 20 721 1 1 1 1 1 1 1 1 0 1 1 1 1 1 0 0 1 1 1 0 
223 20 1142 1 1 1 1 0 1 1 0 1 1 1 1 1 1 1 1 1 1 1 1 
224 20 1112 1 1 1 1 1 1 1 0 1 0 1 0 1 1 1 1 1 1 1 1 
225 20 838 1 0 1 1 1 1 1 1 1 0 1 1 0 1 1 0 1 1 1 1 
226 20 767 1 0 0 1 1 1 1 1 1 1 1 1 1 0 1 1 0 1 1 1 
227 20 898 1 0 1 1 1 1 1 1 1 0 1 1 1 1 1 1 1 1 1 0 
228 20 1112 1 1 1 1 1 1 1 1 1 1 1 0 1 1 1 1 1 0 1 1 
229 20 792 1 1 1 1 1 1 1 1 1 0 1 1 1 1 1 1 1 1 1 0 
230 20 748 0 1 1 1 0 1 1 1 1 1 1 1 1 1 0 1 0 1 0 1 
231 20 928 1 1 1 1 0 1 1 1 1 1 1 1 0 1 1 1 1 1 1 1 
232 20 940 1 1 0 1 1 1 1 1 1 0 1 1 1 1 1 1 0 1 1 1 
233 20 962 0 1 1 1 1 1 1 1 1 0 1 1 1 1 1 1 1 1 1 1 
234 20 1194 1 1 1 1 1 0 1 1 1 0 1 1 1 1 1 0 1 1 1 1 
235 20 1149 1 1 1 1 1 1 1 1 0 0 1 1 1 1 1 0 1 1 1 1 
236 20 749 1 0 1 1 1 1 0 1 1 1 1 0 1 1 1 1 1 1 1 1 
237 20 1099 1 1 1 1 1 0 1 1 1 1 1 1 1 1 1 0 1 1 1 1 
238 20 919 1 1 1 1 1 1 1 1 1 1 0 1 1 1 1 1 1 1 1 0 
239 20 1030 1 1 1 1 1 0 1 0 1 0 1 1 0 1 1 1 1 1 1 1 
240 20 768 1 0 1 1 1 1 0 1 1 1 1 1 1 1 1 1 1 1 1 1 
241 20 1038 1 0 1 1 1 1 0 1 1 1 0 1 1 1 1 1 1 1 1 1 
242 20 999 1 1 0 1 1 1 1 1 0 1 1 0 1 1 1 1 1 1 1 1 
243 20 1021 1 1 1 0 1 0 1 1 1 1 1 1 1 1 1 1 1 0 1 1 
244 20 1019 1 1 0 1 1 0 1 1 1 1 1 1 0 1 1 1 1 1 1 1 
245 20 937 1 1 1 1 1 1 1 1 1 1 0 0 1 1 1 1 1 1 1 0 
246 20 844 1 1 1 0 1 1 1 1 0 1 1 1 1 1 1 0 1 1 0 1 
247 20 889 1 1 1 1 0 0 1 1 0 1 1 1 1 1 1 1 1 1 1 1 
248 20 754 1 1 1 1 1 1 1 1 0 1 1 1 1 1 1 1 1 0 0 1 
249 20 854 1 1 1 1 1 1 1 1 1 1 1 1 1 1 1 0 0 1 0 1 
250 20 1132 0 1 0 1 1 1 1 1 1 1 1 1 1 1 0 1 1 1 1 1 
251 20 817 1 1 0 0 1 1 1 1 1 1 1 0 0 1 1 1 1 1 1 1 
252 20 905 1 1 1 0 1 1 1 0 1 1 1 1 1 1 1 0 1 1 1 1 
253 20 955 1 1 0 1 0 1 1 1 1 1 0 1 1 1 1 0 1 1 1 1 
254 20 891 1 1 1 1 1 0 1 1 1 1 0 1 1 1 1 0 1 0 1 0 
255 20 862 1 1 1 1 1 1 0 0 1 1 1 0 1 1 1 1 1 0 1 1 
256 20 930 1 1 1 1 1 1 1 1 1 1 0 1 1 1 1 1 1 1 0 0 
257 20 1147 1 1 1 1 1 1 0 1 1 0 0 1 1 1 1 1 0 1 1 1 
258 20 1010 1 1 1 1 1 1 0 1 1 1 1 0 1 0 1 1 1 1 1 1 
259 20 1120 1 1 1 0 1 1 1 1 1 1 1 1 1 1 1 0 1 1 0 1 
260 20 1004 1 0 1 0 1 1 1 1 1 1 1 1 1 0 1 1 0 1 1 1 
261 20 728 1 1 1 1 1 1 1 1 1 1 1 1 1 1 1 0 1 1 0 0 
262 20 1035 1 1 1 1 1 1 1 1 1 1 1 1 0 1 1 1 1 0 0 1 
263 20 1168 1 1 1 1 1 1 1 0 1 1 1 0 1 1 1 1 1 1 1 1 
264 20 1031 1 1 1 1 1 1 0 1 1 1 1 1 1 1 1 1 0 1 1 0 
265 20 995 1 0 1 0 1 1 1 1 1 1 1 0 1 1 1 1 1 1 1 1 
266 20 1027 1 1 1 1 1 1 1 1 1 1 1 1 0 0 1 1 0 1 1 1 
267 20 893 1 0 1 1 0 0 1 1 1 1 1 1 1 1 1 1 1 1 1 1 
268 20 941 0 1 1 1 1 1 0 1 1 1 1 1 1 1 1 0 1 1 1 1 
269 20 873 1 1 1 1 1 1 0 1 0 1 1 1 1 1 1 1 1 1 1 0 
270 20 1054 1 1 1 1 1 0 1 1 1 1 1 1 1 0 1 0 1 1 1 0 
271 20 958 1 1 1 1 1 1 1 1 1 1 1 0 1 1 1 1 0 1 1 1 
272 20 983 0 1 1 1 1 1 1 1 1 1 1 1 1 1 0 1 1 1 1 1 
273 20 825 1 1 1 1 1 0 1 1 1 1 1 1 1 1 1 0 1 0 1 1 
274 20 946 1 1 1 1 1 1 1 1 1 0 1 1 0 1 1 1 1 1 1 0 
275 20 901 1 1 1 1 1 1 1 0 1 1 1 1 0 1 1 1 1 1 1 1 
276 20 1202 0 1 1 1 1 1 1 1 1 1 1 1 1 1 1 0 1 0 1 1 
277 20 1033 1 1 1 1 1 0 1 0 1 1 0 1 1 1 1 1 1 1 1 1 
278 20 983 1 1 1 1 1 1 0 1 1 1 1 1 1 1 1 1 0 1 1 1 
279 20 894 1 1 1 1 0 1 1 1 1 1 0 1 1 1 1 0 1 1 1 1 
280 20 891 1 1 1 1 1 1 0 1 1 1 1 1 0 1 1 1 0 1 1 1 
281 20 805 1 1 0 1 1 1 1 1 1 1 1 1 1 1 1 0 1 1 1 1 
282 20 1036 1 1 1 1 1 1 1 1 1 0 1 1 1 1 1 1 1 1 1 0 
283 20 818 1 1 1 1 1 1 1 1 1 1 1 0 0 1 1 0 1 1 1 1 
284 20 1141 0 1 1 1 1 1 1 1 1 0 1 1 1 1 1 1 1 1 1 1 
285 20 894 1 1 1 1 1 1 1 0 1 1 1 1 1 0 0 1 1 1 1 1 
286 20 836 1 1 1 1 1 1 1 0 0 1 1 1 1 1 1 1 1 1 1 1 
287 20 1051 0 1 1 0 0 1 1 1 0 1 1 1 1 1 1 1 1 1 1 1 
288 20 1120 1 1 1 1 1 1 1 0 1 1 1 0 1 1 1 1 1 0 0 1 
289 20 887 1 1 1 0 0 1 1 1 1 1 1 1 1 1 1 1 1 1 1 1 
290 20 907 1 1 0 0 1 1 1 1 1 1 1 1 0 1 1 1 1 1 0 0 
291 20 837 1 1 1 1 1 0 1 1 1 1 1 1 1 1 1 1 1 1 0 1 
292 20 1120 1 1 1 1 1 1 1 1 1 1 0 1 0 1 1 1 0 1 1 1 
293 20 1107 1 1 0 1 1 1 1 1 0 0 1 1 1 1 1 1 1 1 1 0 
294 20 945 1 1 1 1 1 1 1 1 1 1 1 1 0 1 0 1 1 1 1 1 
295 20 720 0 1 0 1 1 1 1 1 1 1 1 1 0 1 1 1 1 1 1 1 
296 20 901 1 1 1 1 1 1 0 1 1 0 1 1 1 1 1 1 1 1 1 1 
297 20 1072 1 1 1 1 1 1 1 1 1 1 1 1 1 0 0 1 1 1 0 0 
298 20 976 1 1 1 0 1 1 1 1 1 0 1 0 1 1 1 1 1 1 1 1 
299 20 1043 1 1 0 1 1 1 1 1 1 1 1 0 0 1 1 1 1 1 1 1 
300 20 1038 0 1 1 1 1 1 1 0 1 1 0 1 1 1 1 0 1 1 1 1 
301 20 1050 1 1 0 1 1 1 1 1 0 1 1 1 1 1 1 1 1 1 1 0 
302 20 843 1 1 1 1 1 1 0 1 1 0 1 1 1 1 1 1 1 1 1 0 
303 20 1073 1 1 1 1 0 1 1 1 1 1 0 1 1 1 1 1 0 1 1 1 
304 20 878 1 1 1 0 1 1 1 1 1 1 1 0 1 1 1 1 1 1 1 1 
305 20 856 1 1 0 1 1 1 1 0 1 1 1 1 1 1 1 1 1 1 1 0 
306 20 901 0 1 1 1 1 1 1 1 1 1 0 1 1 1 0 1 1 1 1 1 
307 20 691 1 1 0 1 1 1 1 1 1 1 1 1 1 1 0 1 1 1 1 1 
308 20 844 1 0 1 0 1 0 1 1 1 1 1 1 1 1 1 1 0 1 1 1 
309 20 876 1 1 1 1 1 1 1 1 1 0 1 1 1 1 1 1 0 1 1 1 
310 20 925 1 1 1 1 0 1 1 1 1 1 1 1 1 0 0 1 1 1 1 1 
311 20 754 1 1 1 1 1 1 1 1 1 1 1 1 0 1 0 1 1 1 1 0 
312 20 1057 1 1 1 1 1 1 1 1 1 1 1 1 1 1 0 1 0 1 1 0 
313 20 973 1 1 1 1 1 1 0 0 1 1 1 1 1 1 1 1 1 1 1 1 
314 20 966 1 0 1 1 1 1 1 1 1 1 1 1 1 0 1 0 1 1 1 1 
315 20 1075 1 1 1 1 1 1 1 1 1 0 0 1 1 1 1 1 1 0 1 1 
316 20 807 1 0 1 0 1 1 1 1 1 1 1 1 1 1 1 1 1 0 1 1 
317 20 794 1 1 1 1 1 1 1 1 1 1 1 1 1 0 0 1 1 0 1 1 
318 20 1013 1 0 0 1 1 1 1 1 1 1 1 1 0 1 1 1 1 1 1 1 
319 20 904 1 1 0 1 1 1 1 1 1 1 1 1 1 1 1 0 1 1 1 0 
320 20 1010 1 1 1 1 1 1 1 0 1 1 1 1 0 1 1 1 1 1 1 1 
321 20 1137 1 1 1 1 1 1 1 1 1 1 0 1 1 1 0 1 1 1 1 1 
322 20 872 1 1 1 1 1 1 1 1 1 1 1 1 0 1 1 1 0 1 1 1 
323 20 977 1 1 1 1 1 0 1 1 1 1 1 1 1 0 1 1 0 1 1 1 
324 20 911 1 1 1 1 1 1 1 1 1 1 1 1 1 0 1 0 1 1 1 1 
325 20 1092 1 1 0 1 1 1 0 1 1 1 1 1 1 0 1 1 1 1 1 1 
326 20 807 1 1 1 1 1 1 1 1 1 1 1 1 1 1 1 0 0 0 1 1 
327 20 891 1 1 0 1 1 1 1 1 1 1 1 1 1 0 1 1 1 1 0 1 
328 20 944 1 1 0 0 1 1 1 1 0 1 1 1 1 1 0 1 1 1 1 1 
329 20 916 0 1 1 1 1 1 1 1 1 1 1 1 1 1 1 1 1 0 1 0 
330 20 1021 1 1 0 0 1 0 1 1 1 1 1 0 1 1 1 1 1 1 1 1 
331 20 1092 1 1 1 1 1 0 1 0 1 1 1 1 1 1 0 1 1 1 1 1 
332 20 910 1 1 1 1 1 1 1 0 1 1 1 1 1 1 0 1 1 1 1 1 
333 20 1101 1 0 1 1 1 1 1 1 1 1 0 1 1 1 1 1 1 1 1 1 
334 20 1228 1 1 1 0 1 1 1 1 1 1 1 0 1 1 0 1 1 1 1 1 
335 20 1207 1 1 1 1 0 1 1 1 0 1 0 1 1 1 1 1 1 0 1 1 
336 20 829 1 1 1 1 1 1 1 1 1 1 1 0 1 1 0 1 1 1 0 1 
337 20 988 1 1 1 1 1 1 1 1 0 1 1 1 1 1 1 1 1 0 0 1 
338 20 1085 1 1 1 1 1 1 1 1 1 0 1 1 1 0 1 1 1 1 1 1 
339 20 1119 1 1 1 1 1 0 1 1 1 1 1 1 1 1 0 1 0 1 1 1 
340 20 1170 1 0 1 1 1 1 1 1 1 1 1 1 1 0 0 1 1 1 0 1 
341 20 835 1 0 1 1 1 1 1 1 1 1 1 1 1 1 1 1 1 1 0 0 
342 20 1079 1 1 0 0 1 1 1 1 1 1 1 1 0 1 1 1 1 1 1 1 
343 20 1023 1 0 1 1 1 1 0 1 1 1 1 1 1 0 1 1 1 1 1 1 
344 20 1085 1 1 1 1 1 1 1 1 1 1 1 0 1 1 1 1 0 1 1 1 
345 20 906 0 1 1 1 0 0 1 1 1 0 1 1 1 1 1 1 1 1 1 1 
346 20 1052 0 1 1 1 1 1 1 1 1 1 1 1 1 0 1 1 1 1 1 0 
347 20 1067 1 1 1 1 1 1 1 1 0 1 1 1 1 1 1 1 0 1 1 1 
348 20 747 1 1 1 0 1 1 1 0 1 1 1 1 1 1 0 1 1 1 1 1 
349 20 986 1 1 1 1 1 1 1 1 0 1 0 0 1 1 1 1 1 1 1 1 
350 20 1022 1 1 0 1 1 0 1 1 1 1 1 1 0 1 1 1 1 1 1 1 
351 20 812 1 1 1 1 1 1 1 1 1 1 0 1 1 1 1 0 1 0 1 1 
352 20 1007 1 1 1 1 1 1 1 1 1 1 1 1 0 1 1 0 1 1 1 1 
353 20 895 1 1 1 1 0 1 1 1 1 1 1 0 1 1 1 1 1 0 1 1 
354 20 969 1 1 0 1 1 1 1 0 1 1 0 1 1 1 1 1 1 1 1 1 
355 20 752 1 1 1 0 0 1 1 1 1 1 1 1 1 1 0 1 1 1 1 1 
356 20 835 1 1 1 0 1 1 1 1 0 1 0 1 1 1 1 1 1 1 1 1 
357 20 917 1 1 1 1 1 1 1 1 0 1 1 1 1 1 1 0 1 1 1 1 
358 20 1021 1 0 1 1 1 0 1 1 1 1 1 1 1 1 0 0 1 1 1 1 
359 20 801 1 1 1 1 1 1 0 1 1 0 1 1 1 1 1 1 0 1 1 1 
360 20 1089 1 1 1 1 1 1 1 1 1 1 1 1 0 0 0 1 1 1 1 1 
361 20 939 1 1 1 1 0 1 1 1 1 1 1 1 1 1 1 1 0 1 1 1 
362 20 845 0 1 1 1 1 1 1 1 0 0 0 1 1 1 1 1 1 1 1 1 
363 20 890 0 1 1 1 1 1 1 1 1 1 1 0 1 1 1 0 1 1 1 1 
364 20 1195 1 1 1 1 0 1 1 1 1 1 1 1 1 1 1 0 1 0 1 1 
365 20 1069 1 1 0 1 1 1 1 1 1 1 1 1 1 0 1 1 1 0 1 1 
366 20 1017 1 0 1 1 1 1 1 0 1 1 1 1 1 1 1 1 0 1 1 1 
367 20 947 1 1 1 1 1 0 1 1 1 1 1 1 1 0 1 0 1 1 1 1 
368 20 922 1 1 1 1 1 1 1 0 1 1 1 1 1 1 0 1 1 1 0 1 
369 20 787 1 1 0 1 1 1 1 0 0 1 1 1 1 1 1 0 1 1 1 1 
370 20 967 1 1 1 1 0 0 1 1 1 1 1 1 1 1 1 0 0 1 0 1 
371 20 1091 1 1 1 1 1 1 1 1 1 0 1 1 0 1 1 1 1 1 1 1 
372 20 952 1 0 1 1 1 1 1 1 1 0 1 1 1 1 1 1 1 0 1 1 
373 20 1186 1 1 1 1 1 1 1 1 1 1 1 1 1 1 0 1 0 1 1 1 
374 20 1041 1 1 1 1 0 1 1 1 1 1 1 1 1 1 0 1 1 1 1 1 
375 20 928 1 1 1 1 1 1 1 1 0 1 1 1 1 0 0 1 1 1 1 1 
376 20 865 1 1 1 1 1 1 1 1 1 1 1 1 1 0 1 1 1 1 0 1 
377 20 895 1 1 1 1 1 1 1 1 1 1 1 1 1 1 1 1 0 1 0 0 
378 20 759 1 1 0 1 1 1 1 1 1 1 1 1 1 1 0 1 1 0 1 1 
379 20 891 1 1 1 1 0 1 1 1 1 1 0 1 1 1 1 1 1 1 0 1 
380 20 732 1 1 1 1 1 1 1 1 1 1 1 1 1 0 1 1 1 1 0 0 
381 20 954 1 1 1 1 0 1 1 1 0 1 1 1 1 0 1 1 1 1 1 1 
382 20 867 1 1 1 1 1 1 1 1 1 1 1 1 1 0 0 1 0 1 1 1 
383 20 1188 1 1 1 1 1 1 1 1 0 1 1 1 1 0 0 1 1 1 1 1 
384 20 945 1 1 0 1 0 1 0 1 1 1 1 1 1 1 1 1 1 1 0 1 
385 20 795 1 1 1 1 1 1 1 1 1 1 0 1 1 1 1 0 1 1 1 1 
386 20 945 1 1 1 1 1 1 1 1 1 1 1 1 0 1 0 0 1 1 1 1 
387 20 1091 0 1 1 1 1 1 1 1 0 0 1 1 1 1 1 0 1 1 1 1 
388 20 973 1 1 1 0 1 0 1 1 1 1 1 1 1 1 0 1 1 1 1 1 
389 20 918 0 1 1 1 1 1 1 1 1 1 1 1 0 1 1 0 1 1 1 1 
390 20 695 0 1 1 0 0 1 0 1 1 1 1 1 1 1 1 0 1 1 0 1 
391 20 822 0 1 1 1 1 0 0 1 1 1 1 1 1 1 1 1 1 1 1 1 
392 20 1051 1 1 0 1 1 1 1 0 1 1 1 1 1 1 1 1 1 1 1 1 
393 20 994 0 0 0 1 1 1 1 1 1 0 1 1 1 1 1 1 1 1 0 1 
394 20 948 1 1 1 1 0 1 1 1 1 1 1 1 1 1 1 1 0 1 1 1 
395 20 970 1 1 1 1 1 0 1 1 1 1 1 1 1 0 0 1 1 1 1 1 
396 20 1062 1 1 0 1 1 1 1 1 1 0 1 1 1 0 1 1 1 1 1 1 
397 20 868 0 1 1 0 1 1 1 1 1 1 1 1 1 1 1 1 1 1 1 1 
398 20 983 0 1 1 1 1 1 1 1 0 1 1 1 1 1 1 0 1 1 1 1 
399 20 1203 1 1 1 1 1 1 1 1 1 1 1 0 0 1 1 1 1 1 0 1 
400 20 1000 0 1 1 1 1 1 1 1 1 0 1 1 1 1 0 0 1 1 1 1 
401 20 909 0 1 1 1 0 1 1 1 1 1 0 1 1 1 1 1 0 1 1 1 
402 20 968 1 1 1 0 1 0 1 1 1 1 1 0 1 1 1 1 1 1 1 1 
403 20 976 1 1 0 1 1 1 1 0 1 0 0 1 1 1 1 1 1 1 1 1 
404 20 913 1 1 1 1 1 1 0 1 1 1 1 1 1 1 1 1 1 0 1 0 
405 20 788 1 0 1 1 1 1 1 1 1 0 1 1 1 1 1 1 0 0 1 1 
406 20 908 1 1 1 1 1 0 1 1 1 1 1 1 0 1 1 1 1 1 0 1 
407 20 999 1 1 1 1 1 1 1 1 1 1 1 0 1 1 0 1 0 1 1 1 
408 20 775 1 1 0 1 1 1 1 0 1 1 1 1 1 1 1 0 1 1 1 1 
409 20 821 1 1 1 1 1 1 0 1 1 1 1 0 1 0 1 1 1 1 1 1 
410 20 688 1 1 1 1 1 1 1 1 1 1 1 1 1 0 0 0 1 1 1 1 
411 20 1055 1 1 1 1 1 1 1 1 1 0 1 0 1 1 0 1 1 1 1 1 
412 20 1096 1 1 1 1 1 0 1 1 1 1 1 1 1 1 0 1 1 0 1 1 
413 20 825 1 1 1 1 1 1 1 1 1 1 1 1 1 1 1 0 1 0 1 1 
414 20 1121 1 1 1 0 1 0 1 1 1 1 0 1 0 1 1 0 1 1 1 1 
415 20 1111 1 0 1 1 1 1 1 1 1 1 0 0 1 1 1 1 1 1 1 1 
416 20 968 0 1 1 1 0 1 1 1 1 1 1 1 1 1 1 1 1 0 1 1 
417 20 945 1 1 1 1 1 0 1 1 1 1 1 1 1 1 0 0 1 1 1 0 
418 20 830 1 1 0 1 1 1 1 1 1 0 0 1 1 1 1 0 1 1 1 1 
419 20 1070 1 1 1 1 1 1 1 0 0 1 1 0 1 1 1 1 1 1 0 1 
420 20 953 1 1 1 1 1 1 1 1 1 1 1 1 1 1 1 1 0 1 0 1 
421 20 991 0 1 1 1 1 1 1 1 1 1 1 1 1 1 1 1 1 0 1 1 
422 20 890 1 0 1 1 1 0 1 1 1 1 1 1 1 1 1 1 1 0 1 1 
423 20 918 1 1 1 1 1 1 1 1 0 1 1 1 1 1 1 1 1 0 0 1 
424 20 1001 1 0 1 1 1 1 1 1 0 1 1 1 1 1 0 1 1 1 1 1 
425 20 1009 1 1 0 1 1 1 1 1 0 1 1 0 1 1 1 1 1 1 1 1 
426 20 1071 1 1 1 1 1 1 1 1 1 1 0 1 1 1 0 1 1 1 1 1 
427 20 1080 1 1 0 1 1 1 1 1 0 1 1 1 1 1 1 1 1 1 1 1 
428 20 946 1 1 1 1 1 1 1 1 1 1 1 0 1 1 0 1 1 1 0 1 
429 20 756 1 1 1 1 1 1 0 0 1 1 1 1 1 1 1 1 1 1 1 1 
430 20 1135 1 1 1 1 0 1 1 1 1 1 1 1 1 0 1 0 0 1 1 1 
431 20 1087 1 1 1 1 1 1 1 1 1 0 1 1 1 1 1 0 1 1 1 1 
432 20 1067 1 1 1 1 1 1 1 1 0 1 1 1 1 1 0 1 1 1 1 1 
433 20 1044 1 0 1 1 1 1 1 1 1 1 1 1 1 1 1 1 0 0 1 0 
434 20 907 0 1 1 1 1 1 0 1 1 0 1 1 1 1 1 1 1 1 1 1 
435 20 835 1 1 1 0 1 0 1 1 1 0 1 1 1 1 1 1 1 1 1 1 
436 20 1022 1 0 1 1 1 1 0 1 1 0 1 1 0 1 1 1 1 1 1 1 
437 20 1130 1 1 1 0 1 0 1 1 1 1 1 1 1 1 1 1 1 1 1 1 
438 20 949 0 1 1 1 1 1 0 1 1 1 1 1 1 1 1 1 1 1 1 1 
439 20 1075 1 1 1 1 1 1 1 0 1 1 1 1 1 1 1 1 1 1 1 0 
440 20 1041 1 1 1 1 1 1 1 1 1 1 1 1 1 1 1 0 0 1 1 1 
441 20 1110 1 0 1 1 0 1 1 1 1 1 1 1 1 1 1 1 1 1 1 0 
442 20 1037 1 1 0 1 1 1 1 1 1 1 1 1 1 1 1 0 1 1 1 1 
443 20 1180 1 1 1 1 0 1 1 1 1 1 1 0 1 1 1 1 1 1 1 1 
444 20 879 1 1 1 1 1 1 1 1 1 1 1 0 0 1 0 0 1 1 1 1 
445 20 977 1 1 1 1 1 1 0 1 1 1 1 0 1 0 1 1 1 1 1 1 
446 20 969 1 1 1 1 1 1 1 1 1 1 0 1 1 1 0 1 1 1 1 1 
447 20 878 1 1 1 1 1 1 1 1 1 0 1 1 0 1 1 1 1 1 1 1 
448 20 1011 1 1 1 1 1 1 1 1 1 1 1 1 1 1 0 1 1 1 1 0 
449 20 899 1 0 1 1 1 1 1 1 0 1 0 1 1 1 1 1 1 1 1 1 
450 20 1139 1 1 0 1 1 1 0 1 0 1 0 1 1 1 1 1 1 1 1 1 
451 20 910 1 1 1 1 1 1 1 1 1 1 0 1 0 1 0 1 1 1 1 1 
452 20 941 0 1 1 1 1 1 1 1 1 1 1 1 0 1 1 1 1 0 1 1 
453 20 826 1 1 1 1 1 0 1 0 1 1 0 1 1 1 1 1 1 1 1 1 
454 20 1062 0 1 1 1 1 1 0 1 0 1 1 1 1 1 1 1 1 1 1 1 
455 20 935 1 1 1 1 1 0 1 1 0 1 0 1 1 1 1 1 1 1 1 0 
456 20 1078 1 0 1 1 1 1 1 1 1 1 1 0 1 1 1 1 1 1 1 1 
457 20 839 1 1 1 1 1 1 1 1 1 0 0 0 1 0 1 1 1 1 1 1 
458 20 972 0 1 1 0 1 1 1 1 0 1 0 1 1 1 1 1 1 1 1 1 
459 20 1048 1 1 1 1 1 1 1 1 1 1 1 1 0 1 1 0 0 1 1 1 
460 20 796 1 1 0 1 0 1 1 0 0 1 1 1 1 1 1 1 1 0 1 1 
461 20 1177 1 1 0 1 1 1 1 1 1 1 1 1 1 0 1 1 1 1 1 1 
462 20 979 1 1 1 0 0 1 1 1 1 1 1 1 1 1 1 1 0 1 1 1 
463 20 886 1 0 1 1 1 1 1 1 1 0 1 1 1 1 1 1 0 1 1 1 
464 20 833 0 1 1 1 1 1 0 1 1 1 1 0 1 1 1 0 1 0 1 1 
465 20 1082 1 1 1 1 1 1 1 1 1 1 1 0 0 1 0 1 1 1 1 1 
466 20 843 1 1 1 1 0 1 1 1 1 0 1 1 1 0 0 1 1 1 1 1 
467 20 974 1 1 1 1 1 0 1 1 1 1 1 1 1 1 1 1 1 1 1 0 
468 20 1070 1 1 1 1 1 1 1 0 1 1 1 0 1 1 1 0 1 1 1 1 
469 20 1006 1 1 1 1 1 0 1 0 1 1 1 1 1 0 1 1 1 1 1 1 
470 20 789 1 1 1 1 1 0 1 0 1 1 1 0 1 1 1 1 1 1 1 1 
471 20 886 1 1 1 1 1 1 0 1 1 1 1 1 1 0 0 1 1 1 1 1 
472 20 986 1 1 1 1 1 1 1 1 0 1 1 1 1 0 1 1 1 0 1 1 
473 20 846 1 1 1 1 0 1 1 1 1 1 1 1 1 1 1 0 1 1 1 1 
474 20 959 1 1 1 1 0 1 1 1 1 1 1 1 1 1 1 0 1 0 0 1 
475 20 929 1 1 1 1 1 0 1 1 1 0 1 1 1 1 1 1 1 1 0 1 
476 20 911 1 1 1 1 1 1 1 0 1 1 1 1 1 1 1 1 1 0 1 1 
477 20 998 1 1 1 1 1 1 1 1 1 1 1 1 0 1 1 0 0 1 1 1 
478 20 1029 1 0 1 1 1 1 1 1 1 1 1 1 1 1 1 1 1 0 1 1 
479 20 881 1 1 1 1 1 1 1 1 0 1 0 1 1 0 1 1 1 1 1 1 
480 20 894 1 1 1 1 1 1 1 1 1 0 1 0 1 1 1 1 1 1 1 1 
481 20 1031 1 1 0 1 1 0 0 1 1 1 1 1 1 1 1 1 1 1 1 1 
482 20 973 1 0 0 1 1 1 1 1 1 1 1 1 0 1 1 0 1 1 1 1 
483 20 937 1 0 1 1 0 1 1 1 1 1 1 0 1 1 1 1 1 1 1 1 
484 20 1012 1 1 1 1 1 1 0 1 1 1 1 1 1 1 1 0 1 0 1 1 
485 20 961 0 1 1 1 0 1 1 1 1 1 1 1 1 1 1 0 1 1 1 1 
486 20 916 0 1 1 1 1 1 0 1 1 1 1 1 1 1 1 1 1 0 0 1 
487 20 1117 1 1 1 0 1 1 1 1 1 0 0 1 1 1 1 1 1 1 1 1 
488 20 921 1 0 0 1 1 1 1 1 1 1 1 1 1 1 1 1 1 1 0 1 
489 20 884 0 1 1 1 0 1 1 1 1 1 1 1 1 1 1 1 1 1 1 1 
490 20 769 1 1 1 1 1 1 1 1 1 1 0 1 1 1 1 0 1 1 1 0 
491 20 1038 1 1 1 1 0 1 1 1 1 1 1 0 1 1 1 1 0 1 1 1 
492 20 803 1 0 1 1 1 1 0 1 1 1 0 1 1 1 0 1 1 1 1 1 
493 20 971 1 1 0 0 1 1 1 0 1 1 1 1 1 1 1 0 1 1 1 1 
494 20 876 1 1 1 1 1 1 1 1 1 1 0 0 1 1 1 1 1 0 1 1 
495 20 947 0 1 1 1 1 1 1 1 1 1 1 0 1 1 1 1 1 1 1 1 
496 20 996 0 1 1 1 1 1 1 1 1 1 0 1 1 0 1 1 1 1 1 1 
497 20 916 1 1 1 0 1 1 0 1 1 1 1 1 0 1 1 1 1 1 1 1 
498 20 867 1 1 1 1 1 0 1 1 1 1 1 0 1 1 1 1 1 1 1 1 
499 20 904 1 0 0 1 1 1 1 1 1 1 1 1 0 1 1 1 0 1 1 1 
500 20 989 1 1 0 1 1 1 1 1 1 1 1 1 1 1 1 0 1 1 1 1 
