449
695
795
638
702
489
569
631
690
662
528
506
606
791
697
823
577
612
476
371
541
548
597
606
477
635
450
461
584
588
681
775
561
620
626
500
586
369
546
355
403
687
644
776
589
475
589
360
657
756
694
499
643
530
574
604
492
656
654
587
526
523
573
519
568
469
707
845
672
509
547
775
574
765
639
717
781
565
553
345
489
337
637
562
553
551
487
358
551
599
602
671
505
565
697
537
554
754
551
744
524
411
764
550
511
434
540
761
530
716
594
639
906
1528
620
648
368
815
608
535
538
482
608
687
1134
746
570
655
538
738
565
450
636
758
712
663
640
682
586
571
547
546
773
746
541
578
582
796
643
561
561
528
404
511
540
715
527
679
740
413
784
579
362
571
668
343
587
535
522
591
556
602
594
753
555
581
566
598
429
718
517
532
433
728
544
550
562
541
667
694
417
508
892
551
715
545
688
891
658
530
672
583
510
747
579
570
585
506
645
550
561
517
610
582
541
628
565
590
612
574
549
525
479
622
629
585
721
684
465
690
577
564
488
871
583
579
417
541
670
460
663
516
541
532
451
518
521
672
514
550
801
542
573
604
532
322
646
479
549
382
498
627
623
619
491
420
540
509
620
574
563
567
575
753
567
563
680
721
682
551
615
886
556
499
635
657
547
663
651
664
574
383
543
545
556
371
549
619
592
543
480
583
614
696
600
516
392
645
639
624
555
643
391
587
632
550
490
313
762
828
542
593
301
614
633
651
601
529
332
492
352
610
528
611
650
592
390
570
841
560
622
482
503
514
544
614
616
618
521
523
578
493
560
546
491
517
525
675
380
562
504
669
603
518
575
657
486
411
739
605
573
688
671
694
661
655
581
760
692
682
628
730
519
496
579
357
686
538
668
504
487
789
604
566
651
691
635
544
537
707
581
476
708
698
607
632
787
441
641
612
562
796
568
553
528
538
591
560
604
566
638
375
558
570
587
637
668
573
613
506
599
535
482
558
564
635
609
548
538
554
486
671
685
405
518
554
561
560
515
660
322
677
535
475
742
570
373
575
618
608
526
824
613
606
560
645
540
518
669
557
304
577
632
581
467
583
578
702
664
656
679
566
629
595
682
474
651
506
621
536
695
372
524
668
566
587
347
595
596
534
