1 20 2953 1 0 0 1 1 1 1 1 0 1 1 1 1 1 1 0 1 1 1 1 
2 20 4641 1 1 0 1 1 1 1 1 0 1 1 0 1 1 1 0 0 1 1 1 
3 20 5491 1 1 1 1 1 1 1 1 1 1 0 1 0 1 0 1 1 1 1 1 
4 20 5303 1 1 1 1 0 1 1 1 0 1 1 1 1 1 1 1 0 1 1 0 
5 20 5477 1 0 1 1 1 1 1 1 0 1 1 1 1 0 1 1 1 1 1 1 
6 20 4077 1 1 0 1 1 0 1 0 1 1 1 1 1 1 1 1 0 1 1 1 
7 20 4764 1 1 1 1 1 1 1 1 1 1 0 1 0 1 1 0 1 1 1 1 
8 20 4709 1 1 1 1 1 1 1 1 1 1 0 0 1 1 1 0 1 1 1 1 
9 20 5090 1 0 1 1 1 1 1 1 1 0 1 1 1 0 1 1 1 1 1 1 
10 20 4551 1 1 1 1 1 0 1 0 1 0 0 1 1 1 1 1 1 1 1 1 
11 20 4627 1 1 1 1 0 1 1 1 0 0 1 1 1 1 1 1 1 1 0 1 
12 20 4234 1 1 1 1 1 1 0 1 1 1 1 1 1 1 1 0 1 1 1 0 
13 20 5221 1 1 1 0 1 1 1 1 1 1 1 1 0 1 1 1 0 1 1 1 
14 20 5959 1 1 1 1 0 1 1 1 1 1 1 0 1 0 1 1 1 1 1 1 
15 20 5487 1 0 1 1 1 1 1 1 1 1 1 1 1 1 0 1 1 1 1 0 
16 20 5397 1 0 1 1 1 1 1 1 0 0 1 1 1 0 1 1 1 1 1 1 
17 20 4687 1 0 1 0 1 1 1 0 1 1 1 1 1 1 1 1 1 1 1 1 
18 20 5428 1 1 0 1 1 1 1 1 1 1 1 0 1 1 1 1 0 1 1 1 
19 20 4099 1 1 0 1 0 1 1 1 1 1 1 1 1 1 1 1 1 1 1 0 
20 20 3686 1 1 1 0 0 1 1 0 1 1 0 1 1 1 1 1 1 1 1 1 
21 20 4345 1 1 1 0 1 1 1 1 0 0 1 1 1 1 1 1 1 1 1 1 
22 20 4596 1 1 1 0 1 0 1 1 1 1 1 0 1 1 1 1 1 1 1 1 
23 20 4993 1 1 1 1 1 1 0 1 1 1 1 0 0 0 1 1 1 1 1 1 
24 20 4877 0 1 1 1 1 0 1 0 1 1 0 1 1 1 1 1 1 1 1 1 
25 20 4245 1 1 0 1 0 0 1 1 1 1 1 1 1 1 0 1 1 1 1 1 
26 20 5233 1 1 1 1 0 1 1 0 1 1 1 1 1 1 1 0 1 1 1 1 
27 20 4037 1 1 1 1 0 1 1 1 1 0 1 1 1 0 1 1 1 1 1 1 
28 20 3556 0 1 0 1 1 1 1 1 1 0 1 1 1 1 1 0 1 1 1 1 
29 20 5217 1 1 1 0 1 1 1 1 1 1 1 1 1 1 1 0 1 1 0 1 
30 20 4729 1 1 1 1 1 1 1 0 1 1 1 0 1 1 1 1 1 0 1 1 
31 20 5425 1 1 1 1 1 1 1 1 1 0 1 0 1 1 0 1 1 1 1 1 
32 20 5617 1 0 1 1 1 1 1 1 1 0 1 1 1 1 1 1 1 1 1 1 
33 20 4685 0 0 1 1 1 1 1 1 1 1 1 1 1 1 1 1 1 1 1 0 
34 20 4847 1 1 1 1 1 0 1 1 1 1 1 1 1 1 1 0 1 0 1 1 
35 20 5354 1 1 1 1 1 0 1 1 1 1 1 0 1 1 1 1 1 1 0 1 
36 20 4173 0 1 1 1 1 1 1 1 1 1 1 1 1 1 1 1 0 0 0 1 
37 20 4555 1 0 1 1 1 1 1 1 0 1 1 1 1 1 1 1 1 0 1 1 
38 20 3642 1 1 1 0 1 0 1 1 1 1 0 1 1 1 1 1 1 1 1 1 
39 20 4743 1 1 1 1 0 1 1 1 1 1 1 1 1 0 1 1 1 1 1 0 
40 20 3597 1 0 1 1 1 1 1 1 1 1 1 1 1 1 0 1 1 0 1 1 
41 20 3874 1 0 1 1 0 1 1 1 1 1 0 1 1 1 1 1 1 1 1 1 
42 20 4716 1 1 1 0 1 1 0 1 1 0 0 1 1 1 1 1 1 1 1 1 
43 20 4777 1 1 1 1 1 1 1 1 1 1 0 1 1 1 1 1 0 1 1 0 
44 20 5332 1 1 1 1 1 1 1 1 1 1 1 1 1 0 1 1 1 0 1 0 
45 20 4979 1 1 1 1 1 0 1 0 1 1 1 1 1 0 1 1 1 1 1 1 
46 20 4123 1 1 1 0 1 1 1 0 1 1 1 1 0 1 1 1 1 1 1 1 
47 20 5033 1 1 1 1 1 1 1 0 1 1 1 1 0 1 1 1 1 1 1 0 
48 20 3515 1 1 1 1 0 1 1 1 0 1 0 1 1 1 1 1 1 1 1 1 
49 20 4725 1 1 0 1 1 1 0 1 1 1 1 1 0 1 1 1 1 1 1 0 
50 20 6052 0 0 0 1 1 1 1 1 1 1 1 1 1 1 1 1 1 1 1 1 
51 20 5369 1 1 1 1 1 1 1 1 0 1 1 1 0 1 1 0 1 1 1 1 
52 20 3937 0 1 1 1 1 1 1 0 0 1 1 1 1 1 1 1 1 1 1 1 
53 20 5376 1 1 1 1 1 0 1 1 0 1 0 1 1 1 1 1 1 1 1 0 
54 20 4646 1 1 1 1 1 1 1 1 0 1 1 1 1 1 1 1 1 0 1 0 
55 20 4854 1 0 0 1 1 1 1 1 1 1 1 0 1 1 1 1 1 1 1 1 
56 20 5172 0 1 0 0 1 1 1 1 1 1 1 1 1 1 1 1 1 1 1 0 
57 20 4258 1 1 1 1 1 0 1 1 0 0 1 1 1 1 1 0 1 1 1 1 
58 20 5277 1 1 1 1 1 0 1 1 1 1 1 1 1 1 1 1 0 0 1 1 
59 20 5142 0 1 1 1 1 1 1 1 1 1 1 1 1 1 1 1 1 0 0 0 
60 20 4784 1 1 1 1 1 0 1 0 1 1 1 1 1 1 1 1 1 1 0 1 
61 20 4407 1 1 1 1 1 1 1 0 1 1 1 1 1 1 1 1 0 0 1 1 
62 20 4255 1 0 1 1 1 1 0 1 1 1 1 1 1 1 1 0 1 1 1 1 
63 20 4677 1 1 1 1 1 1 1 1 1 0 1 0 1 1 1 1 1 1 1 1 
64 20 4439 0 1 1 1 1 1 1 1 1 0 1 0 1 1 1 1 1 1 1 1 
65 20 4477 1 1 0 1 1 1 1 1 0 0 1 1 1 1 1 0 1 1 1 1 
66 20 3926 1 1 1 0 1 1 1 1 1 1 1 0 1 1 0 1 1 1 1 1 
67 20 4971 1 1 1 1 1 1 0 1 1 1 1 1 1 1 1 1 1 1 0 0 
68 20 5949 1 1 1 1 1 1 1 1 1 0 1 1 1 1 0 1 1 1 1 0 
69 20 5338 1 1 0 1 0 0 1 1 1 1 1 1 1 1 1 1 1 1 1 1 
70 20 4325 1 1 1 1 1 1 1 1 1 0 1 1 1 0 0 0 1 1 1 1 
71 20 4689 0 1 1 0 1 1 1 1 1 1 1 1 1 1 0 1 1 1 1 1 
72 20 5826 1 1 1 1 1 1 1 1 1 0 1 1 1 1 0 1 0 1 1 0 
73 20 4393 1 0 1 1 1 1 1 1 0 1 1 1 1 0 1 1 1 1 1 1 
74 20 5648 0 1 1 1 1 1 1 0 1 1 1 1 1 1 1 1 1 1 0 1 
75 20 5369 1 1 1 0 1 1 1 1 0 0 1 1 1 1 1 1 1 1 0 1 
76 20 5478 1 1 1 1 1 1 1 1 1 1 1 1 1 1 1 0 0 1 0 1 
77 20 5723 1 1 1 1 1 1 1 1 1 0 1 1 1 1 0 1 1 1 1 0 
78 20 4505 1 1 1 1 1 1 1 1 0 1 1 1 0 1 1 0 1 1 1 1 
79 20 4509 1 1 1 1 1 1 0 1 1 0 1 1 0 1 1 1 1 1 1 1 
80 20 3490 1 1 1 0 0 1 0 1 1 1 1 1 1 1 1 1 1 1 1 0 
81 20 4038 0 1 1 1 1 1 1 0 1 1 1 1 1 0 1 1 1 1 1 1 
82 20 3280 0 0 1 1 1 1 1 1 1 1 1 1 1 1 1 1 1 0 1 1 
83 20 5031 0 1 0 1 1 1 0 1 1 1 1 1 1 1 1 1 1 1 1 0 
84 20 4560 1 0 1 1 1 1 0 1 1 1 1 1 1 1 1 1 1 1 0 1 
85 20 4463 1 1 1 1 1 1 1 1 1 1 1 1 0 1 0 1 0 1 1 1 
86 20 4722 1 1 1 1 1 1 1 1 1 1 1 0 1 0 1 1 1 1 1 0 
87 20 4075 1 0 1 1 1 1 1 0 1 1 1 1 1 1 1 0 1 1 1 1 
88 20 3516 0 1 0 1 0 1 1 1 1 1 1 1 0 1 1 1 1 1 1 1 
89 20 4476 1 1 1 1 1 1 1 1 1 1 1 1 1 1 1 0 0 1 0 1 
90 20 4930 1 1 1 1 0 1 1 0 1 1 1 1 1 1 1 1 1 1 0 1 
91 20 5156 1 1 1 1 1 1 1 0 1 1 1 1 1 1 1 1 1 0 1 0 
92 20 5556 1 1 0 1 1 1 1 1 1 1 1 1 1 0 1 0 1 1 0 1 
93 20 4077 1 1 1 1 1 1 1 1 0 1 0 0 1 0 1 1 1 1 1 1 
94 20 4601 1 0 1 1 1 1 1 1 1 1 1 1 0 0 1 1 1 1 1 1 
95 20 4977 1 1 1 1 1 1 1 1 1 1 1 1 1 0 0 1 0 1 1 1 
96 20 4348 1 1 1 0 1 1 1 0 1 1 1 1 1 1 0 1 1 0 1 1 
97 20 4546 1 1 1 1 1 1 1 1 1 1 0 1 0 1 1 1 1 0 1 1 
98 20 5719 1 1 1 1 0 1 1 1 1 1 1 1 0 0 1 1 1 1 1 1 
99 20 4691 1 1 1 1 0 1 1 1 0 1 1 1 0 1 1 1 1 1 1 1 
100 20 5072 0 1 1 1 1 1 0 1 1 1 1 1 1 0 1 1 1 1 0 1 
101 20 4502 0 1 1 1 1 0 1 0 1 1 1 1 1 1 1 1 1 1 1 1 
102 20 3654 1 1 1 0 1 1 1 0 1 1 0 1 1 1 1 1 1 1 1 1 
103 20 4935 1 1 1 0 1 1 1 1 1 1 1 1 0 1 0 1 1 1 1 1 
104 20 4495 0 1 1 0 1 0 1 1 1 1 1 1 1 1 1 1 1 1 1 1 
105 20 4214 1 1 1 0 1 1 1 0 1 1 1 1 1 1 1 0 1 1 1 1 
106 20 3856 1 0 1 1 1 0 1 1 1 1 1 0 1 1 1 1 1 1 1 1 
107 20 4441 1 1 1 1 1 1 1 1 1 0 0 1 0 1 1 1 1 0 1 1 
108 20 5615 1 1 1 1 1 1 1 1 0 1 1 0 1 1 1 0 1 1 1 1 
109 20 4304 1 1 0 1 1 1 1 1 0 1 1 1 0 1 1 1 0 1 1 1 
110 20 5112 1 1 1 0 1 1 1 1 1 1 1 1 0 1 1 1 0 0 1 1 
111 20 5246 1 1 1 1 1 1 1 0 1 1 0 1 0 1 1 1 1 1 1 1 
112 20 5013 1 1 1 1 1 0 1 1 1 1 0 1 1 1 1 1 1 1 0 1 
113 20 5804 1 1 0 1 1 1 0 1 1 1 0 1 1 1 1 1 1 1 1 1 
114 20 4769 1 0 1 1 1 1 1 1 1 1 0 1 1 1 1 1 1 1 0 1 
115 20 5222 0 1 1 1 1 1 1 1 1 1 1 1 1 0 0 1 1 1 1 0 
116 20 5220 0 1 1 1 0 1 1 0 1 1 1 1 1 0 1 1 1 1 1 1 
117 20 3578 0 1 1 0 1 1 1 1 1 0 1 1 1 1 0 1 1 1 1 1 
118 20 5723 1 1 0 1 1 1 1 1 1 1 1 0 1 1 1 1 0 1 1 1 
119 20 4499 1 0 1 0 1 1 0 1 1 1 1 0 1 1 1 1 1 1 1 1 
120 20 4385 0 1 1 1 1 1 1 1 1 1 1 1 1 1 1 0 1 0 1 1 
121 20 4399 1 1 1 1 1 1 0 1 1 0 1 1 1 1 1 0 1 0 1 1 
122 20 3751 1 1 1 0 0 1 1 1 1 1 1 1 1 1 1 1 1 1 1 0 
123 20 5239 1 1 1 1 1 0 1 1 1 0 1 1 1 0 1 1 0 1 1 1 
124 20 5044 1 1 1 1 1 0 1 1 1 1 1 0 1 1 1 0 1 1 1 1 
125 20 3675 0 1 1 1 1 1 0 1 1 1 1 1 0 0 1 1 1 1 1 1 
126 20 5219 1 1 1 1 1 1 1 1 1 1 1 1 1 0 1 1 0 1 0 1 
127 20 4730 1 1 1 1 1 1 1 1 1 1 0 1 0 0 1 0 1 1 1 1 
128 20 5369 1 1 1 1 1 1 1 1 0 1 1 1 1 0 1 1 1 1 0 1 
129 20 4176 1 1 0 1 1 0 1 1 1 1 1 1 1 0 1 0 1 1 1 1 
130 20 5042 1 0 1 1 1 1 1 0 1 1 1 1 1 1 0 1 1 1 1 0 
131 20 4604 1 1 0 1 0 0 1 1 0 1 1 1 1 1 1 0 1 1 1 1 
132 20 3929 1 1 1 1 1 1 1 1 0 0 1 1 1 1 1 0 1 1 1 1 
133 20 4450 1 1 1 0 0 1 1 1 1 1 1 1 1 1 1 1 0 1 1 1 
134 20 5273 1 1 1 0 1 1 1 1 1 1 1 0 1 1 1 1 0 1 1 1 
135 20 5461 1 1 0 1 1 1 1 1 0 1 0 1 1 1 1 1 1 1 1 1 
136 20 4696 1 1 1 1 1 1 1 1 1 1 0 1 0 1 1 1 0 1 0 1 
137 20 4917 1 1 1 0 1 1 1 1 1 1 1 1 1 1 1 0 1 1 0 0 
138 20 4808 0 1 1 1 0 1 1 0 1 1 1 1 1 1 0 1 1 1 1 1 
139 20 4794 1 1 1 1 0 1 1 1 1 1 1 1 1 1 1 1 1 0 1 0 
140 20 4497 1 1 1 1 1 1 1 1 1 1 0 1 0 1 1 1 1 1 0 1 
141 20 4782 1 1 1 1 1 1 1 1 1 1 1 1 1 1 0 1 0 1 1 0 
142 20 4615 1 0 1 0 1 1 1 0 1 1 1 0 1 1 1 1 1 1 1 1 
143 20 5594 1 1 0 1 1 1 1 1 1 1 1 0 1 0 1 1 1 0 1 1 
144 20 5738 1 1 0 1 0 1 1 1 1 1 1 1 1 1 1 1 1 1 1 0 
145 20 4092 1 1 1 1 1 0 1 1 0 1 1 1 1 0 1 1 1 1 1 1 
146 20 4812 1 1 1 0 1 1 1 1 1 0 1 1 1 1 1 1 1 1 0 1 
147 20 4877 0 1 1 1 1 1 1 1 1 1 1 0 1 1 1 1 0 1 1 0 
148 20 5759 0 1 1 1 1 1 1 1 1 1 1 0 1 1 1 1 1 0 1 1 
149 20 5096 1 1 1 1 1 1 1 1 1 1 1 1 1 0 1 0 0 1 1 1 
150 20 4626 1 1 1 1 1 1 1 1 0 1 1 1 1 1 0 1 1 1 0 1 
151 20 4798 1 1 1 1 0 0 0 1 1 1 1 1 1 1 1 1 1 1 1 1 
152 20 4571 1 0 1 1 1 1 1 1 1 1 1 0 1 1 1 1 0 1 1 1 
153 20 3915 0 1 0 0 1 1 1 1 1 1 1 1 1 1 1 1 1 1 1 1 
154 20 4393 1 1 1 1 1 1 0 1 1 1 0 1 0 1 1 1 1 1 1 1 
155 20 4485 0 1 1 1 1 0 1 1 1 1 1 1 1 0 1 1 1 1 1 1 
156 20 4900 1 1 0 0 1 1 1 1 1 1 1 1 1 1 0 1 1 1 1 1 
157 20 4423 1 0 1 0 1 1 1 1 1 1 1 1 1 1 1 1 0 1 0 1 
158 20 5113 0 1 1 0 1 1 1 0 1 1 1 1 1 1 1 0 1 1 1 1 
159 20 5404 1 0 1 1 1 1 1 0 1 1 0 1 1 1 1 1 1 1 1 1 
160 20 3713 1 1 1 1 1 0 1 1 1 1 1 0 1 1 1 1 1 1 0 1 
161 20 5507 1 1 1 1 0 1 1 1 1 1 1 1 0 1 1 0 0 1 1 1 
162 20 4666 1 1 1 1 1 1 1 1 0 1 1 1 1 1 1 1 1 0 1 0 
163 20 3682 0 1 1 1 1 0 0 1 1 1 1 1 1 1 1 1 1 1 1 1 
164 20 4690 1 0 1 1 1 1 1 1 0 1 1 1 1 0 1 1 1 1 1 1 
165 20 5118 1 1 1 1 1 1 0 0 1 0 1 1 1 1 1 1 0 1 1 1 
166 20 3455 1 0 1 1 0 1 1 0 1 1 1 1 0 1 1 1 1 1 1 1 
167 20 4998 1 1 1 1 1 0 1 0 1 1 1 1 1 1 1 0 1 1 1 1 
168 20 4621 1 1 1 1 1 1 1 0 0 1 1 1 1 1 0 1 1 1 1 1 
169 20 4520 0 1 1 1 1 1 1 1 1 0 1 1 1 1 1 0 1 1 1 1 
170 20 5106 1 0 1 1 0 1 1 1 1 1 1 1 1 1 0 1 1 1 1 1 
171 20 4788 1 1 0 1 1 1 1 0 1 1 1 1 1 1 1 1 1 1 0 1 
172 20 5205 1 1 1 1 1 1 1 0 1 1 0 1 1 1 1 1 1 1 0 1 
173 20 4745 1 1 1 0 1 1 1 1 1 1 0 1 1 0 1 1 1 1 1 1 
174 20 5095 0 1 1 0 1 1 0 1 1 1 1 1 1 1 1 1 1 1 1 1 
175 20 4535 0 1 1 1 1 1 1 1 0 1 1 0 1 1 1 1 1 1 1 1 
176 20 5209 1 0 0 1 1 1 1 1 1 1 1 0 1 1 1 1 1 1 1 1 
177 20 4728 1 1 1 0 1 1 1 1 1 1 1 1 1 0 1 1 0 1 1 1 
178 20 4952 1 1 0 1 0 1 1 1 1 1 1 0 1 0 1 1 1 1 1 1 
179 20 3842 1 1 1 1 1 0 1 1 0 1 1 1 1 1 1 1 0 1 1 1 
180 20 4958 1 1 1 1 1 0 1 1 1 1 1 1 1 0 0 1 1 1 0 1 
181 20 4558 1 1 0 1 1 0 1 1 1 1 1 1 1 1 1 1 1 1 0 1 
182 20 4537 1 1 1 0 0 0 1 1 1 0 1 1 1 1 1 1 1 1 1 1 
183 20 3948 1 1 1 1 0 1 1 1 1 1 1 1 1 1 1 1 1 0 0 1 
184 20 4944 1 1 1 1 1 1 1 1 0 1 0 1 1 1 0 1 1 1 0 1 
185 20 4586 1 1 1 1 1 1 0 1 1 1 1 0 1 1 0 1 1 1 1 0 
186 20 4649 1 1 1 1 1 1 0 1 0 1 1 0 1 1 1 1 1 1 1 1 
187 20 4818 1 0 1 1 1 1 0 1 1 1 1 0 1 1 1 1 1 1 1 1 
188 20 4615 1 1 1 1 0 0 1 1 1 1 1 1 1 1 1 1 0 1 1 1 
189 20 5139 0 1 1 1 1 1 1 1 1 1 1 1 1 1 1 0 1 1 0 1 
190 20 4883 1 1 0 1 1 1 0 1 1 0 1 1 1 1 1 1 1 1 1 1 
191 20 3992 1 1 0 1 1 1 0 1 0 1 1 1 1 1 1 1 1 1 1 1 
192 20 4408 1 1 0 1 1 1 1 1 1 1 1 1 1 1 0 0 1 1 1 1 
193 20 5816 1 1 1 1 0 1 1 1 1 1 1 1 1 1 0 1 1 1 1 1 
194 20 4700 1 1 1 0 1 1 0 0 1 1 1 0 1 1 1 1 1 1 1 1 
195 20 5836 1 1 0 1 0 1 0 1 1 1 1 1 0 1 1 1 1 1 1 1 
196 20 4487 0 1 1 1 1 1 1 1 1 1 1 1 1 1 1 1 1 0 0 1 
197 20 5111 1 1 0 1 1 1 1 0 1 1 1 1 1 1 1 1 1 1 1 0 
198 20 6152 1 1 0 0 1 1 1 1 1 1 1 1 1 1 0 1 1 1 1 1 
199 20 5253 1 1 1 1 1 1 1 0 1 1 1 1 1 1 1 0 1 0 1 1 
200 20 4270 1 1 1 1 1 0 1 1 0 1 1 1 1 1 0 1 1 1 1 1 
201 20 4777 1 1 1 1 1 1 0 1 1 1 0 1 0 1 1 1 0 1 1 1 
202 20 4604 1 1 1 0 0 1 1 1 0 1 1 1 1 1 1 1 0 1 1 1 
203 20 4424 0 1 0 1 1 1 1 1 1 1 1 1 0 1 1 1 1 1 1 1 
204 20 5354 1 1 1 1 1 0 1 1 1 1 1 1 1 1 0 1 1 1 0 1 
205 20 4862 1 1 1 1 1 1 1 1 1 1 1 1 0 1 1 0 1 1 0 1 
206 20 4401 1 1 1 0 0 1 1 0 1 1 1 1 1 1 1 1 1 1 1 1 
207 20 4899 1 1 1 1 1 0 0 0 1 1 1 1 1 1 1 1 1 1 1 1 
208 20 4141 1 1 1 1 1 0 0 1 1 1 1 1 1 1 0 1 1 1 1 1 
209 20 4970 0 1 1 1 0 0 1 1 1 1 1 1 1 1 1 1 1 1 1 1 
210 20 4730 0 1 1 1 0 1 1 1 1 1 1 1 1 0 1 1 1 1 1 1 
211 20 4664 1 1 1 1 1 1 1 0 1 1 1 1 0 1 1 1 1 1 0 1 
212 20 4237 1 1 1 1 1 0 1 1 1 1 0 1 1 1 1 1 0 1 0 1 
213 20 5241 0 1 1 1 0 1 1 1 1 1 1 1 1 1 0 1 1 1 1 1 
214 20 4620 1 0 1 1 1 1 1 1 1 1 1 1 1 0 1 1 0 0 0 1 
215 20 4635 1 1 1 1 0 1 1 1 0 1 1 1 1 1 1 1 0 1 1 1 
216 20 4910 1 1 1 1 1 1 1 1 1 0 1 1 1 1 1 1 0 1 1 0 
217 20 4893 1 1 1 1 0 1 1 1 0 1 1 1 1 0 1 1 1 1 1 1 
218 20 4520 0 1 1 1 0 1 1 1 1 1 0 1 1 0 1 1 1 1 1 1 
219 20 5126 1 0 1 1 1 1 1 1 1 1 0 1 1 1 0 1 0 1 1 1 
220 20 4889 1 0 1 1 1 1 1 1 1 0 1 1 1 1 0 1 0 1 1 1 
221 20 4605 1 1 1 1 1 1 0 1 0 0 1 1 1 1 1 1 1 1 1 1 
222 20 4479 0 1 1 1 1 1 0 1 0 1 0 1 1 1 1 1 1 1 1 1 
223 20 4166 1 1 1 1 1 1 1 1 1 1 1 1 0 0 1 1 1 0 1 1 
224 20 5150 1 1 1 1 0 1 1 1 1 1 1 0 0 1 1 1 1 1 1 1 
225 20 5229 1 1 1 0 1 1 0 1 1 0 1 1 1 1 1 1 0 1 1 1 
226 20 4899 1 1 0 1 1 1 1 1 1 1 1 1 1 1 1 0 0 1 1 1 
227 20 5188 1 1 0 1 1 1 1 1 1 0 1 1 1 0 1 1 1 1 0 1 
228 20 5612 1 1 1 1 1 1 0 0 1 1 1 1 1 1 1 1 1 1 1 0 
229 20 3922 1 1 1 1 1 1 1 0 1 1 1 1 1 0 0 1 1 1 1 0 
230 20 5030 0 1 1 1 1 1 1 0 1 1 1 1 1 1 1 1 1 1 1 0 
231 20 4845 1 1 0 1 1 0 1 1 1 1 1 1 1 1 1 1 1 1 0 1 
232 20 4940 1 0 1 1 1 0 1 1 1 1 0 1 1 1 1 1 1 0 1 1 
233 20 4233 1 1 0 1 0 1 1 0 1 1 1 1 1 1 1 0 1 1 1 1 
234 20 6164 1 1 1 1 0 1 1 1 1 1 1 1 1 1 1 0 0 1 1 1 
235 20 4945 1 1 0 1 1 1 0 1 1 0 0 1 1 1 1 1 1 1 1 1 
236 20 4620 1 0 1 1 1 1 1 1 1 0 1 1 1 1 0 1 0 1 1 1 
237 20 3802 1 1 1 1 1 1 1 0 1 0 1 1 1 1 1 0 1 1 1 1 
238 20 4631 1 1 1 1 1 1 1 0 1 1 0 1 1 1 1 1 1 1 0 1 
239 20 4783 1 1 1 1 1 1 1 1 1 1 1 1 0 1 0 0 1 1 0 1 
240 20 4067 1 1 0 1 1 0 1 1 1 1 0 1 0 1 1 1 1 1 1 1 
241 20 5268 1 1 1 1 1 1 1 0 1 1 1 1 0 0 1 1 1 1 1 1 
242 20 4301 0 0 1 1 1 1 1 1 0 0 1 1 0 1 1 1 1 1 1 1 
243 20 4770 1 1 1 0 0 0 1 1 1 1 1 1 1 1 1 1 1 1 1 1 
244 20 4340 0 1 1 1 1 1 1 0 0 1 1 1 1 1 1 1 1 1 0 1 
245 20 3359 0 1 1 1 1 1 1 1 0 1 0 1 1 1 1 1 1 1 1 1 
246 20 4322 1 1 1 1 1 1 1 0 1 1 1 1 1 1 1 1 1 1 0 0 
247 20 4597 1 1 1 1 1 0 1 1 0 1 1 1 1 1 1 1 1 1 0 1 
248 20 5426 1 1 1 1 0 0 1 1 1 1 1 1 1 1 1 1 1 1 0 0 
249 20 4346 1 1 1 1 1 1 1 1 0 1 1 0 1 1 1 1 1 0 1 1 
250 20 4715 1 1 1 1 1 1 1 0 1 1 1 1 0 1 0 1 1 1 0 1 
251 20 5498 1 1 1 1 0 1 1 1 1 1 1 1 1 0 1 0 1 1 1 1 
252 20 4337 1 1 1 1 1 1 1 0 1 1 1 1 0 1 1 1 1 1 0 0 
253 20 4943 1 1 1 1 0 1 1 1 1 1 1 0 1 0 1 1 1 1 1 1 
254 20 4685 1 1 0 1 0 0 1 1 1 1 1 1 1 1 1 1 1 1 1 1 
255 20 4448 1 1 1 0 1 1 1 1 1 1 1 1 0 1 0 1 1 1 1 1 
256 20 3226 1 0 1 1 1 1 0 0 1 1 1 1 1 1 1 1 1 1 1 1 
257 20 5396 1 1 1 1 1 1 1 0 1 1 1 0 1 1 1 1 1 0 1 1 
258 20 4037 1 1 0 1 1 1 1 1 1 1 1 0 1 1 1 1 1 1 1 0 
259 20 4415 1 1 1 0 1 1 1 1 1 0 1 1 1 0 1 1 0 1 1 1 
260 20 3593 0 1 1 1 1 1 1 1 1 1 1 0 0 1 1 0 1 1 1 0 
261 20 4219 1 0 0 1 0 1 0 1 1 1 1 1 1 1 1 1 1 1 1 1 
262 20 4678 1 1 1 1 1 1 0 0 1 1 1 0 1 1 1 1 1 1 1 1 
263 20 5089 0 1 1 1 0 0 1 1 1 1 1 1 1 1 1 1 1 1 1 0 
264 20 4812 1 1 1 0 1 1 1 0 1 1 1 1 1 1 1 1 1 0 1 1 
265 20 4141 1 1 1 1 1 0 1 1 1 1 1 1 0 1 1 1 1 1 1 0 
266 20 3892 1 1 0 0 0 1 1 1 1 1 0 1 1 1 1 1 1 1 1 1 
267 20 4488 1 1 0 1 1 1 1 1 1 1 1 1 1 1 1 0 0 1 1 0 
268 20 3920 0 1 1 1 1 1 1 1 1 0 1 0 1 1 1 1 1 0 1 1 
269 20 5061 1 1 1 0 0 1 1 1 1 1 1 0 1 1 1 0 1 1 1 1 
270 20 4753 1 1 1 1 1 1 0 0 1 1 1 1 1 1 1 1 1 0 1 0 
271 20 4783 1 1 1 1 1 1 1 1 1 1 1 1 1 1 1 1 0 0 0 1 
272 20 4842 1 1 1 1 1 1 1 1 0 0 1 1 1 1 1 1 1 0 1 0 
273 20 4738 1 1 0 1 0 1 1 0 1 1 1 1 1 1 1 1 1 1 1 1 
274 20 5044 1 1 1 1 1 1 1 0 1 1 1 1 1 1 0 0 1 0 1 1 
275 20 4931 1 1 0 1 1 1 1 0 1 1 1 1 1 1 1 1 1 1 0 1 
276 20 4791 1 1 1 0 1 1 1 1 1 0 1 1 1 1 0 1 1 1 0 1 
277 20 5736 1 1 1 1 1 1 1 0 1 0 1 1 1 0 1 1 1 1 1 1 
278 20 5689 1 1 1 0 1 1 1 0 1 1 1 1 1 1 0 1 1 1 1 1 
279 20 4877 1 0 1 1 1 0 1 1 1 1 1 1 1 1 1 1 1 1 1 0 
280 20 4719 1 1 1 0 0 1 1 1 1 1 1 0 0 1 1 1 1 1 1 1 
281 20 4891 0 0 1 1 1 1 1 0 0 1 1 1 1 1 1 1 1 1 1 1 
282 20 5903 1 1 1 1 1 1 1 1 1 1 0 0 1 1 1 0 1 1 1 1 
283 20 4688 1 1 1 1 1 1 1 1 1 1 1 1 1 0 0 0 1 1 1 1 
284 20 4188 0 1 1 1 1 1 1 1 1 0 1 1 1 1 1 1 1 0 1 1 
285 20 5125 0 1 1 1 1 1 1 1 1 0 1 1 1 1 1 1 0 1 1 0 
286 20 5135 1 0 1 1 1 1 1 1 1 0 1 1 1 1 1 0 1 1 1 1 
287 20 4676 0 1 1 0 0 1 1 1 1 1 1 1 1 1 1 1 1 1 1 1 
288 20 5599 1 1 0 1 1 1 1 1 1 1 1 0 1 1 1 0 0 0 1 1 
289 20 5165 0 1 0 0 1 1 1 0 1 1 1 1 1 1 1 1 1 1 1 1 
290 20 5184 1 0 1 1 1 0 1 1 1 1 1 1 0 1 0 1 1 1 1 1 
291 20 4878 1 0 1 0 1 1 1 1 1 1 1 1 1 1 1 1 0 1 1 1 
292 20 3801 1 1 1 1 1 1 1 0 1 1 1 1 1 1 1 0 0 1 1 1 
293 20 4383 0 0 0 1 1 1 1 1 1 1 1 1 1 1 1 1 1 1 0 1 
294 20 4752 1 0 1 1 1 1 1 1 1 1 1 1 1 1 1 1 1 0 0 1 
295 20 4542 1 1 1 1 1 1 0 1 1 1 1 1 0 1 1 1 1 1 0 1 
296 20 3828 1 1 0 1 1 1 1 1 1 1 1 0 1 0 1 1 1 1 1 1 
297 20 4604 1 1 1 1 1 1 1 1 1 0 1 1 1 1 1 1 1 0 0 1 
298 20 5095 1 1 1 1 0 0 1 1 1 1 1 1 0 1 1 1 0 1 1 1 
299 20 4780 1 1 1 1 1 1 1 1 1 1 1 1 1 0 0 0 1 1 1 1 
300 20 4147 1 1 0 0 1 1 1 1 1 1 1 0 1 1 1 1 1 1 0 1 
301 20 3983 1 1 1 1 1 1 1 0 0 1 1 1 1 0 1 1 1 1 1 1 
302 20 4851 1 1 1 1 1 0 1 0 1 1 1 1 1 1 1 1 0 0 1 1 
303 20 5290 1 1 1 1 1 0 1 1 1 1 1 1 1 1 1 1 1 0 1 0 
304 20 5874 1 1 1 1 1 1 1 1 1 1 1 1 1 1 0 1 0 1 1 0 
305 20 5166 1 1 1 1 1 1 1 1 1 1 1 1 0 1 0 1 1 1 0 1 
306 20 4229 1 0 1 1 1 1 1 1 1 1 1 1 1 1 0 0 1 0 1 1 
307 20 3803 1 1 1 0 1 1 1 1 0 1 1 1 1 1 0 1 1 1 1 1 
308 20 5440 1 1 0 1 1 1 1 0 1 1 1 0 1 1 1 1 1 1 1 1 
309 20 5087 1 1 1 1 0 1 1 0 1 1 1 0 1 1 1 1 1 1 0 1 
310 20 5115 1 1 1 1 1 0 1 0 1 1 1 1 0 1 1 1 1 0 1 1 
311 20 4892 1 1 1 1 1 1 1 1 1 1 1 0 0 1 0 1 1 1 1 1 
312 20 5162 1 0 1 1 0 1 1 1 1 1 1 1 1 1 1 1 1 1 0 1 
313 20 3861 0 1 1 0 1 1 1 1 1 1 1 1 1 1 1 0 1 1 1 0 
314 20 4845 1 0 1 1 1 1 0 0 1 1 1 1 1 1 1 1 1 1 1 1 
315 20 5080 1 1 1 1 1 1 1 1 1 1 1 0 0 1 1 1 0 1 1 1 
316 20 4739 1 0 1 1 1 1 1 1 1 1 1 1 1 1 1 1 1 1 0 0 
317 20 4152 1 1 1 1 1 0 1 1 1 0 1 0 1 1 1 1 1 1 1 0 
318 20 3418 0 1 1 1 1 1 1 1 0 0 1 1 1 1 1 1 1 1 1 1 
319 20 5277 1 1 1 1 1 0 1 1 1 0 1 1 1 1 1 0 1 1 1 0 
320 20 6276 1 0 1 1 1 1 1 1 1 1 0 1 1 1 1 1 1 1 1 0 
321 20 4584 1 1 1 1 1 1 0 1 1 0 1 1 1 1 1 0 1 1 1 1 
322 20 5049 1 1 1 1 1 1 1 1 1 1 1 1 1 0 0 1 1 1 0 1 
323 20 3026 1 1 1 1 1 1 1 0 1 1 1 1 1 1 1 1 0 0 0 1 
324 20 5308 1 1 1 1 1 1 1 1 0 1 1 0 1 0 1 1 1 1 1 1 
325 20 5569 0 1 1 1 0 1 1 1 1 1 1 1 0 1 1 1 1 1 1 1 
326 20 5249 1 1 1 1 1 1 1 1 0 1 1 1 1 1 1 1 0 1 1 0 
327 20 4753 1 1 1 1 1 1 1 1 0 0 1 1 1 1 0 1 1 1 1 1 
328 20 4369 1 0 1 1 1 1 1 1 1 1 1 1 0 1 0 1 1 1 1 1 
329 20 3481 1 0 1 1 1 0 1 0 1 1 1 1 1 1 1 1 1 1 0 1 
330 20 4211 1 1 1 1 0 1 1 1 0 1 1 1 1 1 0 1 1 1 1 1 
331 20 3643 0 1 1 0 1 1 1 1 1 1 1 1 1 1 1 1 1 1 0 0 
332 20 5253 1 1 0 1 1 1 1 0 1 1 1 1 1 1 1 0 1 0 1 1 
333 20 4417 1 1 0 1 1 0 0 1 1 1 1 1 1 1 1 1 1 1 1 1 
334 20 5155 1 1 1 0 1 1 1 1 1 1 1 1 1 0 1 1 1 0 1 1 
335 20 5190 1 0 1 1 1 1 0 1 1 1 1 1 1 1 1 0 0 1 1 1 
336 20 5007 1 1 1 1 1 1 1 1 1 1 1 0 0 1 1 1 1 0 0 1 
337 20 3458 1 1 1 1 0 1 1 1 1 1 1 1 1 0 1 1 0 1 1 1 
338 20 4890 1 1 1 1 1 0 0 1 1 1 1 1 1 1 1 1 1 1 1 0 
339 20 5911 1 1 0 1 0 1 1 0 1 0 1 1 1 1 1 1 1 1 1 1 
340 20 4649 1 0 1 1 1 1 1 1 1 1 1 0 1 1 1 1 1 1 0 1 
341 20 5097 1 0 1 1 1 1 0 1 1 1 1 1 1 1 0 1 1 1 1 1 
342 20 4089 1 1 1 1 1 1 1 0 1 1 1 1 1 1 0 1 1 0 1 1 
343 20 4176 1 1 1 0 1 0 1 1 1 1 1 1 1 0 1 0 1 1 1 1 
344 20 4539 0 0 1 1 1 0 1 1 1 1 1 1 1 1 1 1 1 1 1 1 
345 20 4549 1 1 1 1 1 1 0 1 1 1 1 1 0 1 1 1 0 1 1 1 
346 20 4892 1 0 1 1 1 1 1 1 0 1 1 1 1 1 1 0 0 1 1 1 
347 20 4976 1 1 1 0 1 1 0 1 1 1 0 0 1 1 1 1 1 1 1 1 
348 20 5126 1 1 1 0 1 1 1 0 1 1 1 1 1 1 1 0 1 0 1 1 
349 20 4380 1 1 1 1 0 1 1 1 0 1 1 1 1 1 1 0 1 1 0 1 
350 20 4513 1 1 0 1 1 1 0 1 1 1 0 1 1 0 1 1 1 1 1 1 
351 20 4711 1 1 1 1 1 1 1 1 1 0 1 1 1 1 1 1 1 1 0 0 
352 20 4203 1 0 1 1 1 0 1 1 1 1 1 1 1 1 1 0 1 1 1 1 
353 20 4668 1 1 0 1 1 1 1 1 1 1 1 1 1 1 1 0 1 1 0 1 
354 20 4814 1 0 1 1 1 1 1 1 1 1 1 1 1 1 0 1 0 1 1 1 
355 20 4068 1 1 1 0 1 1 1 1 1 1 1 1 1 0 0 1 1 1 1 1 
356 20 3924 1 1 1 1 1 1 1 1 1 1 1 1 0 1 1 1 1 0 1 0 
357 20 4464 1 1 1 1 1 1 1 1 1 1 0 1 1 1 0 1 1 0 1 1 
358 20 5564 0 1 1 1 1 1 1 0 1 1 1 1 0 1 1 0 1 1 1 1 
359 20 3983 1 1 1 1 1 1 0 1 1 1 1 0 0 1 1 1 1 1 1 1 
360 20 4859 1 1 1 0 1 1 0 1 1 1 0 1 1 1 1 1 1 1 1 1 
361 20 4322 1 1 1 1 1 1 0 1 0 1 1 1 1 1 1 1 1 0 1 1 
362 20 5715 1 1 1 1 1 1 1 1 1 1 0 1 0 1 1 1 1 0 1 0 
363 20 5184 0 1 1 1 0 1 1 1 1 1 1 1 1 1 1 1 1 0 1 1 
364 20 4501 1 0 1 1 1 1 1 1 1 1 1 0 1 1 1 1 0 1 1 1 
365 20 4740 0 0 1 0 1 1 1 1 1 1 1 1 1 1 1 1 1 1 1 1 
366 20 5575 1 1 0 1 0 1 1 1 1 1 1 1 1 1 1 1 0 1 1 1 
367 20 4178 1 1 1 0 1 0 0 1 1 1 1 1 1 1 1 1 1 1 1 1 
368 20 3978 0 1 0 0 1 1 1 1 1 1 1 1 1 1 1 1 1 1 1 0 
369 20 5342 1 1 1 1 1 1 0 1 1 1 1 0 1 1 1 1 0 1 1 1 
370 20 4956 1 1 1 1 1 1 1 1 1 1 1 1 0 1 1 0 0 1 1 1 
371 20 4535 1 1 1 1 1 1 0 1 1 1 1 1 0 1 1 1 0 0 1 1 
372 20 5693 1 1 1 1 1 1 0 1 0 1 1 1 1 1 1 0 1 1 1 0 
373 20 4722 1 1 1 1 1 1 1 1 1 1 1 0 0 1 1 1 1 1 0 0 
374 20 4936 1 1 1 1 1 1 0 1 1 1 1 1 1 1 1 1 1 0 0 1 
375 20 4835 1 1 1 1 1 1 0 0 1 1 1 1 1 1 1 1 1 0 1 1 
376 20 5308 1 1 0 1 1 1 1 1 0 1 1 1 0 1 1 1 1 1 1 1 
377 20 4492 1 1 1 0 1 0 1 1 1 1 1 1 0 1 0 1 1 1 1 1 
378 20 5517 0 1 1 1 0 1 1 1 1 0 1 1 1 1 1 1 1 1 1 1 
379 20 5633 1 1 0 1 1 0 1 1 1 1 1 1 0 1 1 1 1 1 1 1 
380 20 4877 1 0 1 1 1 1 0 1 1 0 1 1 1 0 1 1 1 1 1 1 
381 20 4819 0 1 1 1 1 1 1 1 1 1 1 1 0 1 0 1 1 1 1 0 
382 20 4873 1 1 0 1 1 1 1 1 1 0 1 1 0 1 1 1 1 1 0 1 
383 20 4395 1 1 1 0 1 1 0 0 1 0 1 1 1 1 0 1 1 1 1 1 
384 20 4011 1 1 1 1 0 1 1 1 1 1 1 1 1 0 0 0 1 1 1 1 
385 20 4663 0 1 1 1 1 1 1 1 0 1 1 0 1 1 1 1 1 1 1 1 
386 20 3524 1 1 1 1 1 1 1 1 1 1 1 1 0 1 1 1 0 1 0 1 
387 20 5811 1 1 0 1 1 1 1 1 1 1 0 1 1 0 1 1 1 1 1 1 
388 20 4673 1 0 1 0 0 1 1 1 1 1 1 1 1 1 1 1 1 1 1 1 
389 20 4919 1 0 1 1 1 0 1 0 1 1 1 1 1 1 0 1 1 1 1 1 
390 20 4499 0 0 1 1 1 1 1 1 1 1 1 1 0 1 1 1 1 0 1 1 
391 20 3982 0 1 1 1 1 1 1 0 1 1 1 1 0 1 1 1 1 0 1 1 
392 20 6130 1 1 0 1 1 1 1 1 0 1 1 1 1 0 1 1 1 1 1 1 
393 20 4883 1 1 1 1 1 0 0 1 1 0 1 0 1 1 1 1 1 1 1 1 
394 20 4778 1 1 1 1 1 1 1 1 1 1 0 1 1 1 1 1 0 1 1 1 
395 20 5293 1 0 1 1 1 1 1 1 1 1 1 1 1 1 0 1 1 1 1 0 
396 20 4838 1 1 1 1 1 1 1 0 1 1 1 0 1 1 1 0 1 1 1 1 
397 20 5052 0 1 1 1 1 1 1 1 1 0 1 1 0 1 1 1 1 1 1 1 
398 20 4669 1 1 1 1 0 1 1 1 1 1 1 1 1 0 1 1 1 1 1 0 
399 20 4481 1 0 1 1 1 1 1 0 1 1 1 1 0 1 0 1 1 1 1 1 
400 20 4953 0 1 0 1 1 0 1 1 1 1 1 1 1 1 1 1 1 1 1 1 
401 20 4991 1 1 1 1 1 1 1 1 1 1 0 0 1 1 1 1 1 0 1 1 
402 20 4213 1 1 1 1 1 1 1 1 1 1 1 0 0 1 1 0 0 1 1 1 
403 20 5406 0 1 1 1 0 1 1 1 1 0 1 1 1 1 1 1 1 0 1 1 
404 20 4931 1 1 1 1 1 1 1 1 1 1 1 1 0 0 1 0 1 1 1 1 
405 20 4679 1 1 1 1 1 1 1 1 0 1 1 1 0 1 1 1 1 0 1 1 
406 20 5196 1 1 0 1 0 1 1 1 1 1 1 1 1 1 1 1 1 1 0 1 
407 20 5717 1 1 1 1 0 1 0 1 1 1 0 1 1 1 1 1 1 1 1 1 
408 20 3826 1 0 1 1 1 1 1 1 1 1 0 1 1 0 0 1 1 1 1 1 
409 20 4978 1 0 1 0 1 1 0 1 1 1 1 1 1 1 1 1 1 1 1 1 
410 20 5390 1 1 1 0 1 1 1 1 1 1 1 0 1 1 1 1 1 0 1 1 
411 20 4745 1 1 1 1 1 1 0 0 1 0 1 1 1 1 1 1 1 1 1 1 
412 20 5876 1 1 0 1 1 1 1 1 1 1 1 0 1 1 1 1 0 0 1 1 
413 20 4593 1 1 1 1 1 1 0 1 1 0 1 1 1 1 1 1 1 1 0 0 
414 20 4690 1 1 1 1 1 1 1 1 1 1 1 1 0 1 1 1 1 0 0 1 
415 20 4379 1 1 1 1 1 1 1 1 0 1 0 1 1 1 1 1 0 1 0 1 
416 20 4466 1 1 1 1 1 1 1 0 0 1 1 1 1 1 1 1 1 0 1 1 
417 20 4731 1 1 0 1 0 1 1 1 0 1 1 1 1 1 1 1 1 1 0 1 
418 20 4849 1 1 1 1 1 1 0 1 1 1 1 0 1 1 1 1 1 1 0 1 
419 20 5034 1 0 1 1 1 1 1 1 1 1 1 1 1 1 0 1 1 1 1 0 
420 20 4431 1 1 1 1 1 1 1 1 0 1 0 1 1 0 1 1 0 1 1 0 
421 20 5227 1 1 1 1 1 1 1 0 1 1 0 0 1 1 1 1 1 1 1 1 
422 20 3896 1 0 1 1 0 1 1 1 1 0 1 0 1 1 1 1 1 1 1 1 
423 20 4612 1 1 1 1 1 1 1 1 1 1 1 1 1 0 1 0 1 1 1 0 
424 20 4774 1 1 1 0 1 1 1 1 1 1 1 1 1 0 1 0 1 1 1 1 
425 20 4388 1 1 1 1 1 1 1 1 1 0 1 1 0 1 1 0 1 1 1 1 
426 20 5376 1 1 1 1 1 1 0 0 1 1 1 1 1 1 1 1 1 1 1 0 
427 20 5094 1 1 1 1 1 1 0 1 0 0 1 1 1 1 1 1 1 1 1 1 
428 20 4815 1 0 1 1 1 0 1 1 1 1 1 1 1 1 1 1 1 0 1 0 
429 20 5022 1 1 1 1 1 1 1 0 1 1 1 1 1 0 1 1 1 1 0 0 
430 20 4247 1 1 1 1 1 0 1 1 1 1 1 1 0 0 1 1 1 1 1 1 
431 20 4941 1 1 1 1 0 1 0 1 1 1 1 0 1 1 1 1 1 1 1 1 
432 20 4623 1 1 1 1 1 0 1 1 0 1 1 1 1 1 1 0 1 1 1 1 
433 20 4092 1 1 1 1 1 1 1 1 0 1 1 0 1 0 1 1 1 1 1 1 
434 20 4190 1 1 1 0 1 1 1 1 1 1 1 1 0 0 1 1 1 1 1 0 
435 20 4713 1 1 1 0 1 1 1 0 1 1 1 1 1 1 1 0 1 1 0 1 
436 20 5315 1 1 1 0 1 1 1 1 1 1 1 1 1 0 1 1 1 1 1 1 
437 20 5372 1 1 1 1 0 1 1 1 1 1 1 0 1 0 1 1 1 0 1 1 
438 20 4558 1 0 1 1 1 1 1 1 1 1 1 1 0 1 1 0 1 1 1 1 
439 20 4741 1 1 1 0 1 0 1 1 1 1 1 1 1 1 1 1 0 1 1 1 
440 20 4771 1 1 1 1 1 0 1 1 1 1 1 1 1 1 1 0 0 1 1 1 
441 20 4124 1 1 1 1 1 0 1 1 1 1 1 0 1 1 1 1 1 1 1 0 
442 20 5600 1 1 1 1 1 1 0 0 1 1 1 1 1 1 1 1 1 1 0 1 
443 20 4696 1 0 0 1 1 1 1 1 1 1 1 1 1 1 1 0 1 1 0 1 
444 20 3726 1 1 1 1 0 1 1 1 1 1 1 1 1 0 1 1 1 1 0 1 
445 20 4324 1 1 1 1 1 1 1 1 1 1 0 1 1 1 1 0 1 0 1 1 
446 20 4709 1 1 1 1 1 1 1 1 1 1 1 0 1 1 0 1 0 1 1 1 
447 20 4624 1 0 1 0 1 1 1 1 1 1 0 1 1 1 1 1 1 1 0 1 
448 20 4599 1 1 1 1 1 1 0 1 1 0 1 1 1 1 1 0 1 1 1 1 
449 20 4360 1 1 0 1 1 1 1 0 1 1 1 0 1 1 1 1 1 1 1 1 
450 20 5350 1 1 0 1 1 1 1 1 0 1 1 1 1 1 1 1 0 1 1 1 
451 20 3241 1 1 1 1 1 1 1 1 1 0 0 1 1 0 1 1 0 1 1 1 
452 20 5573 1 1 1 1 1 1 1 1 1 0 1 0 0 1 1 1 1 1 1 1 
453 20 4632 0 1 1 0 1 1 1 1 1 1 1 1 0 1 1 1 1 1 1 1 
454 20 4086 1 1 0 1 1 1 1 1 1 1 1 1 1 1 1 0 0 1 1 1 
455 20 5493 1 1 1 0 1 1 0 1 1 1 1 1 1 1 1 1 0 1 1 1 
456 20 4947 0 0 0 1 1 1 1 1 1 1 1 1 1 1 1 1 1 1 1 1 
457 20 3498 1 1 1 1 1 1 1 1 1 1 1 1 0 0 1 1 0 1 1 1 
458 20 4569 0 1 1 1 1 1 1 0 1 1 1 1 1 1 0 1 1 0 1 1 
459 20 5055 1 1 0 1 1 1 1 1 1 0 1 1 1 1 1 1 1 1 0 1 
460 20 4983 1 1 0 1 1 1 1 1 0 1 1 1 1 0 1 1 1 1 1 1 
461 20 3903 1 1 1 1 1 1 1 1 1 0 1 1 1 1 1 1 0 0 1 1 
462 20 5508 1 1 1 1 1 1 1 1 1 1 1 1 0 1 1 1 0 0 1 1 
463 20 5294 1 0 1 1 0 1 1 1 0 1 1 1 1 1 1 1 1 1 1 1 
464 20 5283 1 1 1 1 1 1 0 0 1 1 1 1 1 1 1 0 1 1 1 1 
465 20 4505 0 1 1 1 1 1 1 1 0 1 1 1 1 1 1 0 1 1 0 1 
466 20 5332 1 1 1 0 1 1 1 1 1 1 1 1 1 1 1 0 1 1 1 0 
467 20 4665 1 1 1 1 1 1 1 1 0 0 1 0 1 1 1 1 1 1 1 1 
468 20 4331 1 1 1 1 1 1 1 1 1 1 1 1 0 0 0 1 1 1 1 1 
469 20 4695 1 1 0 1 1 1 1 0 1 1 1 1 1 0 1 1 1 1 1 1 
470 20 4726 0 1 0 1 1 1 1 1 1 0 1 1 1 1 1 1 1 1 1 1 
471 20 3119 0 1 1 1 1 1 1 1 1 1 1 1 1 1 1 1 1 0 1 0 
472 20 4905 1 0 0 1 1 1 1 0 1 1 1 1 1 0 1 1 1 1 1 1 
473 20 5467 1 1 1 1 1 1 1 1 1 1 0 1 1 1 1 1 1 0 0 1 
474 20 4953 1 1 1 1 1 1 0 1 1 1 1 1 1 0 1 0 1 1 1 1 
475 20 4081 1 1 1 1 0 0 1 1 1 1 1 1 0 1 1 1 1 1 1 1 
476 20 5006 0 1 0 1 1 1 1 0 0 1 1 1 1 1 1 1 1 1 1 1 
477 20 4654 1 1 1 1 1 1 1 1 1 1 1 0 1 0 1 1 1 1 0 1 
478 20 5363 1 1 1 1 1 1 1 1 1 1 0 1 1 1 1 1 1 0 1 0 
479 20 5503 1 1 1 1 1 0 1 1 0 1 1 1 0 1 1 1 1 1 1 1 
480 20 5435 1 1 1 1 1 1 0 1 0 1 1 1 1 1 1 1 0 1 1 1 
481 20 4737 1 1 0 1 1 0 1 1 0 1 1 1 1 1 1 1 1 1 1 1 
482 20 4586 1 0 1 1 1 1 1 1 1 1 1 1 0 1 1 1 1 1 1 0 
483 20 5417 0 0 1 1 1 1 1 1 1 1 1 1 1 1 1 0 1 1 1 1 
484 20 4732 1 1 1 1 1 1 1 1 1 1 0 1 1 1 1 0 1 1 0 1 
485 20 5368 1 1 1 1 1 1 1 1 1 1 1 1 1 1 0 0 1 1 1 0 
486 20 4082 1 1 1 1 1 0 1 1 1 0 1 1 1 1 1 1 1 0 1 1 
487 20 5413 0 1 1 1 1 1 0 1 1 1 1 1 1 1 1 1 1 0 1 1 
488 20 4368 1 1 1 1 1 1 0 1 1 1 1 1 1 1 1 1 1 0 0 1 
489 20 5314 0 1 1 1 1 1 1 1 0 1 0 1 1 1 1 1 1 1 1 1 
490 20 4536 1 1 1 1 1 1 1 0 1 1 1 1 1 1 0 0 1 1 1 1 
491 20 5027 0 1 1 1 1 1 1 1 1 1 1 1 0 1 1 1 1 1 1 0 
492 20 3771 1 1 1 1 1 1 1 1 0 1 1 1 1 1 1 1 0 0 1 1 
493 20 4463 1 1 1 1 1 1 0 1 0 1 1 1 0 1 1 1 1 1 1 0 
494 20 5496 0 1 1 1 1 1 0 0 1 1 1 1 1 1 1 1 1 1 1 1 
495 20 4517 1 1 1 1 1 1 0 1 1 1 0 1 1 1 0 1 0 1 1 1 
496 20 4955 1 0 1 1 1 1 1 1 1 1 0 1 1 1 1 1 1 1 0 1 
497 20 3439 1 1 1 1 1 1 1 1 1 1 1 1 1 1 1 0 0 1 1 1 
498 20 5018 0 1 1 1 0 1 1 1 1 1 1 1 1 1 0 1 1 1 1 0 
499 20 5025 1 1 0 1 1 1 1 1 1 1 1 0 0 1 1 1 1 1 1 1 
500 20 4610 1 1 1 1 1 0 1 1 1 1 1 1 1 1 1 1 0 0 1 1 
