1 20 4218 1 0 1 1 1 0 1 1 1 1 1 1 1 1 0 0 1 1 1 1 
2 20 4839 1 1 1 1 1 1 1 1 1 1 1 0 1 1 1 1 1 1 0 0 
3 20 6128 1 1 1 1 0 1 0 1 1 1 1 1 1 1 1 1 1 0 1 1 
4 20 5270 1 1 1 1 0 1 1 1 1 1 1 1 1 0 1 0 1 1 0 1 
5 20 3904 1 0 1 1 0 1 0 1 1 1 1 1 1 1 1 1 0 1 1 1 
6 20 4558 1 1 1 1 1 1 1 1 1 0 0 1 1 0 1 1 1 1 1 1 
7 20 4047 1 0 0 0 1 1 0 1 1 1 1 1 1 1 1 1 1 1 1 1 
8 20 5050 1 1 0 1 1 1 1 1 1 1 1 1 1 0 1 0 1 0 1 1 
9 20 5783 1 1 1 1 1 0 1 0 1 0 1 1 1 1 1 1 1 1 1 0 
10 20 4288 1 1 1 1 1 1 0 0 1 1 1 1 1 1 0 0 1 1 1 1 
11 20 4259 1 1 1 1 1 1 1 1 1 1 0 0 1 1 0 1 0 1 1 1 
12 20 5048 1 1 1 1 1 1 1 1 0 1 1 1 1 1 1 0 0 1 1 0 
13 20 5336 0 1 1 0 1 1 1 1 1 1 0 1 1 1 1 1 0 1 1 1 
14 20 5679 0 1 1 1 1 0 1 1 1 1 1 1 0 1 1 1 1 1 1 1 
15 20 5428 1 1 0 1 1 1 1 1 1 1 1 1 1 0 0 1 1 0 1 1 
16 20 4083 1 1 1 1 1 1 1 0 1 1 1 0 1 1 0 1 1 0 1 1 
17 20 4375 1 0 1 1 1 1 1 0 1 1 1 1 1 0 0 1 1 1 1 1 
18 20 4655 1 0 1 0 1 1 1 1 1 1 1 1 0 1 1 1 1 1 1 0 
19 20 3434 0 1 1 1 1 1 1 0 1 1 0 1 1 1 0 1 1 1 1 1 
20 20 5539 1 1 1 1 1 1 1 1 1 0 1 1 1 1 0 0 1 1 1 1 
21 20 3792 0 1 1 1 1 1 1 1 1 1 1 0 1 1 1 1 0 1 1 1 
22 20 4699 1 1 1 0 1 1 1 1 1 1 1 0 1 1 1 0 1 1 1 0 
23 20 4115 1 1 0 1 1 1 1 1 1 1 1 1 0 1 1 0 1 0 1 1 
24 20 3324 1 1 1 0 0 1 0 1 1 1 1 1 1 1 1 1 1 1 1 1 
25 20 5747 1 1 1 1 1 1 0 1 1 1 1 0 1 1 0 1 1 1 1 1 
26 20 4356 1 0 1 1 1 1 1 1 1 1 1 1 1 0 1 1 0 1 1 1 
27 20 5057 1 1 1 0 0 1 1 1 0 1 1 1 1 1 1 1 1 1 1 1 
28 20 5385 1 1 1 1 1 0 1 1 1 1 1 1 1 1 1 1 1 0 1 1 
29 20 5020 1 1 1 1 1 0 0 1 1 1 0 1 1 1 1 1 1 0 1 1 
30 20 4541 1 1 1 1 1 1 1 1 0 1 1 0 1 1 1 1 1 1 0 1 
31 20 4816 0 1 1 1 1 1 1 1 1 1 1 1 1 1 1 0 0 0 1 1 
32 20 4601 0 1 1 1 1 1 1 1 1 1 1 0 0 1 1 1 1 1 1 0 
33 20 5036 1 1 1 1 1 1 1 1 1 1 1 1 0 0 1 0 1 1 1 1 
34 20 4895 1 1 0 1 0 1 1 1 1 1 0 1 1 1 1 1 1 1 1 1 
35 20 5514 1 1 1 1 1 1 0 1 1 1 1 1 0 1 1 1 1 1 0 1 
36 20 4898 1 1 0 1 1 0 1 1 1 0 1 1 1 1 1 1 1 1 1 1 
37 20 4341 1 1 1 0 0 1 1 1 1 0 1 1 1 1 1 1 1 1 0 1 
38 20 5631 1 1 1 1 1 0 0 1 1 1 1 1 1 1 1 1 1 1 0 0 
39 20 4403 1 1 1 0 1 1 1 1 1 0 1 1 1 1 1 0 1 1 1 1 
40 20 5597 1 1 1 1 0 1 1 1 1 1 0 0 1 1 1 1 1 1 1 1 
41 20 4402 1 1 1 0 1 1 1 1 1 0 1 1 1 1 1 0 0 1 1 1 
42 20 4625 1 0 1 0 1 1 1 1 1 1 1 1 1 0 1 1 1 1 1 0 
43 20 5597 1 1 1 1 1 0 1 1 0 1 1 1 1 1 1 1 0 1 1 0 
44 20 6552 1 1 1 1 1 1 1 1 1 1 1 1 0 0 0 1 1 1 1 1 
45 20 4675 1 1 1 0 1 1 0 1 1 1 1 1 1 1 1 0 1 1 0 1 
46 20 4982 1 1 1 1 0 1 1 0 1 0 1 0 1 1 1 1 1 1 1 1 
47 20 4439 1 1 1 1 1 0 1 1 1 1 1 1 0 1 1 1 0 1 1 1 
48 20 4409 1 1 1 1 0 1 1 1 1 1 1 1 0 1 1 1 1 0 1 1 
49 20 5107 1 1 1 1 1 1 1 1 0 1 1 1 1 1 0 1 1 0 1 0 
50 20 4390 1 1 1 1 1 1 1 0 1 1 1 1 1 1 0 1 1 1 1 0 
51 20 4975 1 1 1 1 1 1 1 1 1 1 1 1 0 1 0 1 1 1 0 1 
52 20 4396 1 1 1 1 1 1 1 1 1 1 0 0 1 1 1 1 1 1 0 1 
53 20 5094 1 1 1 1 1 1 0 0 0 1 1 1 1 1 1 1 1 1 1 1 
54 20 3668 1 0 1 1 1 1 1 1 1 1 0 1 1 1 0 1 1 1 1 1 
55 20 4906 1 1 1 0 1 0 1 1 1 1 1 1 0 1 0 1 1 1 1 1 
56 20 4540 1 1 1 0 1 1 1 1 1 0 0 1 1 1 1 1 0 1 1 1 
57 20 3770 1 1 0 1 0 1 1 1 1 1 0 1 1 0 1 1 1 1 1 1 
58 20 5435 1 1 1 1 1 0 1 1 1 1 1 1 1 0 1 1 0 1 1 1 
59 20 4945 1 1 1 1 1 0 1 1 1 0 1 1 0 1 1 1 0 0 1 1 
60 20 5756 1 1 1 1 1 1 1 1 1 1 0 1 0 1 1 1 1 0 1 1 
61 20 4062 1 1 1 1 0 0 1 1 1 1 1 0 1 1 1 1 1 1 1 1 
62 20 5666 0 1 0 1 1 0 1 0 1 1 1 1 1 1 1 1 1 1 1 1 
63 20 4649 0 1 1 0 1 0 1 1 1 1 1 1 0 1 1 1 1 1 1 1 
64 20 5010 1 1 1 1 1 1 1 1 1 0 0 0 0 1 1 1 1 1 1 1 
65 20 5229 1 0 1 1 1 1 1 0 1 1 1 0 1 1 1 1 0 1 1 1 
66 20 4828 1 1 0 1 1 1 1 1 1 1 1 1 0 1 0 1 1 1 1 1 
67 20 5056 0 1 1 1 1 1 1 1 1 1 1 1 1 1 1 1 0 0 1 1 
68 20 4293 1 1 1 1 0 0 0 1 1 1 1 1 1 1 1 1 1 1 1 1 
69 20 4184 1 1 1 1 1 0 1 1 1 0 0 0 1 1 1 1 1 1 1 1 
70 20 4810 1 1 1 1 1 1 1 1 1 0 1 1 1 1 0 1 1 1 0 1 
71 20 3661 1 1 1 0 1 0 0 1 1 1 1 1 1 1 1 1 1 1 1 1 
72 20 5222 1 1 0 1 0 1 1 0 1 1 1 0 1 1 1 1 1 1 1 1 
73 20 4880 1 0 1 1 0 1 1 1 1 0 1 1 1 1 1 1 1 1 1 1 
74 20 4556 1 1 1 1 1 1 1 1 1 1 1 0 1 0 1 0 1 1 1 1 
75 20 5161 1 1 1 1 1 1 1 1 1 1 1 1 0 1 0 1 1 0 1 1 
76 20 4236 1 1 1 1 0 1 1 1 1 1 0 1 0 1 1 1 1 1 0 1 
77 20 5441 1 1 1 1 0 1 1 1 1 1 1 0 1 0 1 1 0 1 1 1 
78 20 4975 1 0 1 1 1 1 1 1 1 1 1 1 1 1 1 1 0 1 1 0 
79 20 4606 0 1 1 1 1 1 1 1 1 1 1 0 0 1 1 1 1 1 1 1 
80 20 5665 1 1 0 1 1 1 1 1 1 1 1 1 0 1 0 1 1 1 1 1 
81 20 3902 1 1 1 0 1 0 1 1 1 0 1 1 0 1 1 1 1 1 1 0 
82 20 4960 1 1 0 0 1 1 1 1 0 1 1 1 1 1 1 1 1 1 1 1 
83 20 5365 1 1 1 1 1 1 1 1 1 1 0 1 1 1 0 0 0 1 1 1 
84 20 3875 1 1 1 1 0 1 0 1 1 1 1 1 1 1 1 1 1 0 1 1 
85 20 4825 1 0 1 1 1 1 0 1 1 1 1 1 1 1 1 1 0 1 1 1 
86 20 4424 1 1 1 1 1 1 1 0 0 0 1 1 1 1 1 0 1 1 1 1 
87 20 4637 1 0 1 1 1 0 1 1 1 1 0 1 1 1 1 1 1 0 1 1 
88 20 4602 1 1 1 1 0 1 0 1 1 1 0 1 1 1 1 1 1 1 1 1 
89 20 3710 1 1 1 1 1 1 1 0 1 1 1 1 1 1 0 1 1 0 0 1 
90 20 4465 1 1 1 1 1 1 1 1 1 1 1 0 0 1 1 0 1 1 1 1 
91 20 4068 1 1 1 1 1 1 1 1 1 0 1 1 0 1 1 1 1 0 1 1 
92 20 5198 1 1 1 1 0 1 1 1 1 0 1 1 1 1 0 0 1 1 1 1 
93 20 4688 1 1 1 1 1 1 1 1 1 0 0 1 1 0 1 0 1 1 1 1 
94 20 4858 1 1 0 0 1 1 1 1 1 1 1 1 1 0 1 1 1 1 1 1 
95 20 5143 0 1 1 0 1 1 1 1 0 1 1 1 0 1 1 1 1 1 1 1 
96 20 4575 0 1 0 1 1 1 1 1 1 1 1 1 0 1 0 1 0 1 1 1 
97 20 4738 1 1 0 1 1 1 1 1 0 1 1 1 1 0 1 1 1 1 1 1 
98 20 5352 0 1 1 0 1 1 1 1 0 1 1 1 1 1 1 1 1 1 1 1 
99 20 3250 0 1 0 0 1 1 0 1 1 1 1 1 1 1 1 1 0 1 1 1 
100 20 5690 1 1 1 1 1 1 0 1 1 1 0 1 1 1 1 0 1 1 1 0 
101 20 5398 1 1 0 1 1 1 0 1 1 1 1 1 1 1 0 1 1 1 1 0 
102 20 4381 1 1 1 0 1 1 1 1 1 1 0 1 1 1 1 1 1 0 1 1 
103 20 4671 1 1 1 0 0 1 1 1 0 1 1 1 1 1 1 1 1 0 1 1 
104 20 5031 1 1 1 1 1 1 1 1 1 0 1 0 1 1 1 1 1 1 1 0 
105 20 4611 0 1 1 1 1 1 1 1 1 1 0 1 1 0 1 1 1 1 1 0 
106 20 3388 1 1 0 1 1 1 1 1 1 0 0 1 1 1 1 1 1 0 1 1 
107 20 4535 1 1 1 1 1 1 0 1 0 1 1 1 1 1 1 1 1 1 1 0 
108 20 4653 1 0 1 1 1 0 1 1 1 1 1 1 1 1 1 0 1 1 1 0 
109 20 3861 1 1 0 1 1 1 1 1 1 1 1 1 1 1 0 0 1 1 1 0 
110 20 4736 1 0 0 1 1 1 1 1 1 1 1 1 1 1 1 1 1 0 1 1 
111 20 4367 1 1 0 1 1 1 1 1 1 1 0 1 0 1 1 0 1 1 1 1 
112 20 4819 1 1 1 1 1 1 0 1 1 1 1 0 1 1 1 1 0 1 1 0 
113 20 4538 0 1 1 1 1 1 1 1 1 0 1 1 1 1 0 1 0 1 1 1 
114 20 5172 1 1 1 1 1 1 1 1 0 1 1 1 1 0 1 1 1 0 1 0 
115 20 4966 1 1 0 1 1 1 1 1 1 1 1 1 1 1 1 0 1 0 1 1 
116 20 4151 1 1 1 1 1 1 0 1 1 1 1 1 0 0 1 1 1 1 1 1 
117 20 5096 1 1 1 1 1 1 0 1 0 0 1 1 1 1 1 1 1 1 1 1 
118 20 4983 1 0 1 1 1 1 1 1 0 1 1 1 1 1 1 1 1 1 1 0 
119 20 4580 1 1 1 1 1 0 1 1 1 1 1 1 1 1 1 0 1 1 1 0 
120 20 4572 1 1 1 1 1 1 0 1 1 1 0 1 1 1 1 1 0 1 1 1 
121 20 4824 1 1 1 0 1 1 1 1 1 0 1 1 0 1 0 1 1 1 1 1 
122 20 5282 1 1 1 1 1 1 0 1 0 1 1 1 1 1 1 0 1 1 0 1 
123 20 4046 1 0 1 1 1 0 1 1 1 1 1 0 1 1 1 1 1 1 1 0 
124 20 4719 1 1 0 1 1 0 1 1 0 1 1 1 1 0 1 1 1 1 1 1 
125 20 5016 1 1 1 1 1 1 1 1 1 1 0 0 0 0 1 1 1 1 1 1 
126 20 5451 0 1 0 1 1 1 1 1 1 0 1 1 1 1 1 1 1 0 1 1 
127 20 4295 1 1 1 1 0 1 1 1 1 1 1 1 1 1 1 1 0 1 1 0 
128 20 5105 1 0 1 0 1 1 1 1 1 1 0 1 1 1 0 1 1 1 1 1 
129 20 5642 1 1 1 1 1 1 1 0 1 1 1 1 1 1 1 1 0 1 1 0 
130 20 4299 1 1 1 1 0 1 1 1 1 1 0 1 1 1 0 1 1 1 1 1 
131 20 5173 1 1 0 1 1 1 1 1 1 1 1 0 1 1 1 1 1 0 1 1 
132 20 4956 1 0 1 1 1 1 1 1 0 0 1 1 0 1 1 1 1 1 1 1 
133 20 4696 1 1 1 1 0 0 1 1 1 1 1 1 1 1 1 1 1 1 0 1 
134 20 4202 1 1 1 1 0 1 1 1 1 0 1 0 1 1 1 1 1 0 1 1 
135 20 4040 1 1 1 0 1 1 1 0 1 1 1 1 1 1 1 1 1 1 1 0 
136 20 4941 0 1 1 0 1 1 1 1 1 1 0 1 1 1 1 1 1 1 1 0 
137 20 4789 0 1 1 1 1 1 1 1 1 1 0 1 1 1 1 1 1 0 1 0 
138 20 4633 0 1 1 1 0 1 1 0 1 0 1 1 1 1 1 1 1 1 1 1 
139 20 5294 1 1 1 1 1 1 1 0 1 1 1 0 1 1 0 1 1 1 1 1 
140 20 5299 0 1 1 1 1 1 1 1 1 1 1 0 1 1 1 1 1 1 0 1 
141 20 4277 1 1 1 1 1 1 1 0 1 0 1 1 1 1 1 0 1 1 1 0 
142 20 4805 1 1 1 1 1 1 1 0 1 1 1 1 1 1 1 1 0 0 1 1 
143 20 4488 1 1 1 1 1 1 1 1 1 1 0 1 0 1 0 1 1 0 1 1 
144 20 4738 1 1 1 0 1 1 0 1 1 1 0 1 1 1 1 1 1 0 1 1 
145 20 4854 1 1 1 1 1 1 0 1 1 1 1 1 1 0 1 1 0 1 1 1 
146 20 3802 1 1 0 0 1 1 1 1 1 0 1 1 1 1 1 1 1 0 1 1 
147 20 3991 1 0 1 1 1 1 0 1 1 1 1 1 1 1 1 0 1 1 1 1 
148 20 4685 0 1 1 1 1 0 1 1 1 1 1 1 1 0 0 1 1 1 1 1 
149 20 4281 0 0 1 1 1 1 1 0 1 1 1 1 1 1 1 1 1 1 1 1 
150 20 4403 1 1 1 0 1 1 1 1 0 1 1 0 1 1 1 1 1 1 0 1 
151 20 5378 1 1 0 0 0 1 1 1 1 1 1 1 1 1 1 1 1 1 1 1 
152 20 5207 0 1 1 1 1 1 1 1 1 1 1 1 1 0 1 1 0 1 1 1 
153 20 4369 1 1 1 1 1 0 1 1 1 1 1 1 0 1 0 1 1 1 1 1 
154 20 4861 1 1 0 1 1 0 1 0 1 1 1 1 1 0 1 1 1 1 1 1 
155 20 5372 1 1 1 0 1 0 1 1 0 1 1 1 1 1 1 1 1 1 1 1 
156 20 4418 1 1 1 1 1 1 0 1 1 1 1 0 1 1 0 1 0 1 1 1 
157 20 3965 0 1 0 1 1 1 1 1 1 1 1 1 1 1 1 1 0 1 1 1 
158 20 4420 1 1 1 1 1 1 1 1 0 1 1 1 1 1 0 1 1 1 1 0 
159 20 4938 1 1 0 1 1 1 1 1 0 1 1 0 1 1 1 1 1 1 0 1 
160 20 3818 1 1 0 1 1 1 1 1 0 1 1 1 1 0 1 0 1 1 1 1 
161 20 4861 0 1 1 1 1 0 1 1 1 0 1 1 0 1 1 1 1 1 1 1 
162 20 4746 0 1 1 1 1 1 1 1 1 1 0 1 1 1 1 0 1 1 1 1 
163 20 5626 0 0 1 1 1 1 0 1 1 1 1 1 1 1 1 1 1 1 1 1 
164 20 5021 1 1 1 1 1 1 1 1 1 1 1 1 0 1 0 1 1 1 0 1 
165 20 4140 1 1 0 0 1 1 1 1 1 1 1 1 1 1 1 0 1 1 1 0 
166 20 4360 1 1 0 1 0 1 1 1 1 0 1 1 1 1 1 1 1 1 1 0 
167 20 3574 0 1 1 1 1 0 1 1 1 1 1 1 1 0 1 1 1 1 1 1 
168 20 4644 1 1 0 0 1 1 1 1 1 1 1 1 1 1 1 1 1 1 1 0 
169 20 4962 1 1 1 1 1 0 1 1 1 1 1 1 0 1 0 1 1 1 1 1 
170 20 5792 1 1 1 0 1 0 1 0 1 1 1 1 1 0 1 1 1 1 1 1 
171 20 5231 1 0 1 1 1 1 1 1 1 1 0 1 1 1 0 1 1 1 1 1 
172 20 5219 1 1 1 1 0 1 1 1 1 1 1 1 0 1 1 1 1 1 0 1 
173 20 6418 1 1 0 1 1 0 1 0 1 1 1 1 1 1 1 1 1 1 1 0 
174 20 4607 1 1 1 1 1 1 1 1 1 1 1 1 1 1 1 0 0 1 0 1 
175 20 4846 1 1 1 0 1 1 0 1 1 0 1 1 1 1 0 1 1 1 1 1 
176 20 4584 1 1 1 0 1 0 1 1 1 1 0 1 0 1 1 1 1 1 1 1 
177 20 4549 1 1 1 1 0 1 0 1 1 1 1 0 1 1 1 1 1 1 1 1 
178 20 4585 0 1 0 1 1 1 1 1 1 1 1 1 1 1 1 1 0 1 1 1 
179 20 4789 1 1 1 1 1 1 0 1 1 0 1 1 0 1 1 1 1 1 1 1 
180 20 4575 1 1 1 1 1 1 1 1 0 1 0 1 1 1 1 1 1 1 0 1 
181 20 5192 1 1 1 0 1 1 1 1 1 1 1 1 1 1 0 0 1 1 1 1 
182 20 4301 1 0 1 1 1 1 1 0 1 1 1 0 1 0 1 1 1 1 1 1 
183 20 4473 1 1 1 1 1 1 1 0 1 1 1 1 0 1 1 1 1 1 0 1 
184 20 4745 1 0 0 1 1 1 1 0 1 1 1 1 1 1 0 1 1 1 1 1 
185 20 4440 1 1 1 1 1 1 0 1 1 0 1 1 1 1 1 1 0 1 1 0 
186 20 4320 1 1 1 1 1 1 1 1 1 1 0 1 0 1 0 1 1 1 1 1 
187 20 4277 1 1 1 1 0 1 1 1 1 0 1 1 1 1 1 1 0 1 0 1 
188 20 3926 1 1 1 1 1 1 1 0 1 1 1 0 1 0 1 1 1 1 0 1 
189 20 4508 1 1 0 1 1 1 0 1 1 1 1 1 1 1 1 1 1 1 1 0 
190 20 5123 1 1 1 0 1 1 1 1 0 1 1 1 1 1 1 1 1 1 0 1 
191 20 5065 1 1 1 0 1 0 0 1 1 1 1 1 1 0 1 1 1 1 1 1 
192 20 5489 1 0 1 1 0 1 1 0 1 1 1 1 1 1 1 1 1 1 0 1 
193 20 4822 1 1 1 0 1 1 1 1 0 1 1 1 1 1 1 0 1 0 1 1 
194 20 4410 1 1 1 1 1 0 1 1 0 0 0 1 1 1 1 1 1 1 1 1 
195 20 4486 1 0 1 1 1 1 1 0 1 1 1 1 1 1 0 1 1 1 1 0 
196 20 4731 1 0 1 1 1 1 0 1 1 1 1 1 0 1 1 1 1 1 0 1 
197 20 5710 1 1 1 1 0 1 1 0 1 0 1 1 1 1 1 1 1 1 1 1 
198 20 5766 1 1 1 0 0 1 1 1 1 1 1 0 1 1 1 1 1 1 0 1 
199 20 5185 1 0 1 1 1 1 0 1 1 1 1 1 1 1 1 0 0 1 1 1 
200 20 5033 1 1 1 1 1 1 1 1 0 1 1 1 1 1 0 0 1 0 1 0 
201 20 5068 1 0 1 1 1 0 1 1 1 1 1 1 0 1 1 0 1 1 1 1 
202 20 4270 1 1 1 1 1 0 1 1 0 1 1 1 1 1 0 1 1 0 1 1 
203 20 4494 1 1 1 1 1 1 1 1 1 1 0 1 1 1 1 1 0 1 0 1 
204 20 5213 1 1 1 1 1 1 1 0 0 1 1 1 1 0 1 0 1 1 1 1 
205 20 5859 1 1 0 1 1 1 1 1 1 1 1 0 1 1 1 1 1 0 0 1 
206 20 4871 1 0 1 1 1 1 1 1 0 1 1 1 1 1 0 1 1 1 1 1 
207 20 4139 1 1 0 1 1 1 1 0 1 1 1 1 0 1 1 1 1 0 1 1 
208 20 4787 1 1 1 1 0 1 1 1 1 1 1 1 1 1 0 1 0 1 1 1 
209 20 4856 1 1 1 1 1 0 1 1 0 1 1 1 1 1 1 1 0 0 1 1 
210 20 3725 0 1 1 1 1 1 1 0 1 1 1 1 1 1 0 1 1 1 1 1 
211 20 4819 1 1 1 1 0 1 0 1 1 1 1 1 0 0 1 1 1 1 1 1 
212 20 4234 0 1 1 0 1 1 1 0 1 1 0 1 1 1 1 1 1 1 1 1 
213 20 4849 0 1 1 1 1 0 1 1 1 1 1 1 0 1 1 0 1 1 0 1 
214 20 3901 1 1 1 1 1 1 1 1 0 1 1 0 1 1 1 0 1 1 1 0 
215 20 4541 1 1 1 1 1 1 1 1 1 1 1 1 1 1 0 1 0 1 0 1 
216 20 3663 1 1 1 1 1 1 1 0 1 1 1 1 1 1 0 0 1 1 1 1 
217 20 3940 1 1 1 1 0 1 1 1 0 0 1 1 1 1 1 1 1 0 1 1 
218 20 3852 1 1 1 1 1 1 1 1 1 0 1 0 1 0 1 1 0 1 1 1 
219 20 4678 1 1 1 1 1 1 0 1 1 1 1 0 1 1 1 0 1 0 1 1 
220 20 5074 1 1 1 0 1 0 1 1 0 1 0 1 1 1 1 1 1 1 1 1 
221 20 4069 1 1 1 1 1 1 0 1 1 0 1 1 1 1 0 1 1 1 1 0 
222 20 4658 0 1 0 0 1 1 1 1 1 1 1 1 1 1 0 1 1 1 1 1 
223 20 3936 1 1 1 1 1 1 0 1 1 1 1 1 1 0 1 1 1 1 0 1 
224 20 4805 1 1 0 1 1 1 1 1 1 1 1 1 1 0 0 1 1 1 1 0 
225 20 5054 1 1 0 1 1 1 1 1 1 1 0 1 1 1 1 1 1 1 0 1 
226 20 4631 1 1 0 1 1 0 1 0 1 1 1 1 1 1 1 1 1 1 1 1 
227 20 5600 1 1 1 0 1 1 0 1 1 1 0 0 1 1 1 1 1 1 1 1 
228 20 4311 1 1 1 0 1 1 0 0 1 1 1 0 1 1 1 1 1 1 1 1 
229 20 4581 1 1 1 1 1 1 1 1 1 1 1 0 0 1 1 1 0 1 1 1 
230 20 5659 1 0 1 1 1 1 1 0 1 1 1 1 1 1 1 1 1 1 1 0 
231 20 4512 1 1 1 1 0 1 1 0 0 1 0 1 1 1 1 1 1 1 1 1 
232 20 3957 0 1 1 1 0 1 1 1 1 1 1 1 1 1 0 1 1 1 1 1 
233 20 4372 0 1 1 1 1 0 1 1 0 1 1 1 1 1 1 1 1 1 1 1 
234 20 4079 1 1 0 1 1 1 0 1 1 1 1 1 1 1 1 0 1 0 1 1 
235 20 5353 1 1 1 1 0 1 0 0 1 1 1 1 1 1 1 0 1 1 1 1 
236 20 4912 1 0 1 1 1 1 1 1 1 0 1 1 1 1 1 1 1 0 0 1 
237 20 5720 0 1 1 1 1 1 1 1 1 1 0 1 1 1 0 1 1 1 1 1 
238 20 4508 1 1 1 1 1 1 1 1 1 0 1 1 1 1 1 0 1 1 0 0 
239 20 4781 1 0 0 1 1 1 1 0 1 1 0 1 1 1 1 1 1 1 1 1 
240 20 4264 1 1 1 1 1 1 1 1 0 1 1 1 0 1 0 0 0 1 1 1 
241 20 5220 1 1 0 1 1 1 0 1 1 1 0 1 1 1 0 1 1 1 1 1 
242 20 5469 1 1 1 1 1 1 0 1 1 1 0 0 1 1 1 1 1 1 0 1 
243 20 4824 1 1 1 1 1 0 1 1 1 1 1 0 1 0 1 1 1 1 1 1 
244 20 5273 0 1 1 1 1 1 1 1 0 1 1 1 0 1 1 1 1 0 1 1 
245 20 4795 1 1 1 0 1 1 1 0 1 1 1 1 1 1 0 0 1 1 1 1 
246 20 4796 1 1 0 1 0 1 1 1 1 1 0 1 1 1 1 1 1 1 1 1 
247 20 5430 1 1 1 1 1 1 1 0 1 1 1 1 0 0 1 1 1 1 1 1 
248 20 4534 1 1 1 1 1 1 0 0 0 1 1 1 1 1 1 1 1 1 1 1 
249 20 4176 1 1 1 1 1 1 0 1 1 0 1 1 1 1 1 1 1 0 0 1 
250 20 4908 1 1 1 0 1 1 1 1 1 0 1 1 1 1 1 1 1 0 1 1 
251 20 5155 1 1 1 1 1 0 0 0 0 1 1 1 1 1 1 1 1 1 1 1 
252 20 4479 0 0 1 1 1 1 1 0 0 1 1 1 1 1 1 1 1 1 1 1 
253 20 4776 0 1 1 1 1 0 1 0 1 1 1 1 1 1 0 1 0 1 1 1 
254 20 5331 1 1 1 1 1 1 0 1 0 1 1 1 1 1 1 0 1 0 1 1 
255 20 4231 1 1 0 1 1 1 0 1 1 1 0 1 1 1 1 1 1 1 1 1 
256 20 5873 1 1 1 1 0 0 1 1 1 1 1 1 1 1 0 1 1 0 1 1 
257 20 5794 1 1 1 1 1 0 1 1 1 1 1 1 1 1 1 1 0 1 0 1 
258 20 5122 1 1 1 1 1 0 0 1 1 1 1 1 1 0 1 1 1 1 1 1 
259 20 4637 1 1 0 1 0 1 0 1 0 1 1 1 1 1 1 1 1 1 1 1 
260 20 5690 1 1 1 1 1 1 1 1 1 1 0 1 1 0 0 1 1 1 1 1 
261 20 4544 1 1 1 1 1 1 1 1 0 0 1 1 1 1 0 0 1 1 1 1 
262 20 5299 1 1 1 1 1 1 1 1 1 1 1 0 0 0 1 1 0 1 1 1 
263 20 3554 1 1 1 0 1 1 1 1 1 1 0 1 1 1 1 1 1 1 1 0 
264 20 4794 1 1 0 0 1 1 1 1 1 1 0 1 1 1 1 1 1 1 1 0 
265 20 3825 1 1 1 1 1 1 0 0 1 1 1 1 1 1 0 1 0 1 1 1 
266 20 5291 1 1 1 1 1 1 1 1 1 1 1 1 1 0 1 1 0 1 1 0 
267 20 4207 1 1 1 1 1 1 1 0 1 1 0 1 0 1 1 1 1 0 1 1 
268 20 5243 1 1 0 1 1 1 1 0 1 1 0 0 1 1 1 1 1 1 1 1 
269 20 4745 1 1 1 1 1 1 0 1 1 1 0 1 1 1 1 0 1 1 1 1 
270 20 4458 1 1 0 1 1 0 1 0 1 0 1 1 1 1 1 1 1 1 1 1 
271 20 4850 1 1 1 1 0 1 1 1 0 1 1 1 0 1 1 1 1 0 1 1 
272 20 4648 1 0 1 1 1 1 1 1 1 1 1 1 1 1 0 0 1 1 1 1 
273 20 5086 1 1 1 0 1 0 1 1 1 1 1 1 1 1 1 0 1 0 1 1 
274 20 4477 1 0 1 1 0 1 1 1 1 1 1 1 1 0 1 1 1 1 0 1 
275 20 4539 0 1 1 1 0 0 1 1 1 1 1 1 1 1 1 0 1 1 1 1 
276 20 4820 1 1 1 0 1 1 1 1 1 0 1 1 1 0 1 1 1 1 1 0 
277 20 4599 1 1 1 1 1 1 1 1 1 0 1 1 1 0 1 1 1 1 1 0 
278 20 2989 1 1 1 1 0 1 0 1 1 1 1 1 1 1 0 1 1 1 1 1 
279 20 5660 1 1 1 1 1 0 1 1 1 1 1 1 1 0 1 1 0 1 1 0 
280 20 6142 1 1 0 1 1 1 1 1 0 1 1 1 1 1 1 1 1 0 1 1 
281 20 4596 0 1 1 0 1 1 0 1 1 0 1 1 1 1 1 1 1 1 1 1 
282 20 4519 1 1 1 1 1 1 1 1 1 1 0 1 0 1 1 1 0 1 1 1 
283 20 4062 1 1 0 1 1 1 1 1 0 0 0 1 1 1 1 1 1 1 1 1 
284 20 3892 1 1 1 1 1 0 0 1 0 1 1 1 1 0 1 1 1 1 1 1 
285 20 5647 0 1 1 1 1 1 1 1 1 1 1 1 1 0 1 0 1 1 1 1 
286 20 5384 1 1 0 1 1 1 1 1 1 1 1 0 1 0 1 1 1 0 1 1 
287 20 3942 1 0 1 1 0 1 1 0 1 1 1 1 1 1 1 0 1 1 1 1 
288 20 4275 1 1 1 1 1 1 1 1 0 1 0 1 0 1 1 1 1 1 1 1 
289 20 4828 1 1 1 0 1 1 1 1 1 1 1 1 1 0 1 1 1 1 0 1 
290 20 5250 1 1 1 1 1 1 1 1 0 1 1 1 1 0 0 1 1 1 1 1 
291 20 5803 1 1 0 1 0 1 1 1 1 1 0 1 1 1 1 1 1 1 0 1 
292 20 5042 1 1 1 1 0 1 1 1 1 1 1 0 1 0 1 1 1 1 1 1 
293 20 5405 1 1 1 1 1 1 1 1 1 1 1 1 1 0 1 1 0 1 1 0 
294 20 5443 1 0 1 1 1 1 1 1 1 1 1 1 1 0 0 1 0 1 1 1 
295 20 4129 1 0 1 1 1 1 1 1 1 1 0 1 1 0 1 1 1 1 1 1 
296 20 5205 1 1 1 0 0 1 1 1 1 1 1 1 0 1 1 1 1 0 1 1 
297 20 4412 1 1 1 1 1 0 1 1 1 0 1 1 0 1 1 1 1 1 1 1 
298 20 4516 1 0 1 1 1 1 1 1 1 1 1 1 0 1 1 0 1 1 1 1 
299 20 4483 1 1 1 1 1 1 1 1 1 1 1 0 0 1 0 0 1 1 1 1 
300 20 4740 0 1 1 1 0 1 0 1 1 1 1 1 1 1 0 1 1 1 1 1 
301 20 4730 0 1 1 1 1 1 0 0 1 1 1 1 1 1 1 1 1 1 1 1 
302 20 4341 0 1 1 1 1 0 1 1 1 1 1 0 1 1 1 0 1 1 1 1 
303 20 4915 1 1 1 1 1 0 1 1 1 1 1 0 0 1 1 0 1 1 1 1 
304 20 5709 1 1 1 1 1 1 1 1 1 1 1 1 0 1 1 0 1 1 1 0 
305 20 4439 1 1 1 1 1 1 1 1 1 1 1 1 0 1 0 1 1 1 0 0 
306 20 4733 1 1 1 1 0 1 1 0 1 1 1 1 0 1 1 1 1 1 1 1 
307 20 3888 0 1 0 1 1 1 1 1 1 0 1 1 1 1 1 0 1 1 1 1 
308 20 4930 1 1 1 1 1 1 0 1 1 0 1 1 1 0 1 1 1 1 1 1 
309 20 5450 1 1 1 1 1 1 1 1 0 1 1 0 1 1 1 1 1 1 1 1 
310 20 4748 1 1 1 0 1 0 1 1 1 1 1 1 1 1 1 1 1 1 0 1 
311 20 3336 1 0 1 1 1 0 1 1 1 1 1 0 1 1 0 1 1 1 1 1 
312 20 5120 1 1 1 1 1 1 1 0 1 1 1 1 1 0 1 0 1 1 1 1 
313 20 4168 1 1 1 1 1 1 1 0 0 1 0 1 1 0 1 1 1 1 1 1 
314 20 4975 0 1 0 1 1 1 1 1 1 1 1 1 1 0 1 1 1 0 1 1 
315 20 3651 1 1 0 1 1 1 1 1 1 1 1 1 0 1 1 1 1 0 1 1 
316 20 5487 0 1 1 1 1 1 0 1 1 1 1 1 1 0 1 1 0 1 1 1 
317 20 5231 0 1 1 1 1 0 0 1 1 1 1 1 1 1 1 1 1 1 0 1 
318 20 4618 1 1 0 0 1 1 1 0 1 1 1 1 1 1 1 1 1 1 1 1 
319 20 4542 1 0 1 1 1 1 1 1 1 1 1 1 0 1 1 1 1 0 1 1 
320 20 4682 1 1 1 0 1 1 1 1 1 1 1 1 1 1 1 1 1 0 0 1 
321 20 4450 1 0 1 1 1 0 1 1 1 1 1 1 1 1 1 1 1 1 0 1 
322 20 4130 0 1 1 1 1 0 1 1 1 1 1 1 1 1 1 1 0 1 1 1 
323 20 5245 1 0 0 1 0 1 1 1 1 1 1 1 0 1 1 1 1 1 1 1 
324 20 5678 0 1 1 1 1 0 1 1 1 1 1 1 1 1 0 1 1 1 1 1 
325 20 4186 1 1 1 1 1 1 1 1 0 1 0 1 0 1 1 1 1 1 1 1 
326 20 5258 0 1 1 1 1 1 1 1 1 1 0 1 0 1 1 1 1 1 1 0 
327 20 5244 1 1 0 1 1 1 1 1 1 1 1 1 1 0 1 1 1 1 0 1 
328 20 4464 0 0 1 1 1 1 1 1 1 1 1 1 1 1 0 1 1 1 0 1 
329 20 4289 1 1 0 0 1 1 0 1 1 1 1 1 1 0 1 1 1 1 1 1 
330 20 4971 1 1 1 1 0 1 1 1 0 1 1 1 1 1 1 1 0 1 1 1 
331 20 4626 1 1 1 1 1 1 1 1 1 0 1 0 1 1 1 1 0 1 0 1 
332 20 6063 1 1 1 1 1 1 1 1 0 1 1 0 1 1 0 1 1 1 1 1 
333 20 3315 0 1 1 1 1 1 0 1 0 0 1 1 1 1 1 1 1 1 1 1 
334 20 5542 1 1 1 1 1 1 1 1 1 0 0 0 1 1 1 1 1 1 1 1 
335 20 3834 1 0 1 1 1 1 1 1 1 1 1 1 1 1 1 0 1 1 0 0 
336 20 4159 0 1 1 1 1 0 1 1 1 1 1 1 0 1 0 1 1 1 1 1 
337 20 4481 1 1 1 0 1 0 1 1 1 1 1 1 1 1 1 1 1 1 0 0 
338 20 4133 0 1 1 0 1 0 1 1 1 1 1 1 1 0 1 1 1 1 1 1 
339 20 5888 1 1 1 1 1 1 0 1 1 1 1 1 1 1 0 1 1 1 0 1 
340 20 3708 1 0 1 0 1 1 1 1 1 1 1 1 1 1 0 1 1 0 1 1 
341 20 3902 0 1 1 1 1 0 1 1 1 1 1 1 1 1 0 1 1 1 0 1 
342 20 4670 1 1 1 1 1 1 1 0 1 1 0 1 0 1 1 0 1 1 1 1 
343 20 4367 0 1 1 1 1 1 1 0 1 1 1 0 1 1 1 1 1 0 1 1 
344 20 6573 1 1 0 1 1 1 1 0 1 1 1 1 1 0 1 1 1 1 1 1 
345 20 5164 1 0 1 0 1 1 1 1 1 1 1 0 1 1 1 1 1 1 1 1 
346 20 5227 1 1 0 1 1 0 1 1 1 1 1 1 1 0 1 1 1 1 1 1 
347 20 5672 1 0 1 0 1 1 1 1 1 1 1 1 1 1 1 1 0 1 1 1 
348 20 4908 1 1 1 0 1 1 1 1 1 1 1 1 1 1 1 1 0 0 1 1 
349 20 4930 1 1 1 1 1 1 1 1 1 1 0 1 1 1 1 1 0 0 1 1 
350 20 4659 1 1 1 1 0 1 1 1 1 1 0 1 1 1 1 0 1 0 1 1 
351 20 5463 1 0 1 1 0 1 1 1 1 1 1 1 1 1 1 1 1 1 0 1 
352 20 4743 1 1 1 1 0 1 1 1 1 0 0 1 1 1 1 1 1 0 1 1 
353 20 3899 1 1 1 1 0 0 1 1 0 0 1 1 1 1 1 1 1 1 1 1 
354 20 4200 1 1 1 1 0 1 1 1 1 1 1 1 1 1 1 0 0 1 0 1 
355 20 4865 1 1 0 1 1 1 1 1 0 1 1 0 1 1 1 0 1 1 1 1 
356 20 5645 1 0 0 1 1 1 1 1 1 1 1 1 1 1 1 1 0 1 1 1 
357 20 5517 1 1 1 0 1 1 0 1 1 1 1 1 1 1 1 1 0 1 1 1 
358 20 3716 1 1 1 1 1 1 0 1 1 0 0 1 1 1 1 1 0 1 1 1 
359 20 4761 1 1 1 1 1 1 1 1 1 1 1 1 1 1 0 1 0 1 0 1 
360 20 4794 1 1 1 1 1 1 1 1 1 1 1 1 0 1 1 0 1 1 0 1 
361 20 4631 1 1 1 1 1 1 1 1 1 1 1 1 1 1 1 1 0 0 0 0 
362 20 4879 1 1 1 0 1 1 1 1 1 0 1 1 0 1 1 1 1 1 0 0 
363 20 5409 1 0 1 1 1 1 1 1 1 1 0 1 1 0 1 1 1 1 1 0 
364 20 4712 1 1 1 1 1 1 1 0 1 0 1 1 1 1 1 1 0 1 0 1 
365 20 4629 1 1 1 1 0 1 1 1 1 1 1 1 1 1 1 1 0 1 0 1 
366 20 4287 1 1 1 1 1 1 0 0 1 0 1 1 1 1 1 1 1 1 0 1 
367 20 4155 1 1 1 1 1 1 1 0 1 0 1 1 1 1 1 1 0 1 1 1 
368 20 5353 1 0 0 1 1 1 0 0 1 1 1 1 1 1 1 1 1 1 1 1 
369 20 4777 1 0 1 1 1 1 1 1 1 0 1 1 1 1 0 1 1 1 1 1 
370 20 4264 1 1 1 1 1 0 1 0 1 1 1 1 0 1 1 1 1 0 1 1 
371 20 4762 1 1 1 1 1 0 1 1 1 0 1 1 1 1 1 1 1 0 1 1 
372 20 4936 1 0 1 1 0 1 1 1 0 1 1 1 1 1 0 1 1 1 1 1 
373 20 5336 1 1 0 0 1 1 1 1 1 0 1 1 1 1 1 1 1 1 1 1 
374 20 4962 1 1 1 1 1 0 1 0 1 1 1 0 1 1 1 1 1 1 1 1 
375 20 5254 1 1 1 1 1 1 1 1 1 1 1 0 1 1 1 1 0 1 1 0 
376 20 5505 1 1 1 1 1 1 0 1 0 1 1 1 1 1 1 1 1 0 1 1 
377 20 4755 1 0 1 1 1 1 1 1 0 1 1 1 1 1 1 1 1 1 1 0 
378 20 4771 1 1 1 1 1 0 0 1 1 0 1 1 1 1 0 1 1 1 1 1 
379 20 4034 0 1 1 1 1 1 1 1 1 1 1 0 1 1 1 1 1 1 0 1 
380 20 4587 1 0 1 0 1 1 1 1 1 1 0 1 1 1 1 0 1 1 1 1 
381 20 5063 1 1 0 0 0 1 1 1 1 1 1 1 1 0 1 1 1 1 1 1 
382 20 4761 1 1 1 1 1 0 1 1 1 1 0 1 1 1 1 0 1 1 1 1 
383 20 4775 1 1 1 0 1 1 1 0 1 1 1 1 1 1 0 0 1 1 1 1 
384 20 3467 1 1 1 0 1 1 1 1 1 1 0 1 0 1 1 1 1 1 1 1 
385 20 6011 1 1 0 1 1 1 1 1 1 1 1 1 0 0 1 1 1 1 1 1 
386 20 3709 1 1 0 1 1 1 1 1 1 1 0 1 0 1 1 1 1 1 1 1 
387 20 3652 0 1 0 1 1 1 1 1 1 0 0 1 1 1 1 1 1 1 1 1 
388 20 4288 0 1 1 1 1 1 0 1 1 1 1 1 0 1 1 1 1 1 0 1 
389 20 4228 0 1 0 1 1 1 1 1 0 1 1 1 1 0 1 1 1 1 1 1 
390 20 4918 1 1 1 1 1 1 1 1 1 0 0 1 1 1 1 1 0 1 1 1 
391 20 5575 1 1 1 1 1 0 1 0 1 1 1 1 1 1 1 1 1 1 1 0 
392 20 4551 1 1 1 1 1 1 1 1 0 1 0 1 0 1 1 1 1 1 1 0 
393 20 4616 1 1 1 1 0 1 1 1 1 0 1 1 1 1 1 0 1 1 1 1 
394 20 4788 1 1 1 0 1 0 1 1 0 1 1 1 0 1 1 1 1 1 1 1 
395 20 4392 1 0 0 1 1 1 1 1 1 1 1 1 1 1 1 1 0 1 0 1 
396 20 5180 1 1 1 1 1 0 1 0 1 1 1 1 1 1 1 0 0 1 1 1 
397 20 4665 0 1 1 0 1 1 1 1 1 1 1 1 0 1 1 1 1 0 1 1 
398 20 3967 1 1 0 0 1 1 1 1 1 1 1 0 1 1 1 1 1 1 1 1 
399 20 5340 1 1 1 1 1 1 1 1 1 1 1 1 1 1 1 0 0 0 1 1 
400 20 5120 1 1 1 1 1 1 1 0 1 0 1 1 1 1 1 1 0 1 0 1 
401 20 4149 1 1 1 1 0 1 1 1 0 1 1 1 0 1 1 1 1 1 1 1 
402 20 5017 1 1 1 1 0 1 1 0 1 1 1 1 1 0 1 1 1 1 1 1 
403 20 5594 1 1 0 1 1 1 1 1 0 1 1 0 1 1 1 1 1 0 1 1 
404 20 4182 1 1 1 1 0 1 1 1 1 1 0 1 1 1 1 1 1 0 0 1 
405 20 5753 1 0 1 1 1 1 1 1 1 1 1 1 1 1 1 1 1 0 0 1 
406 20 4603 1 1 0 1 1 1 1 0 0 1 1 1 1 1 1 1 1 0 1 0 
407 20 4718 1 1 1 1 0 0 1 1 1 1 0 1 0 1 1 1 1 1 1 1 
408 20 5389 0 0 1 1 0 1 1 1 1 1 1 1 1 1 1 1 0 1 1 1 
409 20 3386 1 1 1 1 1 1 1 1 1 1 0 0 0 1 1 1 1 1 1 0 
410 20 5142 0 1 0 1 1 1 1 1 1 1 1 1 1 1 1 1 1 0 1 1 
411 20 4236 0 1 1 1 1 1 1 0 1 1 1 1 1 1 1 1 1 1 1 0 
412 20 4605 1 1 1 1 1 1 0 1 0 1 1 1 1 1 0 1 1 1 1 1 
413 20 4443 1 1 1 1 1 1 0 1 1 1 1 1 1 1 1 0 1 1 0 1 
414 20 4482 0 1 0 0 1 1 0 1 1 1 1 1 1 1 1 1 1 1 1 1 
415 20 5729 1 1 1 1 1 1 1 1 1 0 0 1 1 1 1 1 1 0 1 1 
416 20 4126 1 1 1 0 1 1 1 1 1 1 1 1 1 0 0 1 1 1 1 1 
417 20 4495 1 0 1 1 1 0 1 1 1 1 1 1 1 1 0 0 1 1 1 1 
418 20 4292 0 1 1 0 1 1 1 0 1 1 1 1 1 1 1 1 1 0 1 1 
419 20 5677 1 0 1 1 1 1 1 1 1 1 0 1 1 1 1 0 1 1 1 1 
420 20 5717 1 1 1 1 1 1 1 1 0 1 1 1 1 0 1 1 0 1 1 1 
421 20 5304 1 1 1 1 1 1 1 0 1 1 1 1 1 1 0 1 1 0 1 1 
422 20 4756 1 0 1 1 1 1 1 1 1 1 0 0 1 1 1 1 1 0 1 1 
423 20 5406 1 1 1 1 0 1 1 1 1 1 1 1 0 0 1 1 1 1 1 1 
424 20 4527 1 1 1 1 0 1 1 1 1 1 1 0 1 1 1 1 0 1 1 1 
425 20 5821 1 1 0 0 1 0 1 1 1 1 1 1 1 0 1 1 1 1 1 1 
426 20 4759 1 0 1 1 1 1 1 1 0 1 1 1 1 1 0 1 0 1 1 1 
427 20 5268 0 1 1 1 1 1 0 1 1 1 1 1 1 0 1 1 1 1 1 1 
428 20 4541 1 1 0 1 1 1 0 1 0 1 0 1 1 1 1 1 1 1 1 1 
429 20 5805 1 1 1 0 1 1 0 1 1 1 1 1 1 0 1 1 1 1 1 1 
430 20 4169 1 1 1 1 1 1 1 1 1 1 0 1 1 1 1 1 0 0 0 1 
431 20 5261 1 1 1 1 0 1 1 1 1 1 1 1 1 1 1 0 1 0 1 0 
432 20 3882 1 1 1 0 1 0 1 1 1 0 0 1 1 1 1 1 1 1 1 1 
433 20 5553 1 1 1 1 1 1 0 0 1 1 1 1 1 1 0 1 1 1 1 1 
434 20 4839 1 1 1 1 1 1 1 1 0 0 1 1 1 0 1 0 1 1 1 1 
435 20 3963 0 1 1 1 1 1 1 1 1 1 1 1 1 0 1 0 1 1 1 1 
436 20 3929 1 1 1 0 1 1 1 1 1 1 0 0 1 1 1 0 1 1 1 1 
437 20 4450 1 0 1 0 1 1 1 0 1 1 1 1 1 1 1 1 1 1 1 1 
438 20 4882 1 1 1 1 1 1 1 0 1 1 1 1 1 0 1 1 1 1 0 1 
439 20 5144 1 1 1 0 0 1 1 1 1 1 1 1 0 1 1 1 1 1 0 1 
440 20 4921 1 1 1 0 0 1 0 1 1 1 1 1 1 1 1 1 1 1 1 1 
441 20 4910 1 1 1 1 1 1 1 0 1 0 1 1 1 0 1 1 1 0 1 1 
442 20 4613 1 1 0 0 1 1 1 1 1 1 1 1 1 1 1 0 1 1 1 1 
443 20 3957 1 0 1 0 1 1 1 1 1 1 1 1 1 1 1 1 1 0 1 1 
444 20 4592 1 1 1 1 1 0 0 0 1 1 1 1 1 1 1 1 1 1 0 1 
445 20 4862 0 1 1 1 1 1 1 1 1 0 1 1 1 1 1 1 1 1 1 0 
446 20 4484 1 1 1 1 1 1 1 1 1 1 1 0 0 1 1 1 1 0 1 1 
447 20 5659 0 1 1 1 1 0 1 1 1 1 1 1 1 1 1 1 0 1 1 0 
448 20 4646 1 0 1 0 0 1 1 1 1 1 1 1 1 1 1 1 1 1 1 1 
449 20 4407 1 1 1 1 1 1 1 1 0 1 1 1 1 1 0 1 1 1 0 1 
450 20 5525 1 1 0 1 1 1 1 1 1 1 1 1 1 1 1 0 0 1 1 0 
451 20 4969 1 1 1 1 1 1 1 0 1 1 1 1 0 1 1 1 1 1 1 0 
452 20 4716 1 0 1 1 1 1 1 1 0 1 1 1 1 0 1 0 1 1 1 1 
453 20 5758 1 1 1 1 1 1 1 1 1 1 1 0 1 1 1 1 0 0 1 1 
454 20 5239 1 0 1 0 1 1 1 1 1 1 1 0 0 1 1 1 1 1 1 1 
455 20 4552 1 1 1 1 1 1 1 1 1 1 0 1 1 0 1 0 1 1 1 1 
456 20 5839 1 1 1 1 1 0 1 1 0 1 0 1 1 1 1 1 1 1 1 1 
457 20 4960 1 1 1 0 1 1 1 1 1 1 1 1 1 1 1 1 1 1 0 0 
458 20 5317 1 1 1 1 1 0 1 1 0 1 1 1 1 0 1 1 1 1 1 1 
459 20 4338 0 1 1 1 1 0 1 1 1 1 0 1 1 1 1 1 1 1 1 1 
460 20 4703 1 0 1 1 1 1 1 1 1 0 1 0 1 0 1 1 1 1 1 1 
461 20 4346 1 1 1 1 1 0 1 1 1 1 0 1 1 1 1 0 0 1 1 1 
462 20 4774 1 1 0 1 1 1 1 1 1 1 1 1 1 1 1 1 0 1 1 0 
463 20 5728 1 1 1 0 1 1 1 1 1 1 0 1 1 1 1 1 1 1 1 0 
464 20 5901 1 1 1 1 0 1 0 1 0 1 1 1 0 1 1 1 1 1 1 1 
465 20 5199 1 0 1 1 1 1 1 1 1 1 0 1 1 1 1 1 1 0 1 1 
466 20 5926 1 1 1 1 1 1 1 0 1 1 1 1 0 1 0 1 1 1 1 0 
467 20 4597 0 1 1 1 1 1 0 1 1 1 1 1 1 1 1 0 1 1 1 0 
468 20 5298 1 1 1 1 1 1 1 1 0 1 1 1 0 1 1 0 1 1 1 0 
469 20 4571 1 1 1 1 1 1 1 1 1 1 0 1 1 1 1 1 1 0 0 0 
470 20 4954 1 1 1 1 1 1 1 1 0 0 1 1 0 1 1 1 1 1 1 1 
471 20 4601 0 1 0 1 1 1 1 0 1 1 1 1 0 1 1 1 1 1 1 1 
472 20 4912 1 1 1 1 0 1 1 1 1 0 1 1 1 1 1 1 1 1 0 1 
473 20 4210 1 1 1 1 1 0 1 1 1 1 1 1 1 1 1 1 0 1 1 0 
474 20 4197 1 1 0 1 1 0 1 1 0 1 1 1 0 1 1 1 1 1 1 1 
475 20 5150 0 1 0 1 1 1 1 0 1 1 1 1 1 1 1 0 1 1 1 1 
476 20 3274 1 1 1 1 1 0 1 1 1 1 1 1 0 1 1 1 1 0 1 1 
477 20 4760 1 1 1 1 1 0 1 1 1 0 1 0 1 1 1 1 0 1 1 0 
478 20 3970 0 1 1 1 1 1 1 1 1 1 0 0 1 1 1 1 1 1 0 1 
479 20 5528 1 1 0 1 0 1 1 1 0 1 1 1 1 1 1 1 0 1 1 1 
480 20 5360 1 1 1 1 1 1 0 0 0 1 1 0 1 1 1 1 1 1 1 1 
481 20 4828 1 1 1 0 1 1 1 1 1 1 0 1 1 1 1 1 1 1 0 1 
482 20 4859 1 1 1 1 1 1 1 1 1 1 1 1 1 0 1 1 1 0 1 0 
483 20 4649 1 1 1 0 1 1 1 1 1 1 1 0 0 1 1 1 0 1 1 1 
484 20 4375 1 1 1 1 1 1 1 0 1 1 1 1 0 0 1 1 1 0 1 1 
485 20 5233 1 1 1 1 1 1 1 0 1 1 0 1 1 0 1 1 1 1 1 1 
486 20 4295 1 1 1 1 1 1 1 1 1 1 0 1 0 1 1 1 1 1 1 0 
487 20 4835 1 1 1 1 1 1 1 0 1 0 1 1 0 1 1 0 1 1 1 1 
488 20 3506 0 1 1 1 1 1 1 1 1 0 0 1 1 0 1 1 1 1 1 1 
489 20 4234 0 1 1 1 1 0 1 0 1 1 1 1 1 1 1 1 1 0 1 1 
490 20 5306 1 1 1 0 1 0 1 1 1 0 1 1 1 1 1 1 0 1 1 1 
491 20 4511 1 1 1 1 1 1 1 0 1 1 1 1 0 1 1 1 0 1 1 0 
492 20 4027 1 0 1 0 0 1 1 1 1 1 1 1 1 1 0 1 1 1 1 1 
493 20 4803 1 1 1 1 0 1 1 1 1 1 0 1 1 0 1 1 1 1 1 1 
494 20 4802 1 1 1 1 1 1 1 1 0 1 0 0 1 1 1 1 0 1 1 1 
495 20 5005 1 1 1 1 0 1 1 1 1 0 1 1 0 0 1 1 1 1 1 1 
496 20 4062 1 1 1 1 0 1 0 1 0 1 1 1 1 1 1 1 1 0 1 1 
497 20 5322 1 1 1 1 1 1 0 1 1 1 1 0 1 1 1 0 1 1 1 1 
498 20 5362 0 1 0 1 0 1 1 1 1 1 1 1 0 1 1 1 1 1 1 1 
499 20 5388 1 1 1 1 1 1 1 0 0 1 1 1 1 1 0 1 1 1 1 1 
500 20 4629 1 1 1 1 0 0 1 1 1 1 1 1 1 1 0 0 1 1 1 1 
