1 20 4287 1 0 1 1 0 0 1 1 1 1 1 1 1 1 0 1 1 1 1 1 
2 20 5156 1 1 1 0 1 1 1 0 1 1 1 1 0 0 1 1 1 1 1 1 
3 20 5867 1 1 1 1 1 1 1 0 1 1 1 0 1 1 1 1 1 0 1 0 
4 20 4447 1 1 1 1 1 1 1 1 1 0 1 1 0 1 1 1 1 0 1 0 
5 20 4283 1 1 1 1 1 1 1 1 1 1 1 1 1 1 0 1 1 1 0 0 
6 20 4263 0 1 1 0 1 1 1 1 1 1 0 0 1 1 1 1 1 1 1 1 
7 20 4941 0 1 0 1 1 1 1 0 1 1 1 0 1 1 1 1 1 1 1 1 
8 20 5114 1 1 1 1 1 1 1 1 1 1 1 1 0 1 0 1 1 0 0 1 
9 20 4031 0 1 1 1 1 1 1 1 1 0 1 1 1 1 1 0 0 1 1 1 
10 20 4185 0 0 1 1 1 1 1 1 1 1 1 0 1 0 1 1 1 1 1 1 
11 20 5293 1 1 1 1 1 0 1 1 1 1 1 1 0 0 1 1 1 1 1 0 
12 20 5016 1 1 1 1 1 1 0 1 1 1 0 0 1 1 1 1 1 1 1 1 
13 20 5629 0 1 1 1 1 1 1 0 0 1 1 1 1 0 1 1 1 1 1 1 
14 20 4723 1 1 1 1 1 0 1 0 1 1 1 1 1 0 1 1 1 0 1 1 
15 20 4374 1 1 1 1 1 1 1 1 1 0 1 1 1 0 1 1 1 1 1 0 
16 20 4013 1 1 1 1 1 1 1 1 1 1 0 0 1 1 1 1 0 1 1 1 
17 20 3410 1 1 1 1 1 0 1 1 1 1 1 1 0 1 1 0 1 1 0 1 
18 20 5188 1 1 1 1 1 1 0 1 1 1 0 1 1 1 1 0 0 1 1 1 
19 20 3982 0 1 1 1 1 0 1 1 1 1 1 1 0 1 1 1 1 1 0 1 
20 20 4154 1 1 1 1 1 1 1 0 0 1 1 1 1 0 1 0 1 1 1 1 
21 20 3624 1 1 1 1 1 1 0 1 1 1 1 1 1 1 1 1 0 0 1 0 
22 20 4434 0 1 0 1 1 1 1 1 1 1 1 1 1 1 1 1 1 1 1 0 
23 20 4861 1 1 1 1 1 0 1 1 0 1 1 1 1 1 1 0 1 0 1 1 
24 20 4263 1 1 1 1 1 1 0 0 1 1 1 1 0 1 1 1 1 0 1 1 
25 20 4163 1 0 0 0 1 1 1 1 1 1 0 1 1 1 1 1 1 1 1 1 
26 20 5117 0 1 1 1 0 1 1 1 1 1 1 1 1 1 1 0 1 1 1 0 
27 20 4715 1 1 1 1 1 1 0 1 1 1 1 0 1 1 0 1 1 1 1 1 
28 20 4831 1 1 1 1 1 1 1 1 1 1 1 0 1 1 0 0 1 1 1 1 
29 20 4352 1 1 1 0 1 1 1 1 1 1 0 1 1 1 1 1 1 0 1 0 
30 20 4937 1 1 1 1 1 1 1 1 1 1 0 1 0 1 1 1 0 1 1 1 
31 20 5673 1 0 1 0 1 1 1 1 1 1 1 1 1 1 1 1 1 1 0 1 
32 20 4922 1 1 0 1 1 1 1 1 1 0 1 1 0 1 1 1 1 1 1 1 
33 20 4509 1 1 1 0 1 1 1 1 1 1 1 1 1 1 1 1 0 1 1 0 
34 20 5464 1 0 1 0 1 1 1 1 1 1 1 1 1 1 0 1 0 1 1 1 
35 20 3754 1 0 1 1 1 1 1 0 1 1 1 1 1 0 1 1 1 1 1 1 
36 20 5252 1 1 1 1 1 1 1 1 1 1 0 1 1 1 0 1 1 1 0 0 
37 20 4829 0 1 1 1 1 1 0 1 1 1 1 1 1 1 0 1 1 1 1 1 
38 20 5042 1 1 1 1 1 0 1 0 0 1 1 1 1 1 1 1 0 1 1 1 
39 20 4920 1 1 1 0 0 1 1 1 1 1 0 1 0 1 1 1 1 1 1 1 
40 20 4479 1 1 1 1 0 1 1 1 0 1 0 1 1 1 1 1 1 1 1 1 
41 20 4507 0 1 1 1 1 1 1 1 1 1 1 1 1 0 1 0 1 0 1 1 
42 20 4971 1 1 1 0 1 1 1 0 1 1 1 1 0 1 1 1 1 1 1 1 
43 20 4239 1 1 1 1 1 1 0 1 0 1 1 1 1 1 1 1 0 0 1 1 
44 20 5292 1 1 1 1 0 1 1 1 1 0 1 1 1 1 0 1 1 1 1 1 
45 20 5527 1 1 1 1 1 1 1 1 1 1 0 1 0 1 0 1 1 1 1 1 
46 20 4113 1 1 1 1 1 1 1 1 1 1 1 1 0 0 0 1 1 1 1 0 
47 20 4944 1 1 1 1 1 0 1 1 1 1 1 1 1 1 1 1 1 1 0 0 
48 20 4072 1 1 1 1 1 1 1 1 1 1 0 0 0 1 1 1 1 1 1 0 
49 20 5373 1 1 1 1 1 1 1 0 1 1 1 1 1 1 1 0 1 1 0 0 
50 20 3564 1 1 1 1 1 0 1 1 1 1 1 0 1 1 0 1 0 1 1 1 
51 20 5193 1 1 0 1 1 1 1 1 1 1 0 1 0 1 1 1 1 0 1 1 
52 20 5723 0 1 0 1 1 0 1 1 1 1 1 1 1 1 1 1 1 1 1 1 
53 20 4340 1 0 1 0 1 1 1 1 1 0 0 1 1 1 1 1 1 1 1 1 
54 20 4929 1 1 0 1 1 0 1 1 1 1 1 1 1 0 1 1 1 1 1 1 
55 20 5264 1 1 1 1 0 0 1 0 1 0 1 1 1 1 1 1 1 1 1 1 
56 20 4887 1 1 1 1 1 1 1 0 0 0 1 1 1 1 1 1 1 1 0 1 
57 20 5060 1 1 1 1 1 1 1 0 1 1 1 1 1 0 1 1 1 0 1 1 
58 20 4621 0 1 1 0 1 1 1 1 1 1 0 1 1 1 1 1 1 1 1 1 
59 20 4555 1 1 1 1 1 1 1 1 1 1 1 0 1 1 0 1 0 1 0 1 
60 20 5077 1 1 1 1 1 1 1 1 1 1 1 1 1 1 0 1 0 0 0 1 
61 20 4492 1 1 1 1 0 1 1 1 1 1 1 1 1 1 1 0 1 1 1 0 
62 20 4618 1 1 0 1 0 1 1 1 1 1 1 1 0 1 1 1 1 1 1 1 
63 20 5797 1 1 1 1 0 1 1 1 1 1 1 1 1 1 0 0 1 1 0 1 
64 20 5530 1 1 1 1 1 1 1 1 0 0 1 1 0 1 1 1 1 1 1 1 
65 20 5002 1 1 0 1 1 1 1 1 1 1 1 1 0 1 1 1 1 1 0 1 
66 20 4059 1 0 1 1 0 1 1 1 1 1 0 1 0 1 1 1 1 1 1 1 
67 20 6004 0 1 1 0 1 1 1 1 1 1 1 1 1 1 1 1 1 0 1 1 
68 20 4383 1 1 1 1 0 1 0 1 1 1 1 1 1 1 1 1 0 0 1 1 
69 20 5037 1 1 0 0 1 1 1 1 1 1 1 1 0 1 1 1 1 1 1 1 
70 20 5128 1 1 0 1 1 1 1 1 1 1 1 1 0 1 1 0 1 1 1 1 
71 20 4989 1 0 1 1 1 1 0 1 1 1 1 1 1 1 0 1 1 1 1 0 
72 20 5715 1 1 0 1 1 1 0 1 1 1 0 1 1 1 1 0 1 1 1 1 
73 20 3102 1 1 1 1 0 1 1 1 1 1 1 0 1 0 1 1 1 0 1 1 
74 20 4150 1 1 1 1 1 0 0 1 0 1 1 1 1 0 1 1 1 1 1 1 
75 20 4786 1 1 0 1 1 1 1 1 1 1 1 1 1 1 0 0 0 1 1 1 
76 20 5237 1 0 1 1 1 1 1 1 1 1 1 1 1 1 1 0 0 1 1 1 
77 20 4673 1 0 1 1 1 1 1 1 1 0 1 0 1 0 1 1 1 1 1 1 
78 20 4318 1 1 1 1 0 0 1 1 1 1 1 0 1 1 1 1 1 1 1 1 
79 20 4464 1 1 1 1 0 0 1 1 0 1 1 1 1 1 1 1 1 1 1 1 
80 20 4118 1 1 0 1 1 1 1 1 1 1 1 1 1 1 1 1 0 1 1 0 
81 20 4408 1 1 1 0 1 0 1 1 1 1 1 0 0 1 1 1 1 1 1 1 
82 20 4259 1 1 1 1 1 1 1 1 1 1 0 0 1 1 0 1 1 1 1 1 
83 20 5733 1 1 0 1 1 1 0 1 1 0 1 1 0 1 1 1 1 1 1 1 
84 20 4741 1 1 1 1 1 1 1 1 1 1 1 1 1 0 0 1 0 1 0 1 
85 20 4528 0 1 1 1 1 1 0 1 1 1 1 1 1 1 1 1 1 0 1 1 
86 20 5051 1 1 1 1 0 1 1 1 1 1 1 1 0 1 1 1 0 1 1 0 
87 20 3934 1 1 0 0 0 1 1 1 1 1 1 1 1 1 1 1 0 1 1 1 
88 20 5444 1 1 1 1 0 1 1 1 0 1 1 1 0 1 0 0 1 1 1 1 
89 20 4948 0 0 1 1 1 1 1 1 1 1 0 1 1 1 1 0 1 1 1 1 
90 20 4980 1 1 1 1 1 1 0 1 1 1 1 0 1 1 1 1 1 0 1 1 
91 20 5037 1 1 0 1 1 1 1 1 1 1 1 1 1 1 1 1 0 0 0 1 
92 20 4594 1 1 1 1 0 1 1 0 1 0 1 1 1 1 1 1 1 0 1 1 
93 20 3452 1 0 1 0 1 1 1 1 1 1 1 0 1 1 1 1 1 1 0 1 
94 20 4201 1 1 0 0 1 0 1 1 1 1 1 1 0 1 1 1 1 1 1 0 
95 20 4829 1 1 0 1 1 1 1 1 0 1 1 1 1 1 1 1 1 1 1 0 
96 20 4236 1 1 1 1 1 1 1 1 1 1 0 1 1 0 0 0 1 1 1 1 
97 20 5144 1 1 1 1 0 1 1 1 0 1 1 1 1 1 1 1 1 1 0 0 
98 20 4871 0 1 1 1 0 1 1 1 1 1 0 1 1 1 1 0 1 1 1 1 
99 20 4864 1 1 1 1 0 1 1 1 0 1 1 1 1 1 1 1 1 1 0 1 
100 20 4611 1 0 1 1 1 1 1 1 1 1 1 0 1 1 1 1 1 1 1 0 
101 20 5206 1 1 1 1 1 1 1 1 1 1 0 0 1 0 1 1 1 1 1 1 
102 20 4070 1 1 1 1 1 1 0 0 1 0 1 1 1 1 1 1 1 1 1 1 
103 20 4852 1 1 1 1 1 1 1 0 0 1 1 1 0 1 1 1 1 1 1 0 
104 20 4323 1 1 1 1 1 1 0 1 1 1 1 1 1 1 1 0 0 1 1 1 
105 20 5106 1 1 1 0 1 1 1 1 1 1 1 1 1 0 1 1 1 0 0 1 
106 20 4236 1 1 0 1 1 1 1 0 1 1 1 0 1 0 1 1 1 1 1 1 
107 20 4497 1 1 1 0 1 1 1 1 1 1 0 1 1 0 1 0 1 1 1 1 
108 20 4504 1 1 0 1 1 1 1 1 1 0 1 1 0 0 1 1 1 1 1 1 
109 20 4762 0 1 1 1 1 1 1 1 1 1 1 1 1 1 1 1 0 0 1 0 
110 20 5525 1 1 1 1 1 1 0 1 0 1 1 1 1 1 1 1 0 1 0 1 
111 20 4534 0 1 0 1 1 1 0 1 1 1 1 1 1 1 1 1 1 1 0 1 
112 20 3863 0 1 1 1 1 1 1 1 1 1 0 1 1 1 1 1 1 0 0 1 
113 20 5461 1 0 1 1 1 1 1 0 1 1 1 1 1 1 1 1 0 1 0 1 
114 20 4420 1 1 1 1 1 1 1 1 0 1 1 1 1 1 0 1 1 0 1 1 
115 20 4409 1 1 1 1 1 0 1 1 0 1 1 1 1 1 0 1 1 1 1 1 
116 20 4792 1 1 1 1 1 1 1 1 1 1 1 1 1 1 1 0 0 0 0 1 
117 20 4487 1 1 0 1 1 1 0 1 1 1 1 1 1 0 1 1 1 1 1 1 
118 20 4349 1 1 1 1 1 1 1 1 1 1 1 1 0 1 1 1 0 1 0 1 
119 20 5434 1 1 1 0 1 1 1 1 0 1 0 1 1 0 1 1 1 1 1 1 
120 20 4799 1 0 1 1 1 1 1 1 1 1 0 0 1 1 1 1 1 1 0 1 
121 20 5095 1 0 1 1 1 1 1 1 1 1 0 1 0 1 0 1 1 1 1 1 
122 20 4984 1 1 1 1 1 1 0 1 1 1 0 1 1 1 1 1 1 1 1 0 
123 20 5217 1 0 1 1 1 1 1 1 0 1 1 1 1 1 1 0 0 1 1 1 
124 20 4272 1 1 1 1 0 1 0 1 0 1 1 1 1 1 0 1 1 1 1 1 
125 20 3837 1 1 1 1 1 1 1 0 0 1 1 1 0 0 1 1 1 1 1 1 
126 20 4765 1 0 1 1 1 1 1 1 1 0 1 1 0 1 1 1 0 1 1 1 
127 20 5063 1 1 0 1 1 0 1 1 1 1 1 1 0 1 1 1 1 0 1 1 
128 20 4266 1 1 1 0 0 0 1 1 1 1 1 1 1 1 1 0 1 1 1 1 
129 20 5159 1 1 1 1 1 1 0 1 0 1 1 1 1 0 1 1 1 1 1 1 
130 20 5327 1 1 1 1 1 0 0 1 1 1 0 1 1 1 1 1 1 1 1 1 
131 20 3894 1 1 1 1 1 1 0 1 1 0 0 0 1 1 1 1 1 1 1 1 
132 20 4577 1 0 1 1 1 0 1 1 1 1 1 0 1 0 1 1 1 1 1 1 
133 20 4173 1 1 1 0 0 1 1 1 1 1 1 0 1 1 1 1 1 1 1 0 
134 20 4860 1 1 1 1 1 0 1 0 1 1 1 1 1 1 1 1 1 1 1 0 
135 20 5543 1 1 1 1 0 1 1 1 1 0 1 1 1 1 0 1 1 1 0 1 
136 20 5140 0 1 1 0 1 1 1 0 1 1 1 0 1 1 1 1 1 1 1 1 
137 20 4309 1 1 1 0 0 1 1 1 1 1 0 1 1 1 1 1 1 1 1 1 
138 20 4053 1 1 1 0 1 1 1 1 1 0 1 1 0 1 1 1 0 1 1 1 
139 20 4956 0 0 1 1 0 1 1 1 1 1 0 1 1 1 1 1 1 1 1 1 
140 20 4248 1 1 0 1 1 1 1 1 1 1 1 1 1 1 1 0 1 0 0 1 
141 20 4953 0 1 0 1 1 0 1 1 1 1 1 1 1 1 1 1 0 1 1 1 
142 20 5373 0 1 1 1 1 0 1 1 1 1 1 1 1 1 1 1 1 1 1 0 
143 20 6222 0 0 1 1 1 1 1 1 1 1 1 1 1 1 0 1 1 1 1 1 
144 20 4273 1 1 1 1 0 1 0 1 1 1 1 1 1 0 0 1 1 1 1 1 
145 20 4435 1 1 1 1 1 0 1 1 1 1 1 1 1 0 0 1 1 1 0 1 
146 20 4244 1 1 1 1 1 0 1 0 1 1 1 1 1 1 1 1 1 1 0 1 
147 20 4352 1 1 1 1 1 0 0 1 1 1 1 1 0 1 1 1 1 1 1 1 
148 20 4490 1 1 1 1 1 1 0 1 1 1 1 1 1 0 1 0 1 1 1 1 
149 20 5285 0 0 1 1 0 1 0 1 1 1 1 1 1 1 1 1 1 1 1 1 
150 20 4082 1 1 0 1 1 1 1 1 1 1 1 1 1 0 0 1 1 1 1 0 
151 20 5717 1 1 0 1 0 1 0 0 1 1 1 1 1 1 1 1 1 1 1 1 
152 20 5195 1 1 0 1 0 1 1 1 1 0 0 1 1 1 1 1 1 1 1 1 
153 20 4668 1 1 1 1 1 1 1 1 1 1 0 1 1 0 1 1 0 1 1 0 
154 20 4828 1 1 1 0 1 1 0 1 1 1 1 0 1 1 1 1 1 1 1 0 
155 20 4892 0 1 1 1 1 1 1 0 1 1 1 1 1 1 0 1 0 1 1 1 
156 20 5304 1 1 0 1 1 1 1 1 1 1 1 1 1 1 0 1 1 0 1 1 
157 20 4019 0 1 1 1 1 1 1 0 1 1 1 1 1 1 1 1 0 1 1 0 
158 20 4620 1 1 1 1 1 0 0 1 1 0 1 1 1 1 1 1 0 1 1 1 
159 20 5207 1 1 1 1 0 0 1 1 1 1 0 1 1 1 1 1 1 1 1 1 
160 20 5128 1 1 1 0 0 1 1 1 1 1 1 1 1 1 1 0 1 1 1 0 
161 20 4869 1 1 1 1 1 1 0 0 1 1 1 1 1 0 1 1 1 0 1 1 
162 20 4780 1 1 1 0 1 0 0 1 1 1 1 1 1 1 1 1 1 1 0 1 
163 20 4213 0 1 1 1 0 1 0 1 1 1 1 1 1 1 1 1 1 1 1 1 
164 20 4901 1 1 0 1 0 1 1 1 1 1 1 0 1 1 0 1 1 1 1 1 
165 20 4401 1 1 1 1 1 0 1 1 0 1 1 1 1 1 1 1 1 1 0 1 
166 20 4397 1 1 1 0 1 1 1 1 0 0 1 1 1 1 1 1 1 0 1 1 
167 20 4310 1 1 1 1 1 1 1 1 1 1 0 1 1 1 1 0 1 0 1 1 
168 20 5653 1 1 1 1 1 1 0 1 1 0 1 1 1 1 0 1 0 1 1 1 
169 20 5025 1 1 0 1 1 0 1 1 0 1 1 1 1 1 1 1 1 1 1 0 
170 20 5241 1 1 1 1 1 1 0 1 1 1 0 1 1 1 0 1 1 1 1 1 
171 20 4744 1 0 1 0 0 0 1 1 1 1 1 1 1 1 1 1 1 1 1 1 
172 20 5048 1 1 1 1 1 1 1 1 1 1 0 0 1 0 1 1 1 1 0 1 
173 20 5057 1 0 1 1 1 0 1 1 1 1 1 1 0 0 1 1 1 1 1 1 
174 20 5344 1 1 0 1 1 1 1 0 0 1 1 1 1 1 1 0 1 1 1 1 
175 20 5246 1 1 1 1 1 0 1 1 1 1 1 1 1 1 1 1 0 0 0 1 
176 20 4020 1 0 1 1 1 1 1 1 1 1 0 1 1 1 1 0 1 1 1 0 
177 20 5746 1 1 1 0 1 1 1 1 1 1 0 1 1 0 1 1 1 1 0 1 
178 20 4693 1 1 1 1 1 0 0 1 1 0 1 1 1 1 1 1 1 1 1 1 
179 20 4350 1 1 1 1 1 1 1 1 0 1 1 1 0 1 0 0 1 1 1 1 
180 20 5487 1 1 0 1 1 1 1 1 0 1 1 1 1 1 1 1 1 0 0 1 
181 20 4952 1 1 1 1 0 1 1 1 0 1 1 1 1 1 1 0 1 1 1 0 
182 20 3969 1 1 1 1 1 0 1 1 0 1 1 0 1 1 1 1 1 1 1 0 
183 20 4812 1 1 1 0 1 1 1 1 1 1 1 0 1 0 1 1 1 1 1 1 
184 20 5284 1 1 0 1 1 0 1 1 1 1 1 1 1 0 1 1 1 0 1 1 
185 20 4997 1 1 1 0 1 1 1 0 1 0 1 1 1 1 1 1 1 1 1 1 
186 20 3655 1 1 1 1 1 0 1 1 1 1 1 1 0 1 1 1 1 0 1 1 
187 20 4981 1 1 1 1 1 1 1 1 1 0 0 0 1 0 1 1 1 1 1 1 
188 20 4022 1 1 1 1 0 1 1 0 1 1 1 1 1 1 1 1 0 1 1 0 
189 20 4581 1 1 1 1 1 0 1 1 1 1 1 0 1 0 1 1 1 1 1 1 
190 20 4045 1 0 1 1 1 1 1 1 1 1 1 0 1 1 1 1 1 1 0 0 
191 20 3647 1 1 0 1 1 1 1 1 0 0 1 1 1 1 1 1 1 1 1 1 
192 20 4196 1 1 1 0 1 1 1 0 1 1 0 0 1 1 1 1 1 1 1 1 
193 20 4982 1 1 1 0 1 1 1 0 1 0 1 0 1 1 1 1 1 1 1 1 
194 20 5547 1 1 1 1 1 1 1 1 1 1 1 1 1 0 0 1 1 0 1 0 
195 20 5238 1 0 1 0 1 1 1 1 1 1 1 0 1 0 1 1 1 1 1 1 
196 20 4033 1 1 1 1 1 0 1 1 1 1 1 1 0 1 1 1 1 0 1 1 
197 20 4158 0 1 1 1 0 1 1 1 1 1 0 1 1 1 1 1 1 1 1 1 
198 20 3989 1 1 1 1 0 0 1 1 1 1 1 1 1 1 1 1 1 1 0 1 
199 20 5193 1 0 1 1 1 1 1 1 1 1 1 1 1 0 0 1 1 1 0 1 
200 20 4938 1 1 0 1 1 1 0 1 1 1 1 1 1 1 1 0 1 1 0 0 
201 20 4692 1 1 0 1 0 1 1 1 1 1 1 0 1 1 1 1 1 1 1 0 
202 20 4669 1 1 1 1 0 0 1 1 1 1 0 0 1 1 1 1 1 1 1 1 
203 20 4324 0 1 1 1 1 1 1 0 1 1 1 1 1 1 1 1 0 1 0 1 
204 20 4659 0 1 1 1 1 0 1 1 1 1 0 1 1 0 1 1 1 1 1 1 
205 20 4361 1 0 1 0 0 1 1 1 1 0 1 1 1 1 1 1 1 1 1 1 
206 20 4711 0 1 1 1 1 1 1 1 0 1 1 1 1 1 1 1 1 0 1 0 
207 20 5780 1 1 1 1 0 0 1 1 1 1 1 0 1 1 1 1 0 1 1 1 
208 20 5289 1 1 1 1 1 1 0 0 0 1 1 1 1 1 1 1 1 1 1 1 
209 20 5481 1 0 1 1 0 1 1 1 1 1 1 1 1 1 1 1 0 1 1 0 
210 20 4277 1 1 1 0 1 1 0 1 1 1 1 0 1 1 1 1 1 0 1 1 
211 20 4681 1 0 1 1 1 1 0 1 1 1 1 1 1 0 1 1 1 1 1 0 
212 20 4536 1 1 1 1 0 1 1 0 1 1 1 1 1 0 1 1 1 0 1 1 
213 20 5261 1 1 0 1 1 1 1 0 1 1 1 1 1 1 1 0 1 0 1 1 
214 20 4315 0 1 1 0 1 1 0 1 1 1 1 1 0 0 1 1 1 1 1 1 
215 20 5094 1 1 1 0 1 0 1 1 1 1 0 1 1 1 1 1 1 0 1 1 
216 20 4623 0 1 1 1 1 1 1 1 1 1 1 1 1 1 0 1 0 1 1 1 
217 20 5947 1 1 1 0 0 0 1 1 1 1 1 1 1 1 1 1 1 1 1 1 
218 20 3865 1 0 1 1 1 1 1 0 1 1 1 1 1 1 1 1 1 1 1 0 
219 20 4527 1 0 0 1 1 1 1 1 1 1 1 1 1 1 1 1 0 1 1 1 
220 20 4878 0 1 1 1 1 1 0 1 1 1 1 0 1 1 0 1 1 1 1 1 
221 20 4641 1 1 1 1 0 1 1 1 1 1 1 1 1 1 0 0 0 1 1 1 
222 20 5812 1 1 1 1 1 1 1 1 1 1 1 1 1 0 0 0 1 1 0 1 
223 20 5143 0 1 1 0 1 1 1 1 1 1 1 1 1 1 1 1 0 1 0 1 
224 20 4300 1 0 1 1 1 1 1 1 0 1 0 1 1 1 1 1 1 1 1 0 
225 20 4438 1 1 1 1 1 1 1 1 1 0 0 1 1 1 1 1 1 1 1 0 
226 20 5362 0 1 1 1 1 1 0 0 1 0 1 1 1 1 1 1 1 1 1 1 
227 20 5174 0 1 1 1 0 1 1 1 1 1 1 1 1 1 0 1 0 1 1 1 
228 20 4711 1 1 1 1 1 1 1 0 1 1 1 1 0 1 1 1 1 0 1 1 
229 20 5182 1 0 1 1 1 0 1 1 1 0 1 1 1 0 1 1 1 1 1 1 
230 20 5983 1 1 1 1 0 1 1 0 1 1 1 1 1 1 0 1 1 1 1 0 
231 20 4305 1 1 0 0 1 1 1 1 0 0 1 1 1 1 1 1 1 1 1 1 
232 20 4501 1 1 1 1 1 1 1 1 1 1 1 1 1 1 0 0 1 1 1 0 
233 20 4575 1 1 1 1 0 1 0 1 1 1 1 1 1 1 1 1 1 1 1 0 
234 20 4128 1 1 1 1 1 1 1 1 1 0 1 1 1 1 0 1 1 1 0 0 
235 20 5217 1 1 1 1 1 0 1 1 1 1 1 1 1 1 1 1 0 1 0 0 
236 20 4156 1 1 1 0 1 1 1 1 0 1 1 1 1 0 1 1 1 1 1 0 
237 20 4649 1 1 1 1 1 0 1 1 1 1 0 1 1 0 0 1 1 1 1 1 
238 20 4258 1 1 0 1 1 0 1 1 1 1 0 1 0 1 1 1 1 1 1 1 
239 20 5174 0 1 1 0 1 1 0 1 1 1 1 0 1 1 1 1 1 1 1 1 
240 20 4829 1 0 1 1 1 1 1 1 0 1 1 0 1 0 1 1 1 1 1 1 
241 20 5241 0 1 0 1 1 1 0 0 1 1 1 1 1 1 1 1 1 1 1 1 
242 20 4421 1 1 1 1 0 1 0 0 1 0 1 1 1 1 1 1 1 1 1 0 
243 20 3310 0 1 1 1 0 1 1 0 1 1 1 0 1 1 1 1 1 1 1 1 
244 20 4768 1 0 0 1 1 0 1 1 1 1 1 1 1 1 1 0 1 1 1 1 
245 20 4628 1 0 1 1 1 1 1 1 1 1 1 0 1 1 1 0 1 1 1 1 
246 20 3379 1 1 1 1 1 1 1 1 1 1 1 1 0 1 0 0 1 1 1 1 
247 20 5589 1 1 1 1 1 0 1 1 1 0 1 0 1 1 1 1 1 0 1 1 
248 20 4929 1 1 1 0 0 1 1 1 1 1 1 1 1 1 1 0 1 1 0 1 
249 20 5602 1 0 1 1 1 0 1 1 1 1 1 1 1 1 1 1 0 1 1 1 
250 20 3321 0 1 1 1 1 1 1 1 1 1 1 1 1 1 1 1 0 0 1 1 
251 20 4292 1 1 1 1 1 1 0 1 1 1 1 0 1 1 1 1 0 1 0 1 
252 20 5152 1 0 1 1 1 1 1 1 1 1 1 1 0 0 1 1 0 1 1 1 
253 20 5507 1 1 1 1 1 1 1 0 1 1 0 1 1 1 1 1 1 1 0 1 
254 20 3687 1 0 1 1 0 1 1 1 1 1 1 1 0 1 1 1 1 1 1 1 
255 20 3838 1 1 1 0 1 1 1 1 1 1 1 1 1 0 1 0 1 0 1 1 
256 20 4769 1 1 1 1 1 1 1 1 1 1 1 0 1 1 1 0 0 1 0 1 
257 20 5464 1 1 1 1 1 1 1 0 1 0 1 1 0 1 1 1 1 1 1 0 
258 20 4662 1 0 1 1 1 0 1 1 1 1 1 1 1 1 0 0 1 1 1 1 
259 20 5669 1 1 1 1 0 1 0 1 1 1 1 0 1 1 0 1 1 1 1 1 
260 20 5236 1 0 1 1 1 1 1 1 1 1 1 1 1 0 1 1 1 0 0 1 
261 20 3717 1 1 1 1 1 1 1 1 0 1 1 0 1 0 0 1 1 1 1 1 
262 20 4584 1 0 0 1 1 0 0 1 1 1 1 1 1 1 1 1 1 1 1 0 
263 20 5155 1 1 1 0 1 1 1 0 1 1 0 1 1 1 1 1 1 1 1 1 
264 20 4541 1 0 1 1 1 1 0 1 0 1 1 1 1 1 1 1 1 1 1 1 
265 20 4737 1 1 1 1 1 1 0 1 1 0 1 0 1 1 1 1 1 1 1 0 
266 20 4626 1 1 1 1 1 1 1 1 1 1 1 1 1 0 1 1 1 0 1 0 
267 20 4599 1 1 0 0 1 1 1 1 1 1 1 0 1 1 1 1 1 1 0 1 
268 20 5082 1 0 1 0 1 1 1 0 1 1 1 1 1 1 1 1 0 1 1 1 
269 20 4907 1 1 0 1 0 1 1 1 1 0 1 1 1 1 1 1 1 1 1 1 
270 20 5083 0 1 0 1 1 0 1 1 1 1 1 1 1 1 1 1 1 1 1 0 
271 20 4883 1 1 1 1 0 1 1 1 1 1 0 0 1 1 1 1 1 0 1 1 
272 20 4019 0 0 1 1 1 1 1 1 1 1 0 1 1 1 1 1 1 1 1 1 
273 20 4472 1 1 1 1 1 1 0 0 1 1 0 1 1 1 1 1 1 0 1 1 
274 20 4236 1 1 1 1 1 0 1 1 1 1 1 1 1 1 1 1 1 0 1 0 
275 20 5269 1 1 1 1 1 1 1 1 1 1 1 1 1 0 1 1 1 1 0 0 
276 20 3650 1 1 1 1 1 1 0 1 0 0 1 1 1 1 1 1 1 1 1 1 
277 20 4177 1 1 1 1 1 1 1 1 1 1 0 1 1 1 1 1 0 0 0 1 
278 20 5647 0 1 0 1 1 1 0 1 1 1 1 1 1 1 1 1 1 1 0 1 
279 20 3710 1 1 1 1 1 1 1 1 1 0 0 1 1 1 1 1 1 1 0 1 
280 20 4733 1 1 0 1 0 1 1 1 1 1 1 1 1 1 1 1 1 1 0 1 
281 20 4539 1 1 0 1 1 1 1 1 1 0 0 1 1 1 1 1 1 0 1 1 
282 20 4682 1 1 1 0 1 0 1 1 1 0 1 1 1 1 1 0 1 1 1 1 
283 20 5141 1 0 1 1 1 1 1 1 1 1 0 1 1 1 1 0 1 1 1 1 
284 20 4834 1 1 1 1 1 1 1 1 1 1 1 0 1 1 0 1 1 1 0 1 
285 20 4488 1 1 1 0 1 1 0 1 0 1 1 1 1 1 1 1 1 0 1 1 
286 20 4302 1 1 0 1 0 1 1 1 1 1 1 0 1 1 1 1 1 1 1 0 
287 20 5706 1 1 1 1 1 0 1 1 0 1 1 1 1 1 1 1 1 0 1 1 
288 20 4409 1 1 1 1 0 1 1 1 1 1 1 0 1 0 1 0 1 1 1 1 
289 20 5399 1 1 1 0 1 1 1 1 1 1 1 0 1 1 1 0 1 1 0 1 
290 20 5463 1 0 1 1 1 1 1 1 1 1 0 1 1 1 1 0 1 1 1 1 
291 20 4403 1 1 1 1 1 1 1 1 1 1 0 1 1 0 1 0 1 1 0 1 
292 20 4180 1 0 0 0 1 1 0 1 1 1 1 1 1 1 1 1 1 1 1 1 
293 20 4634 1 0 0 1 1 1 1 0 1 0 1 1 1 1 1 1 1 1 1 1 
294 20 4309 1 1 0 1 0 1 1 1 1 1 1 1 1 1 1 1 1 1 0 1 
295 20 4351 1 1 1 1 1 1 1 0 1 1 0 1 0 0 1 1 1 1 1 1 
296 20 5427 0 0 0 1 1 1 1 1 1 1 1 1 1 0 1 1 1 1 1 1 
297 20 3872 1 1 1 0 0 1 1 1 1 1 1 1 1 1 1 1 1 1 0 0 
298 20 4128 1 1 1 0 1 1 1 1 1 1 0 1 0 1 1 1 0 1 1 1 
299 20 4487 0 0 1 1 1 1 1 1 1 1 1 1 1 1 1 0 1 1 0 1 
300 20 5233 1 0 1 1 1 1 0 0 0 1 1 1 1 1 1 1 1 1 1 1 
301 20 5129 1 1 1 1 0 1 1 1 1 1 1 1 0 1 0 0 1 1 1 1 
302 20 3792 1 1 1 1 0 1 1 0 1 1 1 1 1 1 1 1 1 0 0 1 
303 20 4712 1 1 1 0 0 0 1 1 1 1 1 1 1 1 1 1 1 1 1 1 
304 20 4113 1 0 1 1 1 1 1 1 1 1 1 1 1 1 0 0 0 1 1 1 
305 20 4842 1 1 1 0 1 1 1 1 1 1 1 0 0 1 1 1 1 0 1 1 
306 20 4485 1 1 1 1 0 0 1 1 1 1 1 1 1 1 1 1 0 1 1 1 
307 20 5964 1 0 0 1 1 1 1 1 1 1 1 1 1 0 1 1 1 1 1 1 
308 20 4593 0 1 1 1 1 1 1 1 1 1 1 1 1 1 1 1 1 0 0 1 
309 20 5102 0 1 1 1 1 1 1 1 1 1 1 1 0 1 1 1 0 0 1 1 
310 20 4551 1 0 0 1 1 1 1 1 0 1 1 1 1 1 1 1 1 0 1 1 
311 20 5376 1 1 1 1 1 1 0 1 1 0 1 1 1 0 1 1 1 1 1 1 
312 20 4625 1 1 1 1 1 1 1 1 1 0 0 0 1 1 1 1 1 1 1 1 
313 20 4940 1 1 1 1 1 1 0 1 1 1 0 1 1 1 1 1 0 1 1 1 
314 20 5418 1 1 0 1 1 1 1 1 1 1 1 1 1 1 0 0 1 1 1 1 
315 20 4524 1 1 0 1 1 1 1 1 1 0 1 1 1 1 0 0 1 1 1 1 
316 20 5307 1 1 1 0 1 1 0 0 1 1 1 1 1 1 1 1 1 1 1 1 
317 20 4553 1 1 1 1 1 1 0 1 1 1 1 1 1 1 1 0 1 1 0 0 
318 20 4101 1 0 0 1 0 1 1 1 1 1 1 1 1 1 1 1 1 1 0 1 
319 20 4575 1 1 0 1 1 1 1 1 1 1 1 1 1 1 0 1 1 1 0 0 
320 20 5319 0 1 1 1 1 1 1 1 1 1 1 1 1 1 1 1 1 0 0 0 
321 20 4761 1 1 1 1 0 1 1 0 1 1 0 1 1 0 1 1 1 1 0 1 
322 20 4918 0 1 1 1 1 1 1 1 1 0 1 1 0 1 1 1 1 1 0 1 
323 20 4888 1 1 1 1 1 1 0 1 1 1 1 0 1 0 1 1 1 1 0 1 
324 20 4857 1 1 1 1 1 1 0 1 1 1 1 0 1 1 1 1 1 1 0 1 
325 20 5133 1 1 1 1 0 1 1 1 1 1 1 0 1 0 1 1 1 1 1 0 
326 20 5129 0 1 1 1 1 1 1 1 1 1 1 1 1 1 1 0 1 0 1 1 
327 20 5054 1 1 1 1 1 0 1 1 1 1 1 0 1 1 1 1 0 1 1 0 
328 20 4161 0 1 1 1 1 1 1 1 1 1 1 0 1 1 1 1 0 1 1 0 
329 20 4544 1 1 1 0 1 1 1 0 1 1 1 0 1 1 0 1 1 1 1 1 
330 20 4316 1 1 1 0 1 1 1 1 1 1 0 1 1 0 1 1 0 1 1 1 
331 20 5291 1 1 1 0 1 1 1 1 1 0 0 1 1 0 1 1 1 1 1 1 
332 20 4075 1 1 1 0 1 0 1 1 1 1 1 1 1 1 0 0 1 1 1 1 
333 20 5014 1 1 1 1 1 1 1 0 1 0 1 1 1 1 1 1 1 0 0 1 
334 20 5277 1 1 0 1 1 1 1 0 1 1 1 1 1 1 1 1 1 1 1 0 
335 20 5279 1 1 1 1 0 1 0 1 1 0 1 1 1 1 1 0 1 1 1 1 
336 20 4080 1 1 0 1 1 1 1 1 1 1 0 1 1 1 1 1 0 1 1 0 
337 20 5330 1 1 0 1 1 0 1 1 0 1 1 1 1 1 1 1 0 1 1 1 
338 20 3905 1 1 1 1 1 0 1 1 1 1 1 1 1 1 1 1 1 0 0 1 
339 20 4626 1 1 1 1 0 1 1 1 1 1 0 1 1 0 1 0 1 1 1 1 
340 20 4907 1 0 1 1 1 1 1 1 1 1 0 1 1 1 0 1 1 1 1 0 
341 20 3397 1 1 1 1 1 1 1 1 0 1 1 1 1 1 1 0 1 0 1 1 
342 20 4451 1 1 0 1 1 1 1 0 0 1 1 1 1 1 1 0 1 1 1 1 
343 20 3809 0 0 1 1 1 1 1 0 1 1 1 1 1 1 1 1 1 1 0 1 
344 20 4277 1 1 1 1 1 1 0 0 1 1 1 1 1 1 1 1 0 0 1 1 
345 20 4405 1 0 1 1 1 1 1 1 1 1 1 1 1 0 1 0 0 1 1 1 
346 20 3899 1 0 1 1 1 1 1 1 1 0 1 1 1 0 0 1 1 1 1 1 
347 20 4719 1 1 1 1 1 1 1 0 1 1 1 1 1 1 1 1 1 0 1 0 
348 20 4613 1 1 1 1 1 0 0 1 1 0 1 1 1 1 1 1 1 1 0 1 
349 20 4421 1 1 1 1 1 1 0 1 1 1 0 1 0 1 1 0 1 1 1 1 
350 20 4419 1 1 0 1 1 1 0 0 1 0 1 1 1 1 1 1 1 1 1 1 
351 20 4720 1 1 1 0 0 1 1 0 1 1 1 1 1 1 1 1 1 1 0 1 
352 20 5153 1 1 1 1 1 0 1 0 1 1 1 1 1 0 0 1 1 1 1 1 
353 20 4766 1 1 1 1 1 1 1 1 0 1 1 1 1 0 1 1 1 0 0 1 
354 20 4560 1 1 1 0 1 1 1 0 1 1 1 1 1 0 1 1 1 1 1 1 
355 20 5415 1 1 1 0 1 1 1 1 1 1 1 1 0 1 1 1 1 1 1 0 
356 20 4688 1 1 0 1 1 1 1 1 1 1 1 1 0 1 0 1 0 1 1 1 
357 20 5218 1 0 1 0 1 1 1 1 1 1 0 1 1 1 1 0 1 1 1 1 
358 20 4602 1 1 0 1 1 1 1 1 0 1 1 0 1 1 1 1 1 1 1 1 
359 20 5295 0 1 0 1 1 1 0 0 1 1 1 1 1 1 1 1 1 1 1 1 
360 20 4583 1 1 1 0 1 1 1 1 0 1 1 1 1 1 0 1 1 1 1 0 
361 20 4579 1 0 0 1 1 1 1 1 1 1 0 1 1 1 1 1 1 1 1 1 
362 20 5446 1 1 0 1 1 1 1 1 1 1 1 0 1 0 0 1 1 1 1 1 
363 20 4783 1 0 1 1 1 1 1 1 1 1 1 1 1 1 0 0 1 1 1 1 
364 20 4431 0 1 0 1 1 1 1 1 1 1 1 1 1 0 1 1 1 1 1 1 
365 20 4207 1 1 1 1 0 1 1 1 1 1 1 1 1 1 1 0 1 0 1 1 
366 20 4279 0 1 1 1 1 1 1 0 1 1 1 1 1 0 1 1 1 1 1 1 
367 20 4117 0 1 1 1 1 0 1 0 0 1 1 1 1 1 1 1 1 1 1 1 
368 20 5564 1 1 1 1 0 1 1 1 1 1 1 1 1 1 1 1 0 0 1 1 
369 20 4672 1 1 1 0 1 1 1 1 0 1 1 1 1 1 1 1 1 1 0 0 
370 20 5023 1 1 1 1 0 1 1 1 0 1 1 1 1 1 1 0 0 1 1 1 
371 20 4565 1 1 1 1 0 1 1 1 1 1 1 1 1 1 0 1 0 0 1 1 
372 20 6728 1 1 1 1 1 1 1 0 1 1 0 0 1 0 1 1 1 1 1 1 
373 20 6013 1 0 1 1 1 1 0 1 1 1 1 1 1 1 1 1 1 0 1 1 
374 20 4336 1 1 1 1 1 0 1 1 0 1 1 0 1 1 1 1 1 1 0 1 
375 20 4848 1 1 1 1 1 1 1 1 1 1 0 1 1 0 1 1 1 1 0 0 
376 20 5326 1 1 1 1 1 0 1 1 0 1 1 1 0 1 1 0 1 1 1 1 
377 20 5332 1 1 1 1 0 1 1 0 1 1 1 1 1 1 0 1 1 1 0 1 
378 20 6234 1 0 0 1 0 1 1 1 1 1 1 1 1 0 1 1 1 1 1 1 
379 20 4193 1 1 1 1 1 1 1 1 1 1 0 1 0 1 1 1 1 0 0 1 
380 20 5078 1 1 1 1 0 1 0 1 1 1 0 1 1 1 1 1 1 1 0 1 
381 20 4190 0 1 0 1 1 1 1 1 0 1 1 1 1 1 1 1 0 1 1 1 
382 20 5590 0 1 1 1 1 1 1 0 0 1 1 1 1 1 1 1 1 1 1 1 
383 20 4675 1 1 1 1 1 1 1 0 1 0 1 1 1 1 1 1 1 0 1 1 
384 20 5222 1 1 1 1 0 1 1 0 1 1 1 1 1 1 1 1 0 1 0 1 
385 20 5651 1 1 1 1 1 1 1 0 0 1 1 1 1 1 1 1 0 1 0 1 
386 20 4396 1 0 1 1 1 1 1 1 1 1 1 1 1 1 0 1 0 1 1 1 
387 20 3841 0 1 1 1 0 1 1 1 1 1 1 0 1 1 1 1 1 0 1 1 
388 20 4248 0 1 0 1 1 1 0 1 1 1 1 1 1 0 1 1 1 1 1 1 
389 20 4463 1 1 1 1 1 1 0 1 1 1 0 1 1 1 0 1 1 0 1 1 
390 20 4612 1 1 1 1 1 1 1 1 1 0 1 1 1 1 1 1 1 0 0 1 
391 20 5736 1 0 1 1 1 1 1 1 1 1 1 1 1 1 1 1 1 0 1 0 
392 20 4741 1 0 1 1 1 1 1 1 1 0 1 1 0 0 1 1 1 1 1 1 
393 20 4601 1 0 1 1 0 1 0 1 1 1 0 1 1 1 1 1 1 1 1 1 
394 20 4640 1 1 1 1 1 1 0 1 1 1 1 1 1 1 1 0 1 0 1 1 
395 20 4477 1 1 1 1 1 1 1 0 0 1 1 1 1 1 0 1 1 0 1 1 
396 20 4641 0 1 1 1 1 1 0 1 1 1 1 1 1 1 1 1 1 1 0 1 
397 20 4454 1 1 1 1 0 0 1 1 0 1 1 1 1 1 0 1 1 1 1 1 
398 20 5332 0 1 1 1 1 0 1 1 0 1 1 1 1 1 1 1 1 1 1 1 
399 20 4067 1 1 1 0 1 0 1 1 0 1 1 1 1 1 1 1 0 1 1 1 
400 20 5634 1 0 1 1 0 1 1 1 1 1 1 1 1 1 1 1 1 1 0 0 
401 20 4096 0 1 1 1 1 1 1 1 1 1 0 1 1 1 1 1 1 1 0 0 
402 20 5041 1 1 1 0 1 1 1 0 1 1 1 1 1 1 1 1 0 1 0 1 
403 20 5452 1 0 1 1 1 1 0 1 0 1 1 1 1 1 1 1 1 1 1 0 
404 20 5623 1 1 1 1 1 1 1 1 0 1 1 1 1 1 0 1 1 1 1 0 
405 20 5910 1 1 1 0 1 1 1 1 1 1 0 1 1 0 1 0 1 1 1 1 
406 20 5673 1 1 1 1 1 1 1 1 0 1 1 1 1 1 1 1 0 0 1 1 
407 20 5435 1 1 0 0 1 1 1 1 1 1 0 1 1 1 1 1 1 1 0 1 
408 20 4261 1 1 0 1 1 1 0 1 1 1 1 1 1 0 1 1 1 0 1 1 
409 20 4085 1 1 1 1 1 0 1 1 0 1 0 1 1 1 1 1 1 1 1 1 
410 20 4115 1 1 1 1 0 1 1 1 1 1 1 1 0 0 1 1 1 1 0 1 
411 20 5446 1 0 1 1 1 1 1 1 1 1 1 1 1 0 0 1 1 0 1 1 
412 20 4706 1 0 1 1 1 0 1 1 0 1 1 0 1 1 1 1 1 1 1 1 
413 20 4971 0 1 1 0 0 1 1 1 1 1 1 1 1 1 1 1 1 1 1 1 
414 20 5839 1 0 1 1 1 1 1 1 0 1 1 1 1 1 1 1 1 1 1 0 
415 20 5498 1 1 1 1 1 0 0 1 0 1 1 1 1 1 1 1 0 1 1 1 
416 20 4550 1 1 0 1 1 1 1 0 1 1 1 1 0 1 1 1 0 1 1 1 
417 20 4671 1 1 1 1 1 0 1 1 1 1 1 1 1 1 1 1 1 0 0 0 
418 20 4834 1 1 1 1 1 1 1 1 0 0 1 1 0 1 1 1 1 1 1 1 
419 20 4496 1 1 1 1 1 0 1 1 1 1 0 1 1 0 1 1 1 1 1 0 
420 20 3723 0 1 1 1 1 1 1 1 0 1 1 1 1 1 1 1 0 1 1 0 
421 20 4004 0 1 1 1 1 1 1 1 1 1 1 0 1 1 1 1 1 0 1 1 
422 20 4464 1 1 1 1 0 1 1 0 1 0 1 1 1 1 0 1 1 1 1 1 
423 20 3560 1 1 1 1 1 1 0 1 1 0 0 1 1 1 1 1 1 0 1 1 
424 20 4882 1 0 1 1 1 1 1 1 1 1 0 1 0 1 1 1 1 0 1 1 
425 20 3736 1 1 0 0 1 0 1 0 1 1 1 1 1 1 1 1 1 1 1 1 
426 20 5367 0 1 1 1 1 1 1 0 1 1 1 0 0 0 1 1 1 1 1 1 
427 20 4614 1 1 1 0 1 1 0 1 1 1 1 1 1 1 1 0 1 1 1 0 
428 20 3549 1 1 1 1 1 1 1 1 1 1 1 0 1 0 1 0 1 1 1 0 
429 20 4304 1 1 1 1 1 1 1 1 0 0 1 1 1 0 1 1 1 1 1 1 
430 20 4093 0 1 0 1 1 1 1 1 1 1 1 1 1 1 1 1 1 0 0 1 
431 20 5055 1 1 1 0 1 1 1 1 1 1 1 1 1 1 0 1 1 0 1 1 
432 20 4900 1 1 1 1 1 1 1 0 1 0 1 1 1 1 0 1 1 1 1 1 
433 20 4460 1 1 1 1 0 1 1 1 1 0 1 0 1 1 1 0 0 1 1 1 
434 20 4556 0 1 1 1 1 1 1 1 1 1 1 0 1 1 1 1 0 1 1 1 
435 20 4757 1 1 1 0 1 0 1 1 1 1 1 1 0 0 1 1 1 1 1 1 
436 20 5012 1 1 1 1 1 0 1 1 1 1 1 1 0 1 1 0 1 1 0 1 
437 20 4482 1 1 1 1 1 1 0 1 1 1 0 1 1 0 1 1 1 0 1 1 
438 20 5130 0 1 1 1 1 1 1 1 1 1 1 1 1 1 1 1 0 1 1 0 
439 20 4701 1 0 1 0 1 1 1 1 1 1 1 1 1 1 1 0 1 1 0 1 
440 20 4274 1 1 0 0 1 1 1 1 0 1 1 1 1 1 1 1 1 1 1 0 
441 20 4509 1 0 1 1 1 1 1 1 1 1 1 1 1 0 1 0 1 0 1 1 
442 20 4814 1 0 1 1 1 1 1 0 1 1 1 1 1 1 1 1 1 0 1 1 
443 20 5394 1 0 1 1 1 0 1 1 1 1 0 1 1 1 1 1 1 1 1 1 
444 20 6002 1 1 1 1 1 1 1 1 1 1 1 1 0 1 0 1 1 1 1 0 
445 20 4631 1 1 1 1 1 1 1 0 1 1 1 1 1 0 0 1 1 1 1 1 
446 20 4827 1 1 1 1 1 1 1 1 0 0 1 1 1 0 1 0 1 1 1 1 
447 20 4449 1 1 1 1 0 1 1 1 1 0 0 1 1 1 1 1 1 0 1 1 
448 20 4791 1 0 1 1 1 0 1 1 0 1 1 1 1 1 1 1 1 1 1 1 
449 20 4846 1 0 1 1 1 1 1 1 1 0 1 1 1 1 1 1 0 1 1 1 
450 20 4837 0 1 1 1 1 1 1 0 1 1 1 1 1 1 1 1 1 0 1 1 
451 20 4000 1 1 1 1 1 0 1 1 1 1 1 1 1 1 1 1 1 0 0 0 
452 20 5051 0 1 1 1 1 1 1 1 1 1 1 1 0 1 1 0 0 1 1 1 
453 20 3216 1 0 1 1 1 1 1 0 1 1 1 0 1 1 1 1 1 1 1 1 
454 20 4773 1 1 1 1 1 1 0 1 1 1 1 0 1 0 1 1 1 1 1 1 
455 20 3442 1 0 1 1 1 1 1 0 1 0 1 0 1 1 1 1 1 1 1 1 
456 20 4611 1 1 1 1 1 1 0 1 1 1 1 1 1 1 1 0 0 1 1 1 
457 20 6023 1 1 1 1 1 0 1 1 1 1 0 1 1 1 1 0 1 1 1 1 
458 20 4896 1 0 1 1 1 1 1 1 1 1 1 1 1 1 1 0 1 1 0 0 
459 20 4184 1 1 1 1 1 0 1 1 0 1 1 1 0 1 1 1 1 1 1 1 
460 20 5139 1 1 1 1 1 0 1 1 1 1 0 1 0 1 1 1 1 1 1 1 
461 20 5838 1 1 1 0 1 1 1 1 0 1 0 1 0 1 1 1 1 1 1 1 
462 20 4607 0 1 1 1 1 1 1 1 1 1 1 1 1 1 1 0 1 1 1 0 
463 20 5663 1 1 0 1 1 1 0 1 1 1 1 0 0 1 1 1 1 1 1 1 
464 20 3904 0 0 0 1 1 1 1 1 1 1 1 1 1 0 1 1 1 1 1 1 
465 20 5129 1 1 0 1 1 1 1 1 1 0 1 1 1 1 1 1 1 1 0 1 
466 20 4305 1 1 0 1 1 0 1 1 1 1 1 1 1 1 1 0 1 1 0 1 
467 20 4973 1 1 1 0 1 1 0 1 0 1 1 1 0 1 1 1 1 1 1 1 
468 20 4232 1 1 0 1 1 1 0 0 1 1 1 1 1 1 1 1 1 1 1 1 
469 20 4020 1 1 1 1 1 1 1 1 1 1 1 1 0 1 0 1 1 0 0 1 
470 20 4257 1 0 1 0 1 0 1 1 1 1 1 1 1 1 1 1 1 1 1 0 
471 20 4867 1 1 1 1 1 1 1 1 1 1 1 1 1 1 0 0 1 0 1 1 
472 20 4319 1 1 0 1 1 1 1 1 1 0 0 1 1 1 0 1 1 1 1 1 
473 20 5140 1 1 1 1 1 1 1 0 1 1 1 1 0 1 0 1 1 0 1 1 
474 20 5782 1 1 1 1 0 1 1 1 1 1 1 1 1 1 0 1 1 1 0 1 
475 20 4551 0 1 1 1 1 1 1 1 1 1 1 0 1 1 1 1 0 0 1 1 
476 20 3678 0 1 0 1 1 1 0 1 1 1 1 1 1 1 1 1 0 1 1 1 
477 20 4900 1 1 0 1 1 1 0 1 1 0 1 1 1 0 1 1 1 1 1 1 
478 20 4805 1 0 1 0 1 1 1 1 1 1 1 0 0 1 1 1 1 1 1 1 
479 20 5237 1 1 1 0 0 0 0 1 1 1 1 1 1 1 1 1 1 1 1 1 
480 20 4983 1 1 1 1 1 0 1 1 1 1 1 0 1 0 1 1 1 0 1 1 
481 20 5752 1 1 1 1 1 1 1 1 1 1 1 0 0 0 1 1 1 1 1 0 
482 20 4134 1 0 1 1 1 0 1 1 1 1 1 1 1 1 1 1 0 1 1 1 
483 20 4568 1 1 1 1 1 0 1 1 1 0 1 1 1 0 1 0 1 1 1 1 
484 20 4821 1 1 1 1 0 1 1 1 0 1 1 0 1 1 1 1 1 1 1 0 
485 20 4919 1 0 1 1 1 1 1 1 1 1 1 1 1 1 1 1 0 1 1 0 
486 20 5346 1 1 1 1 1 1 1 1 1 0 0 0 1 1 1 0 1 1 1 1 
487 20 5262 1 1 0 1 1 1 0 1 1 1 1 1 1 1 0 1 1 1 1 1 
488 20 4847 1 1 1 1 1 0 1 1 1 0 1 0 1 1 1 1 1 0 1 1 
489 20 3840 0 1 1 1 0 1 1 1 1 1 0 1 1 1 1 1 1 1 1 1 
490 20 5301 1 1 1 1 1 0 1 1 1 0 0 1 1 1 1 1 1 1 0 1 
491 20 4707 0 1 0 1 1 1 1 1 1 1 1 1 1 0 1 0 1 1 1 1 
492 20 5401 1 1 0 1 0 1 0 1 1 1 1 1 1 1 1 1 1 1 1 1 
493 20 5277 1 1 1 0 1 0 1 1 0 1 1 0 1 1 1 1 1 1 1 1 
494 20 4343 1 1 1 1 1 0 1 0 1 1 1 0 1 1 1 0 1 1 1 1 
495 20 4278 0 1 1 1 1 0 1 0 1 0 1 1 1 1 1 1 1 1 1 0 
496 20 4336 1 0 1 1 1 1 1 1 1 1 1 1 1 1 0 0 1 1 0 1 
497 20 4073 0 1 1 1 1 0 1 1 1 1 1 1 1 1 1 1 1 0 1 1 
498 20 5049 1 0 0 0 1 0 1 1 1 1 1 1 1 1 1 1 1 1 1 1 
499 20 3442 1 1 1 1 0 1 0 1 1 1 1 1 1 1 1 1 1 1 0 1 
500 20 4600 1 1 1 1 1 1 1 1 0 1 1 1 1 0 1 0 1 1 1 1 
