1 20 10934 144 86 834 130 586 301 242 284 856 135 566 45 660 366 610 201 543 400 702 149 690 329 936 167 852 85 829 177 741 439 530 99 675 149 854 472 956 294 862 417
2 20 10896 248 481 743 391 813 224 744 69 780 434 722 166 768 165 571 341 666 161 982 398 643 131 933 157 731 420 484 388 773 443 639 277 412 314 887 398 605 50 476 452
3 20 12052 784 346 770 32 637 132 796 218 676 445 919 318 324 330 657 172 980 321 853 155 933 495 705 259 875 212 463 217 944 389 943 455 917 83 710 141 825 316 354 34
4 20 11685 534 224 631 148 529 491 789 62 785 245 822 234 845 495 711 407 947 249 384 60 870 249 801 360 990 287 604 117 879 470 500 330 994 159 98 473 918 27 976 196
5 20 13028 1000 3 788 449 982 1 557 34 963 60 773 76 875 193 973 441 448 442 955 500 767 82 957 114 961 77 420 220 594 105 768 408 921 317 896 85 898 426 789 204
6 20 12718 724 75 798 376 798 433 932 458 711 207 840 20 820 344 867 430 779 452 787 99 657 391 926 197 297 395 955 282 979 377 751 369 967 307 863 431 576 67 871 231
7 20 10613 617 91 452 358 451 310 530 384 241 362 568 489 931 38 593 65 749 142 869 425 820 369 694 131 904 264 913 115 436 333 502 10 973 210 948 449 612 62 464 270
8 20 12654 332 337 996 119 599 326 916 441 967 483 358 388 968 327 970 59 991 184 944 368 869 245 764 205 768 265 979 388 623 316 931 371 525 248 976 247 595 50 747 397
9 20 11403 858 196 531 462 966 185 839 165 972 419 642 42 820 455 978 182 370 432 762 224 390 399 218 471 457 268 756 197 857 383 983 229 834 424 674 210 496 252 851 339
10 20 11053 914 369 484 473 654 458 895 420 665 70 578 111 736 432 533 457 703 173 921 252 574 270 695 353 989 466 787 488 643 368 803 278 584 180 188 350 615 496 856 57
11 20 11694 724 403 754 16 593 278 1000 3 752 390 224 201 919 392 538 122 648 456 755 23 976 48 513 490 397 45 838 392 623 90 998 158 879 279 895 26 906 272 686 360
12 20 11415 515 98 758 475 730 27 426 129 989 362 463 398 709 105 675 94 532 319 643 293 800 378 969 459 916 180 467 104 974 188 947 185 455 224 943 110 704 67 654 245
13 20 12634 874 352 494 375 931 284 606 152 996 82 416 5 958 78 964 245 812 35 938 315 749 116 422 423 961 21 960 316 913 273 952 19 780 200 706 184 868 21 493 79
14 20 11878 849 436 879 346 940 210 918 271 840 92 662 244 737 99 884 138 726 274 809 204 193 130 886 76 638 249 711 312 982 403 415 279 951 101 304 443 979 193 545 214
15 20 11870 941 499 775 185 865 25 824 191 726 237 744 225 742 175 907 471 662 101 400 420 717 127 924 386 939 12 800 71 998 385 199 432 763 425 272 327 824 326 816 224
16 20 11347 540 295 603 141 124 189 791 305 640 248 906 185 713 389 825 163 663 33 904 374 826 134 865 31 964 3 904 256 741 23 436 319 577 26 615 289 558 422 989 380
17 20 10714 869 447 780 41 625 225 179 258 915 151 713 359 463 267 433 343 550 272 863 373 880 30 799 445 538 480 674 16 992 324 587 381 811 48 607 420 626 336 489 168
18 20 12392 642 39 733 171 844 221 577 2 889 421 816 384 862 62 751 61 880 467 815 101 569 355 878 137 681 75 813 105 746 353 795 1 857 259 756 472 696 29 890 19
19 20 11168 407 365 528 89 620 275 952 432 689 25 795 75 718 169 884 487 618 53 848 101 622 372 670 253 501 242 360 181 996 414 918 224 811 422 378 78 793 285 853 428
20 20 11309 714 324 499 42 888 376 896 51 996 149 521 125 461 259 604 382 794 35 821 447 487 218 964 107 818 235 888 300 637 325 717 453 638 161 535 152 277 45 982 390
21 20 11436 430 90 975 345 769 356 653 133 946 116 948 495 807 223 997 120 665 21 958 91 522 440 851 497 980 431 423 111 375 223 606 281 275 446 772 134 694 453 650 276
22 20 11799 902 341 597 272 780 236 545 92 591 51 502 167 435 78 618 338 902 180 729 409 943 321 883 189 592 339 802 487 918 82 796 230 914 5 685 499 858 69 757 472
23 20 12703 374 201 615 235 994 450 783 117 971 148 960 90 483 312 815 310 874 221 876 425 899 381 956 94 267 128 891 333 820 345 934 53 863 292 801 372 961 352 742 486
24 20 12802 768 150 834 443 906 319 453 385 943 324 856 226 596 9 976 490 941 336 763 407 962 93 965 321 502 3 857 118 790 105 935 67 941 452 403 388 788 67 824 308
25 20 11852 487 20 394 34 904 62 698 309 947 350 996 314 808 289 759 445 930 405 837 40 884 390 954 12 786 368 969 140 710 150 663 51 696 380 226 74 442 324 726 200
26 20 11745 816 273 402 130 780 230 700 58 960 40 461 395 401 70 951 42 648 260 866 362 912 230 730 171 644 139 747 164 956 139 958 236 640 198 801 372 694 2 615 475
27 20 11033 610 490 974 21 839 453 991 143 636 71 730 89 792 500 263 154 274 329 956 4 494 120 985 206 367 119 349 63 784 470 578 500 865 289 593 383 964 154 748 405
28 20 12775 550 103 503 325 690 275 778 377 996 488 694 458 765 192 858 97 954 160 838 5 765 40 760 311 779 451 902 487 984 465 802 102 840 165 919 318 912 73 680 233
29 20 12448 798 357 873 408 967 479 635 228 676 429 893 43 982 38 937 351 597 329 861 249 873 53 944 146 817 89 763 289 767 339 951 24 168 414 738 419 899 100 421 267
30 20 12041 852 128 624 101 805 69 435 243 913 56 829 253 960 120 906 474 603 74 859 401 899 331 826 451 711 30 937 183 799 394 534 299 842 283 883 481 410 76 425 285
31 20 12881 928 350 974 137 871 436 930 2 939 162 962 118 909 137 570 458 980 12 846 110 953 5 803 441 900 400 184 78 608 256 689 26 747 471 635 90 836 236 838 115
32 20 12898 669 158 998 206 772 379 997 173 817 247 588 447 904 342 881 239 919 383 796 137 772 139 889 356 298 171 845 431 973 127 476 453 954 413 895 330 731 211 949 95
33 20 10798 870 401 291 456 852 307 379 198 620 250 947 134 694 500 456 462 448 322 766 490 835 469 486 278 529 437 759 413 965 153 318 464 937 25 883 366 960 38 503 84
34 20 12573 656 185 896 98 813 41 559 459 555 306 787 343 843 222 768 452 870 226 840 246 771 65 903 33 855 279 622 283 650 379 800 181 887 489 952 26 743 55 947 144
35 20 11643 648 411 236 400 941 290 965 183 636 285 887 56 820 467 639 268 296 103 754 345 850 262 919 149 580 416 616 189 996 230 560 212 901 302 622 217 801 223 887 433
36 20 12073 945 5 828 35 817 298 902 429 837 19 581 105 931 232 999 419 805 61 926 193 894 324 546 169 704 132 984 231 478 200 681 198 278 89 919 234 290 461 747 472
37 20 12291 792 489 926 7 331 86 669 234 888 394 782 416 730 134 845 423 714 474 666 457 981 126 244 374 841 261 970 164 455 202 878 314 816 217 977 73 973 266 886 266
38 20 10380 574 336 763 173 820 23 684 309 391 232 583 458 690 322 314 400 631 399 649 253 399 396 842 401 580 140 892 148 958 59 762 483 494 333 945 129 489 14 515 351
39 20 11441 521 101 986 297 949 339 252 327 919 99 977 309 433 436 866 20 856 197 670 405 854 101 732 34 619 276 665 162 378 80 924 361 647 97 489 356 858 417 707 204
40 20 12992 961 32 889 327 968 103 958 460 957 353 832 67 993 162 323 480 866 421 759 378 456 241 576 199 860 340 902 298 914 219 691 327 404 201 995 334 953 24 984 323
41 20 11767 864 65 744 52 588 56 631 143 997 301 891 210 891 231 963 405 936 383 919 483 846 391 892 133 505 9 653 191 758 430 489 371 477 225 487 9 661 494 517 199
42 20 12408 798 158 490 171 928 341 703 152 829 241 950 453 993 29 695 5 389 167 771 313 909 80 967 182 895 270 905 58 575 426 707 469 541 37 549 132 946 101 970 315
43 20 11784 820 15 328 359 764 196 992 266 723 451 936 255 578 466 659 283 894 266 690 479 895 313 764 198 717 387 773 136 644 398 966 15 589 103 369 437 683 86 946 411
44 20 10942 684 316 711 51 412 310 883 297 620 168 522 80 970 166 950 190 729 72 705 459 488 185 681 490 525 462 563 411 533 65 857 294 627 18 470 57 999 497 749 267
45 20 12444 929 460 970 406 799 69 801 246 731 392 524 490 960 208 881 228 686 225 891 382 775 218 968 22 896 82 836 294 994 387 807 119 390 184 517 13 636 389 564 210
46 20 13008 907 84 847 118 548 67 982 233 738 315 870 352 958 398 671 201 542 366 959 488 941 317 973 47 688 82 844 483 827 386 843 250 769 304 941 404 486 402 927 495
47 20 12227 851 25 733 327 555 155 922 299 887 313 927 81 620 313 946 487 835 230 713 268 946 159 571 163 699 81 600 405 934 3 657 493 473 354 979 368 896 190 540 409
48 20 11690 686 87 926 96 928 307 753 86 931 143 683 18 586 292 764 60 981 32 593 370 786 228 792 71 684 14 390 330 515 324 942 310 776 124 387 101 670 47 840 367
49 20 11960 819 114 949 193 891 102 756 249 640 229 894 19 765 212 949 328 874 267 793 456 518 376 933 446 649 40 970 423 580 81 880 8 296 348 668 135 638 452 489 289
50 20 11714 919 120 674 216 754 21 459 1 687 77 571 316 764 414 962 93 990 417 808 317 961 129 630 331 802 17 729 172 840 193 802 140 120 223 545 500 916 301 710 221
51 20 12787 929 174 993 172 490 321 832 7 959 25 853 16 940 89 941 246 976 244 862 288 980 370 951 187 226 87 597 448 819 483 898 442 748 332 526 497 942 498 522 433
52 20 11944 785 450 821 77 967 254 755 489 701 71 900 303 414 15 479 280 896 203 595 484 873 49 961 294 780 466 844 70 815 403 850 7 883 261 574 215 270 498 768 326
53 20 10459 612 317 720 289 800 233 801 96 275 39 789 3 151 238 266 329 980 68 689 254 278 207 527 426 670 378 880 48 925 320 450 60 878 22 729 151 984 493 670 306
54 20 12245 722 464 956 6 994 358 928 364 976 415 919 433 819 255 871 194 715 495 960 233 265 335 629 31 536 229 168 138 806 292 1000 76 631 49 688 387 823 459 901 180
55 20 12496 663 447 969 205 568 222 890 399 788 35 771 450 534 449 850 380 510 88 935 258 982 460 966 116 745 274 804 445 423 49 789 379 934 395 796 35 790 109 913 57
56 20 12850 608 489 855 280 674 349 555 163 1000 170 931 8 560 93 565 71 930 269 745 54 946 60 844 419 905 165 773 391 923 321 850 354 984 115 834 108 959 495 622 9
57 20 11094 203 443 724 141 798 84 679 142 693 389 997 178 599 258 868 377 326 383 939 489 989 399 851 3 177 146 374 346 500 74 843 500 673 46 699 67 946 264 990 420
58 20 11396 899 342 884 123 615 437 815 11 668 21 785 109 634 50 752 127 998 474 411 162 699 186 893 304 537 367 774 312 777 461 298 259 813 177 861 231 760 368 373 206
59 20 11981 440 326 975 106 581 50 894 254 976 305 663 289 749 129 658 403 497 37 928 223 922 189 852 35 663 345 682 151 782 138 393 206 954 32 774 246 903 411 691 452
60 20 13003 764 489 820 378 857 139 934 415 777 427 701 187 598 384 817 230 813 263 802 428 908 357 919 412 918 38 873 150 846 170 673 247 468 409 933 291 833 353 1000 311
61 20 11724 774 66 644 198 924 38 931 105 798 335 991 298 555 269 836 389 967 20 613 214 577 247 729 423 728 61 301 37 666 394 761 123 813 225 695 110 825 355 528 386
62 20 11358 383 224 968 414 590 459 547 297 734 284 704 203 844 431 359 322 751 99 377 363 931 314 960 139 694 449 920 186 601 54 982 217 987 229 540 451 904 362 422 309
63 20 11684 583 292 888 38 458 24 775 222 688 499 858 321 376 305 966 182 987 468 883 412 815 59 258 244 807 306 807 292 685 313 780 279 931 444 801 192 565 153 694 238
64 20 12084 733 464 814 17 761 213 834 310 281 226 987 375 807 200 671 115 821 271 518 54 777 309 805 474 800 316 715 354 916 250 667 100 941 494 355 214 962 462 941 153
65 20 10544 885 113 826 498 984 427 386 477 809 127 454 179 936 411 827 129 656 332 554 131 466 369 820 169 457 162 557 330 465 401 958 475 100 419 444 485 801 200 796 254
66 20 12233 358 119 765 395 819 484 544 294 748 72 966 92 556 136 903 58 931 340 610 498 832 164 655 417 863 427 818 458 729 374 800 138 933 25 944 341 970 220 548 223
67 20 11515 977 107 702 42 830 134 553 465 678 15 691 306 500 86 586 207 538 86 653 476 826 338 453 8 872 3 789 21 860 30 561 25 458 461 986 497 897 32 984 33
68 20 10365 888 274 684 122 463 209 857 166 341 217 891 346 971 155 979 122 981 332 407 495 626 265 737 452 617 402 518 173 591 153 515 187 174 455 503 94 811 295 403 81
69 20 11979 975 194 780 239 738 314 958 372 995 94 900 420 312 425 580 90 747 416 874 392 907 103 856 126 616 206 565 374 554 145 692 406 715 242 633 408 829 132 748 230
70 20 12111 352 217 809 337 909 140 805 256 817 261 867 259 729 73 496 410 792 302 958 370 723 189 952 385 642 132 684 339 518 330 982 28 917 226 989 211 645 396 553 165
71 20 11672 159 201 994 408 578 500 247 174 950 159 901 256 728 312 641 493 904 26 673 144 431 383 955 187 641 199 932 386 995 251 942 337 832 341 830 178 502 77 756 196
72 20 11542 546 306 983 14 348 342 643 283 974 397 618 134 855 329 857 455 849 96 718 246 779 14 996 108 754 76 963 262 870 69 617 402 685 303 501 250 380 97 492 57
73 20 11461 322 441 492 4 548 499 840 60 901 130 718 130 899 438 631 285 987 310 742 366 945 185 793 122 753 440 626 381 665 357 383 455 635 205 540 322 936 86 971 457
74 20 11649 909 51 924 352 750 22 689 499 976 264 375 155 991 49 885 368 761 305 232 197 961 395 765 369 626 282 817 253 127 383 856 188 965 66 418 100 675 78 860 217
75 20 11302 955 244 814 23 868 311 974 211 972 62 834 44 781 256 892 29 82 265 817 80 721 465 615 495 463 137 640 453 550 412 937 257 435 243 485 277 521 14 772 338
76 20 12093 818 313 663 398 753 153 834 234 587 151 826 408 840 470 938 246 893 32 334 278 840 393 985 213 892 314 642 374 994 338 607 232 898 108 615 369 764 431 394 162
77 20 11432 685 121 746 72 664 338 720 134 779 432 390 36 573 14 698 77 732 498 655 1 609 10 442 335 912 498 808 254 782 235 971 288 610 85 871 144 653 266 990 187
78 20 11913 960 491 884 346 935 207 852 282 687 259 821 164 482 255 788 328 984 237 975 37 707 115 196 218 816 386 954 424 539 197 629 319 610 364 882 498 994 14 197 253
79 20 13037 925 223 775 467 975 311 741 215 942 291 959 474 828 400 978 167 280 206 333 228 947 91 942 22 952 289 875 173 476 238 739 412 981 121 804 295 977 121 868 41
80 20 11931 701 403 880 79 712 488 971 411 697 21 409 140 908 188 667 409 852 287 696 35 922 20 906 334 655 162 580 155 509 446 776 434 716 237 870 432 646 297 841 405
81 20 11589 818 386 475 451 324 302 147 91 731 171 986 271 725 165 774 393 900 407 975 155 845 214 612 157 721 492 878 183 926 189 970 52 812 284 276 243 988 1 604 493
82 20 10828 866 227 797 49 660 253 583 42 375 19 896 14 188 226 827 414 512 338 899 230 434 372 687 115 988 392 674 196 676 392 615 297 884 281 762 145 693 380 519 26
83 20 11611 620 251 653 263 658 324 890 314 783 73 678 460 843 15 531 427 737 127 814 95 617 147 971 483 260 334 914 96 736 198 964 123 687 46 392 247 868 54 898 294
84 20 12804 963 409 774 286 705 469 375 497 927 131 907 374 834 43 979 204 830 30 828 289 869 263 193 333 898 486 893 132 983 119 725 331 539 434 888 84 934 333 962 110
85 20 11820 997 320 998 282 910 231 614 286 481 401 763 335 891 409 922 117 701 25 546 310 706 163 726 12 576 114 724 36 531 420 892 102 764 438 557 403 936 285 541 420
86 20 11583 648 345 931 409 211 278 522 481 986 286 529 133 684 176 657 125 878 476 853 401 827 398 932 292 945 137 295 384 982 387 642 216 866 114 812 19 560 396 719 327
87 20 12232 655 273 856 13 986 433 823 125 701 495 515 263 760 159 669 417 697 72 996 353 733 490 700 240 445 468 919 105 708 129 796 335 909 248 743 206 845 355 835 325
88 20 13055 920 68 508 324 762 81 932 114 834 228 890 119 675 53 870 423 880 57 412 106 919 324 594 270 941 225 885 287 805 395 994 483 794 242 898 227 955 334 851 227
89 20 13231 951 93 699 150 797 91 977 58 905 36 909 335 817 479 934 272 817 53 972 100 650 162 881 399 958 266 971 125 961 83 920 395 347 11 814 118 529 172 730 414
90 20 10789 805 482 769 215 346 212 785 181 228 178 795 282 572 4 967 495 762 242 926 368 902 172 977 129 124 245 390 190 862 7 822 414 977 478 715 396 603 335 160 346
91 20 12036 588 331 921 10 631 105 892 300 795 42 932 260 811 290 925 206 686 235 449 499 862 485 784 423 523 88 576 119 869 183 825 403 945 370 953 63 408 230 670 228
92 20 10108 167 361 582 252 573 143 790 7 999 50 289 73 663 213 430 325 773 40 912 296 897 144 944 156 612 141 408 30 936 12 218 346 485 191 503 212 715 330 740 274
93 20 11152 477 345 839 458 833 296 544 268 201 239 360 496 682 287 936 178 445 407 556 276 676 202 497 482 896 71 940 99 966 2 891 359 987 406 595 192 845 203 774 367
94 20 12457 845 253 773 493 942 425 849 38 610 259 425 364 919 468 959 119 826 457 790 420 765 295 901 383 928 54 599 99 842 205 963 108 952 321 279 357 671 72 734 19
95 20 10359 795 239 738 87 309 183 877 19 616 379 1000 491 166 487 381 98 631 197 942 190 997 266 508 363 430 310 598 479 993 112 619 308 412 34 780 306 719 351 438 248
96 20 11724 891 278 614 434 773 487 929 40 453 41 868 397 721 418 858 461 695 334 841 465 780 216 443 216 855 164 763 236 307 413 859 338 971 327 744 215 304 467 987 257
97 20 12613 924 368 937 479 993 149 354 196 896 229 571 158 793 236 765 344 698 47 958 306 496 427 836 61 946 126 785 196 917 139 998 457 735 111 482 211 842 196 841 459
98 20 12415 558 268 843 498 798 234 982 253 586 198 329 155 789 322 566 123 804 262 977 427 676 476 731 343 960 244 722 232 957 41 984 146 599 233 980 154 936 42 742 367
99 20 12316 829 167 605 300 895 29 888 264 733 37 935 335 839 239 559 291 962 473 587 222 719 105 537 297 753 351 706 165 982 305 960 345 870 41 666 350 705 45 666 363
100 20 12320 739 200 724 353 529 188 888 406 797 417 674 106 739 198 910 461 818 275 981 16 500 409 889 455 814 84 946 121 952 353 510 496 837 325 956 180 735 218 462 287
101 20 10756 926 388 674 279 799 226 700 225 893 224 717 66 328 223 273 242 236 409 806 353 799 130 477 104 775 442 941 50 872 225 524 213 914 64 938 310 473 487 381 136
102 20 12771 800 457 903 318 940 330 650 175 772 147 920 105 625 128 886 348 939 202 706 139 617 425 816 83 871 195 908 341 778 438 835 315 740 164 919 341 756 146 583 412
103 20 12233 534 111 853 25 774 396 934 205 725 230 931 120 529 312 874 380 995 120 285 27 817 75 846 497 909 471 660 398 498 149 765 252 572 42 795 285 1000 21 996 132
104 20 11635 439 278 871 234 436 388 645 413 617 403 994 306 845 40 738 409 932 222 310 255 527 55 698 271 891 5 866 77 714 207 886 487 799 206 951 122 751 415 634 175
105 20 10361 736 387 585 408 712 187 284 77 960 331 738 293 625 200 444 92 536 51 428 471 480 228 828 227 786 284 212 260 972 170 986 334 909 411 712 112 358 213 661 493
106 20 11924 933 255 572 52 704 278 875 426 862 237 988 368 670 488 957 157 570 278 702 498 929 153 917 267 799 32 407 410 357 118 551 149 859 270 748 285 894 238 612 441
107 20 11596 660 490 881 315 625 85 305 238 765 46 976 353 627 61 687 15 510 277 917 354 407 377 535 315 865 436 960 240 868 266 946 460 718 480 846 57 999 89 399 100
108 20 12506 923 495 974 424 996 364 769 489 750 174 164 218 970 13 670 138 792 367 572 271 454 335 671 318 873 361 911 12 901 109 928 288 908 74 773 46 927 482 707 278
109 20 11062 192 120 760 453 628 77 473 100 762 428 510 452 787 104 975 348 876 447 961 348 701 3 626 178 419 208 595 172 640 348 872 349 994 237 809 423 754 14 494 298
110 20 11381 613 413 599 96 712 362 968 429 419 249 475 479 892 190 482 432 693 458 828 243 900 47 824 197 834 20 850 116 721 423 602 248 319 275 745 113 796 146 955 400
111 20 11705 980 462 991 183 793 252 339 72 906 293 910 229 270 285 897 396 490 175 765 151 268 270 842 258 708 58 661 155 936 491 734 255 542 291 943 314 680 8 977 96
112 20 12424 952 63 917 357 829 254 810 169 727 415 798 165 730 36 488 386 939 187 936 176 784 11 743 111 900 131 828 404 376 269 991 49 422 281 422 341 946 395 992 237
113 20 11410 415 65 665 189 769 154 963 442 963 147 995 134 454 414 573 34 869 318 748 209 823 265 851 372 537 15 773 376 897 48 760 205 256 19 771 292 526 40 655 64
114 20 10530 491 130 943 495 330 491 317 465 540 185 782 213 463 8 442 98 863 172 572 492 852 260 161 427 851 323 992 112 934 350 536 306 993 98 163 294 980 330 958 131
115 20 11099 634 169 919 167 753 427 256 113 736 32 836 333 483 134 460 410 630 8 483 407 799 277 894 180 877 500 874 154 435 319 907 172 543 394 999 304 838 125 518 367
116 20 11612 991 152 538 384 719 417 558 19 535 44 819 365 966 332 453 234 830 442 846 22 692 496 996 353 579 124 503 167 804 254 862 303 810 167 240 250 953 449 822 128
117 20 10096 916 147 224 179 934 308 572 423 442 7 404 322 279 388 589 344 403 292 861 260 860 104 332 24 456 459 672 205 989 95 740 371 569 166 963 274 714 500 701 124
118 20 11024 960 313 810 150 973 457 517 101 921 2 314 85 977 100 571 132 497 385 820 271 625 437 482 202 863 475 757 349 838 276 977 396 205 155 265 494 570 153 839 346
119 20 11640 529 233 631 32 840 350 916 389 514 383 993 175 649 33 893 391 751 329 709 68 592 376 622 409 950 6 951 140 954 221 561 387 910 184 557 165 521 479 507 259
120 20 12419 957 427 979 459 999 117 540 411 576 186 951 445 784 90 528 399 994 124 847 227 343 344 810 432 820 292 658 385 832 336 760 205 875 59 884 483 509 36 878 460
121 20 10885 314 112 455 359 959 290 976 227 907 443 714 241 410 236 847 210 701 169 528 302 533 212 679 282 493 139 848 302 297 293 673 310 673 271 894 488 804 435 902 186
122 20 11859 703 47 697 115 660 334 849 128 514 25 477 423 368 51 566 338 802 324 519 234 947 17 646 415 672 379 877 469 956 107 842 382 962 173 893 286 960 340 914 65
123 20 11688 447 41 955 83 665 254 840 216 551 224 862 360 749 482 376 286 510 149 934 349 836 438 871 292 312 433 883 315 843 421 871 380 984 464 897 342 355 232 870 151
124 20 11972 129 379 714 499 712 343 427 482 629 408 973 465 912 182 716 167 796 387 663 444 496 498 640 71 986 378 973 389 786 263 794 286 932 219 975 69 751 151 961 202
125 20 11658 867 197 690 497 604 6 708 347 257 97 958 153 911 289 855 240 831 356 572 12 497 295 495 165 704 474 820 436 791 14 976 227 351 496 910 214 929 324 847 497
126 20 12445 896 141 777 201 856 163 602 12 986 368 658 291 386 239 898 340 519 76 883 486 543 352 725 298 790 280 737 72 983 285 977 134 673 382 754 38 920 452 994 462
127 20 11794 829 38 780 153 984 119 739 460 777 403 783 355 886 70 393 435 906 304 693 453 972 287 570 426 604 102 564 76 719 477 382 357 994 478 722 351 731 439 715 418
128 20 12224 856 486 906 402 952 252 925 430 869 237 647 26 704 296 924 114 733 451 346 251 730 131 652 99 948 40 540 132 711 129 972 463 852 97 479 68 892 326 642 267
129 20 12462 657 211 846 28 948 193 842 244 871 316 659 6 919 18 300 28 722 33 901 451 548 176 458 338 996 422 928 491 469 394 964 197 964 207 985 55 665 178 936 469
130 20 11179 309 18 980 69 983 478 162 348 574 31 590 25 380 413 856 350 840 491 925 265 727 360 851 75 466 487 807 44 955 247 645 127 894 146 479 434 938 109 613 351
131 20 11912 491 308 982 81 696 375 936 288 816 435 827 317 540 175 909 345 974 106 752 131 626 130 541 200 549 227 608 385 935 113 670 266 661 184 623 414 903 131 852 459
132 20 10864 982 359 569 134 259 382 359 135 770 284 911 286 786 81 724 37 923 148 531 208 954 226 837 294 909 480 345 46 411 311 626 228 417 140 642 309 682 301 944 213
133 20 11610 687 119 877 68 824 466 371 198 644 137 150 235 895 248 684 106 989 151 753 264 803 99 925 162 914 125 657 342 964 193 955 129 709 2 898 64 286 361 528 116
134 20 11000 864 4 864 62 964 239 702 190 507 208 796 335 859 67 847 265 301 401 548 60 795 475 665 296 734 121 313 44 551 344 628 459 695 197 451 321 667 9 1000 385
135 20 12472 794 347 995 237 645 242 631 77 998 74 879 448 819 433 911 338 560 20 395 100 533 342 750 11 830 312 943 264 636 447 763 291 935 81 871 328 786 366 917 119
136 20 11524 632 285 888 392 610 10 475 448 641 183 650 457 800 13 986 327 824 23 564 310 979 106 396 262 955 238 312 105 675 474 862 495 818 135 923 292 523 337 893 79
137 20 11946 728 466 891 386 874 489 350 255 572 405 769 136 745 175 438 14 823 345 780 238 882 382 763 36 648 395 881 63 890 310 928 463 692 499 672 277 638 399 969 330
138 20 11965 709 5 980 179 736 386 784 155 712 438 547 261 972 315 621 87 420 176 944 94 425 335 975 315 790 370 718 322 728 21 843 145 614 234 935 102 688 482 816 487
139 20 10151 193 300 784 188 535 194 785 131 945 408 153 329 961 23 884 237 824 180 845 317 535 8 476 302 997 482 662 214 681 343 590 380 440 183 647 186 569 393 183 14
140 20 12500 896 219 241 191 963 16 548 111 819 422 715 373 819 232 649 209 779 162 938 226 798 110 641 180 682 13 918 91 981 406 972 489 943 483 630 296 898 202 796 195
141 20 11362 305 346 912 236 975 223 428 348 596 419 564 139 637 338 993 313 764 454 796 46 861 330 399 392 656 83 751 146 969 90 824 285 414 377 835 444 943 264 581 100
142 20 12596 939 200 530 340 915 415 744 134 744 129 641 402 876 62 846 286 839 117 797 460 908 58 964 58 856 296 931 373 462 204 926 98 435 430 833 469 782 226 778 120
143 20 11119 812 452 551 488 395 187 550 395 962 77 930 165 908 220 877 3 809 172 191 391 427 136 711 100 983 492 791 78 370 19 910 408 141 169 985 312 683 137 913 305
144 20 10689 525 94 828 142 594 435 387 61 826 327 624 340 675 445 892 283 792 157 387 73 85 328 906 493 954 162 531 134 762 482 824 59 922 63 881 63 505 1 462 289
145 20 11532 415 392 396 359 689 419 904 63 890 248 403 398 973 258 725 58 659 61 943 383 756 451 744 84 387 449 495 410 937 145 797 39 548 210 999 447 818 413 937 197
146 20 12424 786 253 279 414 467 106 932 19 393 150 676 480 967 399 763 6 962 229 964 204 875 52 645 461 848 316 855 243 1000 267 793 377 779 279 872 339 940 354 735 80
147 20 11823 871 380 750 456 831 262 986 500 423 119 578 409 896 352 903 484 914 296 777 399 814 247 702 188 378 192 117 317 847 425 662 435 777 474 657 430 899 124 997 389
148 20 13120 609 247 654 178 863 385 718 393 725 464 985 336 925 459 877 323 606 227 937 128 968 312 922 189 884 385 364 13 940 388 845 105 980 4 727 81 905 104 967 261
149 20 12560 940 171 935 141 791 125 490 326 934 313 939 244 789 29 934 327 420 406 803 207 772 138 691 201 838 304 974 478 741 21 725 275 771 267 921 492 506 410 786 414
150 20 11770 673 310 585 100 674 298 428 412 466 41 769 50 392 214 734 233 672 441 987 285 836 317 750 322 784 107 999 460 974 420 859 319 822 479 734 93 667 140 908 406
151 20 12083 548 41 903 159 796 390 401 220 851 374 768 3 337 120 808 452 943 290 916 355 810 408 782 268 852 316 982 32 654 425 689 81 837 381 924 454 669 359 634 375
152 20 10940 925 375 91 280 806 464 812 384 327 108 834 407 688 441 930 197 626 262 969 210 770 245 912 293 792 116 433 347 785 78 883 485 507 285 361 152 696 425 528 83
153 20 12365 923 492 967 227 902 138 973 119 439 121 640 72 843 320 771 95 770 469 854 490 461 410 854 383 872 317 844 148 439 48 849 308 770 271 674 82 629 120 983 52
154 20 11259 995 473 914 311 289 118 414 399 939 295 991 396 780 474 792 342 881 299 757 447 407 276 879 393 775 8 388 485 387 359 633 426 640 448 899 438 537 1 777 183
155 20 11837 793 363 689 335 962 76 767 49 910 472 715 272 454 380 546 164 652 491 800 105 893 42 918 50 610 424 762 231 695 75 747 13 625 463 953 391 848 374 458 151
156 20 12392 752 458 687 207 710 153 787 145 898 119 421 270 639 136 994 218 557 210 932 199 847 456 240 423 778 489 872 346 968 490 870 203 920 223 899 24 871 173 848 442
157 20 11655 999 238 688 216 763 4 669 135 731 115 971 366 718 387 798 135 241 385 736 251 193 120 996 366 594 196 963 64 657 407 762 263 906 377 637 191 791 314 756 479
158 20 11113 985 270 593 289 893 397 559 195 490 392 985 323 423 215 307 279 766 361 815 189 398 286 911 457 977 333 527 187 739 192 761 244 761 350 712 429 994 380 296 235
159 20 10657 859 367 670 308 849 333 902 49 632 435 964 227 260 404 950 438 555 202 246 8 701 276 675 367 717 315 761 105 992 48 690 286 865 499 557 95 346 114 131 424
160 20 11970 659 177 609 369 702 197 955 228 545 453 971 489 702 33 872 228 819 311 896 200 522 248 837 340 810 312 897 261 773 269 368 174 931 449 583 151 848 417 664 375
161 20 11808 930 165 825 272 944 261 676 202 674 331 777 424 929 17 394 404 784 448 920 53 984 130 466 295 955 448 314 405 401 438 954 115 791 137 445 228 812 50 785 468
162 20 10068 543 77 850 388 670 48 429 220 514 238 799 280 77 185 602 45 372 279 540 416 599 273 651 228 168 22 848 2 970 232 951 305 946 170 805 381 712 284 540 384
163 20 10766 440 160 391 281 566 264 473 450 915 54 526 316 755 427 296 414 727 207 721 489 944 190 817 287 596 192 862 304 803 160 707 206 707 418 615 53 719 431 878 401
164 20 12930 652 120 841 494 633 219 969 314 899 418 813 298 983 311 873 137 784 278 874 122 968 458 461 234 906 255 568 146 909 208 974 58 728 140 443 153 946 393 939 111
165 20 10716 682 369 660 468 540 58 848 162 397 329 996 326 967 422 835 31 854 349 791 268 623 202 609 149 962 321 129 18 301 143 593 266 814 20 485 289 546 416 763 46
166 20 12743 925 186 882 203 859 286 634 191 932 50 989 312 784 419 969 471 375 456 769 421 698 257 985 63 662 487 879 163 723 29 999 452 568 356 970 79 550 191 777 237
167 20 11781 962 183 895 48 883 356 358 323 798 2 771 352 872 77 975 455 904 281 321 59 169 26 673 122 503 281 579 182 779 237 744 405 775 46 939 95 957 156 870 474
168 20 11533 827 494 735 332 933 353 777 268 700 469 555 398 494 227 920 150 707 43 998 286 745 442 573 413 351 317 938 432 471 391 758 113 631 238 459 82 947 321 898 457
169 20 11586 654 313 966 190 657 378 851 241 768 445 982 437 710 166 208 234 789 297 851 257 984 201 417 355 910 216 712 367 596 493 536 447 665 364 421 149 873 277 933 68
170 20 11230 434 93 611 49 626 394 151 490 624 149 819 47 596 31 568 240 577 255 973 455 991 211 880 481 733 156 682 114 701 174 781 55 650 404 967 368 675 101 999 25
171 20 12620 711 34 742 317 226 450 846 360 910 371 974 474 976 51 685 195 817 253 916 66 771 41 393 204 601 403 635 223 836 161 925 264 933 229 894 381 993 32 991 417
172 20 11979 853 295 899 10 934 477 483 189 726 108 818 167 561 367 919 17 770 273 991 495 827 158 375 64 424 59 999 146 911 429 897 216 602 15 666 95 726 363 593 108
173 20 11450 639 491 826 7 243 31 961 367 508 229 725 48 742 340 832 95 888 135 836 439 550 311 894 9 406 178 1000 7 849 148 909 76 650 239 579 438 521 203 755 40
174 20 12434 654 4 285 381 939 446 938 468 399 318 954 286 934 239 771 384 532 71 934 477 908 125 746 457 852 284 826 342 697 110 973 288 753 228 889 305 934 169 625 476
175 20 10980 803 403 752 473 996 299 425 291 492 19 674 185 199 164 980 93 975 106 454 336 293 462 968 148 862 130 509 88 979 382 602 278 664 71 461 224 915 203 722 469
176 20 12036 835 441 942 301 954 17 742 125 688 94 568 132 996 256 666 199 923 109 971 419 979 103 986 198 165 3 910 112 643 258 727 252 709 377 322 82 571 427 749 73
177 20 10908 317 55 776 409 210 383 662 4 570 165 232 57 970 397 595 72 818 393 875 385 662 70 620 491 966 25 988 475 517 230 344 228 903 407 978 251 959 268 674 50
178 20 11848 619 272 315 338 894 249 633 169 859 12 918 439 840 291 850 267 911 126 871 117 861 48 925 195 859 449 910 302 854 196 310 12 628 302 585 225 994 215 175 47
179 20 12415 721 232 594 195 937 23 987 496 874 29 634 466 731 377 975 52 764 404 474 105 930 335 786 11 940 311 893 115 872 147 650 91 375 159 902 47 928 154 552 89
180 20 11253 700 232 380 446 823 274 857 233 687 372 555 248 811 466 663 487 728 9 679 454 784 129 923 427 587 272 475 462 830 457 988 258 684 96 591 232 345 268 977 33
181 20 11851 885 252 779 289 826 254 931 137 942 312 567 75 627 444 902 48 820 423 854 411 788 197 693 11 514 396 980 216 619 108 839 207 923 489 315 218 867 488 143 457
182 20 10765 758 491 694 91 785 151 951 254 933 324 882 455 810 55 965 208 291 57 467 32 799 121 341 280 362 320 494 326 729 147 740 415 442 250 675 174 616 477 723 156
183 20 11801 695 407 212 348 754 376 645 111 947 469 777 283 782 412 594 338 718 317 630 408 533 383 852 455 973 365 771 497 690 229 935 433 967 464 915 173 851 49 511 55
184 20 11399 768 196 579 421 960 48 660 426 687 224 842 422 625 249 989 382 869 151 988 186 789 302 441 307 722 137 476 126 438 174 409 298 555 211 739 6 876 53 837 280
185 20 12410 697 58 897 174 683 258 850 146 391 237 978 488 746 490 863 428 666 99 935 353 928 299 904 393 930 440 966 134 820 157 765 241 539 268 931 25 632 475 392 147
186 20 11080 771 210 891 159 918 331 911 430 422 315 940 33 537 398 371 127 536 149 284 43 649 54 625 9 763 432 965 7 535 498 981 166 621 33 674 494 545 346 911 479
187 20 11295 493 192 740 100 657 113 705 27 992 351 959 175 284 141 964 447 925 189 506 454 734 172 618 160 998 221 781 446 288 157 637 131 349 458 846 230 650 177 993 43
188 20 11700 745 367 972 19 888 230 891 9 909 186 241 371 577 224 832 288 507 192 626 485 787 287 957 47 865 311 661 87 489 196 767 353 986 455 670 105 601 314 654 470
189 20 10824 623 277 615 280 526 55 985 153 760 458 754 15 814 342 370 311 570 240 566 422 918 153 671 1 818 271 466 399 521 268 573 376 856 120 816 104 751 416 558 94
190 20 12776 917 399 901 137 952 167 857 114 721 342 661 277 924 356 996 451 550 191 878 434 561 126 975 215 681 316 807 103 242 42 753 194 918 341 830 94 862 78 984 440
191 20 12238 980 30 814 347 819 319 970 65 996 491 937 97 872 147 30 323 905 424 615 226 628 301 898 176 778 480 632 112 915 279 829 177 389 295 765 379 714 472 812 411
192 20 11171 705 58 995 136 864 244 618 119 761 226 807 258 648 248 940 118 510 335 606 181 885 463 466 137 437 164 726 59 942 338 301 280 619 224 748 370 414 352 972 228
193 20 11404 438 421 745 190 655 3 245 163 316 238 873 167 909 364 974 93 763 328 887 336 549 280 942 144 584 395 782 342 750 466 944 456 907 75 928 46 508 137 557 312
194 20 12139 741 262 713 198 691 20 841 85 901 82 889 69 912 89 502 154 612 495 408 214 855 107 817 133 771 340 896 305 417 454 624 434 707 231 987 91 926 126 964 87
195 20 12095 775 99 328 382 903 74 910 456 806 13 804 229 429 200 684 15 594 248 915 79 688 297 928 47 804 334 759 409 848 473 898 270 928 346 718 415 811 27 589 227
196 20 13210 922 13 871 9 775 88 849 85 1000 133 980 9 625 201 873 73 855 11 906 244 833 207 984 309 850 80 936 447 887 292 690 63 780 154 628 35 666 273 603 373
197 20 12440 862 268 455 10 753 23 917 285 843 429 698 254 988 344 904 71 673 43 561 399 730 248 560 174 821 94 682 71 887 222 871 98 734 10 996 194 897 11 718 403
198 20 11790 533 494 1000 66 689 229 650 191 967 336 830 260 878 191 987 380 985 38 931 111 712 458 808 454 437 177 525 439 258 215 868 7 402 282 747 405 688 370 843 162
199 20 10235 836 227 998 289 948 425 394 322 617 88 518 202 466 76 356 22 674 382 741 308 887 95 776 262 267 306 701 17 736 410 471 417 485 147 900 433 371 442 652 41
200 20 10327 172 125 406 148 499 155 877 35 948 190 836 344 736 169 863 36 512 288 960 291 790 362 667 247 722 40 247 51 727 68 680 389 776 91 453 460 435 111 603 59
201 20 12383 898 430 838 152 791 355 639 350 943 281 879 238 417 206 107 297 616 162 930 349 877 469 877 173 629 50 806 274 921 364 653 11 948 45 953 294 808 327 949 149
202 20 12236 592 471 740 174 950 266 893 277 955 25 523 409 842 174 781 22 652 156 786 214 453 290 868 113 561 240 847 334 864 301 988 472 615 118 761 302 809 124 815 458
203 20 11875 539 212 783 264 842 433 785 72 216 465 938 440 904 320 519 101 757 364 524 461 609 10 968 351 941 66 977 467 734 16 694 153 794 135 852 500 808 215 660 316
204 20 10795 962 478 803 392 998 110 125 451 529 195 332 140 681 25 943 68 859 319 977 294 722 496 704 90 294 94 280 19 982 58 374 498 684 68 872 250 704 250 669 70
205 20 11424 589 360 429 189 432 473 982 449 724 329 986 61 937 333 823 116 536 429 749 213 581 272 389 37 915 417 904 451 920 425 916 117 400 180 581 92 639 323 848 58
206 20 11650 944 369 931 440 534 377 382 16 831 423 626 339 903 191 562 264 871 9 848 372 783 47 853 494 823 285 507 437 929 447 792 317 417 1 250 486 949 41 828 116
207 20 10831 802 420 516 428 752 402 998 307 833 158 586 85 746 175 772 148 605 51 190 32 909 436 628 29 419 168 765 328 725 169 745 168 600 418 749 233 579 77 620 71
208 20 11768 988 16 876 197 750 392 591 491 909 432 247 215 862 235 588 36 988 306 938 465 990 198 454 192 752 55 489 1 930 427 671 462 523 237 685 278 622 26 857 412
209 20 11982 645 384 986 45 799 430 706 253 469 162 713 271 743 60 749 313 729 368 844 238 865 401 812 48 695 188 872 252 435 257 982 396 449 207 923 17 702 398 860 54
210 20 11738 968 300 860 60 394 43 964 384 370 387 997 227 463 136 515 378 933 10 740 154 838 288 396 22 436 396 774 109 821 250 813 225 713 497 967 477 864 220 847 352
211 20 11884 673 302 979 74 901 366 689 2 879 429 332 93 646 189 775 183 922 9 764 314 454 480 806 467 870 269 960 457 959 325 928 447 607 15 511 389 492 414 709 187
212 20 12012 690 4 781 498 996 472 582 160 528 83 986 96 947 36 269 192 729 339 780 63 710 276 687 239 842 443 914 474 705 455 503 2 999 84 891 429 952 404 524 3
213 20 10552 531 214 1000 152 550 26 852 202 371 276 559 411 951 340 894 453 450 297 412 216 913 271 177 251 887 374 523 208 958 121 207 163 935 184 246 18 998 201 776 126
214 20 12328 988 193 994 202 777 237 956 363 669 37 925 1 972 171 552 445 458 261 976 154 650 164 416 462 816 113 841 55 838 160 682 391 763 120 607 414 965 269 566 244
215 20 11355 473 315 915 75 953 61 993 416 994 463 879 17 903 17 113 356 348 251 936 70 319 93 935 77 402 176 817 118 942 261 610 457 884 355 970 343 519 464 289 348
216 20 10676 497 291 714 264 794 161 344 408 892 292 895 170 413 410 894 311 965 295 633 328 361 458 440 153 938 414 542 49 594 459 806 306 429 177 848 168 387 414 959 290
217 20 11206 759 305 470 139 966 95 768 3 712 248 273 141 390 60 973 477 939 409 874 423 736 272 645 26 935 209 388 182 578 243 967 326 814 6 313 51 779 386 729 379
218 20 12083 168 26 786 182 870 376 888 460 829 298 528 337 934 212 814 142 760 331 903 402 684 106 973 99 891 475 681 189 399 473 405 443 948 59 912 492 841 186 890 98
219 20 11858 640 208 924 366 496 65 476 220 932 72 852 29 835 392 833 488 770 164 760 427 628 424 797 326 415 14 984 29 710 183 639 68 967 74 582 494 965 385 618 359
220 20 11332 826 111 949 273 707 317 987 59 898 89 665 467 772 160 643 155 614 361 537 476 888 295 963 149 531 183 338 369 694 194 161 93 553 239 801 238 643 98 996 419
221 20 11144 858 375 394 277 725 65 374 292 595 346 864 370 687 123 441 397 897 106 956 145 797 439 762 42 932 91 768 445 456 214 530 483 998 284 433 110 845 195 619 388
222 20 11787 887 428 939 104 615 473 885 137 679 383 800 412 336 172 940 219 504 138 926 173 761 241 807 272 586 54 179 36 987 27 837 339 994 242 695 293 750 378 627 214
223 20 10978 604 143 888 256 696 9 77 138 868 352 998 438 845 287 382 143 462 158 665 284 687 84 379 340 597 403 891 36 814 380 858 447 857 58 880 91 523 326 752 257
224 20 10200 390 377 809 431 639 430 795 37 350 43 970 254 479 304 254 375 521 434 584 170 677 423 859 460 755 249 667 16 793 315 395 17 826 372 682 402 695 472 611 40
225 20 10584 683 298 644 73 853 283 688 465 882 369 166 348 456 300 629 98 511 287 930 165 633 25 828 473 774 414 859 4 708 123 621 305 520 362 836 395 427 320 582 332
226 20 11183 815 1 320 345 780 146 700 347 590 470 988 406 870 407 890 76 541 99 893 136 383 138 997 319 233 148 820 72 560 476 691 347 875 266 824 410 877 42 332 40
227 20 10967 842 331 690 189 870 427 475 482 372 199 370 410 979 430 704 76 445 428 636 80 911 326 159 163 635 222 965 298 668 500 900 60 961 482 722 115 664 201 741 427
228 20 13145 770 440 851 149 797 196 927 433 747 120 955 45 945 160 904 128 391 436 949 124 685 59 849 426 845 53 757 345 838 371 562 154 940 219 807 129 953 103 960 400
229 20 11893 643 368 983 499 888 459 725 97 908 413 210 193 924 209 635 268 792 312 984 458 722 7 245 91 556 274 658 38 793 396 828 118 541 34 993 175 945 417 894 257
230 20 12584 791 50 832 98 571 220 684 240 951 51 792 235 987 154 957 303 696 80 439 85 786 405 960 10 638 225 671 204 951 296 910 354 861 90 487 459 777 224 989 493
231 20 12265 864 276 736 119 280 345 886 450 515 315 981 273 732 236 498 329 519 448 842 173 962 370 818 484 921 293 645 401 973 4 999 488 979 317 535 213 914 48 733 310
232 20 11264 452 131 610 102 630 84 712 100 974 263 495 365 586 281 694 251 825 269 849 349 447 236 674 284 934 389 461 66 849 118 896 265 922 436 780 486 715 323 576 69
233 20 11008 983 194 644 126 976 95 301 364 751 392 591 301 894 297 579 357 992 46 929 109 212 427 414 203 852 348 517 248 783 18 490 455 562 384 889 239 858 172 543 399
234 20 11403 851 94 134 312 886 454 664 327 786 297 900 322 803 466 323 127 191 354 882 198 580 82 903 362 793 326 399 426 839 83 941 237 621 14 990 278 855 437 913 39
235 20 11368 384 67 951 350 968 495 748 385 658 42 712 137 457 106 863 122 731 26 455 254 455 332 963 440 597 2 731 93 991 491 808 351 637 92 849 245 725 438 527 407
236 20 11996 632 146 648 176 773 107 954 223 884 198 953 426 678 352 735 214 680 76 820 347 900 311 969 387 402 467 651 232 912 369 818 350 336 32 531 98 803 479 917 62
237 20 11943 990 134 394 430 280 302 809 98 551 43 972 405 835 104 873 318 577 466 624 23 475 135 728 153 985 432 902 422 936 352 479 285 911 326 981 194 940 25 687 13
238 20 12113 869 405 966 494 762 280 724 327 959 203 849 121 542 155 738 497 753 214 641 317 564 87 431 82 746 458 978 22 756 478 587 467 713 156 949 482 983 50 632 96
239 20 12413 375 428 960 407 832 205 909 177 757 139 775 154 956 113 781 337 921 11 783 172 515 70 847 486 803 73 977 24 721 316 936 124 813 169 388 177 765 306 703 75
240 20 11704 744 11 572 119 573 356 594 479 488 135 677 498 766 233 858 158 892 427 753 404 926 57 899 29 425 76 733 449 769 250 672 218 664 62 751 277 975 118 900 412
241 20 12050 524 12 819 204 814 95 462 340 243 182 745 57 596 333 782 278 877 28 352 281 1000 277 949 222 857 295 865 483 471 230 967 231 894 222 959 411 977 1 910 78
242 20 11523 771 150 295 68 702 112 654 195 939 32 494 251 520 497 801 188 715 266 536 356 971 77 914 249 988 108 991 461 795 272 564 41 474 118 759 177 889 63 632 236
243 20 12648 980 213 944 35 950 393 623 204 834 293 779 292 977 336 930 247 218 64 717 139 440 121 998 177 990 293 544 394 809 169 343 84 979 419 958 232 945 120 852 307
244 20 12907 960 301 371 128 971 266 514 217 924 442 991 78 892 121 927 105 802 192 612 105 899 250 979 491 884 152 819 420 903 382 885 308 445 187 888 445 890 100 578 491
245 20 11559 905 411 974 144 551 174 993 490 865 486 235 221 506 49 775 154 961 326 889 356 942 114 752 365 906 65 813 436 789 20 519 381 420 190 987 500 366 173 301 168
246 20 11196 108 432 483 249 830 453 540 432 290 291 615 465 734 47 587 257 989 309 971 310 831 180 959 3 685 242 738 158 960 33 394 189 859 45 908 72 758 215 756 378
247 20 11035 261 374 939 368 814 421 795 385 750 193 594 167 454 235 741 367 813 281 305 96 572 409 920 377 207 323 767 98 863 148 736 236 848 308 926 7 790 65 699 43
248 20 11842 732 305 693 195 457 458 945 332 759 40 878 48 847 369 571 353 561 408 749 235 650 444 994 293 807 215 924 228 787 367 367 431 806 26 834 349 581 33 861 449
249 20 12657 808 345 853 185 754 462 838 257 964 366 880 330 883 255 725 209 923 280 829 94 650 123 391 382 938 199 788 290 846 318 484 310 663 443 974 323 856 306 775 101
250 20 12141 659 407 461 489 917 134 920 402 521 274 910 276 833 12 809 179 832 252 920 108 384 133 613 260 707 265 648 240 889 192 653 321 959 114 924 2 764 216 854 121
251 20 12691 942 97 835 93 857 126 571 154 504 405 934 376 990 107 677 181 661 327 842 391 993 445 600 154 937 306 901 295 900 482 870 298 752 207 526 254 607 258 965 240
252 20 12316 472 193 855 428 756 375 740 209 758 16 653 402 919 323 478 62 893 416 914 358 972 13 753 114 661 307 522 418 996 39 757 304 657 342 932 33 996 179 711 113
253 20 12636 963 467 918 207 521 12 959 315 884 238 996 482 963 252 876 499 831 324 753 192 849 354 454 371 974 149 850 47 759 414 774 281 28 229 714 309 779 412 951 373
254 20 11421 919 227 787 99 905 139 748 99 795 162 684 229 571 194 546 185 57 50 341 243 981 255 862 490 762 34 677 469 936 53 786 319 753 83 925 120 701 59 541 223
255 20 10990 910 64 308 447 664 327 706 248 888 260 737 194 799 9 989 371 728 134 845 86 847 245 464 102 659 257 19 398 758 275 820 51 946 272 536 371 221 334 894 79
256 20 10904 906 199 829 12 937 428 658 425 370 154 771 440 273 193 496 361 689 157 985 156 454 217 490 382 655 111 493 245 618 99 958 192 295 150 957 436 853 9 944 349
257 20 11488 699 83 254 212 792 429 639 333 502 406 981 368 619 37 626 274 996 135 572 499 1000 272 805 474 829 350 986 351 653 342 929 19 944 23 976 230 185 466 373 24
258 20 12376 737 175 510 20 683 449 879 298 836 488 627 68 957 228 880 43 628 188 846 389 910 454 834 252 311 293 937 4 998 69 721 457 934 396 975 144 554 243 713 470
259 20 12979 747 120 964 167 812 330 674 45 838 356 788 286 823 1 694 20 562 362 977 230 892 320 854 193 900 239 829 259 862 334 569 384 707 61 966 227 892 298 874 379
260 20 11478 841 437 923 428 737 444 434 426 871 365 965 394 466 477 662 68 749 334 502 471 639 23 706 270 660 488 796 174 670 272 394 379 767 159 941 79 950 184 675 52
261 20 11110 619 344 757 252 790 1 655 189 537 297 977 384 564 450 381 451 744 373 909 324 269 463 449 281 602 360 945 311 602 309 879 422 752 186 553 122 919 7 985 306
262 20 11420 888 321 714 279 538 282 840 8 874 444 724 324 557 466 925 219 565 183 624 238 792 29 525 257 900 185 978 287 899 456 356 292 456 150 868 69 568 116 685 125
263 20 12116 950 185 924 462 652 459 671 419 832 98 875 17 175 177 685 489 989 408 349 257 857 492 959 358 469 263 915 14 914 397 927 179 883 500 953 292 569 232 597 16
264 20 12963 863 272 394 241 986 235 533 91 717 6 855 320 889 369 927 108 936 175 610 367 920 409 754 356 864 440 609 304 958 379 964 300 849 284 803 36 846 104 927 391
265 20 11856 651 414 495 288 632 448 809 436 943 130 964 253 921 332 778 268 200 307 395 283 999 308 749 308 919 243 919 176 519 271 957 30 783 112 882 174 757 130 548 38
266 20 11900 533 286 761 211 990 161 759 442 806 432 883 98 947 390 406 475 113 500 937 135 905 207 899 113 884 346 822 344 537 107 562 20 927 243 843 156 672 249 689 37
267 20 11316 716 266 774 406 749 416 791 417 172 427 362 52 983 109 802 145 922 285 547 475 509 336 884 345 676 237 775 112 789 430 887 275 422 482 658 240 749 103 979 272
268 20 11529 916 262 987 195 921 105 911 302 759 439 606 8 730 212 160 288 658 230 474 421 498 294 953 267 455 89 931 211 977 405 728 284 558 295 914 231 343 17 933 463
269 20 12168 387 18 817 22 978 32 838 84 679 415 923 472 930 479 869 11 753 203 268 183 977 394 614 419 874 354 752 462 956 351 728 233 580 26 714 447 650 173 923 379
270 20 11176 577 385 999 72 754 390 821 136 658 156 696 97 740 79 506 483 836 55 830 420 496 90 972 19 237 35 781 133 701 143 423 412 992 244 905 165 372 402 675 448
271 20 12370 539 120 559 110 764 456 942 303 664 353 903 68 945 395 979 84 916 380 813 375 757 179 948 311 694 80 996 377 657 60 468 165 765 171 741 389 765 284 648 417
272 20 11561 697 471 714 357 429 232 977 311 952 186 936 244 442 213 889 32 817 425 965 368 480 225 983 57 832 389 420 414 243 13 855 133 707 347 522 354 714 364 878 133
273 20 10032 600 375 959 303 604 163 755 150 611 194 577 273 607 228 960 32 850 63 954 90 555 106 746 14 513 426 198 198 425 186 931 24 523 296 407 327 97 496 668 242
274 20 11843 987 245 624 470 923 168 711 179 807 48 732 271 243 62 778 382 963 183 908 497 686 172 733 68 349 311 770 316 867 69 467 1 989 299 442 495 942 151 883 25
275 20 11133 791 141 773 395 896 442 907 296 798 54 802 367 288 58 300 6 959 152 482 236 416 252 679 380 990 295 910 341 543 438 672 229 445 99 457 339 985 424 824 403
276 20 11251 972 114 633 392 548 287 681 296 107 256 385 423 809 210 899 20 600 148 671 322 712 382 763 483 663 44 867 102 702 281 747 32 855 470 852 80 858 313 740 230
277 20 12045 589 289 953 272 218 25 865 199 901 476 963 99 521 209 848 56 197 168 661 444 600 122 652 182 861 38 933 55 825 311 900 140 991 331 993 405 713 54 873 126
278 20 12825 963 348 613 216 701 303 975 474 512 129 997 196 403 85 655 315 787 158 991 479 982 81 672 23 980 133 928 351 742 270 922 18 717 163 592 482 950 7 950 481
279 20 9872 644 319 661 221 631 439 958 256 468 27 507 298 945 88 707 70 538 450 471 390 413 466 183 45 974 181 308 409 815 75 609 400 451 413 537 411 650 19 870 264
280 20 12136 856 45 545 377 976 287 859 460 954 231 918 197 734 497 773 274 765 317 892 435 656 254 694 86 499 270 940 54 933 382 553 112 985 402 684 452 438 354 516 329
281 20 13016 961 25 552 313 184 72 1000 263 904 305 777 337 967 34 993 46 717 360 908 243 889 278 984 426 617 38 877 313 920 418 852 407 757 230 754 199 775 266 882 459
282 20 10804 861 40 531 37 468 29 690 123 581 83 801 317 777 108 786 230 796 425 405 392 908 357 872 357 278 146 430 410 934 421 846 361 506 493 469 73 989 403 578 379
283 20 12340 919 197 985 28 947 193 815 348 395 414 804 95 715 338 730 220 850 107 837 38 860 495 955 479 620 298 593 438 583 46 532 352 566 415 781 199 939 470 1000 167
284 20 11764 374 203 873 403 496 293 729 260 994 343 603 345 635 214 708 197 258 156 935 333 956 180 852 120 820 28 720 201 932 494 416 339 830 479 852 51 886 65 836 205
285 20 11938 949 413 873 118 899 441 692 445 965 114 852 113 907 392 927 358 810 314 966 283 658 447 382 71 498 307 838 182 959 90 270 191 334 234 837 105 769 481 538 276
286 20 10231 629 134 543 434 485 456 646 373 514 250 370 286 584 425 685 118 726 297 614 492 867 86 627 301 495 493 929 24 625 236 568 136 883 145 555 397 856 61 588 126
287 20 11081 508 66 881 288 570 371 927 182 600 75 577 362 605 437 552 127 938 217 650 38 554 50 357 189 705 213 870 44 725 177 630 31 888 321 647 256 816 162 852 374
288 20 13206 894 427 548 178 867 222 867 231 691 105 914 16 991 157 970 443 741 207 697 261 846 425 876 53 806 34 945 442 873 484 851 54 842 244 421 471 968 251 900 307
289 20 11038 993 190 936 32 661 461 583 330 651 117 944 386 548 342 559 313 756 480 947 445 418 452 517 128 547 231 833 246 624 342 351 273 822 116 493 299 875 249 740 312
290 20 12578 707 311 927 433 711 277 724 376 809 490 902 151 893 489 962 261 705 83 825 405 862 46 741 24 469 128 954 463 710 499 321 301 886 449 791 49 959 496 865 313
291 20 12796 635 75 930 278 708 366 822 180 939 150 907 359 727 216 862 255 978 331 684 459 865 288 644 220 969 378 914 359 891 189 518 482 816 352 609 236 817 436 760 410
292 20 11948 767 15 264 45 618 122 497 400 807 357 690 244 904 59 507 482 718 135 862 203 924 14 912 337 476 151 918 201 955 59 979 47 824 454 680 495 874 8 760 428
293 20 11414 688 219 792 190 844 500 830 112 442 278 897 215 274 75 187 9 793 355 843 500 927 118 802 210 699 206 904 93 607 382 910 483 796 187 572 343 512 109 949 74
294 20 10056 858 55 576 455 396 322 527 394 394 214 577 172 833 289 294 99 702 111 706 90 357 177 929 410 802 458 753 73 804 16 774 395 601 407 878 36 416 345 393 369
295 20 11612 954 73 499 67 815 130 416 240 963 256 592 165 668 479 610 474 713 246 706 21 728 39 713 131 933 249 672 40 738 7 956 298 715 417 701 264 513 10 910 70
296 20 10750 758 414 650 262 780 332 801 404 679 151 325 31 528 210 757 227 414 482 762 164 976 27 631 324 411 54 921 21 721 192 330 35 869 286 839 322 457 489 829 219
297 20 11428 949 442 692 68 531 497 866 482 849 241 938 98 333 498 777 136 877 272 666 220 755 241 842 19 916 192 937 195 792 261 159 430 901 186 570 440 262 431 673 495
298 20 11693 965 310 968 275 623 142 829 359 915 437 552 28 819 399 422 385 573 168 877 341 537 46 453 21 944 349 692 371 677 478 645 406 838 329 876 500 617 142 795 164
299 20 10751 685 27 480 146 582 301 795 62 628 326 665 277 680 303 911 296 622 402 899 27 268 267 776 18 701 175 402 303 878 474 826 304 661 493 463 77 873 404 644 290
300 20 10952 821 396 974 74 972 198 511 15 984 160 920 11 748 124 543 292 291 185 587 121 455 119 770 64 278 497 336 54 934 123 795 57 351 330 976 454 946 476 499 309
301 20 10921 817 255 699 445 807 412 699 113 462 127 671 300 470 198 477 81 794 112 531 407 780 295 855 379 710 68 341 250 976 371 992 469 728 386 494 322 551 196 798 468
302 20 11629 960 330 732 303 527 143 802 249 656 454 981 48 640 474 313 156 898 152 859 299 764 168 544 292 859 435 876 470 489 180 766 184 733 421 779 226 741 171 618 392
303 20 11406 786 286 765 496 569 66 810 20 824 191 726 436 470 216 649 354 422 47 621 140 891 287 465 24 998 343 760 32 498 333 871 12 922 148 696 373 692 28 823 1
304 20 10800 804 51 917 67 725 447 561 54 550 172 209 350 874 126 817 37 391 109 663 147 261 87 982 153 493 295 870 372 698 65 410 190 832 116 966 239 831 333 647 336
305 20 11516 927 117 787 426 862 251 853 420 703 314 987 411 855 454 720 436 603 229 656 391 272 493 867 147 855 263 854 183 847 133 561 257 260 173 564 151 772 484 590 393
306 20 12358 831 491 732 74 890 27 707 407 392 393 853 246 660 340 686 160 801 100 623 194 992 298 872 307 606 291 660 478 825 103 842 433 935 264 810 419 746 490 985 411
307 20 11650 759 499 988 99 991 495 618 206 843 12 302 454 645 413 931 29 347 288 796 172 700 222 293 34 857 418 988 215 703 488 681 225 880 377 659 342 905 123 677 7
308 20 11498 702 291 695 15 589 438 919 450 721 487 769 171 975 10 569 55 744 352 674 359 834 59 884 331 958 221 270 11 396 113 489 280 904 159 936 406 860 484 485 23
309 20 11351 810 420 817 181 671 151 843 452 557 456 382 409 910 244 471 93 416 206 843 405 931 129 445 101 913 489 198 377 810 23 768 144 876 99 778 429 782 411 968 2
310 20 11736 961 122 625 169 410 149 570 440 776 498 622 419 922 125 951 239 849 480 882 154 660 207 752 82 383 223 726 90 715 331 406 277 912 358 971 457 845 362 732 395
311 20 11064 417 155 984 306 960 309 301 109 598 321 885 482 419 339 219 422 619 138 667 445 826 47 937 440 970 421 837 337 908 487 370 323 628 79 882 50 591 26 812 402
312 20 11652 823 63 63 158 770 423 946 450 568 273 718 94 952 65 818 351 446 63 851 312 703 372 843 482 601 325 742 201 872 56 762 67 394 424 864 302 882 343 947 136
313 20 12132 666 454 757 464 836 43 720 360 751 173 836 422 919 128 870 474 973 428 807 192 668 356 584 477 802 458 989 436 950 275 621 32 453 353 760 229 717 364 486 180
314 20 11289 305 297 644 161 662 439 976 459 731 368 985 9 821 76 741 164 966 10 355 216 496 491 627 491 981 473 992 425 770 401 732 184 859 66 558 445 461 466 450 186
315 20 10500 881 62 781 411 508 485 536 68 857 363 895 256 556 153 588 245 833 26 950 49 784 348 645 314 676 413 416 384 409 300 662 171 538 74 728 134 514 83 368 155
316 20 11409 994 122 676 292 873 50 826 195 833 267 842 360 303 142 820 425 658 353 719 69 733 366 999 416 396 478 706 384 666 327 893 201 72 329 845 186 723 204 685 334
317 20 11600 939 338 621 37 904 381 749 58 783 42 687 33 936 448 768 297 973 485 755 479 976 371 555 397 828 102 450 303 999 410 213 335 503 479 763 44 518 289 581 224
318 20 12452 926 31 850 68 425 445 857 189 455 172 970 131 760 82 959 124 719 208 680 375 833 381 976 324 847 83 670 469 996 467 544 11 641 126 531 4 931 344 995 122
319 20 12278 949 4 570 116 937 322 234 108 785 235 769 16 797 409 896 54 868 88 898 180 911 388 628 36 948 306 790 62 751 380 951 92 730 434 636 246 471 173 829 97
320 20 11691 884 145 664 146 536 304 636 68 518 163 976 115 745 457 993 67 810 68 747 364 691 434 990 148 885 368 716 153 340 49 972 131 408 299 624 381 573 275 906 410
321 20 12841 846 477 831 412 915 480 562 409 840 464 875 403 689 52 975 431 489 232 832 209 985 249 739 238 891 87 892 158 893 120 403 478 721 214 967 147 747 467 960 79
322 20 11760 617 117 846 128 924 346 812 44 992 475 774 229 471 34 762 229 164 60 560 278 992 105 773 185 774 56 758 114 978 388 829 468 889 28 725 403 579 186 481 473
323 20 12310 644 493 540 190 788 279 956 4 984 441 892 281 826 364 677 184 893 125 861 413 671 53 642 183 950 249 642 326 808 495 867 463 787 380 946 412 343 326 671 380
324 20 11352 520 9 993 58 948 410 750 105 569 126 106 271 431 169 935 252 677 492 970 22 749 392 551 229 451 374 429 393 931 175 926 473 915 420 907 220 922 472 511 261
325 20 11939 980 481 856 28 847 320 797 41 885 384 348 356 633 187 757 323 376 187 914 25 801 9 867 22 650 221 894 362 946 431 263 114 779 496 992 27 467 461 872 335
326 20 10893 861 321 479 340 931 357 997 8 930 200 713 152 883 444 717 456 755 80 624 125 288 418 847 495 814 441 74 465 173 361 711 235 657 258 914 18 963 291 286 91
327 20 12971 934 106 703 175 959 21 639 92 873 436 850 474 536 86 675 499 698 370 996 280 863 56 959 105 923 303 926 61 786 332 919 346 939 91 221 267 889 7 926 270
328 20 12104 843 342 902 492 313 67 723 156 407 191 879 443 431 143 647 92 670 46 959 412 680 369 814 52 914 7 972 206 980 40 947 120 966 274 871 201 905 396 307 262
329 20 11080 840 362 885 368 562 87 781 310 627 170 680 345 317 125 724 358 849 376 971 134 784 234 252 173 483 133 859 494 974 121 247 374 328 241 883 339 896 222 909 375
330 20 11722 266 129 614 80 486 254 782 23 968 251 693 98 807 290 893 285 910 475 662 141 450 92 146 13 966 161 867 418 849 235 787 66 963 81 801 302 909 3 834 168
331 20 10840 379 172 875 264 409 112 952 488 814 460 792 236 797 142 736 128 129 453 998 86 740 256 889 402 688 358 517 70 441 265 663 210 497 320 672 301 966 272 596 56
332 20 12622 747 364 770 366 669 304 458 397 769 292 323 232 952 86 974 201 657 470 735 285 879 132 882 236 926 422 845 385 925 427 855 212 933 126 912 103 968 449 599 277
333 20 12827 622 190 933 220 955 452 991 58 811 426 928 281 655 285 838 421 599 133 967 350 879 384 865 439 651 209 866 163 758 322 199 339 933 255 974 95 905 90 705 279
334 20 11889 864 460 666 289 691 241 957 346 640 27 956 386 418 413 664 387 597 208 744 402 994 382 490 160 693 198 859 442 441 25 979 203 917 147 677 304 732 38 883 217
335 20 11324 862 471 384 411 137 13 952 92 651 180 966 3 581 97 862 129 635 47 840 250 595 39 765 137 901 152 833 111 545 281 675 20 507 84 996 408 710 288 759 433
336 20 11422 727 26 900 373 620 203 803 108 849 339 484 105 621 175 500 422 983 387 796 120 708 102 632 317 190 370 769 287 828 475 984 353 964 257 811 122 148 286 961 219
337 20 12909 578 185 722 195 665 301 921 214 716 53 944 214 820 117 976 288 757 355 910 207 955 250 960 370 951 37 545 221 958 390 706 252 848 377 759 242 940 72 506 266
338 20 12004 704 475 888 31 606 235 754 489 918 206 397 311 873 432 923 384 857 214 794 128 476 223 795 476 525 321 779 416 702 171 954 237 967 369 791 484 598 171 705 129
339 20 11600 927 5 220 7 838 56 897 472 555 62 891 129 700 118 896 426 680 453 586 40 994 356 873 436 160 487 748 157 916 427 412 132 902 342 835 446 606 243 864 97
340 20 11028 546 154 847 217 550 69 155 425 701 363 862 389 237 194 768 199 952 81 852 250 929 489 731 201 828 142 855 463 713 363 601 97 409 374 743 284 541 98 966 348
341 20 10571 793 224 155 416 366 371 810 310 686 364 384 213 754 346 411 327 390 415 889 176 757 478 917 366 625 185 908 448 808 481 450 117 981 330 468 439 969 396 693 98
342 20 12716 829 270 829 182 925 411 926 6 929 29 406 450 886 197 510 414 684 227 874 184 791 310 964 117 937 194 791 289 847 298 885 270 917 291 746 479 265 48 955 20
343 20 11398 913 425 951 360 710 82 294 275 789 160 956 304 880 240 316 148 838 158 898 431 549 256 582 77 679 469 680 111 975 8 905 267 217 393 274 475 955 216 887 35
344 20 12459 925 484 989 76 562 119 723 390 841 248 554 177 917 234 812 446 569 472 325 440 987 348 269 454 796 299 956 453 905 138 888 389 901 300 798 93 934 134 923 270
345 20 12931 479 436 498 89 957 294 972 294 994 353 979 49 897 42 972 164 734 184 910 216 947 403 563 495 715 274 860 250 994 22 626 35 790 304 730 486 667 422 880 362
346 20 11647 943 391 460 376 578 32 710 448 592 71 874 299 982 408 976 67 804 371 733 307 327 398 457 271 659 240 943 339 423 393 839 121 958 273 971 12 636 294 694 421
347 20 11236 697 163 999 210 884 385 504 429 890 43 644 179 511 422 292 180 696 334 622 284 885 458 529 458 891 337 833 249 756 402 954 185 676 245 828 223 365 420 589 112
348 20 11608 672 203 422 202 764 344 978 53 764 420 737 316 986 304 813 215 852 308 492 21 816 167 466 403 767 127 610 311 774 230 773 281 923 14 932 324 212 397 758 189
349 20 12005 891 53 813 145 494 429 829 322 517 267 719 126 336 440 1000 392 979 139 691 37 708 112 687 314 972 462 863 201 708 215 879 353 528 270 918 386 600 428 875 335
350 20 9690 903 108 922 495 473 19 832 11 372 301 774 64 413 418 348 78 419 147 463 478 664 169 650 202 728 364 967 26 850 343 402 51 281 341 420 78 353 182 879 313
351 20 12560 839 189 912 74 705 206 613 402 940 158 93 460 896 115 915 343 904 258 860 51 820 356 681 8 740 500 857 384 965 439 505 255 798 305 879 175 887 346 891 322
352 20 12235 970 232 640 426 644 370 725 327 835 172 802 46 761 215 910 28 611 68 811 378 805 419 778 142 460 49 990 68 983 26 408 76 732 283 550 181 926 334 953 183
353 20 11675 970 294 703 279 587 489 596 301 807 194 529 113 497 484 766 198 218 379 985 308 976 443 943 86 831 498 188 222 598 388 954 459 839 165 888 56 748 202 971 181
354 20 13066 836 187 872 25 733 146 718 191 932 377 575 488 781 79 708 224 834 414 924 259 936 300 978 43 697 252 842 434 688 372 960 433 854 379 898 74 710 453 857 398
355 20 12056 863 197 941 238 727 200 651 325 1000 122 944 183 901 422 775 28 392 105 895 171 591 28 429 430 948 196 829 268 745 354 372 328 874 138 633 466 749 494 811 179
356 20 11850 705 411 912 100 511 460 949 150 849 354 229 281 703 336 503 444 867 465 682 327 835 314 894 396 885 52 793 61 999 332 987 75 724 166 645 90 326 342 815 72
357 20 12733 402 264 656 394 452 113 1000 65 909 11 795 71 823 497 861 267 602 475 745 51 901 270 759 426 819 446 752 106 995 494 995 19 567 438 980 224 949 183 955 444
358 20 11690 772 439 972 206 838 186 461 174 836 401 796 318 858 176 772 230 289 426 712 190 990 334 878 107 364 458 562 328 812 218 848 243 801 464 486 356 815 263 751 225
359 20 11155 924 421 876 26 509 366 814 51 656 491 653 494 682 2 600 35 789 60 930 266 958 59 745 150 861 281 428 475 705 54 389 316 878 404 496 154 644 293 407 269
360 20 12148 435 498 813 382 989 438 957 119 728 245 884 323 1000 402 631 371 962 326 924 238 987 212 455 404 564 232 642 416 849 302 273 51 842 92 942 310 364 398 944 266
361 20 12222 915 139 995 72 986 376 861 460 908 177 611 3 997 392 304 133 850 109 937 152 524 198 532 260 875 461 964 98 786 458 403 85 531 311 762 415 944 40 593 352
362 20 11318 493 440 920 2 828 463 830 1 688 156 917 188 644 92 853 42 363 287 642 389 820 418 697 31 972 294 592 29 808 304 963 142 593 297 779 467 424 290 322 234
363 20 11272 646 460 778 462 728 331 506 460 679 233 807 1 738 286 522 129 173 404 935 494 769 27 919 485 770 253 879 33 608 321 679 354 989 349 620 18 759 75 586 264
364 20 12190 625 131 960 49 810 32 983 303 583 497 349 30 676 26 755 69 789 79 690 169 661 140 577 474 875 114 957 493 725 290 984 492 650 46 966 171 897 96 726 437
365 20 12641 966 40 921 310 637 161 894 161 796 310 603 201 954 416 697 92 924 179 868 170 737 443 505 23 940 107 759 290 744 286 916 383 997 71 658 316 694 301 592 442
366 20 11398 681 92 498 342 807 322 984 330 551 115 881 105 725 179 795 326 690 480 877 253 809 1 428 430 749 141 594 471 975 448 599 284 862 111 719 267 696 222 328 99
367 20 12672 683 42 866 127 703 7 794 397 391 316 874 73 980 172 957 270 702 355 648 272 603 233 790 56 762 397 721 141 964 228 880 153 996 479 962 162 574 74 990 103
368 20 12444 606 473 861 416 998 423 728 75 926 309 829 316 786 68 829 279 816 388 419 382 461 406 912 318 898 437 964 82 612 43 996 269 909 315 539 89 822 260 644 2
369 20 11794 721 173 839 481 472 403 703 137 907 260 991 58 987 148 950 270 739 351 730 110 968 162 830 139 958 376 760 8 984 69 428 470 85 419 433 352 397 106 861 319
370 20 11474 879 39 781 438 553 434 461 211 628 454 685 176 710 58 943 315 850 485 991 358 268 14 981 230 167 257 923 28 609 280 910 190 858 410 430 15 770 125 946 295
371 20 12168 923 104 351 75 877 469 925 193 953 170 925 279 585 445 444 458 618 389 958 498 317 21 944 272 809 8 599 127 777 102 670 217 698 482 925 330 979 400 934 321
372 20 11929 980 196 797 272 781 147 681 294 721 145 857 64 323 205 803 279 903 274 905 136 782 417 448 112 678 269 759 15 274 499 684 469 808 122 980 401 772 50 976 484
373 20 10845 899 303 829 157 909 440 815 284 738 70 961 458 536 103 787 465 463 195 370 360 972 429 614 270 312 58 773 445 321 407 867 74 882 151 737 459 291 213 481 89
374 20 12613 944 8 748 21 374 120 841 271 937 174 934 407 948 376 621 363 788 402 928 161 863 67 703 414 852 119 583 131 966 298 429 3 926 73 992 411 474 249 916 186
375 20 11597 872 319 570 359 575 105 711 296 860 231 551 392 630 411 972 382 507 434 906 362 734 31 917 419 962 29 747 179 151 393 779 137 874 92 477 316 958 101 744 119
376 20 11853 644 95 972 336 787 365 417 444 469 53 968 362 961 415 680 5 909 134 466 80 933 237 424 219 971 163 655 206 619 487 761 228 484 206 968 347 879 171 850 93
377 20 11664 556 441 873 53 360 215 831 410 801 194 453 460 821 249 852 143 775 135 609 242 947 438 553 81 589 428 989 413 794 233 742 228 850 105 769 162 883 16 533 269
378 20 11948 999 358 912 475 944 116 906 6 266 86 914 403 965 475 914 304 666 112 874 451 906 396 899 354 676 116 690 126 342 151 301 360 982 96 891 210 664 189 224 211
379 20 11241 425 329 381 195 989 415 803 21 702 181 741 148 712 465 518 242 808 294 665 241 565 258 707 254 904 327 776 284 315 228 811 47 979 424 987 457 612 159 652 124
380 20 12635 875 199 276 98 925 226 793 384 677 329 858 172 945 329 440 294 961 420 590 460 925 141 539 77 873 426 972 338 716 120 908 376 679 89 940 373 902 245 1000 287
381 20 11219 647 363 489 295 713 346 898 175 812 139 928 367 182 11 869 324 931 397 811 254 896 409 995 150 548 161 672 150 731 31 858 24 702 374 953 382 75 118 314 81
382 20 12500 857 182 670 332 587 310 633 179 776 175 777 23 803 51 704 137 939 404 878 310 898 446 994 286 916 345 711 232 469 492 567 486 997 217 937 61 582 96 930 374
383 20 11800 345 349 891 403 588 450 996 413 775 431 995 74 919 62 596 95 962 296 931 1 850 436 190 395 966 22 180 271 957 111 925 184 808 426 625 440 409 368 843 26
384 20 10453 862 491 423 19 65 107 958 355 652 356 411 304 748 74 624 195 730 207 486 132 972 308 845 325 779 60 418 369 628 185 827 265 601 394 948 344 610 259 480 285
385 20 11537 822 472 882 358 998 23 678 275 733 481 684 425 877 108 325 263 730 157 482 50 610 52 786 263 167 3 395 150 931 150 988 433 960 324 492 140 889 17 993 63
386 20 9654 454 229 900 108 606 266 587 323 307 500 640 392 373 147 511 281 597 451 918 331 366 116 628 315 716 95 996 102 180 334 818 245 414 205 946 440 312 323 799 178
387 20 12124 530 257 554 478 622 463 961 336 486 53 602 1 988 162 946 480 301 70 997 159 862 224 730 416 857 20 700 307 923 382 834 285 974 17 867 283 712 31 709 209
388 20 11428 290 379 618 436 971 66 176 357 833 317 888 477 890 66 848 245 851 367 525 43 964 177 297 427 726 380 945 431 868 46 977 292 641 12 411 188 859 259 708 248
389 20 12807 976 99 626 284 818 181 911 92 835 24 573 381 982 165 942 110 804 433 826 241 332 32 984 158 865 323 931 424 845 366 682 241 888 5 894 381 951 179 344 333
390 20 10486 621 335 787 325 786 479 366 4 519 255 746 104 731 161 694 63 432 5 733 452 460 293 789 329 584 127 278 115 999 159 877 434 668 119 680 177 872 206 486 492
391 20 11870 985 319 571 317 999 478 975 127 760 387 570 376 737 91 670 352 301 400 688 78 986 56 741 167 760 89 475 486 472 145 827 23 885 410 691 443 950 332 795 107
392 20 11010 356 415 852 179 776 348 910 78 837 349 448 436 185 433 827 480 538 297 312 470 694 15 954 422 609 307 905 148 766 65 494 7 813 119 932 366 659 258 896 103
393 20 10830 897 32 515 180 531 349 709 338 576 386 322 105 642 390 901 198 832 165 854 117 932 80 593 137 864 30 479 77 562 14 707 219 740 337 872 418 691 451 319 43
394 20 11241 330 112 645 152 503 315 962 10 817 43 883 132 597 189 564 103 998 349 723 413 644 203 912 278 901 379 739 286 469 322 856 242 503 423 812 118 720 86 474 391
395 20 12805 532 148 846 341 962 64 693 358 861 9 825 44 922 213 931 107 880 30 992 410 981 183 965 499 698 107 479 99 632 38 659 82 734 64 999 428 926 303 490 459
396 20 11295 485 484 935 310 825 161 424 220 898 236 885 1 748 425 305 386 879 250 953 125 952 129 995 254 252 448 996 36 884 270 671 213 406 423 272 288 616 321 738 211
397 20 11372 984 333 749 398 548 467 961 203 682 307 429 50 439 334 518 429 910 212 426 132 759 247 886 446 183 169 710 103 902 456 712 376 959 291 622 306 942 227 895 468
398 20 11472 747 462 742 205 476 332 258 55 916 292 764 215 534 466 904 106 745 32 896 216 812 431 805 205 498 357 650 121 446 180 818 114 899 109 738 239 751 179 942 488
399 20 12750 863 209 788 120 879 153 739 312 881 339 880 309 786 196 938 473 682 378 996 166 461 198 981 335 767 447 840 215 682 403 953 78 736 354 630 400 829 62 627 412
400 20 12244 834 29 798 236 998 353 818 169 751 62 818 241 883 416 742 352 602 92 517 250 755 340 783 60 961 342 638 36 786 411 935 423 484 215 971 386 596 63 636 484
401 20 12168 850 288 940 186 915 465 499 230 979 486 673 95 957 331 288 3 814 162 683 110 626 267 985 200 470 339 863 499 814 222 958 238 779 16 838 236 640 103 639 213
402 20 11152 623 86 821 492 777 294 815 182 892 146 654 122 327 148 952 227 736 267 846 457 772 194 430 6 273 494 638 149 857 41 621 423 646 49 918 257 499 427 844 256
403 20 12268 776 102 501 154 849 479 870 30 556 73 879 252 717 229 707 389 904 293 441 46 934 361 957 461 940 283 624 34 868 278 215 394 837 492 843 87 961 375 957 262
404 20 11039 472 273 600 482 765 205 284 201 934 421 422 331 854 449 784 241 836 64 951 174 827 324 775 192 649 202 568 308 707 161 415 386 780 231 480 422 979 85 717 167
405 20 12611 539 75 890 492 863 344 964 384 953 68 726 266 717 163 863 85 664 316 613 423 960 76 951 378 403 9 825 322 872 80 859 107 983 68 756 150 899 159 464 351
406 20 12040 718 74 949 252 994 340 772 110 788 17 894 482 808 422 772 294 810 408 813 491 496 40 447 159 621 217 927 335 805 444 659 108 820 187 609 177 648 199 700 304
407 20 12108 764 229 640 6 913 22 926 279 783 450 704 311 509 196 909 6 992 153 502 477 807 21 955 49 476 89 468 176 897 446 810 141 690 478 944 384 626 35 820 436
408 20 11147 391 406 443 221 448 489 812 387 770 375 696 347 344 284 932 61 499 119 772 3 967 354 848 158 473 458 995 328 847 243 925 134 831 185 408 64 569 229 964 364
409 20 11424 721 349 870 432 831 54 944 363 819 233 656 192 593 369 785 37 372 263 590 383 967 390 695 426 423 220 727 340 648 41 831 62 945 355 747 429 314 369 803 377
410 20 10788 911 287 825 151 495 438 679 447 671 400 972 87 945 264 891 212 975 322 360 338 921 92 889 242 916 180 87 322 433 400 721 1 512 327 303 228 214 357 766 343
411 20 12151 888 30 744 159 833 226 816 11 829 235 938 468 928 251 738 42 950 462 798 287 937 92 935 20 971 480 576 323 487 457 768 452 698 291 844 121 159 31 352 277
412 20 11235 850 484 574 473 119 284 683 48 880 431 985 212 461 44 621 359 718 17 908 191 296 228 827 363 521 466 821 410 551 29 913 462 793 80 971 168 869 146 683 275
413 20 11645 782 20 874 498 472 55 889 416 590 80 695 207 745 54 536 407 982 388 913 173 480 326 889 58 746 222 900 352 842 328 330 426 598 93 654 123 702 99 938 226
414 20 11010 970 353 641 327 801 397 330 404 425 38 996 10 657 172 459 452 999 180 571 183 823 223 866 436 454 242 292 127 470 282 946 433 692 185 706 13 874 54 791 260
415 20 10596 850 314 646 361 776 435 943 211 335 491 307 462 678 28 709 398 613 495 725 13 815 467 245 52 474 328 512 189 838 346 892 335 877 442 908 341 801 187 302 453
416 20 10751 894 69 839 224 767 464 317 144 828 21 592 221 510 7 960 417 752 474 859 22 604 344 761 375 876 320 542 45 775 145 518 28 550 195 156 465 739 118 600 89
417 20 10504 866 209 725 81 671 179 640 102 797 232 907 36 525 475 359 243 779 124 386 326 717 481 627 174 845 210 356 360 308 486 738 402 905 363 507 489 846 218 626 438
418 20 12228 423 246 660 393 901 275 898 138 576 398 841 234 733 8 609 50 900 257 850 198 902 3 835 243 948 447 797 159 974 409 862 24 837 418 369 6 523 271 848 362
419 20 12111 828 141 598 243 835 359 855 432 610 120 625 120 638 36 543 236 330 90 803 341 554 150 951 411 849 368 921 75 967 239 718 371 798 230 909 10 994 316 813 410
420 20 12134 950 231 714 455 909 41 906 85 295 86 580 121 955 132 778 173 320 203 953 144 514 42 782 378 895 447 894 259 826 250 967 306 741 44 800 248 613 412 776 184
421 20 12777 703 180 959 211 827 240 679 59 601 160 827 253 905 6 787 279 894 78 993 406 829 60 536 3 941 76 902 425 867 483 571 56 839 66 863 75 713 425 736 194
422 20 11376 972 196 552 249 430 1 568 356 637 128 689 381 819 134 519 315 915 150 865 180 892 406 868 274 925 135 728 350 789 486 807 255 548 386 332 407 598 420 767 339
423 20 11928 329 268 864 152 295 259 1000 436 998 326 354 83 850 104 871 347 503 278 763 392 932 269 626 498 835 166 842 120 700 119 970 274 785 88 926 235 697 416 771 468
424 20 11631 505 12 880 497 611 171 528 359 836 98 597 65 691 446 811 275 708 244 993 356 948 293 628 177 876 107 708 41 848 89 378 457 389 386 907 396 746 45 951 228
425 20 12307 714 305 991 493 915 241 398 224 800 439 783 407 501 160 694 260 973 171 716 215 903 294 861 472 701 166 735 454 712 18 212 425 984 351 976 492 932 351 883 243
426 20 11261 446 195 581 230 963 493 511 369 152 177 975 175 567 466 965 469 995 70 642 159 781 126 790 407 927 291 430 264 786 482 651 59 372 181 986 302 678 468 879 239
427 20 11957 296 394 601 128 912 41 932 323 882 55 561 324 933 25 968 144 974 127 480 495 443 152 760 204 890 298 749 375 743 239 850 331 538 408 892 52 869 469 674 269
428 20 11321 786 311 908 412 957 403 711 221 422 119 773 105 409 121 572 437 907 343 789 495 542 188 569 445 803 379 457 64 750 42 396 429 721 179 879 292 849 48 952 139
429 20 11833 848 41 601 376 909 402 821 416 505 73 970 150 940 22 427 32 840 492 925 215 506 385 858 35 674 302 417 221 655 349 626 19 850 149 824 16 633 335 963 444
430 20 13107 872 148 951 137 748 419 878 206 823 94 762 451 963 468 613 402 892 244 359 32 760 450 815 100 949 20 887 281 973 463 725 395 976 421 762 78 892 102 784 347
431 20 12004 451 394 805 303 404 335 641 274 458 184 486 337 671 392 785 339 880 350 957 279 882 254 954 306 612 243 779 93 905 334 846 284 903 56 807 101 844 212 935 54
432 20 10600 634 232 809 381 276 202 795 12 443 36 470 230 710 488 986 466 329 140 926 290 628 146 729 474 210 106 681 439 878 154 989 278 722 110 879 396 783 385 374 210
433 20 10700 983 15 238 388 166 340 726 197 831 77 234 164 161 135 436 189 913 468 698 468 375 296 907 469 900 486 671 483 864 257 852 329 896 31 671 471 914 131 940 334
434 20 12837 932 69 765 35 580 386 723 443 519 66 891 467 925 361 916 218 840 70 681 394 801 213 884 252 977 84 995 374 569 271 784 446 971 143 737 67 965 29 592 122
435 20 11756 576 9 568 465 748 366 911 29 925 191 690 497 877 470 538 55 688 370 936 368 735 40 993 281 610 336 822 465 708 285 395 136 963 98 740 380 480 109 792 306
436 20 11908 811 211 574 276 939 377 791 45 943 450 335 321 797 146 962 345 821 244 611 106 846 179 830 83 663 384 775 86 796 252 495 377 687 238 627 446 709 244 874 395
437 20 10231 739 92 913 464 619 111 536 100 978 387 823 311 389 18 485 178 994 341 659 286 509 120 391 276 834 271 331 17 961 271 411 159 460 252 825 447 497 347 435 252
438 20 11883 879 84 863 289 618 423 611 51 901 35 737 456 603 320 599 35 514 467 991 171 744 432 932 301 643 314 877 443 966 420 493 6 937 271 777 416 507 416 662 334
439 20 11640 480 292 568 189 636 174 716 348 750 483 887 463 539 386 616 58 849 374 887 267 856 33 524 307 954 335 564 308 620 283 865 42 839 458 646 478 901 438 854 281
440 20 11593 535 285 913 450 795 350 640 132 769 271 358 351 894 292 952 42 479 97 950 239 1000 265 290 160 691 343 655 84 697 91 871 382 786 183 404 262 947 224 866 364
441 20 11917 915 5 393 249 904 495 806 115 728 429 845 88 984 350 730 161 741 292 853 61 395 410 993 385 677 494 585 1 991 295 649 411 570 53 906 189 437 160 795 97
442 20 11560 636 307 825 343 895 392 958 455 701 347 729 315 537 408 774 190 949 186 589 293 501 312 645 189 713 462 820 255 769 285 954 371 396 417 816 261 628 89 616 123
443 20 12184 844 283 758 425 438 267 531 306 643 209 929 265 674 357 764 109 944 482 870 6 820 64 654 287 723 155 589 207 847 329 648 16 821 24 975 411 968 405 790 423
444 20 11801 555 19 637 472 838 326 953 15 925 231 988 481 791 498 394 347 654 127 798 255 905 196 952 393 457 30 994 24 590 420 362 79 875 290 587 205 626 17 871 93
445 20 10516 842 21 878 163 904 32 965 264 921 453 615 419 111 406 488 437 964 267 658 94 275 252 802 75 520 144 642 167 311 184 620 356 198 467 765 262 688 402 979 225
446 20 10428 589 467 431 209 474 402 970 399 853 288 345 69 137 367 786 21 891 131 318 134 566 279 972 386 934 500 646 184 902 374 395 162 711 88 822 452 411 199 883 198
447 20 11854 701 314 784 276 751 380 838 68 573 198 752 351 764 252 802 189 863 340 699 51 564 54 953 339 512 68 379 446 947 176 696 300 987 409 758 194 852 368 643 226
448 20 10752 596 183 897 69 151 394 719 401 800 433 300 215 912 136 771 86 681 99 989 27 822 487 629 369 448 164 813 329 737 114 663 267 806 479 779 369 278 293 650 19
449 20 11244 941 401 277 58 658 194 725 456 545 209 563 147 950 352 991 383 433 277 663 438 984 91 354 208 964 481 695 278 919 251 922 485 765 142 948 366 390 434 369 103
450 20 11092 823 378 419 397 903 495 586 256 728 52 481 491 590 472 609 427 601 150 853 130 416 306 920 39 610 412 287 332 954 352 821 43 934 401 783 110 886 79 662 207
451 20 12629 839 418 617 384 676 40 721 465 935 310 573 248 778 80 920 69 778 318 966 332 936 14 757 53 550 500 903 164 870 162 798 315 779 117 900 150 643 281 848 68
452 20 11343 623 378 917 250 730 195 930 438 847 434 952 14 877 451 786 200 691 77 245 254 901 463 493 126 764 226 897 466 524 460 431 282 341 349 708 438 738 350 784 269
453 20 12920 675 454 978 489 791 407 736 343 453 118 955 168 904 459 955 328 898 178 978 265 966 9 853 106 352 289 989 398 941 446 909 289 773 172 515 446 585 431 944 187
454 20 11573 940 64 838 398 593 387 444 238 881 146 988 23 495 460 897 307 976 34 741 342 910 33 767 151 991 294 770 185 553 275 242 386 340 472 695 346 697 50 709 266
455 20 10678 801 446 959 234 918 41 765 287 511 253 693 29 693 191 224 379 990 256 649 37 616 304 761 217 530 483 684 144 719 51 949 230 205 498 425 38 554 379 702 161
456 20 11682 658 401 820 470 970 289 465 336 824 252 725 298 774 222 990 200 924 7 802 265 938 173 432 193 459 187 424 24 1000 415 905 255 665 29 521 118 893 480 414 266
457 20 11472 994 232 647 499 288 54 832 219 833 236 939 341 849 93 964 170 274 102 956 413 228 235 698 108 904 88 796 147 461 284 809 331 732 378 720 287 972 355 444 317
458 20 11344 823 306 882 272 752 123 671 8 772 382 940 262 418 56 997 484 509 432 903 330 344 348 865 251 668 229 888 5 118 39 879 457 564 125 932 280 469 496 787 90
459 20 11882 957 109 829 20 926 7 861 209 461 111 784 190 555 179 962 439 675 383 883 413 452 196 286 430 859 308 567 218 884 230 873 65 768 406 548 396 972 230 751 127
460 20 12008 57 304 748 122 961 44 906 52 904 262 960 401 458 484 740 95 853 184 931 74 896 360 799 381 875 227 622 28 632 30 984 305 649 78 724 185 567 151 744 88
461 20 10512 625 114 908 373 882 92 948 401 313 31 312 381 862 129 892 415 314 357 539 271 590 198 966 284 247 283 615 216 698 156 560 430 899 230 646 216 630 24 695 272
462 20 10332 611 188 962 300 871 170 797 379 901 179 730 216 970 89 514 371 271 87 981 213 312 69 563 433 526 171 227 216 599 249 890 20 538 378 471 145 242 128 940 86
463 20 11263 673 378 778 25 900 414 649 137 711 351 275 159 983 187 967 72 390 422 861 464 774 78 894 87 515 380 551 167 903 336 843 97 914 399 774 396 622 397 102 367
464 20 11427 736 227 693 206 359 235 699 410 803 104 840 439 447 272 772 54 822 400 663 176 382 21 803 427 580 170 841 359 926 48 661 279 793 470 673 473 833 476 958 436
465 20 11529 712 300 773 196 841 337 955 17 658 328 913 492 963 417 690 378 331 438 979 272 657 88 507 189 875 196 699 469 704 475 812 470 521 202 206 150 999 273 617 293
466 20 11714 727 260 984 46 943 100 775 212 964 152 661 493 927 209 603 436 755 286 812 372 947 186 526 395 465 477 859 12 892 262 702 380 252 473 229 224 725 395 895 29
467 20 10844 853 95 923 271 874 4 378 224 934 295 524 495 524 241 187 408 734 447 944 495 512 394 809 73 728 398 268 76 932 320 934 37 773 407 496 316 505 198 723 34
468 20 10612 514 387 640 428 491 137 590 149 613 336 660 462 959 44 498 67 677 27 819 207 731 63 568 11 848 34 860 342 588 230 702 133 328 327 892 124 770 235 517 251
469 20 11454 905 186 555 118 125 17 531 234 863 203 956 409 595 347 570 218 532 191 474 157 731 474 989 300 802 473 550 132 981 161 827 308 1000 464 869 99 978 395 485 350
470 20 11779 935 251 754 274 973 176 849 319 587 297 762 351 368 471 538 475 733 406 989 341 948 146 702 215 764 267 994 460 938 487 960 66 475 78 363 234 875 481 217 214
471 20 10174 591 276 689 423 906 469 723 344 185 338 961 125 700 392 870 496 473 158 467 166 832 250 630 362 268 112 783 23 884 47 917 33 154 452 799 179 328 312 558 446
472 20 11625 935 189 645 346 316 253 567 43 949 66 702 310 916 241 438 84 525 248 872 226 661 3 749 103 906 256 567 209 783 391 900 247 408 73 967 81 879 286 847 68
473 20 12038 482 248 652 335 744 103 786 298 805 62 882 288 562 280 858 281 402 301 998 459 950 191 800 85 437 323 916 404 785 168 495 45 909 284 719 207 881 448 985 55
474 20 11716 329 20 874 27 704 36 231 224 878 199 612 115 926 122 841 178 691 388 705 361 983 59 810 275 887 186 735 178 773 267 996 111 397 333 857 387 921 85 495 335
475 20 11477 947 5 613 307 483 301 382 240 466 103 925 91 326 412 292 466 794 420 149 399 745 430 915 337 943 149 952 175 968 330 746 177 793 119 995 109 922 9 991 111
476 20 11703 984 230 709 172 462 241 764 485 490 226 489 113 890 5 885 223 820 210 751 274 940 41 860 125 921 480 412 156 997 274 763 395 810 411 641 358 485 365 556 383
477 20 10817 1000 61 976 130 981 230 586 408 547 430 749 204 391 167 897 265 921 464 470 392 620 140 636 323 349 354 667 52 378 228 641 489 765 71 320 395 766 113 862 233
478 20 11618 691 496 916 29 405 312 942 355 978 193 968 497 786 378 926 197 803 500 387 430 449 262 974 207 750 236 370 499 876 64 973 298 724 194 666 403 762 459 177 307
479 20 12738 930 67 766 381 930 92 616 47 817 451 739 376 900 273 999 354 723 292 751 245 799 259 632 337 933 65 497 49 919 76 782 271 495 415 936 205 823 143 936 161
480 20 11729 962 150 64 222 736 48 943 425 872 437 944 333 169 199 497 306 950 17 159 360 609 360 903 173 955 207 884 225 754 326 978 447 625 309 871 195 924 470 863 98
481 20 11662 815 191 743 318 520 22 997 156 942 485 377 389 823 498 923 398 817 22 588 239 587 5 938 219 461 403 897 412 689 189 557 475 825 301 798 381 576 362 705 250
482 20 10719 693 106 771 342 751 35 384 205 938 415 787 35 473 71 725 174 515 320 585 360 585 401 560 344 631 447 526 229 710 429 748 152 941 372 507 61 835 120 734 456
483 20 11901 772 391 960 53 895 85 810 25 508 224 567 277 629 94 658 55 819 8 547 232 716 86 865 262 941 190 743 124 944 21 816 163 811 405 767 73 707 471 402 123
484 20 10881 307 134 283 469 531 218 903 56 678 416 908 407 753 212 988 395 884 225 741 455 507 208 854 498 353 155 540 65 439 269 532 318 957 113 917 362 921 141 606 378
485 20 11565 446 350 941 37 957 352 722 387 894 359 882 355 810 404 881 87 920 288 627 13 440 97 948 3 140 368 391 117 888 59 868 137 511 41 363 436 982 315 846 414
486 20 12888 987 295 880 4 839 440 828 453 772 255 703 238 686 80 734 369 916 345 822 222 902 393 754 428 992 500 576 205 813 137 466 377 915 69 724 397 984 243 818 10
487 20 12963 699 205 994 135 889 26 675 195 938 153 491 168 738 445 858 381 857 375 896 83 510 104 941 348 864 467 927 27 952 495 958 332 897 443 470 357 842 207 808 5
488 20 13183 834 150 967 287 718 148 879 342 902 425 859 273 980 478 495 11 986 121 909 392 586 32 481 202 923 469 671 66 978 320 857 400 831 284 930 411 990 132 703 267
489 20 12184 873 247 674 194 696 472 809 226 954 296 626 410 881 101 919 427 329 286 651 298 722 92 974 133 991 112 886 431 823 350 627 469 786 303 911 10 546 442 552 42
490 20 10913 606 279 654 73 814 320 792 189 774 494 918 45 654 342 528 112 626 457 675 54 559 497 610 405 180 93 983 303 259 148 852 45 950 59 819 40 463 497 926 254
491 20 11232 841 368 974 304 951 254 752 6 589 195 373 15 712 166 194 399 998 465 634 12 795 105 955 66 727 272 867 437 465 301 904 76 769 64 345 131 629 296 567 6
492 20 12941 952 115 567 320 806 237 982 199 862 153 621 315 645 134 704 372 986 356 791 5 880 135 713 41 862 397 853 124 610 188 943 484 630 498 854 315 993 345 923 126
493 20 12920 996 81 717 250 922 97 640 191 969 256 531 91 923 327 442 18 787 489 979 416 914 372 943 395 890 282 994 91 477 66 957 327 757 128 874 475 844 95 595 101
494 20 11278 920 481 952 141 636 159 731 35 806 436 761 280 885 233 330 496 912 92 436 438 720 334 759 186 286 188 810 359 730 270 902 153 942 383 521 347 557 167 502 322
495 20 12210 240 170 886 69 839 133 692 50 472 248 745 212 916 157 891 414 918 309 716 19 937 497 941 436 616 170 700 487 853 363 898 306 612 93 937 49 463 462 991 97
496 20 11724 448 18 945 51 778 179 486 148 961 104 746 138 443 77 835 76 1000 4 547 306 672 310 448 173 997 274 900 8 856 207 256 377 857 189 508 5 980 125 992 168
497 20 10448 991 251 926 463 254 59 161 32 709 457 998 450 724 75 666 404 319 156 966 291 908 421 378 333 727 81 114 170 801 450 520 489 947 14 705 254 554 492 692 500
498 20 11933 770 331 858 291 373 309 946 276 684 464 376 298 612 72 746 102 835 163 207 346 977 177 866 438 991 249 939 442 909 435 953 263 696 203 647 367 929 427 603 169
499 20 10254 720 383 512 33 679 482 824 383 394 411 961 174 350 178 662 396 765 268 867 436 313 168 910 4 887 83 611 226 272 423 975 332 528 221 805 226 341 43 442 132
500 20 11044 768 342 955 420 724 235 656 9 948 303 951 330 744 369 967 405 884 185 588 455 551 240 732 226 936 432 349 27 208 84 457 95 741 175 257 427 411 230 979 323
