1 20 5074 1 0 1 0 1 1 1 0 1 1 1 1 1 1 1 1 1 1 0 1 
2 20 5610 1 1 0 1 1 1 1 0 1 1 0 1 1 1 1 1 0 1 1 1 
3 20 4911 1 1 0 1 1 1 0 1 1 1 1 1 1 1 1 0 1 0 1 1 
4 20 5796 1 0 1 1 1 1 1 0 1 1 1 1 1 0 1 1 1 1 1 0 
5 20 5167 1 1 0 1 1 1 1 1 1 1 1 0 1 1 1 1 0 0 1 1 
6 20 4896 1 1 0 1 1 1 1 0 1 0 1 1 1 1 1 0 1 1 1 1 
7 20 4917 1 1 1 0 1 0 1 1 1 0 1 1 1 1 1 1 1 1 0 1 
8 20 5930 1 1 1 1 1 1 1 1 0 1 1 1 1 1 1 1 1 0 0 0 
9 20 4347 1 1 1 0 0 1 0 1 1 0 1 1 1 1 1 1 1 1 1 1 
10 20 3378 1 1 1 1 1 1 1 0 1 1 1 1 1 0 1 0 1 1 0 1 
11 20 4383 0 1 1 1 1 0 1 1 1 1 0 1 1 1 1 1 1 1 0 1 
12 20 4251 1 1 1 0 1 1 1 1 1 1 1 1 1 1 1 0 0 1 0 1 
13 20 5532 1 1 1 1 1 0 1 1 1 1 1 1 0 1 1 0 1 1 1 0 
14 20 3569 1 1 1 1 0 1 1 1 1 0 1 1 1 0 1 0 1 1 1 1 
15 20 4582 1 1 1 1 1 1 1 1 1 0 1 1 0 1 0 1 1 0 1 1 
16 20 4916 1 1 1 1 1 1 1 1 1 1 1 0 1 1 0 0 0 1 1 1 
17 20 5435 1 1 1 0 1 1 0 1 1 1 0 1 1 1 1 1 1 1 1 0 
18 20 4238 0 1 0 1 1 0 1 1 1 1 1 1 1 1 1 1 1 1 0 1 
19 20 5515 1 1 1 1 1 1 1 1 1 1 1 0 1 1 0 0 0 1 1 1 
20 20 4665 1 1 1 1 0 1 0 1 1 1 1 1 1 1 1 1 0 1 1 0 
21 20 3903 1 1 1 1 1 1 1 1 1 0 1 0 1 1 1 0 1 0 1 1 
22 20 4966 1 0 1 1 1 1 1 1 0 1 1 1 1 1 1 0 0 1 1 1 
23 20 5813 1 1 1 0 1 1 1 1 1 1 1 0 0 1 1 1 1 1 0 1 
24 20 4814 1 1 0 1 1 0 1 1 0 1 1 1 1 1 1 1 1 1 1 0 
25 20 4350 1 1 1 0 1 1 1 1 0 1 0 1 1 1 1 0 1 1 1 1 
26 20 5548 1 1 1 1 1 0 1 1 1 1 0 1 1 1 1 0 1 1 0 1 
27 20 4780 1 1 1 1 1 1 0 1 1 0 1 1 1 1 1 1 1 0 0 1 
28 20 3957 1 0 0 1 1 0 1 1 0 1 1 1 1 1 1 1 1 1 1 1 
29 20 4091 1 1 1 0 0 1 1 0 1 1 1 0 1 1 1 1 1 1 1 1 
30 20 4908 1 1 0 0 1 1 0 1 1 1 1 1 1 1 1 0 1 1 1 1 
31 20 4668 1 1 1 1 1 0 1 1 1 1 1 1 1 0 1 0 1 1 1 0 
32 20 4575 1 1 0 1 1 1 1 1 1 1 0 1 1 0 1 1 1 1 0 1 
33 20 5328 1 1 1 1 0 0 1 1 1 1 1 1 1 1 1 0 1 1 0 1 
34 20 5316 1 1 1 1 1 1 1 1 0 1 0 1 1 1 0 0 1 1 1 1 
35 20 4497 0 1 1 0 1 1 1 1 0 1 1 1 1 1 1 1 1 0 1 1 
36 20 4207 1 1 0 1 0 0 1 1 1 1 1 1 0 1 1 1 1 1 1 1 
37 20 4292 1 1 1 1 1 0 1 1 0 1 1 1 1 1 1 1 1 0 0 1 
38 20 5106 0 1 0 1 1 1 1 1 1 1 1 1 1 0 0 1 1 1 1 1 
39 20 4833 1 1 1 1 1 0 1 1 1 0 1 1 1 1 1 0 1 1 0 1 
40 20 3331 1 0 0 1 1 1 1 1 0 1 1 1 1 1 0 1 1 1 1 1 
41 20 4722 1 1 1 1 1 1 1 1 0 1 1 1 0 0 0 1 1 1 1 1 
42 20 5498 1 1 1 1 0 0 0 0 1 1 1 1 1 1 1 1 1 1 1 1 
43 20 5176 1 1 1 1 1 0 1 0 1 0 1 1 0 1 1 1 1 1 1 1 
44 20 3869 1 1 1 1 0 1 1 1 1 1 0 1 1 0 1 1 1 0 1 1 
45 20 5102 1 1 1 1 1 1 0 1 0 1 1 1 0 1 1 1 0 1 1 1 
46 20 4457 1 1 1 1 1 1 1 1 1 0 0 1 1 1 1 1 1 0 1 0 
47 20 4392 1 1 1 1 1 1 0 0 1 1 0 1 1 1 1 1 1 1 1 0 
48 20 5038 1 1 1 1 1 1 1 0 1 0 0 0 1 1 1 1 1 1 1 1 
49 20 4438 1 1 1 0 1 1 0 1 0 1 1 1 0 1 1 1 1 1 1 1 
50 20 4643 1 1 1 1 1 1 0 1 1 1 1 1 1 1 0 0 1 0 1 1 
51 20 4554 1 1 0 1 1 1 0 1 1 0 1 1 1 1 1 1 1 1 1 0 
52 20 5277 0 1 1 1 0 0 1 1 1 1 1 1 1 1 1 1 0 1 1 1 
53 20 4973 1 0 0 1 1 1 1 1 1 1 1 1 1 1 0 1 1 1 0 1 
54 20 5598 1 0 1 1 1 1 1 1 1 0 1 1 1 1 1 1 0 1 1 0 
55 20 4571 0 1 1 1 1 1 1 1 1 1 1 0 1 1 1 1 1 1 0 0 
56 20 3966 1 1 1 1 0 0 1 1 1 0 0 1 1 1 1 1 1 1 1 1 
57 20 4803 1 0 0 1 1 1 1 1 0 1 1 1 1 1 0 1 1 1 1 1 
58 20 4631 1 0 1 1 0 1 1 1 0 1 1 1 1 0 1 1 1 1 1 1 
59 20 4194 1 1 0 1 1 1 1 1 1 1 1 1 0 1 0 1 1 1 1 0 
60 20 4668 1 0 1 1 0 1 1 1 0 1 0 1 1 1 1 1 1 1 1 1 
61 20 5382 1 1 1 1 0 1 1 0 1 1 1 1 1 1 1 0 1 0 1 1 
62 20 5052 1 0 0 1 1 1 1 1 1 0 1 1 1 1 1 1 1 1 0 1 
63 20 5257 1 1 1 1 1 0 1 1 0 0 1 0 1 1 0 1 1 1 1 1 
64 20 5080 0 1 1 1 1 1 1 1 1 1 1 0 0 1 1 1 1 1 0 1 
65 20 4281 1 1 1 1 1 1 1 1 1 0 1 1 1 1 1 0 0 1 1 0 
66 20 5048 0 1 1 1 1 1 1 1 1 1 1 1 1 1 0 1 0 0 1 1 
67 20 3923 1 1 1 1 1 1 1 1 1 1 0 1 1 1 0 1 0 1 0 1 
68 20 4828 1 1 1 1 1 1 1 1 1 1 1 0 1 0 1 0 1 1 0 1 
69 20 4607 0 1 1 1 1 1 1 0 1 0 1 1 1 1 1 1 1 1 0 1 
70 20 4610 1 0 1 1 1 0 1 1 0 1 1 1 1 1 1 0 1 1 1 1 
71 20 4853 1 1 1 1 0 1 1 1 1 0 1 0 0 1 1 1 1 1 1 1 
72 20 4703 1 1 1 1 0 0 1 1 0 1 1 1 1 1 1 1 1 1 1 0 
73 20 3161 0 1 0 1 1 1 1 0 1 1 1 1 1 1 1 1 1 1 1 0 
74 20 5110 0 1 1 1 1 1 1 1 0 1 1 0 1 1 1 1 1 1 1 0 
75 20 3494 1 1 1 1 1 1 0 0 1 1 1 1 1 1 0 0 1 1 1 1 
76 20 4833 1 1 1 1 1 1 1 0 0 0 1 1 1 1 1 1 1 0 1 1 
77 20 4771 1 1 1 0 1 1 1 1 1 0 0 1 1 0 1 1 1 1 1 1 
78 20 5430 1 0 1 0 1 1 1 1 1 1 1 0 1 1 1 1 0 1 1 1 
79 20 4449 0 1 1 1 1 1 1 1 1 1 1 1 1 0 0 1 1 1 0 1 
80 20 5429 1 1 0 1 1 1 1 1 1 1 1 0 0 1 1 1 1 0 1 1 
81 20 4774 1 1 0 1 1 1 1 1 0 1 0 1 1 1 1 1 1 1 0 1 
82 20 4511 0 0 1 1 1 1 1 1 1 1 1 1 1 1 0 1 0 1 1 1 
83 20 4718 1 0 1 1 0 1 1 1 1 1 1 1 1 1 0 1 0 1 1 1 
84 20 3346 0 1 1 1 1 1 1 0 1 1 1 1 1 0 1 0 1 1 1 1 
85 20 4850 0 0 1 1 1 0 1 1 1 1 1 0 1 1 1 0 1 1 1 1 
86 20 4495 1 1 1 1 1 1 0 0 1 1 0 1 1 1 1 1 0 1 1 1 
87 20 5406 1 1 1 1 0 1 0 1 1 1 1 1 1 1 1 1 1 0 0 1 
88 20 5079 1 1 1 1 1 1 0 1 1 1 1 1 1 0 1 1 0 0 1 1 
89 20 5106 1 1 0 1 1 1 0 1 1 1 0 1 1 1 1 1 0 1 1 1 
90 20 4976 0 1 1 1 1 1 1 1 0 1 0 1 1 0 1 1 1 1 1 1 
91 20 4307 1 1 1 1 1 1 1 1 0 0 1 0 1 1 1 1 1 0 1 1 
92 20 4348 1 1 0 1 1 0 1 1 1 1 1 1 1 1 1 0 1 0 1 1 
93 20 5119 1 1 1 1 1 1 0 1 1 1 0 1 1 0 1 1 1 1 0 1 
94 20 5844 1 1 1 1 0 1 0 1 1 1 0 1 1 1 1 1 1 1 0 1 
95 20 4570 1 1 1 1 1 1 1 0 0 0 1 1 1 1 0 1 1 1 1 1 
96 20 5006 0 1 1 1 1 1 1 1 1 1 0 1 1 1 0 0 1 1 1 1 
97 20 5582 1 1 1 1 1 0 1 1 0 1 1 1 1 0 1 0 1 1 1 1 
98 20 4736 1 1 1 1 1 0 1 1 1 1 1 1 1 1 1 0 0 0 1 1 
99 20 4903 1 0 1 1 1 0 1 1 1 1 0 0 1 1 1 1 1 1 1 1 
100 20 4853 0 1 1 1 1 1 1 1 1 1 0 0 1 1 1 1 1 0 1 1 
101 20 5026 1 1 0 1 1 0 1 1 1 1 1 1 0 1 1 1 1 1 0 1 
102 20 4351 1 0 1 1 1 1 1 1 1 1 1 1 1 0 1 1 1 0 1 0 
103 20 5761 1 1 0 1 1 1 1 1 0 1 1 1 1 1 1 0 1 1 0 1 
104 20 4642 1 1 1 1 0 1 1 1 0 1 1 1 0 0 1 1 1 1 1 1 
105 20 4667 1 0 1 1 1 1 0 1 1 1 1 1 0 1 0 1 1 1 1 1 
106 20 3981 0 0 1 1 1 1 1 1 1 1 1 1 1 1 1 1 1 1 0 0 
107 20 4235 1 0 1 1 1 1 1 1 1 1 1 0 1 1 1 1 0 1 1 0 
108 20 3153 1 1 1 0 0 0 1 1 1 1 1 1 1 1 1 1 0 1 1 1 
109 20 4563 1 1 0 1 1 1 1 1 1 0 1 1 1 1 1 1 1 0 1 0 
110 20 5402 0 1 1 1 1 1 0 1 1 0 1 1 1 1 1 1 1 1 0 1 
111 20 5313 0 1 1 0 1 0 1 1 1 1 1 1 1 0 1 1 1 1 1 1 
112 20 5596 1 1 1 1 0 0 1 0 1 1 1 1 0 1 1 1 1 1 1 1 
113 20 4977 1 1 1 0 1 0 1 1 1 1 0 0 1 1 1 1 1 1 1 1 
114 20 5312 1 1 1 1 0 1 1 0 1 1 1 1 0 1 1 1 1 1 0 1 
115 20 4453 1 1 1 1 0 0 1 1 1 1 1 1 1 1 0 1 1 1 1 0 
116 20 4663 1 1 1 1 1 1 0 0 1 1 1 1 1 0 0 1 1 1 1 1 
117 20 3938 1 1 1 1 1 0 1 0 1 1 1 0 1 1 1 0 1 1 1 1 
118 20 4272 1 1 0 1 1 0 1 0 1 0 1 1 0 1 1 1 1 1 1 1 
119 20 5702 0 1 1 1 1 1 1 1 1 1 1 0 1 1 1 0 1 1 0 1 
120 20 4831 1 1 1 1 1 1 1 1 1 0 1 1 1 0 0 1 1 0 1 1 
121 20 4918 0 1 1 1 1 1 1 1 1 1 1 1 1 1 0 0 0 1 1 1 
122 20 5333 1 1 1 1 1 1 0 0 0 1 1 1 0 1 1 1 1 1 1 1 
123 20 5008 1 1 1 1 0 1 1 1 1 1 1 1 1 1 1 1 0 0 1 0 
124 20 5090 1 1 1 1 1 1 1 1 1 1 0 1 0 1 1 0 0 1 1 1 
125 20 5086 1 0 1 1 1 1 0 1 1 1 1 1 1 1 0 0 1 1 1 1 
126 20 4705 1 1 1 1 0 0 0 1 1 1 1 1 1 1 1 0 1 1 1 1 
127 20 4850 1 1 0 1 0 1 1 0 1 1 1 1 1 0 1 1 1 1 1 1 
128 20 4964 0 1 0 1 1 1 1 0 0 1 1 1 1 1 1 1 1 1 1 1 
129 20 5048 1 1 1 1 1 1 1 1 1 1 0 0 1 1 0 1 1 1 1 0 
130 20 5374 1 1 1 1 1 1 1 1 1 1 1 1 1 0 1 1 0 0 0 1 
131 20 3942 1 0 1 1 1 1 0 1 1 0 1 1 1 1 1 1 0 1 1 1 
132 20 5044 1 1 1 1 1 1 0 0 1 1 0 1 1 1 1 1 1 0 1 1 
133 20 4776 0 0 1 1 1 1 1 1 1 1 1 1 0 1 1 1 0 1 1 1 
134 20 5189 1 0 1 1 1 1 0 1 1 1 1 1 1 0 1 1 0 1 1 1 
135 20 4753 1 1 0 1 1 0 1 1 0 1 1 1 1 1 0 1 1 1 1 1 
136 20 5892 0 1 1 0 0 1 1 1 1 1 1 1 1 1 0 1 1 1 1 1 
137 20 5513 1 1 1 1 1 1 1 1 1 1 0 1 1 0 1 1 0 1 1 0 
138 20 4692 1 1 1 1 1 1 1 0 1 1 1 0 1 0 1 1 1 1 1 0 
139 20 3896 1 1 0 1 1 1 1 1 1 1 0 1 0 1 1 1 1 1 0 1 
140 20 3627 0 1 1 1 1 1 0 1 1 1 0 1 1 1 1 1 0 1 1 1 
141 20 4964 1 0 1 1 1 1 1 1 1 0 1 0 1 0 1 1 1 1 1 0 
142 20 4463 1 1 1 1 1 1 1 0 0 1 1 1 0 1 0 1 1 1 1 1 
143 20 4072 1 1 1 0 1 1 0 1 0 1 1 1 1 0 1 1 1 0 1 1 
144 20 4790 1 0 1 1 1 1 1 1 0 1 1 1 1 0 0 1 1 1 1 1 
145 20 4175 1 1 1 1 1 1 1 1 0 1 1 0 1 0 1 1 1 0 1 1 
146 20 5372 1 1 1 1 1 1 0 1 1 1 1 1 1 0 1 1 0 1 0 1 
147 20 4484 1 0 1 1 1 1 1 1 1 1 0 1 1 1 1 0 0 1 1 1 
148 20 5507 1 1 1 0 0 1 1 1 1 1 1 1 1 1 1 1 1 1 0 0 
149 20 4584 0 0 1 1 1 0 1 1 1 1 1 1 1 0 1 1 1 1 1 1 
150 20 5193 1 1 1 1 0 1 1 1 1 0 1 1 1 1 1 1 0 0 1 1 
151 20 4216 1 1 1 1 1 1 0 0 0 1 0 1 1 0 1 1 1 1 1 1 
152 20 3938 1 1 1 1 1 1 1 1 1 1 1 1 0 1 0 1 1 0 1 0 
153 20 4109 1 1 1 1 1 1 1 1 0 1 1 1 1 1 1 1 0 0 1 0 
154 20 4604 0 1 1 0 0 1 1 1 1 0 1 1 1 1 1 1 1 1 1 1 
155 20 4418 1 1 1 1 0 0 1 1 1 0 1 0 1 1 1 1 1 1 1 1 
156 20 5305 0 1 1 1 1 1 1 1 1 1 1 1 1 0 1 0 1 1 1 0 
157 20 4339 1 0 1 1 0 1 1 1 1 1 1 1 1 1 1 1 0 0 1 1 
158 20 4371 1 0 0 0 1 1 1 1 1 1 1 1 1 1 1 1 1 0 1 1 
159 20 4360 1 1 1 1 1 1 1 1 1 1 0 1 1 0 0 1 1 1 0 1 
160 20 3623 0 1 1 1 1 0 1 0 1 1 0 1 1 1 1 1 1 1 1 0 
161 20 4931 0 1 1 1 0 1 1 1 1 0 1 1 1 1 1 1 0 1 1 1 
162 20 4643 1 1 1 1 0 1 0 1 1 1 1 1 1 0 1 1 1 0 1 1 
163 20 4611 1 1 1 0 1 0 1 1 0 1 1 1 1 1 1 1 0 1 1 0 
164 20 4664 1 1 0 1 1 1 1 1 0 1 1 0 1 1 1 0 1 1 1 1 
165 20 5553 1 0 1 1 1 0 1 1 1 1 0 1 0 1 1 1 1 1 1 1 
166 20 3254 1 1 1 1 0 0 1 1 1 1 1 1 1 1 1 1 1 0 0 1 
167 20 4690 1 0 1 1 1 0 1 1 1 1 1 1 1 0 1 1 1 1 0 1 
168 20 4172 1 1 0 1 1 0 1 1 0 1 1 1 1 1 1 1 1 0 1 1 
169 20 4520 1 1 1 1 1 1 0 0 0 1 1 1 1 1 1 1 1 0 1 0 
170 20 4962 0 1 1 1 1 1 0 1 1 1 1 1 0 1 0 1 1 1 1 1 
171 20 4606 0 1 1 0 1 1 1 1 1 1 1 1 1 1 1 1 1 0 1 0 
172 20 5316 1 1 1 0 1 1 1 1 1 0 1 1 1 1 1 1 0 1 1 0 
173 20 5311 1 1 1 1 0 0 1 1 0 0 1 1 1 1 1 1 1 1 1 1 
174 20 4512 1 1 1 1 1 1 1 1 1 1 0 1 1 1 1 1 0 0 0 1 
175 20 4851 1 1 1 1 0 1 1 0 0 1 0 1 1 1 1 1 1 1 1 1 
176 20 5123 1 0 1 1 1 1 1 0 1 1 1 1 1 1 1 0 0 1 1 1 
177 20 4757 1 1 1 0 1 1 0 0 1 1 1 1 1 1 1 0 0 1 1 1 
178 20 4263 0 1 1 1 1 1 1 0 1 1 0 1 1 1 0 1 1 1 1 1 
179 20 4735 1 1 0 0 1 1 1 1 1 1 1 1 1 0 1 1 1 1 0 1 
180 20 4981 1 0 1 1 0 0 1 1 1 1 1 1 1 0 1 1 1 1 1 1 
181 20 3835 0 1 1 0 1 0 1 1 1 1 1 1 0 1 1 1 1 1 1 1 
182 20 5145 1 0 0 1 1 0 1 1 1 1 1 1 0 1 1 1 1 1 1 1 
183 20 5147 1 1 1 1 1 0 1 1 0 1 1 0 1 1 1 0 1 1 1 1 
184 20 5135 1 0 1 1 1 0 1 1 1 1 0 1 1 1 1 1 1 1 0 1 
185 20 4616 1 1 1 0 1 1 1 1 1 1 1 1 0 0 1 0 1 1 1 1 
186 20 4722 1 1 1 1 1 1 1 0 1 1 0 1 1 1 1 1 0 0 1 1 
187 20 4060 1 1 1 0 1 1 0 1 1 1 1 0 0 1 1 1 1 1 1 1 
188 20 5082 1 1 1 1 1 1 1 0 1 0 1 0 1 1 1 1 0 1 1 1 
189 20 4712 1 1 0 1 1 1 0 1 1 1 1 1 1 1 0 1 1 1 0 1 
190 20 4799 1 1 1 1 1 1 1 1 0 1 0 1 1 0 1 1 1 1 1 0 
191 20 4727 0 1 0 1 1 1 0 0 1 1 1 1 0 1 1 1 1 1 1 1 
192 20 4790 1 1 1 1 1 1 1 0 1 0 1 1 1 0 1 1 0 1 1 1 
193 20 4616 1 1 1 1 0 1 1 1 1 1 1 1 1 1 1 0 0 1 1 0 
194 20 3813 0 0 1 1 1 1 1 1 1 0 1 1 1 1 1 1 0 1 1 1 
195 20 4037 1 1 1 0 0 1 1 1 1 1 1 1 1 1 1 1 0 1 0 1 
196 20 4575 1 1 1 0 1 1 0 1 1 1 1 1 1 1 1 1 0 1 0 1 
197 20 4686 1 1 1 1 1 1 1 1 1 1 1 1 0 1 0 1 1 1 0 0 
198 20 5464 1 0 1 1 1 1 1 0 1 1 1 1 0 1 0 1 1 1 1 1 
199 20 3750 1 1 1 1 0 1 0 1 1 1 1 1 1 1 1 1 0 1 1 0 
200 20 4854 1 1 1 1 1 1 1 1 1 1 1 1 0 0 1 1 1 1 0 0 
201 20 5485 1 1 1 1 1 1 1 1 0 1 1 0 1 0 1 1 1 1 0 1 
202 20 4695 0 1 1 1 1 1 1 1 1 1 1 1 0 1 1 1 0 1 0 1 
203 20 3912 1 1 1 1 1 1 0 1 1 1 0 0 1 1 0 1 1 1 1 1 
204 20 4875 1 1 1 1 1 1 1 1 1 1 0 0 1 1 0 1 1 0 1 1 
205 20 4995 1 1 1 1 1 1 1 1 1 1 0 0 1 1 1 1 1 1 0 0 
206 20 4378 1 1 1 1 1 1 1 1 0 1 1 1 1 1 0 0 0 1 1 1 
207 20 4586 1 1 0 1 1 0 1 1 1 0 1 1 1 1 0 1 1 1 1 1 
208 20 4308 1 0 0 1 1 1 1 1 1 1 1 1 1 1 1 1 0 0 1 1 
209 20 3620 1 1 1 1 0 1 1 1 0 0 1 1 1 1 1 1 0 1 1 1 
210 20 5818 1 1 1 0 1 1 1 1 1 1 1 1 1 1 0 1 1 1 0 0 
211 20 4780 1 1 1 1 1 1 0 1 1 1 0 1 0 1 1 1 0 1 1 1 
212 20 4585 1 1 1 0 1 1 1 0 1 1 0 1 1 1 1 1 0 1 1 1 
213 20 5093 1 1 1 1 1 1 1 0 1 1 0 0 1 1 0 0 1 1 1 1 
214 20 5011 1 1 1 1 0 1 1 1 1 0 1 1 1 1 1 1 1 1 0 0 
215 20 4415 1 1 1 1 1 1 1 1 0 1 1 1 0 1 0 1 0 1 1 1 
216 20 5669 0 1 1 1 1 0 1 0 1 1 1 1 1 1 0 1 1 1 1 1 
217 20 4180 1 1 1 0 0 1 1 1 1 1 1 1 1 1 1 0 0 1 1 1 
218 20 4906 0 1 1 1 1 1 1 0 1 1 1 1 1 1 1 1 0 1 1 0 
219 20 4212 1 1 1 1 0 0 1 1 1 0 1 1 1 1 0 1 1 1 1 1 
220 20 4692 1 1 1 1 1 0 1 1 0 1 1 1 1 0 1 0 1 1 1 1 
221 20 3613 0 1 1 0 1 1 0 0 1 1 1 1 1 1 1 1 1 1 1 1 
222 20 4729 0 0 1 1 0 0 1 1 1 1 1 1 1 1 1 1 1 0 1 1 
223 20 3956 1 1 1 1 1 1 0 1 1 1 1 0 1 1 0 1 1 1 1 0 
224 20 3170 1 1 1 0 0 1 1 1 1 1 1 0 1 1 1 1 1 0 1 1 
225 20 4541 1 1 0 1 1 0 1 1 1 1 0 1 1 0 1 1 1 1 1 1 
226 20 5392 1 0 1 1 1 1 0 1 1 1 1 1 0 1 1 1 1 0 1 1 
227 20 4889 0 1 1 1 1 1 0 0 1 1 1 1 0 1 1 1 1 1 1 1 
228 20 4867 0 1 1 1 0 1 0 1 1 1 1 1 1 1 1 1 0 1 1 1 
229 20 4417 1 1 0 0 1 1 1 1 0 1 1 1 1 1 1 1 1 0 1 1 
230 20 4507 1 0 0 1 1 1 1 1 1 1 1 1 1 0 1 0 1 1 1 1 
231 20 3827 1 1 1 1 1 1 1 1 1 1 0 1 1 1 0 0 1 1 0 1 
232 20 4220 1 0 1 1 1 1 0 0 1 1 0 1 0 1 1 1 1 1 1 1 
233 20 4885 1 1 1 1 0 1 0 1 0 1 1 1 1 1 1 0 1 1 1 1 
234 20 5237 1 1 1 0 1 1 1 0 1 0 1 1 1 1 1 1 1 1 1 0 
235 20 4546 1 1 1 0 0 1 1 0 0 1 1 1 1 1 1 1 1 1 1 1 
236 20 5474 1 1 1 1 1 1 1 1 1 1 0 1 0 0 1 1 0 1 1 1 
237 20 4824 1 1 1 1 1 1 0 1 1 0 1 1 1 1 0 0 1 1 1 1 
238 20 5037 1 1 1 1 1 0 0 1 1 0 1 1 0 1 1 1 1 1 1 1 
239 20 4802 1 1 0 1 1 0 0 1 1 1 1 1 1 1 1 1 1 1 1 0 
240 20 4467 1 0 1 1 1 1 1 1 0 1 1 1 0 1 1 1 0 1 1 1 
241 20 5354 0 0 0 1 1 1 1 1 1 1 1 1 1 0 1 1 1 1 1 1 
242 20 4426 1 1 1 1 1 1 1 1 1 1 1 1 1 0 1 0 1 0 0 1 
243 20 5386 0 1 1 1 1 1 1 1 1 0 1 1 0 1 1 1 0 1 1 1 
244 20 4961 0 1 1 1 0 1 1 0 1 1 1 1 1 1 1 1 1 1 1 0 
245 20 3966 1 1 1 1 1 1 1 0 1 0 1 1 0 0 1 1 1 1 1 1 
246 20 4570 1 1 1 1 0 1 0 1 1 1 1 1 1 0 1 1 1 1 1 0 
247 20 4681 1 1 1 1 0 0 1 1 1 0 1 1 1 1 1 1 0 1 1 1 
248 20 5737 0 1 1 0 1 1 0 1 1 1 1 1 1 1 1 0 1 1 1 1 
249 20 4518 1 0 0 1 1 0 1 1 1 1 1 1 1 1 1 0 1 1 1 1 
250 20 4695 1 0 1 1 0 1 1 1 1 1 1 1 1 1 1 0 1 0 1 1 
251 20 5904 1 1 1 1 1 0 1 1 1 1 0 1 1 1 1 1 0 0 1 1 
252 20 4985 0 1 1 1 1 1 1 1 0 0 1 1 1 1 1 0 1 1 1 1 
253 20 5418 1 1 1 1 0 1 1 1 1 1 1 1 1 1 0 0 1 0 1 1 
254 20 5772 1 1 1 1 0 1 1 0 1 1 0 1 1 1 1 1 1 1 1 0 
255 20 4664 1 1 1 0 1 0 1 1 1 1 1 1 1 1 1 1 0 1 1 0 
256 20 5017 0 0 0 1 1 1 1 1 1 1 1 1 1 1 1 1 0 1 1 1 
257 20 3347 1 1 1 0 1 1 0 1 0 1 1 1 1 1 1 0 1 0 1 1 
258 20 4331 0 1 0 1 0 1 1 1 1 0 1 1 1 1 1 1 1 1 1 1 
259 20 6299 1 1 1 1 1 1 1 1 1 1 1 0 1 1 1 0 0 1 1 0 
260 20 4313 1 1 1 0 1 1 1 1 1 1 0 1 1 1 0 1 1 1 0 1 
261 20 5034 1 0 1 1 0 1 0 1 1 0 1 1 1 1 1 1 1 1 1 1 
262 20 4374 1 1 1 0 1 1 1 1 1 1 1 1 0 1 1 1 1 1 0 0 
263 20 4970 1 1 1 0 1 1 1 1 0 1 1 1 1 1 0 1 0 1 1 1 
264 20 4379 1 0 1 1 1 0 1 0 1 1 0 1 1 1 1 1 1 1 1 1 
265 20 4549 1 1 0 0 1 0 1 1 1 1 1 1 0 1 1 1 1 1 1 1 
266 20 4444 1 1 1 1 1 1 1 0 1 1 1 1 1 1 1 0 0 1 0 1 
267 20 5255 1 1 1 1 0 0 1 1 1 0 0 1 1 1 1 1 1 1 1 1 
268 20 5308 1 1 0 1 1 1 1 1 0 0 1 1 1 1 0 1 1 1 1 1 
269 20 5252 1 1 1 0 1 1 1 0 0 1 1 1 1 1 1 1 1 1 0 1 
270 20 4451 1 0 1 1 1 1 0 1 0 0 1 1 1 1 1 1 1 1 1 1 
271 20 3830 0 1 0 1 1 1 1 1 1 0 1 1 1 1 0 1 0 1 1 1 
272 20 5365 1 1 1 1 1 0 1 1 1 0 1 1 0 1 1 1 1 0 1 1 
273 20 4861 1 1 1 1 1 1 0 1 1 0 0 1 1 0 1 1 1 1 1 0 
274 20 5165 1 1 0 1 1 1 0 1 1 1 0 1 1 0 1 1 1 1 1 1 
275 20 5132 1 1 1 1 1 1 1 1 1 1 1 1 1 0 1 1 0 0 0 1 
276 20 4957 1 1 1 0 1 1 1 1 1 1 0 1 1 0 1 1 1 1 0 1 
277 20 5162 0 1 0 1 1 1 1 0 1 1 0 1 1 1 1 1 1 1 1 1 
278 20 4384 1 1 1 0 1 1 1 1 1 1 0 0 1 1 1 1 1 0 1 1 
279 20 5256 1 1 1 1 1 1 1 1 0 1 1 0 1 1 1 1 0 1 0 1 
280 20 5057 1 1 1 0 1 1 1 1 1 1 1 1 0 1 1 0 1 0 1 1 
281 20 4037 0 1 1 1 1 1 1 0 1 1 1 1 1 1 0 0 1 1 1 1 
282 20 4934 1 1 1 1 1 1 1 1 1 1 0 0 1 0 1 1 1 1 1 0 
283 20 5107 1 1 1 0 1 1 1 1 0 1 1 0 1 0 1 1 1 1 1 1 
284 20 4567 1 1 1 1 1 1 1 1 1 0 1 0 1 1 1 1 1 0 0 1 
285 20 4296 1 1 1 1 0 1 1 0 1 1 1 1 1 0 1 1 1 1 0 1 
286 20 5534 1 1 0 1 1 1 1 0 1 1 1 1 1 0 1 1 1 1 1 0 
287 20 5063 0 1 1 0 0 1 1 1 1 1 1 1 1 1 1 1 1 1 0 1 
288 20 4908 1 1 1 1 1 1 0 0 1 1 1 1 0 1 1 1 1 1 0 1 
289 20 4762 1 1 1 1 1 1 0 1 1 0 1 1 1 1 1 1 1 0 1 0 
290 20 4451 0 1 1 0 1 0 1 0 1 1 1 1 1 1 1 1 1 1 1 1 
291 20 4859 1 1 0 1 1 1 1 0 1 1 1 0 1 1 1 1 1 0 1 1 
292 20 3868 1 1 1 1 1 0 1 0 1 1 1 0 1 1 1 1 1 0 1 1 
293 20 4758 1 1 1 1 1 1 0 1 1 0 1 1 1 0 1 1 0 1 1 1 
294 20 4047 0 1 1 1 1 1 1 1 1 1 0 1 0 0 1 1 1 1 1 1 
295 20 4731 1 1 1 0 0 1 1 1 0 1 1 1 1 1 1 1 0 1 1 1 
296 20 4284 0 1 1 1 1 1 1 1 1 0 1 0 1 1 0 1 1 1 1 1 
297 20 4635 1 1 1 1 1 1 1 1 0 1 1 1 0 0 1 1 1 1 0 1 
298 20 3809 1 1 1 1 1 1 1 1 0 1 1 1 1 1 1 1 0 0 1 0 
299 20 5154 0 0 1 1 1 1 1 1 1 1 1 1 1 1 0 1 1 1 0 1 
300 20 4813 1 1 1 1 1 0 0 0 1 1 1 1 1 1 1 1 1 0 1 1 
301 20 5396 1 1 1 1 1 1 0 1 1 0 1 0 1 1 1 1 0 1 1 1 
302 20 4514 1 1 0 1 1 1 0 0 1 1 1 1 1 1 0 1 1 1 1 1 
303 20 5649 1 1 1 1 1 1 1 1 0 1 0 1 0 1 1 1 1 0 1 1 
304 20 3990 1 0 0 1 1 1 1 1 1 1 1 0 0 1 1 1 1 1 1 1 
305 20 5159 1 1 1 1 1 1 0 1 0 1 1 0 0 1 1 1 1 1 1 1 
306 20 4301 1 0 0 1 1 1 1 1 0 1 1 1 1 1 1 1 0 1 1 1 
307 20 5060 1 1 1 1 0 1 1 0 1 1 1 1 1 0 1 1 1 1 1 0 
308 20 3882 1 1 1 1 1 1 1 1 1 0 0 1 1 0 1 1 1 0 1 1 
309 20 4011 1 1 1 1 1 1 1 0 1 0 1 0 1 1 1 1 1 1 1 0 
310 20 4447 1 0 1 1 1 1 1 1 0 0 1 1 1 1 1 1 1 1 1 0 
311 20 4433 1 1 1 1 1 0 1 1 0 1 1 1 0 1 0 1 1 1 1 1 
312 20 4645 1 0 1 1 1 0 1 1 1 1 1 0 1 1 1 1 1 1 1 0 
313 20 5059 1 1 0 1 1 1 1 0 1 1 1 1 1 1 0 1 1 1 1 0 
314 20 4092 0 1 1 1 1 1 0 0 1 1 1 1 1 1 1 1 1 0 1 1 
315 20 4876 0 1 1 1 1 1 1 0 1 1 1 1 1 1 1 1 1 0 1 0 
316 20 4657 1 1 0 0 1 1 1 1 0 1 1 1 1 1 1 0 1 1 1 1 
317 20 4278 1 1 1 0 1 1 1 0 1 1 1 1 0 1 0 1 1 1 1 1 
318 20 4630 1 0 1 0 1 1 1 0 0 1 1 1 1 1 1 1 1 1 1 1 
319 20 4476 1 1 1 1 0 1 0 1 1 1 0 1 1 1 1 1 0 1 1 1 
320 20 4087 1 0 1 1 1 1 1 0 1 1 1 1 1 1 1 0 1 1 0 1 
321 20 5435 1 1 1 0 1 1 1 0 1 1 1 1 1 1 1 0 0 1 1 1 
322 20 4260 0 1 1 1 1 1 1 0 0 1 1 1 1 0 1 1 1 1 1 1 
323 20 4427 1 0 1 1 0 1 1 1 1 1 1 1 1 1 1 1 0 1 0 1 
324 20 4447 1 1 1 1 0 0 1 1 1 1 0 1 0 1 0 1 1 1 1 1 
325 20 4465 0 1 0 1 1 0 1 1 1 1 1 1 0 1 1 1 1 0 1 1 
326 20 4964 1 1 1 1 0 0 0 1 1 1 0 1 1 1 1 1 1 1 1 1 
327 20 4894 1 1 1 1 1 1 1 0 1 0 1 1 1 1 0 1 1 0 1 1 
328 20 3686 1 0 1 1 1 1 1 0 1 1 1 0 0 1 1 1 1 1 1 1 
329 20 4279 1 1 1 1 1 1 1 1 1 0 0 1 1 1 1 0 1 1 0 1 
330 20 5595 1 0 1 1 0 1 1 0 1 1 1 1 1 1 1 0 1 1 1 1 
331 20 4462 1 1 1 1 1 1 0 1 1 1 1 0 1 1 1 1 0 0 1 1 
332 20 5044 1 0 1 1 1 1 1 1 1 0 1 1 1 1 1 0 0 1 1 1 
333 20 5707 1 1 0 0 1 1 1 1 1 1 1 1 0 1 1 1 1 0 1 1 
334 20 4033 0 1 1 1 1 1 0 1 1 1 1 1 0 1 1 1 0 1 1 1 
335 20 5420 1 0 0 1 1 1 1 1 1 1 1 1 1 1 1 1 0 1 1 0 
336 20 5988 0 1 1 1 1 0 1 1 1 1 0 1 1 0 1 1 1 1 1 1 
337 20 4427 1 0 1 1 0 1 1 1 1 1 1 1 0 1 1 1 1 1 1 0 
338 20 3871 1 0 1 1 0 1 1 0 1 1 1 1 1 1 1 1 1 0 1 1 
339 20 4786 1 0 1 1 1 1 1 1 1 0 0 1 1 1 1 0 1 1 1 1 
340 20 3904 1 1 1 1 1 1 1 1 1 1 1 0 1 0 1 1 0 0 1 1 
341 20 4624 0 0 1 1 1 0 1 0 1 1 1 1 1 1 1 1 1 1 1 1 
342 20 5138 1 1 0 1 1 1 1 0 1 1 1 1 0 0 1 1 1 1 1 1 
343 20 5212 1 1 1 1 1 1 1 0 0 0 0 1 1 1 1 1 1 1 1 1 
344 20 5602 1 1 1 0 1 0 1 1 1 1 1 1 1 1 1 1 0 0 1 1 
345 20 4637 1 0 1 1 1 1 1 1 1 1 1 1 1 0 0 1 1 0 1 1 
346 20 5526 1 1 0 1 1 1 1 1 1 0 1 1 1 1 1 1 1 0 0 1 
347 20 4387 1 0 1 1 1 1 1 1 0 1 1 1 1 0 1 1 1 0 1 1 
348 20 5429 1 1 1 0 1 0 1 1 1 1 1 1 0 1 1 1 1 0 1 1 
349 20 4664 1 1 1 1 1 1 1 1 1 1 1 1 1 0 0 0 1 0 1 1 
350 20 4229 1 1 1 0 1 1 1 1 1 1 1 1 1 1 1 0 0 1 0 1 
351 20 5833 1 1 1 1 1 1 1 1 0 1 0 1 0 1 1 1 1 1 1 0 
352 20 4420 1 1 1 1 1 1 1 0 0 1 1 1 0 1 1 1 1 1 1 0 
353 20 4443 1 1 1 1 0 1 1 1 0 1 1 1 1 1 0 1 0 1 1 1 
354 20 4983 1 1 1 1 1 1 1 1 1 1 1 1 0 1 0 1 1 0 0 1 
355 20 5412 0 1 1 1 1 1 0 1 1 0 1 1 1 0 1 1 0 1 1 1 
356 20 4214 0 1 1 1 1 1 1 1 1 0 1 0 1 1 1 0 1 1 1 1 
357 20 5140 1 1 1 1 1 0 1 0 1 1 1 0 1 1 1 0 1 1 0 1 
358 20 5415 0 1 1 1 1 1 1 1 1 1 1 1 1 1 0 0 1 0 1 1 
359 20 4678 1 0 0 1 1 1 1 1 0 1 1 1 1 1 1 1 0 1 1 1 
360 20 4674 1 0 1 0 1 0 1 1 1 1 1 1 1 1 0 1 1 1 1 1 
361 20 5202 1 1 1 1 1 1 0 1 1 1 1 0 1 1 0 1 1 0 1 1 
362 20 4015 1 0 1 0 1 1 1 1 1 1 1 0 1 1 1 1 1 1 1 0 
363 20 4954 1 1 1 1 1 1 1 1 0 1 1 1 0 0 1 1 0 1 1 1 
364 20 5521 1 1 1 1 1 1 0 1 1 1 1 1 1 0 1 0 1 0 1 1 
365 20 3626 1 1 1 1 1 0 1 1 1 1 1 1 0 0 1 1 1 1 1 0 
366 20 6015 1 1 1 1 1 0 1 1 1 1 0 1 1 1 1 1 0 1 1 0 
367 20 5524 1 0 1 0 1 1 1 1 1 1 1 1 0 1 1 1 1 1 1 0 
368 20 4204 0 1 1 1 1 0 1 1 1 1 1 1 1 0 1 1 1 1 0 1 
369 20 4626 1 1 0 1 1 1 1 1 1 1 1 1 0 0 1 1 1 1 0 1 
370 20 5263 0 1 1 1 1 1 1 0 1 1 1 1 0 0 1 1 1 1 1 1 
371 20 4060 1 1 0 1 1 1 1 1 1 1 0 1 1 1 1 0 0 1 1 1 
372 20 4461 1 1 1 1 1 1 0 1 1 1 1 1 0 0 1 1 1 1 1 0 
373 20 4771 1 1 1 0 1 1 0 1 0 1 0 1 1 1 1 1 1 1 1 1 
374 20 4497 1 1 1 0 1 1 1 1 1 1 1 1 1 1 1 0 0 1 0 1 
375 20 4602 0 1 1 0 0 1 0 1 1 1 1 1 1 1 1 1 1 1 1 1 
376 20 6130 0 0 1 1 1 1 0 1 1 1 1 1 1 1 0 1 1 1 1 1 
377 20 5512 1 1 1 1 1 1 0 0 1 1 1 1 1 1 0 1 0 1 1 1 
378 20 5435 1 1 1 0 1 1 1 1 1 1 0 1 1 1 0 1 1 1 0 1 
379 20 4041 1 0 1 0 1 1 0 0 1 1 1 1 1 1 1 1 1 1 1 1 
380 20 5334 0 1 1 1 1 1 0 1 1 1 1 1 1 1 0 1 0 1 1 1 
381 20 4507 0 0 1 1 1 0 1 1 1 1 1 1 1 1 1 0 1 1 1 1 
382 20 3552 1 1 0 1 1 1 0 1 1 1 1 1 1 1 1 0 1 1 1 0 
383 20 3371 1 1 1 0 1 1 1 1 1 1 1 0 1 0 1 1 1 1 1 0 
384 20 4727 1 1 1 1 1 1 0 1 1 0 1 1 1 1 0 1 0 1 1 1 
385 20 3754 1 1 1 1 1 1 1 0 0 1 1 1 1 1 1 0 1 1 1 0 
386 20 5488 1 0 1 1 1 1 1 1 0 1 0 1 1 1 1 1 0 1 1 1 
387 20 4897 1 1 0 1 1 1 0 1 1 1 1 0 1 1 1 0 1 1 1 1 
388 20 4532 1 1 0 1 1 1 1 1 1 1 1 0 1 0 1 1 1 1 1 0 
389 20 5120 1 1 1 0 1 1 1 1 1 0 1 1 1 1 1 1 1 1 0 0 
390 20 5012 1 0 1 1 1 1 1 0 1 1 1 1 1 1 1 1 0 0 0 1 
391 20 4522 1 1 1 1 1 1 1 1 0 1 1 1 1 0 1 0 1 1 1 0 
392 20 3951 1 0 1 1 1 0 0 1 1 1 1 1 1 1 1 1 1 1 1 0 
393 20 4414 0 1 1 1 1 0 1 1 1 1 1 1 1 0 1 1 0 1 0 1 
394 20 5354 1 1 1 1 1 0 1 1 1 1 0 1 1 1 1 1 0 1 0 1 
395 20 4314 0 1 1 1 1 1 1 1 1 1 0 1 1 0 1 1 1 1 1 0 
396 20 5319 0 1 1 1 1 1 1 1 0 1 1 1 1 0 1 1 1 1 0 1 
397 20 4831 1 1 1 1 1 1 1 1 1 1 0 1 1 1 1 0 1 0 0 1 
398 20 3765 1 0 1 1 1 1 1 0 1 1 1 1 1 1 0 1 0 1 1 1 
399 20 4266 1 0 0 1 1 1 1 1 1 1 1 1 0 1 0 1 1 1 1 1 
400 20 4809 1 1 1 0 1 0 1 1 1 1 1 1 1 1 0 0 1 1 1 1 
401 20 5091 1 1 0 1 1 1 1 1 1 0 1 1 1 1 1 1 0 1 1 0 
402 20 4326 1 1 1 1 1 1 0 1 1 1 1 1 1 1 0 1 1 1 0 0 
403 20 4346 1 0 1 1 0 0 1 1 0 1 1 1 1 1 1 1 1 1 1 1 
404 20 5390 1 1 1 0 1 0 1 1 1 1 1 1 1 1 0 0 1 1 1 1 
405 20 5514 0 1 1 1 1 1 1 1 1 0 1 1 1 1 1 0 0 1 1 1 
406 20 5361 1 1 1 0 1 1 1 1 1 1 1 1 0 1 0 0 1 1 1 0 
407 20 4425 1 1 0 1 1 1 1 0 1 1 1 1 1 0 1 0 1 1 1 1 
408 20 4992 0 1 1 1 1 1 0 1 1 1 1 1 1 1 1 1 0 1 1 0 
409 20 5370 1 1 1 1 1 1 1 1 1 0 1 1 1 0 0 1 1 0 1 1 
410 20 5301 1 1 1 1 1 1 0 1 1 0 1 1 0 1 0 1 1 1 1 1 
411 20 3514 0 0 0 1 1 1 1 1 1 0 1 1 1 1 1 1 1 1 1 1 
412 20 5393 1 1 1 1 0 1 1 1 1 1 1 1 1 0 1 0 1 1 0 1 
413 20 4595 1 0 0 1 1 0 1 1 1 1 1 1 1 1 1 1 1 1 1 0 
414 20 4278 1 1 1 1 0 1 1 1 1 0 1 1 1 0 0 1 1 1 1 1 
415 20 4612 1 1 1 1 1 1 1 1 1 0 1 1 1 0 1 1 1 0 1 0 
416 20 4919 1 1 0 1 1 1 1 1 1 1 1 0 0 1 1 1 0 1 1 1 
417 20 4581 0 1 1 1 0 1 1 1 1 1 0 1 1 0 1 1 1 1 1 1 
418 20 4113 1 1 0 0 1 1 1 1 1 1 1 1 0 1 1 1 0 1 1 1 
419 20 4480 0 1 1 1 0 1 1 1 0 1 1 1 0 1 1 1 1 1 1 1 
420 20 5163 1 1 1 1 0 1 1 1 1 1 0 1 1 0 1 0 1 1 1 1 
421 20 4140 1 0 1 1 0 1 1 1 1 1 1 1 1 0 1 1 1 1 0 1 
422 20 3862 1 1 0 1 0 1 1 1 0 0 1 1 1 1 1 1 1 1 1 1 
423 20 4747 1 1 0 0 0 1 1 1 1 1 1 1 1 0 0 1 1 1 1 1 
424 20 4029 1 1 1 1 0 0 1 1 0 1 1 1 0 1 1 1 1 1 1 1 
425 20 5011 1 1 0 0 1 0 1 1 1 0 1 1 1 1 1 1 1 1 1 1 
426 20 5347 1 0 1 1 0 1 0 1 1 1 1 1 1 1 1 1 0 1 1 1 
427 20 4605 1 0 1 1 1 1 0 1 1 1 1 0 0 1 1 1 1 1 1 1 
428 20 4713 1 1 1 1 1 1 0 0 1 1 1 1 1 1 0 0 1 1 1 1 
429 20 4625 1 1 1 1 1 0 1 1 0 1 1 1 1 1 1 1 0 0 1 1 
430 20 4624 1 1 0 0 1 0 1 1 1 1 1 1 1 1 1 1 0 1 1 1 
431 20 4967 1 0 1 0 0 1 1 1 1 1 1 1 1 0 1 0 1 1 1 1 
432 20 5070 1 1 1 0 0 1 0 1 0 1 1 1 1 1 1 1 1 1 1 1 
433 20 4982 1 0 1 1 1 1 1 0 1 1 0 1 1 1 1 1 1 1 0 1 
434 20 4449 0 1 1 1 1 1 1 1 1 1 1 0 1 1 0 0 1 1 1 1 
435 20 5273 1 1 1 1 0 0 1 1 1 1 1 0 1 0 1 1 1 1 1 1 
436 20 4346 1 1 1 1 1 1 0 1 0 1 1 1 1 1 1 1 1 0 0 1 
437 20 4049 1 1 0 1 1 1 1 1 1 0 1 1 1 1 0 1 0 1 1 1 
438 20 5302 1 1 1 1 1 1 1 1 0 0 1 0 1 1 1 1 0 1 1 1 
439 20 5410 1 0 1 1 1 0 1 0 1 0 1 1 1 1 1 1 1 1 1 1 
440 20 5325 1 1 1 1 1 1 1 0 1 0 1 1 1 0 1 0 1 1 1 1 
441 20 4986 0 1 1 1 1 1 1 1 1 0 0 1 1 1 1 1 1 1 1 0 
442 20 5391 0 1 1 1 0 1 1 1 1 1 1 1 1 1 1 0 1 1 1 0 
443 20 4466 1 1 1 1 0 1 0 0 1 1 1 1 1 0 1 1 1 1 1 1 
444 20 4427 1 1 1 1 1 1 0 1 1 1 1 1 1 1 1 0 0 1 0 1 
445 20 5451 1 0 1 1 1 1 1 1 1 1 0 0 1 1 1 1 1 1 0 1 
446 20 4303 1 1 1 0 1 1 1 0 1 0 1 1 1 1 1 1 1 1 0 1 
447 20 5123 1 1 1 0 1 1 1 0 0 1 1 1 1 1 1 1 1 1 1 0 
448 20 5217 1 0 1 1 0 1 0 1 1 0 1 1 1 1 1 1 1 1 1 1 
449 20 5174 1 1 0 1 1 1 1 1 1 0 1 1 1 1 1 0 1 1 0 1 
450 20 4334 1 0 1 1 1 1 0 1 1 1 1 1 1 1 0 1 1 1 0 1 
451 20 5172 1 1 1 1 1 1 1 1 1 1 1 1 0 0 0 0 1 1 1 1 
452 20 3969 1 1 0 0 1 1 0 0 1 1 1 1 1 1 1 1 1 1 1 0 
453 20 5292 1 0 0 1 1 1 0 1 1 1 1 1 1 1 1 0 1 1 1 1 
454 20 4270 1 1 1 1 0 1 1 1 1 1 0 1 1 1 1 1 0 1 0 1 
455 20 4389 0 1 1 0 0 1 1 1 1 1 0 0 1 1 1 1 1 1 1 1 
456 20 4850 1 1 1 1 0 1 1 1 1 1 1 1 0 0 1 1 1 1 1 0 
457 20 4723 1 1 1 1 1 1 1 1 0 0 1 0 1 1 1 1 0 1 1 1 
458 20 4464 0 0 1 0 1 1 1 1 0 1 1 1 1 1 1 1 1 1 1 1 
459 20 4916 1 1 1 0 1 1 1 0 1 1 0 1 1 1 1 1 1 1 0 1 
460 20 4754 1 1 0 0 1 0 1 1 1 1 0 1 1 1 1 1 1 1 1 1 
461 20 5558 1 1 1 0 1 1 1 1 1 1 0 1 0 1 1 1 1 0 1 1 
462 20 5335 1 1 0 1 1 1 1 0 1 1 1 1 0 1 0 1 1 1 1 1 
463 20 4304 1 1 1 1 1 1 1 1 1 0 0 1 0 1 1 1 1 1 0 1 
464 20 4879 0 1 1 0 1 1 1 1 1 1 1 1 1 0 0 1 1 1 1 1 
465 20 5499 1 1 0 1 1 1 0 1 1 1 0 1 1 1 1 1 1 0 1 1 
466 20 4777 1 1 0 1 1 1 0 0 1 1 0 1 1 1 1 1 1 1 1 1 
467 20 5124 1 1 0 1 1 0 1 1 1 1 1 1 0 1 0 1 1 1 1 1 
468 20 4512 0 1 1 1 1 1 1 1 1 0 1 1 0 1 1 1 1 1 0 1 
469 20 3582 0 0 1 0 1 1 1 1 1 1 1 1 1 1 0 1 1 1 1 1 
470 20 4692 1 1 1 1 0 1 1 1 1 1 0 1 1 0 1 0 1 1 1 1 
471 20 4072 1 0 1 1 1 1 0 1 1 1 1 0 1 1 0 1 1 1 1 1 
472 20 3933 0 1 1 1 1 1 0 1 1 1 0 1 1 1 1 1 1 0 1 0 
473 20 4429 1 1 1 1 1 1 0 1 1 1 0 1 1 1 1 1 1 1 0 0 
474 20 5124 0 1 0 1 1 0 1 1 1 0 1 0 1 1 1 1 1 1 1 1 
475 20 5192 1 1 1 0 1 1 1 1 1 1 0 1 1 1 1 0 1 1 0 1 
476 20 5123 1 1 1 0 1 1 0 1 1 1 1 0 1 1 1 1 1 0 1 1 
477 20 4148 1 1 1 1 1 1 1 1 1 1 0 0 1 1 1 0 0 1 1 1 
478 20 5088 1 1 1 1 1 0 1 1 0 1 1 1 1 1 0 1 1 0 1 1 
479 20 4315 1 1 1 1 1 1 1 1 1 0 1 0 0 0 1 1 1 1 1 1 
480 20 5086 1 1 1 1 1 1 0 1 0 1 0 1 0 1 1 1 1 1 1 1 
481 20 4381 1 1 1 1 1 1 0 1 1 1 1 1 1 0 1 0 1 1 1 0 
482 20 4451 0 0 1 1 0 1 1 1 1 1 1 1 1 1 1 0 1 1 1 1 
483 20 4952 1 0 1 1 1 1 0 1 1 1 0 1 1 1 0 1 1 1 1 1 
484 20 5751 1 1 1 1 1 0 1 1 1 1 1 1 1 0 0 1 0 1 1 1 
485 20 5509 1 1 1 1 0 0 1 0 1 1 1 1 1 1 0 1 1 1 1 1 
486 20 5128 1 1 1 1 0 0 1 1 1 0 1 1 0 1 1 1 1 1 1 1 
487 20 5013 1 1 1 1 1 1 1 0 1 1 1 1 1 1 0 1 0 0 1 1 
488 20 5612 1 1 1 1 1 1 1 1 1 0 1 0 1 1 1 0 1 1 0 1 
489 20 5041 0 1 1 0 1 1 0 1 1 1 1 1 1 0 1 1 1 1 1 1 
490 20 4331 1 1 1 1 1 1 0 1 1 1 1 0 0 1 1 1 1 0 1 1 
491 20 4698 1 1 1 1 1 1 1 1 1 1 1 1 1 0 0 1 1 0 1 0 
492 20 5416 1 1 1 1 1 1 1 0 1 1 1 1 0 1 0 1 1 1 1 0 
493 20 5025 1 1 1 1 1 1 1 0 1 0 1 0 1 1 0 1 1 1 1 1 
494 20 5448 1 1 1 1 1 1 1 1 1 0 1 0 1 1 1 1 0 1 1 0 
495 20 4873 1 1 1 1 0 0 1 1 1 1 1 1 1 1 0 1 1 0 1 1 
496 20 5889 0 1 1 1 1 1 1 1 0 1 0 1 1 0 1 1 1 1 1 1 
497 20 4197 1 1 0 1 1 1 1 1 0 1 1 1 0 1 1 1 1 0 1 1 
498 20 4550 1 1 1 1 1 1 1 1 1 0 0 1 1 1 0 1 1 0 1 1 
499 20 4650 1 1 1 1 0 1 1 1 1 0 1 0 1 1 1 1 1 1 0 1 
500 20 4415 1 0 1 0 1 1 1 0 1 1 1 0 1 1 1 1 1 1 1 1 
