189
158
133
91
111
172
259
81
138
188
88
154
113
153
185
222
150
133
133
104
108
145
134
135
122
185
122
148
98
113
66
104
76
140
75
154
115
123
97
128
164
113
134
112
180
149
116
176
227
106
90
187
239
183
93
154
187
254
118
249
150
131
330
161
169
141
220
257
136
145
148
219
81
89
150
115
144
98
137
166
85
85
167
156
159
120
114
128
98
187
242
190
232
217
191
98
144
154
145
131
121
120
155
117
137
65
95
161
104
85
87
225
268
136
108
163
211
163
166
156
120
212
179
192
137
217
150
752
115
102
128
256
103
102
127
98
229
153
97
105
264
221
167
143
135
82
201
105
201
91
296
94
193
181
184
104
103
255
133
135
85
99
139
138
141
148
129
118
188
86
97
74
146
210
183
111
126
157
104
150
188
125
147
102
175
160
264
280
133
138
169
179
90
168
144
86
203
200
139
94
378
94
225
131
178
125
115
90
100
76
150
111
252
98
206
159
116
91
156
210
145
201
127
134
107
103
117
119
139
172
184
219
93
187
126
147
171
155
82
111
205
104
164
148
157
145
164
91
121
126
115
250
104
84
75
100
169
169
158
160
99
109
86
165
114
90
180
158
206
376
500
138
263
149
104
106
88
120
86
145
144
102
136
118
107
123
89
141
93
177
116
124
185
236
137
121
226
135
193
165
121
105
114
210
180
139
335
136
112
81
161
95
94
96
149
185
163
111
173
105
157
135
128
242
162
198
143
304
84
111
108
139
91
104
51
91
105
127
108
125
135
300
254
87
108
97
119
180
142
95
177
121
121
102
163
208
199
85
119
99
141
89
119
132
163
136
99
117
110
132
96
142
282
84
150
82
115
85
148
152
95
147
217
128
136
108
128
111
123
90
125
82
124
88
81
345
121
95
116
142
151
97
106
92
95
190
105
107
141
113
114
101
109
120
129
123
102
153
208
158
102
164
303
234
130
115
104
92
174
134
127
226
176
124
128
187
99
100
163
184
114
72
135
124
122
156
112
144
121
79
167
327
131
98
185
106
285
186
113
119
125
180
248
235
126
127
185
122
122
181
91
101
99
123
92
175
235
129
176
195
161
130
108
104
157
165
162
162
147
149
119
116
171
141
85
125
106
262
133
136
