1 20 12088 144 86 834 130 586 301 566 45 731 243 610 201 543 400 936 167 978 395 829 177 741 439 854 472 956 294 862 417 951 296 962 304 691 354 813 224 744 69 780 434
2 20 12718 768 165 740 475 666 161 982 398 731 420 484 388 773 443 904 392 948 63 676 445 919 318 660 288 657 172 980 321 853 155 933 495 705 259 875 212 943 455 701 92
3 20 12961 825 316 354 34 807 280 981 225 789 62 785 245 822 234 845 495 801 360 990 287 500 330 994 159 945 321 817 29 976 196 599 138 1000 3 788 449 982 1 602 387
4 20 13697 973 441 884 452 955 500 961 77 768 408 921 317 789 204 898 197 826 439 798 376 798 433 932 458 711 207 867 430 779 452 787 99 790 208 955 282 979 377 751 369
5 20 11704 863 431 576 67 617 91 452 358 451 310 530 384 724 263 568 489 931 38 593 65 749 142 869 425 820 369 913 115 906 279 849 124 973 210 948 449 612 62 687 79
6 20 13077 599 326 882 147 967 483 358 388 968 327 970 59 991 184 944 368 768 265 979 388 525 248 976 247 595 50 747 397 933 84 966 185 839 165 972 419 978 182 390 399
7 20 12416 457 268 756 197 857 383 983 229 834 424 674 210 720 150 851 339 951 27 914 369 946 436 965 178 578 111 736 432 533 457 425 75 921 252 989 466 787 488 643 368
8 20 12636 968 211 700 473 615 496 856 57 1000 3 780 26 401 318 919 392 919 245 648 456 670 257 623 90 998 158 879 279 895 26 906 272 515 98 949 158 880 198 675 94
9 20 13386 643 293 800 378 969 459 916 180 947 185 447 99 943 110 704 67 654 245 749 453 879 9 799 208 958 78 964 245 812 35 938 315 813 27 877 401 961 21 960 316
10 20 13203 952 19 868 21 849 436 879 346 940 210 918 271 840 92 884 138 726 274 809 204 675 285 886 76 638 249 711 312 982 403 415 279 951 101 941 499 775 185 865 25
11 20 12866 753 292 824 191 726 237 907 471 662 101 840 193 939 12 800 71 998 385 863 215 763 425 272 327 898 11 713 389 825 163 826 134 865 31 964 3 904 256 741 23
12 20 12572 991 105 637 448 843 364 989 380 961 351 869 447 780 41 625 225 713 359 550 272 863 373 880 30 799 445 538 480 674 16 992 324 607 420 626 336 798 465 981 165
13 20 12688 768 282 862 62 815 101 569 355 813 105 746 353 795 1 857 259 944 144 528 89 689 25 795 75 718 169 884 487 618 53 848 101 744 87 953 170 996 414 918 224
14 20 12196 378 78 793 285 855 91 919 140 714 324 996 358 888 376 896 51 844 328 604 382 794 35 821 447 818 235 888 300 888 168 717 453 638 161 535 152 277 45 982 390
15 20 13045 430 90 975 345 769 356 859 175 946 116 948 495 807 223 997 120 665 21 958 91 880 333 851 497 980 431 606 281 891 290 772 134 694 453 902 341 597 272 780 236
16 20 12872 893 464 502 167 838 425 618 338 902 180 729 409 943 321 883 189 677 467 802 487 918 82 629 374 858 69 994 450 801 66 971 148 960 90 483 312 815 310 874 221
17 20 13680 997 475 876 425 899 381 956 94 820 345 934 53 863 292 801 372 961 352 742 486 953 212 906 319 453 385 965 251 366 268 941 336 763 407 962 93 965 321 977 347
18 20 13603 790 105 935 67 941 452 824 308 620 349 947 350 996 314 930 405 837 40 884 390 954 12 786 368 969 140 932 470 663 51 696 380 726 200 824 423 960 40 790 151
19 20 12648 951 42 648 260 723 159 912 230 730 171 644 139 747 164 956 139 958 236 640 198 801 372 694 2 615 475 974 21 839 453 991 143 636 71 730 89 792 500 829 30
20 20 12321 956 4 789 112 349 63 939 142 1000 199 865 289 710 24 928 304 748 405 779 109 550 103 503 325 690 275 778 377 996 488 694 458 765 192 838 5 765 40 760 311
21 20 13264 902 487 984 465 680 233 808 483 798 357 873 408 967 479 635 228 676 429 893 43 982 38 937 351 597 329 944 146 817 89 804 368 767 339 951 24 827 231 738 419
22 20 13389 588 129 618 218 913 56 829 253 960 120 948 146 899 331 901 165 799 394 534 299 842 283 883 481 869 424 570 111 942 273 928 350 974 137 871 436 930 2 939 162
23 20 13761 846 316 622 334 909 137 570 458 980 12 846 110 953 5 882 471 900 400 934 164 941 400 635 90 836 236 966 217 998 206 772 379 997 173 817 247 894 439 904 342
24 20 12366 919 383 796 137 772 139 889 356 739 344 845 431 973 127 906 411 954 413 895 330 731 211 949 95 291 456 852 307 947 134 694 500 456 462 835 469 486 278 529 437
25 20 13456 965 153 883 366 960 38 813 41 917 307 555 306 787 343 843 222 768 452 870 226 840 246 771 65 903 33 855 279 622 283 887 489 952 26 743 55 947 144 939 127
26 20 12798 965 183 570 133 887 56 933 43 536 45 995 262 689 422 850 262 919 149 832 341 616 189 996 230 560 212 901 302 622 217 635 439 945 5 828 35 817 298 902 429
27 20 13149 957 373 837 19 581 105 931 232 999 419 805 61 926 193 676 349 546 169 704 132 984 231 754 393 971 253 278 89 919 234 921 26 943 67 987 328 792 489 926 7
28 20 13250 727 41 331 86 957 341 888 394 782 416 878 270 845 423 948 378 666 457 981 126 747 162 841 261 970 164 990 209 977 73 973 266 886 266 583 458 644 141 949 73
29 20 12088 909 35 798 270 649 253 399 396 842 401 781 42 932 291 958 59 762 483 494 333 945 129 489 14 515 351 797 56 521 101 986 297 949 339 977 309 433 436 975 342
30 20 12224 670 405 854 101 732 34 619 276 665 162 647 97 489 356 858 417 707 204 420 445 912 301 958 460 957 353 832 67 993 162 959 408 866 421 759 378 481 307 902 298
31 20 13160 691 327 404 201 995 334 953 24 984 323 617 372 923 28 891 210 891 231 963 405 936 383 919 483 846 391 892 133 758 430 487 9 661 494 958 60 703 152 978 265
32 20 13406 993 29 695 5 909 80 967 182 852 161 707 469 541 37 970 315 835 488 820 15 717 137 764 196 992 266 723 451 936 255 932 234 659 283 894 266 957 23 895 313
33 20 12405 717 387 966 15 589 103 946 411 991 61 412 310 883 297 620 168 522 80 970 166 950 190 729 72 917 246 525 462 822 418 995 264 857 294 627 18 470 57 999 497
34 20 13498 868 72 929 460 970 406 799 69 801 246 731 392 979 111 960 208 881 228 686 225 891 382 775 218 968 22 896 82 807 119 636 389 907 84 847 118 560 102 982 233
35 20 12869 703 163 738 315 870 352 958 398 671 201 542 366 959 488 941 317 973 47 688 82 844 483 827 386 843 250 769 304 941 404 529 367 555 155 922 299 887 313 927 81
36 20 12269 946 487 835 230 557 15 594 296 986 250 896 190 540 409 645 392 686 87 926 96 928 307 817 25 428 162 740 434 786 228 792 71 854 24 871 310 670 47 840 367
37 20 12427 819 114 949 193 891 102 894 19 874 267 912 112 751 208 933 446 162 201 880 8 638 452 919 120 674 216 182 344 571 316 764 414 962 93 990 417 808 317 961 129
38 20 13836 802 17 647 1 879 140 1000 278 916 301 710 221 665 435 929 174 993 172 641 448 832 7 959 25 853 16 940 89 941 246 976 244 862 288 980 370 951 187 819 483
39 20 13004 415 421 898 442 748 332 526 497 942 498 785 450 897 175 967 254 755 489 701 71 900 303 844 118 967 382 873 49 961 294 780 466 844 70 883 261 574 215 996 356
40 20 11988 932 200 652 49 720 289 800 233 801 96 275 39 789 3 980 68 689 254 278 207 527 426 756 434 880 48 925 320 450 60 984 493 670 306 956 6 994 358 928 364
41 20 13852 919 433 819 255 871 194 715 495 960 233 954 356 1000 76 944 433 774 479 969 205 568 222 890 399 788 35 900 424 898 272 850 380 982 460 966 116 745 274 804 445
42 20 12544 810 82 934 395 629 112 790 109 913 57 906 285 608 489 855 280 674 349 410 318 560 93 745 54 946 60 844 419 905 165 773 391 923 321 850 354 984 115 622 9
43 20 12860 958 56 997 178 599 258 716 176 766 431 939 489 989 399 851 3 547 469 886 416 946 264 990 420 591 242 899 342 884 123 615 437 815 11 668 21 785 109 634 50
44 20 11936 998 474 411 162 699 186 893 304 537 367 774 312 777 461 861 231 760 368 652 117 975 106 976 305 663 289 749 129 805 493 497 37 928 223 462 58 601 50 902 78
45 20 12738 586 164 774 246 903 411 904 132 820 378 857 139 934 415 777 427 701 187 768 297 817 230 813 263 802 428 908 357 919 412 918 38 673 247 468 409 933 291 648 72
46 20 11984 520 36 924 38 931 105 798 335 991 298 555 269 836 389 967 20 613 214 577 247 729 423 728 61 761 123 813 225 918 31 704 203 844 431 644 480 751 99 377 363
47 20 12852 960 139 694 449 920 186 601 54 982 217 987 229 540 451 904 362 422 309 888 38 688 499 858 321 987 468 883 412 807 306 807 292 626 155 780 279 931 444 801 192
48 20 13032 694 238 648 366 928 209 814 17 761 213 834 310 807 200 671 115 821 271 941 211 777 309 805 474 800 316 715 354 916 250 667 100 941 494 941 153 826 498 984 427
49 20 11876 809 127 659 384 936 411 827 129 656 332 554 131 737 363 883 460 857 118 958 475 100 419 444 485 801 200 796 254 505 484 968 414 966 92 556 136 903 58 931 340
50 20 12225 863 427 818 458 729 374 800 138 933 25 944 341 970 220 977 107 702 42 830 134 553 465 678 15 939 53 714 171 586 207 538 86 653 476 826 338 296 359 933 11
51 20 13268 458 461 986 497 897 32 984 33 684 122 463 209 857 166 971 155 979 122 981 332 990 464 803 168 975 194 780 239 738 314 958 372 995 94 900 420 312 425 874 392
52 20 12635 856 126 616 206 916 238 633 394 692 406 829 132 748 230 809 337 909 140 805 256 817 261 867 259 984 182 684 339 518 330 982 28 917 226 989 211 645 396 578 500
53 20 13280 728 312 986 353 904 26 673 144 431 383 955 187 641 199 932 386 995 251 965 357 832 341 874 147 983 14 974 397 857 455 849 96 492 75 779 14 996 108 754 76
54 20 12677 870 69 617 402 685 303 322 441 840 60 901 130 718 130 899 438 732 371 945 185 957 499 879 160 626 381 665 357 909 198 911 281 540 322 936 86 971 457 924 352
55 20 12395 689 499 976 264 818 443 761 305 955 424 961 395 765 369 747 99 506 5 965 66 860 217 642 441 525 361 957 284 781 256 763 458 721 465 615 495 550 412 937 257
56 20 12946 789 189 802 22 772 338 993 96 753 153 834 234 587 151 826 408 840 470 938 246 893 32 508 402 840 393 985 213 892 314 642 374 927 85 720 48 995 188 647 438
57 20 12305 909 284 764 431 685 121 746 72 779 432 390 36 732 498 866 377 609 10 442 335 912 498 808 254 782 235 971 288 610 85 871 144 727 369 960 491 884 346 935 207
58 20 13066 974 248 821 164 482 255 950 405 984 237 975 37 707 115 196 218 816 386 954 424 539 197 638 251 994 14 925 223 933 475 975 311 741 215 942 291 959 474 828 400
59 20 12904 947 91 942 22 952 289 875 173 981 121 804 295 977 121 868 41 880 79 712 488 971 411 697 21 667 409 852 287 770 337 655 162 580 155 509 446 776 434 716 237
60 20 12972 703 345 870 432 646 297 841 405 967 10 818 386 902 62 604 2 834 386 731 171 986 271 900 407 975 155 721 492 878 183 926 189 970 52 812 284 212 302 920 204
61 20 12560 894 170 866 227 797 49 485 477 896 14 676 180 720 269 434 372 674 196 676 392 786 257 884 281 939 245 979 163 783 73 678 460 843 15 971 483 755 368 964 123
62 20 13356 469 490 977 367 898 294 993 200 927 131 748 430 834 43 979 204 830 30 828 289 869 263 665 421 972 226 676 101 983 119 725 331 539 434 888 84 934 333 962 110
63 20 12929 997 320 998 282 910 231 763 335 670 7 546 310 706 163 724 36 633 155 908 178 876 306 806 371 936 285 541 420 891 94 587 344 931 409 986 286 801 493 952 298
64 20 12981 827 398 932 292 945 137 768 48 982 387 642 216 560 396 873 257 856 13 986 433 823 125 990 78 525 296 944 463 996 353 733 490 700 240 708 129 835 325 602 242
65 20 13317 803 222 762 81 932 114 834 228 890 119 880 57 412 106 919 324 594 270 941 225 885 287 805 395 994 483 771 478 851 227 761 350 797 91 977 58 905 36 934 272
66 20 12699 972 100 650 162 971 125 961 83 790 14 529 172 730 414 361 241 762 242 977 129 997 57 950 257 862 7 822 414 977 478 715 396 794 75 367 316 892 300 795 42
67 20 12594 730 13 925 206 686 235 998 262 862 485 784 423 523 88 521 260 869 183 825 403 945 370 953 63 570 78 573 143 790 7 999 50 468 456 897 144 944 156 881 10
68 20 12393 936 12 691 400 485 191 423 483 715 330 740 274 544 268 778 66 991 250 813 175 497 482 896 71 940 99 966 2 891 359 987 406 595 192 845 203 774 367 985 126
69 20 12934 902 237 942 425 849 38 610 259 959 119 826 457 901 383 928 54 599 99 842 205 963 108 952 321 279 357 671 72 734 19 861 245 857 301 877 19 616 379 1000 491
70 20 12704 922 1 973 394 942 190 997 266 598 479 993 112 619 308 412 34 780 306 702 352 438 248 795 307 891 278 688 179 973 271 929 40 835 302 858 461 695 334 841 465
71 20 12660 937 311 780 34 675 140 971 327 744 215 304 467 987 257 937 479 993 149 571 158 793 236 958 306 496 427 836 61 946 126 998 457 735 111 482 211 842 196 841 459
72 20 13224 558 268 843 498 798 234 982 253 789 322 968 482 804 262 977 427 676 476 731 343 960 244 991 67 936 42 734 415 534 93 855 441 888 264 733 37 935 335 839 239
73 20 12260 962 473 587 222 719 105 537 297 702 84 706 165 982 305 960 345 870 41 666 350 705 45 739 200 724 353 833 359 674 106 739 198 922 366 818 275 981 16 500 409
74 20 12238 814 84 946 121 952 353 510 496 837 325 956 180 436 296 462 287 956 293 926 388 674 279 799 226 700 225 893 224 717 66 328 223 969 11 818 311 806 353 799 130
75 20 13413 775 442 941 50 872 225 811 396 791 121 938 310 473 487 914 307 903 318 940 330 650 175 772 147 886 348 939 202 978 175 849 181 816 83 871 195 908 341 740 164
76 20 13389 853 25 774 396 931 120 995 120 994 92 941 28 660 398 784 139 765 252 572 42 795 285 1000 21 996 132 929 64 436 388 969 86 806 155 994 306 845 40 698 271
77 20 11609 368 284 772 357 974 156 751 415 736 387 585 408 712 187 284 77 960 331 738 293 625 200 945 127 550 346 941 439 480 228 828 227 786 284 519 132 972 170 986 334
78 20 12228 712 112 572 52 704 278 851 34 975 28 957 157 570 278 702 498 929 153 917 267 799 32 407 410 771 382 748 285 894 238 612 441 1000 287 660 490 881 315 625 85
79 20 12739 765 46 976 353 384 319 873 140 407 377 535 315 865 436 960 240 868 266 946 460 718 480 846 57 999 89 399 100 971 490 923 495 974 424 996 364 769 489 750 174
80 20 13295 969 21 694 94 970 13 670 138 792 367 572 271 873 361 911 12 901 109 928 288 908 74 707 278 760 453 994 353 473 100 762 428 975 348 876 447 961 348 923 259
81 20 13031 765 226 626 178 640 348 872 349 994 237 809 423 754 14 825 495 968 429 892 190 863 451 693 458 828 243 900 47 824 197 721 423 745 113 796 146 955 400 819 339
82 20 12640 991 183 585 330 910 229 270 285 897 396 936 491 734 255 409 61 943 314 680 8 977 96 739 363 952 63 917 357 829 254 810 169 727 415 798 165 925 16 771 125
83 20 13412 936 176 896 479 743 111 900 131 828 404 376 269 991 49 946 395 992 237 665 189 769 154 963 442 963 147 995 134 949 349 851 372 537 15 773 376 897 48 796 250
84 20 12356 849 468 526 40 655 64 943 495 982 328 317 465 540 185 782 213 827 297 852 67 852 260 992 112 934 350 536 306 993 98 958 131 854 278 806 115 511 450 736 32
85 20 12845 729 240 398 391 970 390 483 407 578 431 894 180 877 500 907 172 543 394 999 304 994 264 991 152 819 365 966 332 607 303 830 442 996 353 804 254 862 303 810 167
86 20 12929 944 10 822 128 846 91 763 20 644 86 860 104 963 274 714 500 960 313 810 150 973 457 589 274 625 437 805 300 863 475 757 349 838 276 977 396 570 153 839 346
87 20 12867 529 233 631 32 840 350 916 389 765 252 993 175 649 33 893 391 751 329 709 68 954 221 561 387 910 184 557 165 957 309 957 427 979 459 999 117 540 411 994 124
88 20 11382 799 145 658 385 832 336 760 205 875 59 884 483 509 36 878 460 875 488 886 361 714 241 410 236 847 210 701 169 603 377 533 212 679 282 493 139 619 483 673 271
89 20 13436 804 435 902 186 589 438 660 334 849 128 802 324 883 264 947 17 829 355 758 205 877 469 956 107 842 382 962 173 893 286 960 340 914 65 979 93 550 333 840 216
90 20 13884 973 182 749 482 934 349 836 438 871 292 843 421 871 380 984 464 897 342 687 366 712 343 963 300 912 182 716 167 996 72 925 75 786 263 794 286 932 219 975 69
91 20 13827 970 139 790 182 961 202 994 363 911 289 855 240 831 356 868 465 497 295 820 436 791 14 976 227 991 338 910 214 929 324 847 497 814 127 896 141 777 201 856 163
92 20 12641 986 368 898 340 519 76 883 486 790 280 479 53 983 285 977 134 673 382 754 38 903 353 994 462 495 222 984 119 739 460 777 403 783 355 886 70 393 435 906 304
93 20 12863 972 287 852 212 604 102 564 76 719 477 715 418 713 490 856 486 906 402 952 252 925 430 869 237 647 26 704 296 924 114 733 451 652 99 948 40 972 463 852 97
94 20 13711 934 456 657 211 846 28 948 193 842 244 871 316 659 6 919 18 901 451 548 176 676 377 996 422 928 491 787 284 964 197 964 207 985 55 875 399 983 478 856 350
95 20 12976 925 265 727 360 851 75 466 487 807 44 955 247 645 127 894 146 830 195 938 109 613 351 982 81 834 104 936 288 816 435 827 317 540 175 909 345 974 106 752 131
96 20 12386 707 295 626 130 541 200 935 113 670 266 811 114 623 414 903 131 852 459 961 357 896 1 974 2 763 77 911 286 786 81 682 196 882 243 626 228 692 84 642 309
97 20 13106 391 138 601 202 944 213 877 68 824 466 797 271 895 248 753 264 803 99 925 162 914 125 684 30 964 193 955 129 709 2 864 4 864 62 964 239 796 335 859 67
98 20 11856 301 401 548 60 795 475 665 296 734 121 720 319 551 344 918 82 667 9 1000 385 926 123 645 242 631 77 998 74 879 448 819 433 911 338 533 342 750 11 830 312
99 20 12872 636 447 763 291 935 81 871 328 888 392 845 133 475 448 824 23 957 192 755 277 312 105 675 474 990 271 956 210 923 292 847 205 893 79 927 414 728 466 891 386
100 20 12549 510 345 823 345 780 238 882 382 763 36 648 395 881 63 890 310 928 463 692 499 969 330 649 484 709 5 980 179 935 126 547 261 972 315 621 87 790 370 718 322
101 20 11016 843 145 614 234 935 102 688 482 816 487 784 188 948 175 359 442 798 402 733 438 997 482 662 214 681 343 590 380 569 393 183 14 241 191 963 16 548 111 819 422
102 20 13097 975 273 649 209 779 162 938 226 798 110 389 459 981 406 972 489 943 483 630 296 898 202 796 195 912 236 975 223 564 139 764 454 796 46 861 330 783 382 969 90
103 20 12818 875 160 835 444 943 264 939 200 530 340 915 415 744 134 744 129 641 402 876 62 571 480 839 117 797 460 908 58 964 58 622 35 745 103 782 226 778 120 975 427
104 20 12999 550 395 962 77 930 165 908 220 877 3 775 12 782 299 944 82 809 262 983 492 791 78 141 169 985 312 970 29 869 9 956 447 826 327 624 340 675 445 892 283
105 20 12540 899 279 879 28 824 59 922 63 881 63 505 1 462 289 684 162 783 65 904 63 890 248 525 478 973 258 725 58 659 61 943 383 756 451 744 84 898 177 820 238
106 20 13806 797 39 818 413 937 197 828 29 785 427 932 19 967 399 763 6 962 229 964 204 875 52 921 95 848 316 855 243 1000 267 538 434 921 383 872 339 940 354 735 80
107 20 12110 871 380 986 500 423 119 578 409 896 352 903 484 914 296 777 399 814 247 702 188 378 192 633 458 777 474 657 430 899 124 997 389 807 187 609 247 654 178 863 385
108 20 13248 568 186 718 393 928 306 985 336 925 459 645 86 606 227 937 128 968 312 922 189 884 385 845 105 980 4 974 158 803 136 791 125 939 244 789 29 934 327 420 406
109 20 12629 743 283 691 201 838 304 974 478 771 267 921 492 506 410 827 337 585 100 545 63 811 76 990 47 685 62 672 441 987 285 836 317 750 322 974 420 859 319 822 479
110 20 12700 667 140 908 406 979 68 548 41 903 159 796 390 440 429 851 374 768 3 943 290 916 355 660 422 992 324 669 359 634 375 679 113 925 375 979 194 806 464 812 384
111 20 12643 904 423 770 245 912 293 792 116 883 485 696 425 923 492 967 227 902 138 973 119 640 302 771 95 770 469 854 490 461 410 854 383 439 48 849 308 770 271 674 82
112 20 13326 932 128 914 311 939 295 991 396 947 459 894 72 775 8 969 362 640 448 899 438 537 1 777 183 962 295 793 363 689 335 962 76 930 476 910 472 546 164 652 491
113 20 11983 893 42 918 50 610 424 762 231 447 313 953 391 848 374 752 458 687 207 710 153 787 145 898 119 666 81 639 136 994 218 557 210 240 423 778 489 872 346 968 490
114 20 12672 920 223 943 327 871 173 848 442 507 60 731 115 971 366 718 387 977 2 770 122 736 251 193 120 996 366 804 329 637 191 791 314 957 366 892 250 985 270 593 289
115 20 12654 559 195 490 392 985 323 766 361 911 457 977 333 527 187 739 192 761 244 761 350 857 281 994 380 930 107 988 316 758 353 902 49 870 421 964 227 404 384 675 367
116 20 12795 761 105 992 48 572 86 997 311 557 95 960 1 847 330 609 369 702 197 971 489 702 33 872 228 819 311 896 200 810 312 897 261 773 269 743 231 931 449 583 151
117 20 11915 664 375 722 67 929 17 394 404 784 448 589 145 955 448 809 22 876 409 954 115 791 137 455 392 812 50 785 468 850 388 670 48 936 59 880 51 651 228 388 485
118 20 12342 998 346 610 141 946 170 805 381 712 284 540 384 734 213 566 264 899 160 915 54 828 93 718 443 721 489 944 190 817 287 596 192 862 304 803 160 707 206 707 418
119 20 13492 926 72 878 401 996 471 950 291 813 298 983 311 873 137 784 278 874 122 968 458 568 146 909 208 974 58 728 140 443 153 946 393 939 111 660 468 657 119 996 326
120 20 12752 835 31 404 486 976 401 962 321 593 266 814 20 925 186 882 203 932 50 989 312 375 456 769 421 698 257 985 63 662 487 879 163 723 29 999 452 568 356 970 79
121 20 12964 777 237 884 220 883 356 771 352 872 77 975 455 904 281 673 122 503 281 744 405 775 46 939 95 957 156 870 474 951 438 988 197 777 268 700 469 555 398 707 43
122 20 13701 905 247 826 344 995 432 938 432 471 391 459 82 947 321 914 304 875 224 768 445 982 437 789 297 851 257 984 201 971 333 596 493 894 219 985 75 997 288 980 104
123 20 13207 819 47 596 31 973 455 991 211 880 481 701 174 781 55 808 136 967 368 675 101 999 25 633 264 900 359 846 360 910 371 974 474 976 51 916 66 771 41 393 204
124 20 12993 829 431 601 403 635 223 836 161 925 264 933 229 894 381 993 32 991 417 899 10 934 477 483 189 726 108 999 169 563 79 919 17 770 273 991 495 946 45 375 64
125 20 11696 999 146 911 429 897 216 602 15 666 95 726 363 639 491 826 7 508 229 725 48 680 274 836 439 550 311 894 9 849 148 909 76 650 239 579 438 521 203 654 4
126 20 12951 565 105 761 199 939 446 938 468 399 318 954 286 934 239 771 384 532 71 934 477 908 125 746 457 567 96 826 342 915 209 973 288 753 228 889 305 934 169 951 402
127 20 13608 996 299 962 117 701 206 980 93 975 106 770 27 862 130 722 469 942 301 954 17 742 125 688 94 568 132 996 256 666 199 923 109 971 419 979 103 986 198 627 17
128 20 12067 643 258 926 148 753 288 749 73 702 406 785 354 776 409 570 165 232 57 970 397 595 72 818 393 875 385 662 70 620 491 966 25 988 475 517 230 978 251 959 268
129 20 13172 990 67 674 50 418 459 840 291 850 267 911 126 871 117 861 48 544 364 859 449 910 302 854 196 751 155 994 215 937 23 987 496 874 29 634 466 731 377 975 52
130 20 12888 786 11 940 311 893 115 872 147 902 47 928 154 552 89 911 207 823 274 857 233 687 372 555 248 811 466 663 487 784 129 923 427 913 144 988 258 345 268 977 33
131 20 12751 885 252 779 289 826 254 931 137 942 312 567 75 627 444 902 48 820 423 693 11 514 396 980 216 619 108 839 207 923 489 833 312 867 488 913 379 694 91 785 151
132 20 13220 933 324 882 455 810 55 965 208 799 121 830 122 616 477 723 156 981 404 813 19 645 111 947 469 777 283 782 412 870 301 933 454 630 408 765 307 852 455 973 365
133 20 12333 967 464 915 173 851 49 768 196 579 421 960 48 842 422 625 249 989 382 869 151 988 186 789 302 614 295 722 137 596 286 555 211 837 280 499 197 474 306 978 488
134 20 12505 793 183 980 484 863 428 928 299 904 393 930 440 931 25 949 27 771 210 891 159 918 331 911 430 670 269 371 127 536 149 284 43 649 54 625 9 763 432 965 7
135 20 12796 981 166 621 33 987 160 992 277 911 479 809 188 493 192 740 100 657 113 959 175 925 189 908 191 734 172 849 286 998 221 781 446 288 157 719 42 650 177 993 43
136 20 13116 745 367 972 19 888 230 891 9 909 186 742 199 577 224 832 288 914 160 969 375 787 287 957 47 865 311 670 105 627 325 940 312 615 280 526 55 985 153 985 487
137 20 12983 814 342 671 1 845 148 751 338 856 120 816 104 751 416 917 399 901 137 952 167 857 114 721 342 862 266 924 356 996 451 550 191 878 434 561 126 975 215 631 381
138 20 12584 918 341 830 94 862 78 880 490 483 407 819 319 970 65 996 491 937 97 872 147 615 226 628 301 898 176 778 480 632 112 915 279 829 177 389 295 765 379 714 472
139 20 11852 527 473 452 478 940 118 510 335 606 181 885 463 726 59 942 338 902 210 619 224 972 228 762 73 842 78 745 190 655 3 245 163 730 83 873 167 909 364 974 93
140 20 12778 887 336 584 395 782 342 750 466 944 456 907 75 928 46 508 137 624 358 800 313 741 262 841 85 901 82 889 69 912 89 502 154 989 242 817 133 771 340 896 305
141 20 13761 987 91 926 126 964 87 764 427 903 74 910 456 943 287 684 15 985 500 915 79 688 297 928 47 996 381 817 411 848 473 898 270 928 346 718 415 811 27 589 227
142 20 13380 922 13 871 9 775 88 849 85 1000 133 980 9 625 201 873 73 855 11 984 309 850 80 936 447 887 292 690 63 780 154 862 268 455 10 843 429 904 71 784 283
143 20 12689 821 94 682 71 986 355 871 98 734 10 996 194 934 366 533 494 1000 66 379 301 650 191 967 336 830 260 985 38 931 111 916 159 808 454 437 177 525 439 877 299
144 20 12361 688 370 843 162 998 289 948 425 644 444 617 88 356 22 674 382 928 45 736 410 833 146 485 147 900 433 884 269 948 190 836 344 736 169 863 36 575 339 960 291
145 20 13224 890 443 723 159 509 124 727 68 680 389 588 280 898 430 838 152 943 281 879 238 940 456 930 349 877 469 877 173 921 364 653 11 948 45 953 294 808 327 949 149
146 20 13249 592 471 740 174 950 266 893 277 955 25 817 342 842 174 781 22 453 290 868 113 877 398 988 472 809 124 815 458 783 264 842 433 785 72 930 432 938 440 904 320
147 20 13216 757 364 922 160 941 66 977 467 734 16 694 153 794 135 852 500 808 215 962 478 803 392 998 110 902 463 529 195 941 203 681 25 943 68 583 269 977 294 722 496
148 20 13020 880 91 704 90 706 31 816 187 684 68 872 250 704 250 669 70 918 163 991 54 805 29 946 92 982 449 724 329 986 61 665 181 823 116 581 272 986 103 833 459
149 20 11720 920 425 916 117 400 180 464 35 639 323 848 58 363 136 944 369 931 440 534 377 508 447 831 423 626 339 903 191 562 264 783 47 853 494 823 285 873 114 929 447
150 20 12172 870 193 792 317 874 19 828 116 856 315 752 402 998 307 833 158 586 85 746 175 772 148 605 51 628 29 725 169 745 168 836 415 749 233 579 77 620 71 821 163
151 20 13134 876 197 750 392 982 410 909 432 988 179 988 306 938 465 990 198 454 192 752 55 671 462 622 26 824 343 986 45 799 430 749 313 729 368 844 238 695 188 872 252
152 20 13055 916 154 435 257 982 396 588 89 860 54 927 330 968 300 964 384 774 273 997 227 463 136 755 487 838 288 774 109 821 250 813 225 713 497 967 477 917 309 847 352
153 20 13351 673 302 979 74 901 366 689 2 879 429 934 260 646 189 775 183 922 9 764 314 959 436 806 467 959 325 928 447 879 12 690 4 781 498 996 472 582 160 947 36
154 20 11666 729 339 780 63 710 276 477 363 842 443 914 474 705 455 503 2 999 84 891 429 952 404 531 214 1000 152 371 276 559 411 951 340 894 453 450 297 412 216 913 271
155 20 13032 958 121 207 163 935 184 854 452 998 201 988 193 994 202 777 237 956 363 931 96 681 192 972 171 552 445 816 113 899 417 838 160 782 311 965 269 618 112 569 167
156 20 12966 993 416 994 463 879 17 903 17 711 69 756 3 635 274 718 75 914 468 884 355 970 343 519 464 289 348 933 495 794 161 815 315 892 292 895 170 820 333 894 311
157 20 12936 633 328 916 282 542 49 594 459 959 290 866 296 759 305 588 127 966 95 768 3 712 248 973 477 939 409 874 423 736 272 956 261 814 6 810 112 779 386 987 478
158 20 12861 934 212 814 142 760 331 903 402 678 389 973 99 891 475 681 189 399 473 886 325 948 59 912 492 841 186 890 98 897 161 842 160 924 366 496 65 476 220 932 72
159 20 11864 628 424 984 29 710 183 639 68 967 74 582 494 965 385 618 359 949 273 707 317 987 59 787 64 665 467 846 380 537 476 888 295 963 149 694 194 161 93 553 239
160 20 13252 713 201 961 117 883 345 858 375 904 273 725 65 374 292 595 346 864 370 897 106 956 145 797 439 762 42 932 91 768 445 998 284 965 345 845 195 775 102 993 192
161 20 12929 915 233 887 428 939 104 766 417 800 412 504 138 926 173 481 21 807 272 586 54 837 339 994 242 627 214 910 294 834 159 888 256 647 4 998 438 845 287 971 190
162 20 12894 665 284 801 23 891 36 814 380 858 447 857 58 880 91 651 453 752 257 809 431 639 430 970 254 868 35 859 460 755 249 682 402 944 433 853 283 688 465 882 369
163 20 11912 719 113 672 297 456 300 925 190 511 287 930 165 633 25 828 473 774 414 859 4 708 123 621 305 878 188 815 1 690 464 780 146 700 347 590 470 988 406 814 444
164 20 12141 919 281 890 76 745 192 997 319 233 148 820 72 952 227 962 149 877 42 842 331 690 189 870 427 963 271 372 199 370 410 979 430 704 76 445 428 636 80 911 326
165 20 12965 666 9 866 169 903 334 900 60 961 482 722 115 825 317 392 427 866 328 945 160 864 408 872 434 949 124 685 59 849 426 845 53 757 345 838 371 562 154 940 219
166 20 11860 983 499 888 459 210 193 924 209 984 458 722 7 245 91 548 249 658 38 793 396 828 118 985 473 894 257 996 495 791 50 832 98 571 220 560 25 944 255 469 409
167 20 12663 957 303 696 80 439 85 786 405 960 10 638 225 910 354 861 90 989 493 736 119 515 315 981 273 732 236 842 173 921 293 815 335 979 317 425 406 914 48 733 310
168 20 13000 940 310 712 100 974 263 495 365 825 269 849 349 926 203 674 284 934 389 896 265 993 377 780 486 715 323 576 69 737 126 983 194 644 126 976 95 728 298 894 297
169 20 12932 853 64 909 269 893 81 786 297 900 322 803 466 323 127 793 326 851 80 839 83 941 237 621 14 990 278 855 437 913 39 824 213 384 67 951 350 968 495 769 381
170 20 13044 865 346 658 42 712 137 457 106 863 122 731 26 963 440 991 491 849 245 725 438 814 316 954 223 884 198 953 426 512 291 735 214 951 298 820 347 900 311 969 387
171 20 12913 818 350 803 479 917 62 972 159 990 134 394 430 551 43 972 405 835 104 873 318 577 466 624 23 475 135 728 153 985 432 902 422 936 352 981 194 940 25 869 405
172 20 13779 917 17 966 494 959 203 849 121 542 155 994 311 753 214 634 459 746 458 978 22 756 478 933 146 983 50 855 107 960 407 832 205 909 177 956 113 781 337 921 11
173 20 12317 515 70 847 486 721 316 936 124 813 169 744 11 594 479 488 135 677 498 766 233 858 158 926 57 899 29 425 76 733 449 769 250 992 469 975 118 900 412 819 204
174 20 13560 679 475 877 28 865 483 894 222 959 411 977 1 771 150 654 195 939 32 502 421 994 188 914 249 988 108 991 461 772 297 759 177 889 63 632 236 944 35 950 393
175 20 13854 834 293 779 292 977 336 930 247 990 293 544 394 809 169 755 356 979 419 958 232 945 120 852 307 822 134 971 266 991 78 892 121 927 105 488 143 976 413 899 250
176 20 13154 884 152 840 91 903 382 885 308 913 280 888 445 890 100 578 491 974 144 701 493 993 490 865 486 501 31 961 326 752 365 906 65 813 436 913 44 762 92 521 1
177 20 12654 497 261 830 453 864 74 734 47 971 310 831 180 959 3 685 242 908 72 939 368 814 421 795 385 750 193 305 96 572 409 991 461 863 148 736 236 848 308 926 7
178 20 12964 732 305 812 368 915 459 945 332 759 40 878 48 847 369 571 353 561 408 749 235 650 444 994 293 787 367 834 349 853 185 754 462 838 257 964 366 880 330 883 255
179 20 12741 923 280 829 94 938 199 788 290 846 318 484 310 885 400 974 323 856 306 775 101 995 147 659 407 461 489 917 134 920 402 521 274 910 276 833 12 809 179 604 77
180 20 13434 707 265 648 240 889 192 653 321 959 114 924 2 764 216 854 121 877 253 942 97 835 93 857 126 934 376 990 107 600 154 937 306 901 295 900 482 870 298 752 207
181 20 13392 607 258 965 240 855 428 919 323 914 358 972 13 753 114 661 307 522 418 996 39 757 304 996 179 711 113 871 279 963 467 918 207 521 12 959 315 884 238 996 482
182 20 13059 825 325 831 324 753 192 849 354 741 154 974 149 850 47 759 414 774 281 752 377 951 373 612 217 919 227 787 99 905 139 748 99 795 162 684 229 953 153 862 490
183 20 12487 786 319 635 116 925 120 701 59 910 64 893 20 664 327 706 248 888 260 737 194 799 9 989 371 763 172 845 86 847 245 464 102 755 1 820 51 946 272 536 371
184 20 12973 894 79 829 12 937 428 658 425 370 154 771 440 782 421 764 187 853 9 944 349 997 383 639 367 981 368 619 37 551 76 996 135 998 268 1000 272 805 474 829 350
185 20 12157 645 225 986 351 683 32 929 19 944 23 976 230 185 466 373 24 879 298 975 181 627 68 957 228 880 43 375 153 834 252 420 499 975 144 964 167 613 154 977 182
186 20 13613 983 342 823 1 876 491 892 320 854 193 900 239 829 259 862 334 569 384 744 435 966 227 892 298 874 379 923 428 887 62 851 70 871 365 965 394 954 479 502 471
187 20 13021 706 270 660 488 796 174 767 159 941 79 950 184 675 52 710 478 619 344 757 252 790 1 655 189 899 34 902 234 926 8 945 311 919 7 985 306 714 279 961 443
188 20 13488 429 90 710 446 874 444 939 368 557 466 925 219 877 141 996 261 660 234 950 48 900 185 978 287 911 62 685 125 814 52 950 185 923 159 918 103 875 17 989 408
189 20 13689 898 450 959 358 914 397 927 179 883 500 953 292 569 232 597 16 979 368 986 235 975 407 717 6 855 320 889 369 927 108 936 175 610 367 920 409 754 356 864 440
190 20 13119 958 379 964 300 849 284 927 391 881 166 941 104 809 436 943 130 964 253 921 332 535 92 897 346 749 308 919 243 919 176 412 392 882 174 757 130 548 38 624 157
191 20 13647 973 427 533 286 761 211 990 161 883 67 806 432 883 98 947 390 950 7 1000 492 937 135 905 207 899 113 884 346 562 20 927 243 843 156 886 104 716 266 774 406
192 20 13177 833 434 854 57 717 444 983 109 802 145 922 285 547 475 509 336 884 345 676 237 887 275 964 472 979 272 696 431 916 262 987 195 921 105 911 302 878 62 606 8
193 20 12722 841 476 651 209 728 284 558 295 914 231 343 17 933 463 817 22 978 32 838 84 679 415 923 472 930 479 869 11 753 203 838 214 874 354 752 462 956 351 728 233
194 20 13558 894 57 891 357 577 385 999 72 754 390 696 97 932 443 966 429 966 385 972 19 724 214 905 165 559 110 764 456 942 303 664 353 903 68 945 395 979 84 916 380
195 20 12595 757 179 948 311 657 60 468 165 765 171 741 389 714 354 952 186 936 244 839 496 889 32 817 425 965 368 887 46 606 239 832 389 420 414 714 364 878 133 959 303
196 20 13200 835 266 611 194 960 32 850 63 954 90 969 497 746 14 851 482 395 127 946 63 653 7 991 95 923 168 711 179 807 48 732 271 917 186 778 382 963 183 908 497
197 20 11434 733 68 867 69 467 1 989 299 990 231 428 53 791 141 773 395 896 442 907 296 819 156 482 236 455 240 679 380 990 295 910 341 543 438 672 229 445 99 457 339
198 20 12513 894 447 985 424 824 403 710 130 972 114 783 138 548 287 681 296 809 210 899 20 600 148 671 322 763 267 763 483 702 281 852 80 858 313 740 230 953 272 635 109
199 20 12500 791 286 963 99 521 209 848 56 897 75 652 182 611 413 900 140 526 110 963 348 975 474 512 129 997 196 403 85 655 315 787 158 991 479 982 81 672 23 980 133
200 20 11533 742 270 922 18 717 163 592 482 950 7 950 481 661 221 631 439 958 256 945 88 707 70 900 188 471 390 931 352 183 45 974 181 308 409 815 75 609 400 451 413
201 20 13665 881 474 856 45 754 150 976 287 859 460 954 231 918 197 993 67 892 435 499 270 940 54 985 402 684 452 625 6 904 305 777 337 967 34 993 46 717 360 908 243
202 20 12649 984 426 617 38 734 27 775 266 882 459 655 152 861 40 531 37 999 483 690 123 581 83 801 317 777 108 786 230 796 425 783 232 908 357 872 357 934 421 846 361
203 20 13713 755 186 985 235 919 197 985 28 947 193 906 190 828 269 730 220 850 107 837 38 860 495 955 479 939 470 1000 167 900 41 994 343 603 345 258 156 935 333 956 180
204 20 13691 820 28 720 201 932 494 868 259 830 479 852 51 886 65 836 205 873 118 899 441 692 445 965 114 852 113 907 392 715 277 810 314 966 283 894 78 838 182 959 90
205 20 11359 769 481 629 134 543 434 485 456 646 373 514 250 918 402 584 425 685 118 867 86 484 70 495 493 929 24 625 236 940 418 883 145 794 14 856 61 588 126 965 116
206 20 11992 881 288 570 371 927 182 600 75 577 362 605 437 552 127 938 217 650 38 705 213 980 92 948 477 630 31 888 321 647 256 807 151 852 374 867 231 691 105 675 358
207 20 13552 931 217 991 157 970 443 846 425 562 170 873 484 851 54 842 244 421 471 968 251 900 307 776 195 993 190 936 32 922 131 583 330 929 203 944 386 756 480 947 445
208 20 12725 517 128 684 97 546 219 822 116 707 311 927 433 711 277 724 376 809 490 902 151 893 489 962 261 862 46 741 24 997 43 708 366 822 180 939 150 907 359 727 216
209 20 13148 978 331 644 220 969 378 905 242 891 189 518 482 816 352 820 384 507 482 718 135 862 203 924 14 912 337 955 59 979 47 824 454 680 495 874 8 856 331 804 178
210 20 12853 792 190 844 500 863 379 793 355 1000 196 927 118 802 210 699 206 904 93 764 278 910 483 796 187 572 343 512 109 949 74 576 455 893 255 787 61 978 391 706 90
211 20 12222 929 410 802 458 753 73 804 16 774 395 814 435 878 36 416 345 738 477 702 443 815 130 416 240 963 256 998 65 668 479 948 497 713 246 706 21 728 39 713 131
212 20 11621 672 40 738 7 956 298 715 417 701 264 683 368 758 414 650 262 780 332 801 404 743 360 757 227 414 482 762 164 976 27 631 324 720 181 921 21 819 425 330 35
213 20 13630 969 261 869 286 839 322 977 392 829 219 503 18 949 442 829 210 993 214 964 87 996 319 440 354 755 241 842 19 916 192 937 195 792 261 859 281 901 186 879 46
214 20 12784 990 314 538 485 951 218 968 275 623 142 829 359 915 437 877 341 537 46 692 371 677 478 645 406 838 329 876 500 911 296 622 402 865 428 973 389 776 18 878 474
215 20 12326 986 123 644 290 952 204 821 396 974 74 972 198 511 15 984 160 920 11 940 30 241 352 455 119 795 57 351 330 976 454 946 476 499 309 699 445 807 412 935 96
216 20 12387 671 300 794 112 531 407 780 295 758 239 710 68 978 278 976 371 992 469 728 386 644 453 891 442 935 115 732 303 656 454 981 48 640 474 313 156 898 152 876 470
217 20 12345 766 184 733 421 779 226 741 171 783 393 991 471 569 66 711 235 824 191 871 120 945 36 760 32 418 204 598 479 922 148 696 373 692 28 823 1 917 67 893 46
218 20 12151 550 172 817 37 984 235 703 39 836 165 982 153 493 295 870 372 698 65 410 190 832 116 966 239 697 361 647 336 853 420 627 18 987 411 907 46 872 381 458 66
219 20 13368 971 371 656 391 985 110 987 134 848 182 590 393 732 74 890 27 707 407 786 266 686 160 801 100 872 307 606 291 955 148 935 264 819 100 980 273 985 411 920 229
220 20 12364 988 99 991 495 862 418 843 12 302 454 645 413 931 29 700 222 988 215 703 488 659 342 905 123 702 291 695 15 589 438 919 450 721 487 769 171 975 10 569 55
221 20 12888 674 359 834 59 884 331 958 221 946 446 904 159 936 406 860 484 485 23 817 181 911 120 856 14 416 206 843 405 931 129 468 227 860 262 778 429 782 411 968 2
222 20 12966 961 122 793 23 776 498 622 419 922 125 951 239 959 183 882 154 660 207 752 82 715 331 406 277 912 358 971 457 845 362 732 395 984 306 960 309 986 144 419 339
223 20 13287 763 10 889 324 826 47 937 440 970 421 837 337 908 487 882 50 946 450 568 273 818 351 744 321 843 482 601 325 742 201 872 56 762 67 955 268 864 302 882 343
224 20 12845 958 330 947 136 928 500 836 43 917 351 919 128 870 474 973 428 384 42 668 356 954 354 950 275 674 237 705 158 760 229 717 364 486 180 816 371 951 377 644 161
225 20 13204 976 459 731 368 985 9 821 76 741 164 966 10 627 491 981 473 992 425 859 66 890 89 931 375 881 62 822 272 508 485 536 68 857 363 895 256 556 153 950 49
226 20 11535 645 314 676 413 416 384 523 5 662 171 514 83 368 155 847 245 994 122 676 292 873 50 826 195 833 267 842 360 658 353 906 216 955 365 706 384 654 57 845 186
227 20 12164 685 334 666 25 939 338 749 58 783 42 768 297 973 485 755 479 976 371 555 397 828 102 308 96 999 410 834 392 503 479 581 224 582 254 926 31 850 68 946 419
228 20 12217 943 233 857 189 344 351 970 131 760 82 959 124 833 381 976 324 996 467 544 11 641 126 531 4 931 344 995 122 470 285 937 322 234 108 785 235 769 16 797 409
229 20 12833 868 88 790 62 751 380 829 97 657 348 884 145 664 146 884 407 976 115 964 405 747 364 691 434 990 148 885 368 716 153 786 199 624 381 573 275 906 410 857 480
230 20 13720 785 142 846 477 831 412 915 480 975 431 489 232 832 209 985 249 892 158 893 120 956 407 747 467 960 79 812 44 992 475 851 134 863 420 762 229 992 105 773 185
231 20 13344 758 114 978 388 829 468 889 28 725 403 902 419 481 473 892 100 986 142 956 4 984 441 892 281 893 125 642 183 950 249 867 463 787 380 946 412 652 198 671 380
232 20 12628 948 410 750 105 569 126 106 271 431 169 935 252 984 484 970 22 783 434 551 229 931 175 926 473 915 420 907 220 922 472 980 481 856 28 640 414 797 41 885 384
233 20 12829 633 187 757 323 928 223 914 25 801 9 867 22 650 221 894 362 861 79 992 27 467 461 872 335 680 398 931 357 997 8 883 444 717 456 755 80 624 125 814 441
234 20 13328 999 436 914 18 963 291 286 91 806 41 993 457 703 175 959 21 639 92 873 436 850 474 863 56 959 105 923 303 926 61 786 332 919 346 939 91 459 361 902 492
235 20 12636 723 156 381 175 885 68 725 190 959 412 680 369 814 52 914 7 972 206 980 40 947 120 966 274 871 201 905 396 840 362 885 368 627 170 680 345 317 125 724 358
236 20 13773 971 134 974 121 247 374 896 222 909 375 992 128 807 290 893 285 910 475 662 141 966 161 787 66 963 81 801 302 909 3 834 168 844 490 980 176 952 488 920 475
237 20 13164 802 275 792 236 797 142 736 128 740 256 889 402 890 113 823 150 921 61 672 301 966 272 747 364 770 366 669 304 917 487 903 237 735 285 879 132 882 236 926 422
238 20 13334 925 427 855 212 968 449 379 351 933 220 955 452 991 58 811 426 928 281 569 209 841 422 599 133 967 350 879 384 865 439 651 209 866 163 758 322 995 334 933 255
239 20 12671 905 90 705 279 666 289 825 73 664 387 782 363 744 402 994 382 490 160 693 198 884 109 917 147 677 304 821 2 802 326 966 3 581 97 840 250 904 141 979 123
240 20 13272 833 111 995 451 996 408 710 288 759 433 555 489 984 432 900 373 849 339 872 148 857 232 1000 236 828 475 984 353 964 257 811 122 478 352 578 185 921 214 716 53
241 20 13150 794 365 944 214 820 117 976 288 955 250 960 370 951 37 706 252 848 377 759 242 940 72 950 464 888 31 606 235 754 489 918 206 397 311 873 432 923 384 476 223
242 20 12186 525 321 779 416 702 171 954 237 967 369 967 300 744 155 500 136 534 21 700 118 896 426 680 453 586 40 994 356 873 436 974 238 835 446 630 285 546 154 847 217
243 20 12189 849 178 701 363 862 389 952 81 852 250 929 489 731 201 828 142 855 463 713 363 601 97 409 374 966 348 808 274 676 315 831 21 741 243 654 297 390 415 889 176
244 20 12960 967 487 757 478 917 366 625 185 450 117 981 330 468 439 969 396 693 98 747 372 925 411 926 6 929 29 899 103 886 197 827 176 605 440 874 184 791 310 964 117
245 20 11746 791 289 847 298 885 270 917 291 746 479 910 67 913 425 951 360 710 82 956 304 880 240 316 148 549 256 582 77 679 469 680 111 975 8 905 267 217 393 274 475
246 20 12930 887 35 834 377 925 484 989 76 562 119 723 390 841 248 812 446 569 472 269 454 796 299 956 453 905 138 888 389 901 300 994 115 934 134 923 270 498 89 957 294
247 20 13732 994 353 979 49 888 245 910 216 715 274 860 250 994 22 741 487 790 304 730 486 667 422 880 362 977 327 943 391 710 448 982 408 976 67 902 167 733 307 795 28
248 20 12873 659 240 943 339 786 202 839 121 958 273 971 12 636 294 694 421 999 210 890 43 292 180 696 334 622 284 917 406 916 117 891 337 833 249 756 402 954 185 840 169
249 20 12795 886 194 764 344 978 53 986 304 813 215 852 308 492 21 816 167 805 92 767 127 610 311 774 230 860 454 923 14 932 324 813 145 858 72 829 322 517 267 719 126
250 20 12299 1000 392 979 139 691 37 708 112 687 314 972 462 863 201 708 215 879 353 540 143 918 386 600 428 875 335 948 473 903 108 922 495 473 19 832 11 413 418 463 478
251 20 13103 833 352 664 169 650 202 729 500 879 313 853 350 839 189 912 74 705 206 613 402 940 158 919 474 896 115 915 343 904 258 860 51 820 356 681 8 1000 152 767 246
252 20 12706 505 255 798 305 879 175 887 346 891 322 913 371 970 232 640 426 644 370 725 327 835 172 688 453 761 215 910 28 611 68 811 378 805 419 778 142 842 400 990 68
253 20 13340 941 171 886 269 550 181 926 334 953 183 703 279 977 29 766 198 757 491 615 64 976 443 943 86 831 498 954 459 919 71 888 56 748 202 971 181 536 80 836 187
254 20 13518 932 377 575 488 781 79 708 224 834 414 924 259 936 300 978 43 697 252 842 434 688 372 960 433 854 379 898 74 975 316 820 248 651 325 1000 122 944 183 901 422
255 20 12020 591 28 429 430 948 196 829 268 839 43 775 317 987 5 705 411 949 150 849 354 503 444 867 465 987 75 724 166 758 25 683 271 815 72 605 497 527 308 656 394
256 20 14079 1000 65 909 11 795 71 823 497 861 267 950 167 745 51 901 270 759 426 819 446 752 106 995 494 995 19 875 171 980 224 949 183 955 444 792 347 772 439 972 206
257 20 12995 982 40 802 445 772 230 962 172 562 328 928 13 751 225 876 26 509 366 814 51 656 491 987 129 934 91 930 266 958 59 745 150 705 54 632 500 807 124 932 115
258 20 13571 537 225 764 360 989 438 957 119 728 245 884 323 1000 402 741 375 962 326 924 238 987 212 642 416 849 302 942 310 364 398 944 266 995 72 986 376 861 460 908 177
259 20 12096 238 390 304 133 850 109 937 152 875 461 964 98 967 88 762 415 944 40 879 394 920 2 828 463 830 1 688 156 917 188 363 287 697 31 972 294 592 29 593 297
260 20 12605 424 290 646 460 924 172 679 233 935 494 769 27 919 485 770 253 879 33 608 321 708 43 989 349 527 313 960 49 810 32 983 303 993 440 755 69 789 79 690 169
261 20 13156 974 127 875 114 957 493 725 290 984 492 650 46 966 171 897 96 726 437 755 62 966 40 921 310 637 161 727 329 954 416 697 92 924 179 868 170 737 443 505 23
262 20 12113 759 290 571 461 916 383 997 71 631 143 694 301 592 442 498 342 807 322 984 330 551 115 881 105 725 179 908 253 690 480 877 253 859 3 859 459 749 141 594 471
263 20 12709 599 284 862 111 719 267 696 222 683 42 866 127 703 7 794 397 980 172 957 270 702 355 648 272 603 233 790 56 762 397 721 141 964 228 880 153 996 479 962 162
264 20 13163 990 103 702 47 606 473 861 416 998 423 728 75 786 68 912 318 898 437 964 82 612 43 996 269 909 315 982 47 403 258 721 173 839 481 805 286 835 457 907 260
265 20 13645 987 148 950 270 739 351 730 110 968 162 830 139 958 376 760 8 984 69 939 252 837 103 703 61 982 166 879 39 781 438 868 268 461 211 908 212 943 315 850 485
266 20 12308 609 280 910 190 858 410 946 295 918 485 923 104 925 193 953 170 925 279 585 445 444 458 618 389 958 498 317 21 944 272 809 8 599 127 777 102 670 217 698 482
267 20 13577 979 400 934 321 922 256 959 263 971 400 721 145 857 64 903 274 905 136 834 81 448 112 678 269 759 15 998 54 937 391 808 122 980 401 772 50 976 484 631 352
268 20 12480 888 369 899 303 815 284 738 70 961 458 463 195 370 360 972 429 773 445 813 454 867 74 882 151 737 459 291 213 944 8 748 21 937 174 934 407 948 376 621 363
269 20 13100 928 161 852 119 583 131 966 298 877 122 926 73 992 411 718 423 860 231 551 392 630 411 972 382 962 29 747 179 874 92 477 316 958 101 744 119 972 336 787 365
270 20 11851 806 23 888 291 469 53 968 362 961 415 680 5 909 134 466 80 933 237 424 219 971 163 761 228 879 171 850 93 583 92 360 215 831 410 801 194 453 460 821 249
271 20 13175 775 135 973 217 947 438 788 309 589 428 989 413 794 233 847 211 850 105 769 162 883 16 538 356 912 475 944 116 906 6 266 86 914 403 965 475 914 304 906 396
272 20 13189 924 181 690 126 982 96 891 210 892 10 989 415 741 148 712 465 665 241 904 327 776 284 878 222 811 47 979 424 987 457 612 159 652 124 793 384 677 329 932 370
273 20 13708 818 150 961 420 919 262 925 141 539 77 851 31 972 338 716 120 908 376 679 89 940 373 902 245 1000 287 898 175 812 139 928 367 996 62 869 324 692 45 811 254
274 20 12984 995 150 548 161 672 150 731 31 858 24 702 374 953 382 976 22 587 310 633 179 776 175 777 23 803 51 899 173 923 228 878 310 898 446 994 286 916 345 711 232
275 20 12658 567 486 997 217 937 61 938 22 775 431 995 74 919 62 596 95 962 296 536 495 966 22 541 274 957 111 925 184 933 345 625 440 736 426 843 26 423 19 652 356
276 20 12916 953 449 624 195 730 207 845 325 779 60 738 405 628 185 948 344 882 358 998 23 678 275 961 476 697 163 730 157 482 50 869 312 786 263 941 62 988 433 889 17
277 20 12734 961 489 993 63 989 23 721 181 900 108 606 266 587 323 1000 405 784 47 597 451 918 331 716 95 996 102 312 323 799 178 554 478 925 253 961 336 625 416 974 126
278 20 13407 946 480 301 70 997 159 862 224 730 416 857 20 700 307 923 382 834 285 974 17 867 283 865 181 971 66 713 226 833 317 888 477 890 66 848 245 851 367 909 142
279 20 13497 877 113 875 10 853 221 726 380 945 431 868 46 977 292 641 12 864 102 848 84 818 181 911 92 835 24 573 381 982 165 942 110 804 433 826 241 776 211 931 424
280 20 12267 825 115 888 5 894 381 951 179 621 335 746 104 944 171 887 422 432 5 733 452 460 293 789 329 584 127 877 434 668 119 486 492 829 109 985 319 975 127 760 387
281 20 12916 948 184 670 352 794 357 688 78 986 56 971 460 472 145 827 23 885 410 795 107 852 179 776 348 910 78 837 349 871 394 866 182 827 480 538 297 939 323 694 15
282 20 12886 703 407 843 268 609 307 905 148 766 65 982 448 813 119 932 366 829 239 897 32 709 338 771 188 901 198 832 165 854 117 932 80 593 137 674 279 872 418 691 451
283 20 12486 838 275 503 315 962 10 817 43 564 103 998 349 723 413 644 203 912 278 901 379 856 242 845 406 812 118 968 457 532 148 846 341 962 64 584 341 516 104 825 44
284 20 13544 935 203 922 213 931 107 880 30 992 410 981 183 965 499 698 107 916 263 632 38 659 82 676 445 999 428 926 303 918 186 770 48 485 484 935 310 825 161 885 1
285 20 13739 771 213 879 250 953 125 952 129 995 254 896 400 996 36 884 270 671 213 845 33 738 211 902 256 984 333 749 398 548 467 961 203 910 212 886 446 902 456 752 84
286 20 12822 644 155 959 291 622 306 942 227 895 468 988 301 912 229 742 205 880 4 854 161 584 487 764 215 932 394 904 106 745 32 896 216 812 431 805 205 498 357 650 121
287 20 13445 804 43 899 109 844 294 751 179 976 299 981 258 921 29 880 309 786 196 938 473 682 378 996 166 396 200 981 335 767 447 953 78 829 62 627 412 798 236 998 353
288 20 12269 751 62 818 241 883 416 704 136 602 92 517 250 755 340 783 60 961 342 935 423 596 63 967 80 940 186 915 465 499 230 979 486 673 95 957 331 288 3 814 162
289 20 12721 626 267 985 200 677 169 863 499 814 222 958 238 779 16 838 236 640 103 639 213 946 233 834 221 821 492 979 456 846 457 772 194 430 6 988 222 577 28 890 282
290 20 13251 895 97 845 203 646 49 918 257 909 478 844 256 501 154 849 479 870 30 952 58 957 461 940 283 994 232 984 243 369 190 961 375 957 262 963 256 926 373 284 201
291 20 12862 784 241 836 64 951 174 854 170 771 200 780 231 480 422 979 85 717 167 845 104 828 440 890 492 863 344 964 384 953 68 726 266 717 163 863 85 664 316 613 423
292 20 12880 1000 130 960 76 951 378 403 9 825 322 872 80 859 107 983 68 756 150 899 159 464 351 929 69 752 30 949 252 994 340 772 110 808 422 981 174 496 40 447 159
293 20 12526 927 335 805 444 700 304 843 466 764 229 926 279 783 450 909 6 992 153 502 477 807 21 955 49 476 89 810 141 690 478 944 384 753 79 820 436 440 357 812 257
294 20 11763 448 489 812 387 749 124 696 347 369 267 848 158 473 458 995 328 847 243 925 134 831 185 823 365 750 359 721 349 870 432 535 191 944 363 819 233 656 192 593 369
295 20 12552 526 128 765 288 967 390 695 426 648 41 831 62 737 391 911 287 825 151 495 438 679 447 945 264 891 212 975 322 627 224 916 180 721 1 878 349 945 26 714 408
296 20 13190 971 464 766 343 837 302 888 30 744 159 833 226 938 468 928 251 738 42 950 462 798 287 937 92 576 323 487 457 768 452 698 291 844 121 991 281 850 484 946 100
297 20 13718 683 48 880 431 985 212 718 17 908 191 931 126 913 462 793 80 971 168 869 146 683 275 969 9 745 54 937 353 982 388 913 173 674 322 900 352 842 328 852 25
298 20 11901 701 35 702 99 938 226 808 219 425 38 996 10 657 172 459 452 999 180 541 452 470 282 946 433 867 475 850 314 646 361 776 435 307 462 990 244 961 86 838 346
299 20 12840 996 400 892 335 877 442 908 341 801 187 906 447 646 420 767 464 790 297 828 21 592 221 752 474 761 375 876 320 930 480 827 488 866 209 725 81 671 179 640 102
300 20 13067 907 36 949 59 386 326 717 481 627 174 845 210 356 360 972 101 978 458 956 326 875 209 837 335 901 275 898 138 733 8 850 198 902 3 835 243 948 447 862 24
301 20 12199 369 6 523 271 828 141 486 62 835 359 855 432 638 36 543 236 849 368 921 75 967 239 718 371 994 316 813 410 476 410 950 231 714 455 909 41 906 85 955 132
302 20 12834 320 203 953 144 514 42 782 378 895 447 894 259 826 250 967 306 741 44 776 184 532 358 703 180 959 211 827 240 946 301 905 6 787 279 894 78 993 406 829 60
303 20 12643 941 76 902 425 867 483 863 75 713 425 736 194 552 249 874 17 629 318 711 407 865 180 892 406 868 274 925 135 728 350 972 245 807 255 548 386 813 256 598 420
304 20 12256 604 301 329 268 864 152 998 326 354 83 850 104 871 347 932 269 626 498 835 166 842 120 697 416 771 468 994 55 836 98 976 435 691 446 550 474 708 244 993 356
305 20 13057 886 300 948 293 628 177 876 107 708 41 746 45 951 228 940 297 714 305 991 493 915 241 788 185 800 439 783 407 501 160 694 260 973 171 716 215 903 294 861 472
306 20 12843 735 454 712 18 212 425 984 351 976 492 932 351 883 243 940 220 766 211 581 230 963 493 511 369 927 52 910 2 931 313 965 469 995 70 642 159 699 300 790 407
307 20 13076 996 266 786 482 651 59 372 181 986 302 935 288 879 239 450 1 882 55 412 484 974 127 990 65 890 298 749 375 816 299 892 52 869 469 951 345 908 412 957 403
308 20 12938 422 119 773 105 987 344 873 452 907 343 789 495 542 188 569 445 803 379 914 221 986 123 879 292 849 48 952 139 733 351 959 433 821 416 505 73 970 150 940 22
309 20 12909 840 492 925 215 972 79 858 35 674 302 626 19 396 191 892 418 633 335 963 444 683 13 866 330 951 137 748 419 878 206 963 468 613 402 892 244 815 100 949 20
310 20 13402 973 463 725 395 976 421 762 78 805 303 874 160 641 274 870 9 673 489 671 392 785 339 880 350 957 279 882 254 954 306 992 122 779 93 903 56 807 101 844 212
311 20 11540 659 184 634 232 809 381 498 37 470 230 710 488 931 5 401 461 926 290 210 106 681 439 878 154 989 278 722 110 879 396 783 385 983 15 620 1 831 77 811 5
312 20 12770 868 433 913 468 698 468 788 482 907 469 900 486 671 483 513 130 852 329 901 178 941 398 914 131 940 334 580 90 603 290 723 443 519 66 891 467 925 361 916 218
313 20 13412 681 394 816 112 884 252 977 84 995 374 971 143 592 122 860 318 748 366 911 29 925 191 690 497 877 470 936 368 735 40 993 281 610 336 930 431 895 59 740 380
314 20 12360 862 15 791 45 943 450 335 321 846 179 830 83 768 248 775 86 796 252 834 226 709 244 874 395 913 464 619 111 536 100 978 387 823 311 994 341 391 276 834 271
315 20 12852 961 271 654 96 732 406 879 84 863 289 846 173 588 369 603 320 991 171 864 324 932 301 643 314 877 443 966 420 493 6 937 271 777 416 568 189 965 49 926 48
316 20 12655 616 58 849 374 887 267 856 33 524 307 954 335 564 308 915 159 854 281 932 368 795 350 640 132 769 271 702 30 894 292 952 42 1000 265 655 84 697 91 764 489
317 20 13160 404 262 947 224 866 364 806 380 920 295 806 115 728 429 845 88 984 350 853 61 677 494 942 448 904 208 822 352 825 343 784 335 958 455 701 347 729 315 949 186
318 20 12653 396 417 438 267 531 306 944 482 870 6 820 64 573 416 723 155 648 16 821 24 975 411 968 405 790 423 991 120 874 217 953 15 925 231 988 481 791 498 798 255
319 20 12560 952 393 457 30 994 24 590 420 669 156 875 290 587 205 909 270 871 93 713 140 842 21 878 163 904 32 965 264 921 453 837 397 111 406 874 232 964 267 787 479
320 20 11385 802 75 520 144 642 167 368 217 620 356 198 467 765 262 688 402 979 225 877 401 474 402 970 399 985 252 972 386 1000 29 822 452 686 446 883 198 280 273 701 314
321 20 12612 751 380 838 68 573 198 752 351 764 252 802 189 564 54 953 339 841 57 793 107 963 136 696 300 987 409 791 245 852 368 643 226 897 69 787 326 719 401 800 433
322 20 12766 613 387 927 462 912 136 771 86 681 99 989 27 822 487 629 369 717 488 813 329 737 114 663 267 958 205 779 369 864 320 650 19 914 255 658 194 912 462 949 40
323 20 12659 950 352 991 383 984 91 556 372 919 251 969 223 868 425 823 378 849 445 903 495 586 256 728 52 481 491 590 472 609 427 657 357 920 39 823 308 664 29 954 352
324 20 12938 934 401 985 252 473 154 662 207 656 196 839 418 767 39 935 310 573 248 778 80 920 69 778 318 966 332 936 14 757 53 1000 120 903 164 870 162 798 315 643 281
325 20 13404 564 86 623 378 917 250 730 195 930 438 847 434 952 14 877 451 786 200 901 463 897 466 919 81 708 438 738 350 784 269 978 489 791 407 955 168 904 459 955 328
326 20 13030 674 33 823 441 853 106 577 159 989 398 891 466 909 289 597 185 515 446 862 429 944 187 838 398 593 387 798 494 919 484 897 307 976 34 741 342 910 33 982 376
327 20 13035 770 185 549 194 832 28 944 62 978 428 697 50 801 446 959 234 918 41 765 287 490 347 757 295 990 256 649 37 616 304 966 460 966 40 949 230 996 469 702 161
328 20 12960 658 401 820 470 970 289 465 336 824 252 725 298 830 246 990 200 924 7 802 265 938 173 424 24 1000 415 905 255 859 47 817 157 893 480 994 232 647 499 716 358
329 20 12784 784 485 939 341 849 93 964 170 947 472 956 413 470 357 698 108 904 88 796 147 732 378 720 287 972 355 823 306 882 272 752 123 671 8 764 317 940 262 418 56
330 20 12165 457 35 865 251 668 229 888 5 564 125 932 280 469 496 957 109 829 20 926 7 853 430 452 196 859 339 859 308 873 65 768 406 548 396 972 230 720 238 748 122
331 20 12322 906 52 904 262 960 401 458 484 931 74 896 360 762 363 632 30 984 305 649 78 724 185 567 151 744 88 551 452 882 92 948 401 389 88 762 379 862 129 892 415
332 20 11090 475 331 314 357 539 271 698 156 860 473 899 230 646 216 630 24 695 272 962 300 991 424 797 379 901 179 730 216 970 89 514 371 526 171 227 216 599 249 890 20
333 20 12454 703 428 778 25 900 414 967 72 843 78 861 464 774 78 545 484 914 399 774 396 970 392 736 227 699 410 803 104 877 112 447 272 772 54 822 400 803 427 580 170
334 20 12904 961 355 841 359 926 48 661 279 793 470 946 374 952 429 958 436 946 396 841 337 955 17 658 328 913 492 963 417 690 378 331 438 979 272 175 335 938 369 704 475
335 20 13068 715 93 812 470 999 273 617 293 984 46 943 100 775 212 964 152 661 493 755 286 812 372 947 186 789 31 968 232 859 12 252 473 998 496 725 395 895 29 865 182
336 20 12184 923 271 874 4 990 334 482 157 816 344 734 447 944 495 787 445 809 73 728 398 268 76 932 320 934 37 813 491 632 445 640 428 994 31 660 462 959 44 311 313
337 20 12608 385 410 731 63 860 342 713 85 956 167 984 449 905 186 555 118 938 457 531 234 863 203 956 409 595 347 570 218 731 474 989 300 802 473 827 308 1000 464 869 99
338 20 12723 935 251 637 248 942 257 538 475 771 134 989 341 948 146 647 171 764 267 994 460 938 487 960 66 475 78 591 276 845 181 906 469 688 13 675 130 961 125 700 392
339 20 11858 870 288 870 496 832 250 630 362 643 442 534 133 879 187 917 33 904 215 799 179 328 312 558 446 813 368 935 189 645 346 949 66 702 310 916 241 438 84 661 3
340 20 13218 906 256 900 247 794 105 847 68 652 335 744 103 786 298 562 280 998 459 950 191 800 85 994 321 808 213 785 168 495 45 909 284 719 207 896 90 985 55 993 107
341 20 12952 874 27 704 36 846 392 878 199 806 13 983 59 550 151 887 186 735 178 683 439 996 111 397 333 857 387 921 85 495 335 952 244 947 5 925 91 824 480 931 76
342 20 13093 798 233 859 328 915 337 943 149 952 175 968 330 746 177 793 119 995 109 922 9 991 111 709 172 687 188 764 485 490 226 489 113 890 5 885 223 820 210 751 274
343 20 11659 748 430 921 480 412 156 997 274 763 395 810 411 641 358 485 365 556 383 976 130 981 230 749 204 391 167 897 265 921 464 784 68 736 216 450 408 378 228 978 80
344 20 13548 320 395 766 113 862 233 916 29 978 193 968 497 786 378 926 197 1000 56 859 78 750 236 998 223 876 64 973 298 724 194 805 288 762 459 930 67 766 381 971 137
345 20 13405 817 451 739 376 900 273 999 354 970 68 992 344 933 65 497 49 919 76 782 271 495 415 936 205 823 143 936 161 659 33 962 150 847 446 736 48 943 425 872 437
346 20 12847 396 76 944 333 866 5 612 500 950 17 903 173 955 207 884 225 754 326 978 447 625 309 871 195 924 470 863 98 950 141 382 385 743 318 520 22 997 156 942 485
347 20 11850 823 498 923 398 587 5 938 219 689 189 557 475 724 216 705 250 771 342 751 35 787 35 790 121 725 174 585 401 688 134 631 447 935 187 710 429 507 61 987 500
348 20 11976 837 122 772 391 960 53 895 85 567 277 475 322 578 257 894 168 865 262 941 190 743 124 944 21 767 73 941 220 402 123 544 443 307 134 938 147 692 149 908 407
349 20 12099 988 395 884 225 741 455 353 155 420 22 538 319 532 318 921 141 606 378 993 73 957 352 722 387 894 359 882 355 810 404 881 87 920 288 627 13 783 348 672 119
350 20 12774 868 137 511 41 872 422 982 315 846 414 993 154 987 295 880 4 839 440 905 417 772 255 475 445 686 80 734 369 916 345 855 233 992 500 576 205 813 137 466 377
351 20 13681 572 362 984 243 818 10 994 135 889 26 675 195 938 153 921 173 738 445 858 381 857 375 896 83 968 29 941 348 864 467 927 27 989 130 663 330 897 443 713 56
352 20 14214 970 449 842 207 808 5 911 281 839 181 967 287 718 148 932 454 902 425 859 273 980 478 955 477 986 121 909 392 923 469 671 66 978 320 857 400 831 284 930 411
353 20 12224 778 465 990 132 703 267 920 343 873 247 809 226 622 423 626 410 329 286 813 288 722 92 974 133 991 112 886 431 823 350 627 469 786 303 911 10 546 442 552 42
354 20 13006 814 320 792 189 988 117 528 112 626 457 834 173 993 221 809 3 950 59 819 40 463 497 926 254 974 304 951 254 752 6 928 70 634 12 795 105 955 66 727 272
355 20 13302 602 261 904 76 629 296 952 115 567 320 806 237 982 199 862 153 704 372 986 356 931 370 880 135 713 41 862 397 853 124 610 188 943 484 995 368 854 315 993 345
356 20 13586 694 473 996 81 595 320 923 327 748 258 787 489 979 416 914 372 943 395 890 282 994 91 914 379 874 475 844 95 595 101 952 214 920 481 952 141 636 159 833 451
357 20 12904 846 227 806 436 761 280 918 447 991 476 912 92 876 287 720 334 759 186 286 188 810 359 730 270 902 153 968 304 738 420 692 50 863 214 745 212 916 157 891 414
358 20 12410 716 19 937 497 941 436 340 98 974 413 853 363 898 306 612 93 937 49 463 462 991 97 689 97 613 356 486 148 961 104 746 138 974 269 835 76 1000 4 547 306
359 20 12115 448 173 997 274 900 8 856 207 256 377 857 189 818 279 731 199 991 251 926 463 896 349 998 450 319 156 966 291 908 421 378 333 727 81 520 489 947 14 705 254
360 20 12423 692 500 858 291 928 365 376 298 835 163 207 346 977 177 866 438 991 249 939 442 909 435 953 263 696 203 647 367 929 427 720 383 512 33 964 166 765 85 765 268
361 20 12012 313 168 910 4 887 83 765 9 846 140 975 332 323 45 768 342 955 420 724 235 656 9 744 369 967 405 753 178 588 455 936 432 475 418 899 201 791 499 741 175
362 20 13111 411 230 979 323 917 422 632 84 926 137 741 345 871 320 966 17 881 286 801 295 986 269 920 323 569 84 969 235 285 327 954 135 803 59 938 294 981 34 859 412
363 20 13249 858 18 999 66 739 350 562 289 479 477 935 305 619 485 997 92 940 459 923 491 766 139 883 162 980 454 965 444 948 226 923 100 596 91 898 53 693 68 859 379
364 20 13377 979 440 994 481 659 471 628 429 954 14 972 271 808 81 774 469 973 15 977 5 949 378 758 137 774 48 922 336 774 120 621 308 930 285 961 327 612 349 703 316
365 20 13069 559 137 845 312 862 452 947 319 987 12 796 374 929 340 823 23 841 417 930 167 496 202 968 279 745 479 817 4 895 43 641 440 717 186 837 355 851 299 851 68
366 20 12168 815 44 567 195 976 55 972 122 460 67 100 391 766 168 915 135 742 467 963 318 832 99 959 464 456 170 727 442 913 378 556 282 905 58 855 148 824 483 908 411
367 20 13292 996 459 990 459 691 114 993 196 764 85 844 378 804 38 994 174 793 107 953 11 467 180 772 78 684 389 916 60 988 119 990 167 730 372 750 53 680 214 817 433
368 20 13002 616 161 478 238 884 387 872 260 707 325 794 434 772 102 883 324 652 245 895 359 938 237 757 108 606 76 775 458 941 226 813 479 993 401 898 332 997 42 982 331
369 20 12994 920 230 594 110 726 15 628 204 637 202 955 30 835 106 706 216 931 133 850 196 839 174 880 278 771 39 840 422 987 441 826 267 756 356 689 223 916 300 957 498
370 20 13448 876 101 877 308 964 292 342 269 961 41 991 237 721 155 879 205 996 105 999 258 950 397 839 275 643 128 880 295 703 240 958 20 871 119 588 460 987 307 786 272
371 20 12608 820 193 611 82 944 52 849 82 856 316 807 115 969 1 778 103 980 9 535 188 944 324 801 94 980 368 880 449 832 93 499 375 817 270 588 36 739 346 532 496
372 20 13072 916 207 976 394 740 114 731 221 953 77 636 26 857 210 955 130 742 77 657 448 855 451 546 169 917 356 911 409 716 110 933 129 753 280 884 242 966 53 697 432
373 20 13029 746 341 743 480 970 356 832 302 980 219 659 393 996 64 497 489 641 179 467 90 866 116 921 141 529 164 923 231 978 375 809 462 940 233 915 200 914 225 961 458
374 20 12700 916 192 963 86 851 122 929 386 695 268 897 361 978 475 304 236 908 81 846 94 747 448 789 65 954 281 778 86 581 389 997 309 565 268 488 214 908 339 782 149
375 20 12144 943 98 867 333 955 63 698 462 500 313 684 216 672 117 878 462 814 106 535 71 882 256 713 11 654 203 951 379 689 462 617 18 998 374 800 284 664 26 667 2
376 20 12308 656 469 979 352 867 336 877 316 805 424 696 149 789 177 915 257 516 121 638 201 953 185 800 213 993 408 306 205 944 258 914 231 646 32 502 93 838 321 752 284
377 20 12322 132 117 959 296 301 23 702 449 990 288 945 255 964 388 811 394 979 424 544 195 396 35 977 367 998 276 832 107 957 170 799 207 480 148 990 126 892 425 755 367
378 20 12462 733 350 499 93 963 352 984 21 601 22 804 371 697 448 674 330 926 169 942 238 866 462 845 355 637 300 926 399 420 35 685 355 962 219 679 269 858 199 877 423
379 20 12979 651 141 710 365 970 483 954 30 757 146 783 15 994 345 902 335 776 124 657 454 732 443 940 180 905 476 678 491 706 243 893 115 689 198 995 465 766 191 766 30
380 20 12896 984 64 912 310 481 379 992 482 740 106 556 4 355 367 965 250 993 448 945 301 959 28 767 37 988 82 940 281 861 235 858 314 637 55 703 171 999 351 486 345
381 20 13801 995 369 801 61 995 66 929 378 872 465 735 207 924 397 918 6 992 34 847 388 980 211 903 367 702 139 812 190 940 414 782 18 877 442 595 32 932 82 721 116
382 20 12248 758 343 560 202 841 437 729 439 668 135 562 453 481 89 591 353 963 118 868 108 554 221 972 359 900 129 965 33 967 263 784 1 921 186 882 273 697 257 647 384
383 20 12060 818 263 812 187 915 445 895 236 671 134 454 114 686 454 596 448 930 310 778 479 911 193 562 24 939 414 873 20 318 19 863 302 554 306 966 428 712 401 823 406
384 20 12869 899 113 735 312 850 83 965 401 810 403 840 382 874 444 458 409 937 205 903 11 866 151 579 226 876 74 946 333 860 103 645 368 309 360 791 499 960 306 984 236
385 20 12662 835 239 908 131 882 201 579 163 968 177 767 440 677 274 952 243 900 470 854 306 788 173 844 32 658 470 967 390 845 29 897 472 937 446 474 38 602 92 494 158
386 20 12588 837 467 986 86 905 209 744 189 958 23 940 29 925 91 639 195 675 456 750 74 769 432 768 205 316 167 600 435 853 136 928 16 811 46 918 41 533 285 880 382
387 20 12699 952 139 740 327 899 496 515 164 714 3 737 67 948 401 943 387 823 68 791 6 975 481 670 2 974 489 635 498 907 302 930 315 477 264 836 200 671 419 737 145
388 20 13462 702 499 924 251 1000 416 961 102 995 27 732 71 495 26 979 429 908 476 935 312 963 472 738 54 696 374 717 168 997 89 898 132 581 330 968 299 708 210 931 221
389 20 12404 526 269 834 45 874 219 911 12 718 454 921 291 661 422 853 481 802 4 547 256 918 31 844 158 649 79 657 77 667 314 639 382 825 299 952 27 852 93 856 227
390 20 13098 908 432 939 465 875 474 386 197 831 39 962 20 567 365 857 261 939 196 911 360 957 65 826 439 471 67 609 499 716 60 953 482 896 384 787 259 990 313 993 235
391 20 11617 763 57 421 265 225 250 412 331 869 263 769 268 803 279 990 354 827 254 805 233 393 348 694 367 749 80 689 479 975 44 836 241 947 375 951 480 917 178 487 262
392 20 12650 908 281 753 182 669 336 855 365 689 230 705 287 897 480 744 94 659 453 875 475 829 258 947 172 989 265 882 411 427 436 596 401 980 119 977 43 579 171 853 330
393 20 12092 588 289 863 182 568 356 876 144 635 413 535 52 642 102 871 113 835 313 694 360 736 386 696 380 939 343 651 438 884 344 991 244 947 225 837 398 902 419 425 364
394 20 13684 950 349 834 396 238 220 864 98 881 62 953 226 961 318 966 82 812 500 987 43 969 142 862 32 941 18 963 361 983 345 954 467 721 134 440 224 848 5 978 486
395 20 12557 927 393 929 75 860 254 826 324 970 266 834 319 460 474 898 134 684 335 526 22 613 6 842 285 889 430 911 488 765 409 537 302 650 443 727 10 964 125 885 136
396 20 12322 919 289 971 243 778 500 785 459 667 335 878 367 974 461 653 180 802 184 647 399 938 427 978 364 987 298 966 35 254 176 951 454 416 124 521 306 517 480 801 58
397 20 13986 978 101 908 225 948 125 831 89 994 52 802 124 822 1 837 404 984 177 997 237 993 165 789 392 369 490 888 321 938 317 915 49 879 445 902 204 754 438 955 131
398 20 12863 921 136 766 341 761 360 663 324 740 39 967 337 910 369 563 201 700 329 892 417 833 257 866 307 934 378 523 230 923 41 898 135 910 193 913 108 710 37 686 66
399 20 12826 634 321 638 47 972 13 697 435 954 468 889 277 949 491 723 429 500 309 873 434 700 323 883 286 387 170 856 390 973 18 911 53 962 356 656 212 893 314 983 89
400 20 13006 923 194 921 347 969 416 932 464 967 68 814 267 881 197 905 63 447 226 922 36 257 478 904 473 715 493 840 195 618 66 932 164 919 310 863 73 645 490 884 162
401 20 13592 994 365 896 324 926 329 632 138 849 234 687 15 710 341 929 200 701 214 864 485 769 220 985 393 918 355 921 410 817 249 622 298 940 481 973 307 928 170 929 169
402 20 12460 501 270 953 339 658 437 894 245 876 290 959 241 812 291 625 42 552 279 862 323 855 129 435 62 963 143 964 392 853 138 882 411 733 227 794 171 503 164 901 381
403 20 13223 984 425 854 206 949 92 727 271 909 374 940 133 642 69 990 243 912 472 895 226 952 75 891 449 469 128 852 351 443 260 842 327 643 105 901 420 880 458 854 93
404 20 12348 634 464 761 227 937 397 977 235 794 214 761 146 550 151 818 370 891 301 637 155 906 51 902 252 968 429 917 254 655 108 450 373 960 84 660 276 736 384 521 156
405 20 12249 966 128 926 44 580 300 861 20 697 401 622 90 728 310 539 81 892 381 632 152 835 271 855 362 422 7 877 90 920 387 831 220 527 206 871 202 975 216 756 312
406 20 12047 405 423 989 234 775 111 724 275 447 281 855 459 806 452 826 337 869 196 687 446 972 105 944 123 355 315 978 163 764 280 478 322 797 20 454 100 977 483 957 455
407 20 12713 796 425 756 419 692 216 783 227 975 218 746 91 934 353 749 86 957 245 981 43 410 183 879 412 587 142 923 354 935 224 921 115 844 72 424 361 721 126 879 122
408 20 12480 936 140 868 187 944 460 782 298 734 73 902 214 951 327 861 320 624 209 622 119 765 200 890 450 397 85 907 428 431 76 726 283 780 221 708 316 972 6 800 499
409 20 12121 452 192 394 133 912 461 935 27 536 486 931 368 988 90 699 303 756 301 895 476 671 204 706 170 990 316 802 171 990 132 942 210 489 383 698 29 964 261 402 57
410 20 12467 575 337 888 186 616 412 873 154 876 350 987 460 401 229 887 450 853 42 891 260 925 437 894 329 749 127 993 228 834 228 595 111 609 96 947 231 323 321 868 434
411 20 12696 816 203 926 32 887 431 843 454 797 147 714 298 587 314 947 425 850 74 924 410 995 439 960 98 663 138 869 89 757 472 842 265 858 6 330 152 395 416 911 247
412 20 12529 441 416 788 96 990 247 718 237 562 206 709 272 829 56 704 419 888 376 744 233 660 430 955 460 940 392 892 426 812 290 546 132 911 435 614 172 990 179 969 207
413 20 11766 853 126 851 42 772 84 443 56 851 174 209 450 520 363 774 335 710 74 466 148 867 349 953 427 934 2 904 74 911 263 901 495 777 486 387 41 877 110 748 357
414 20 11175 916 53 956 421 461 300 289 496 956 34 853 300 428 387 722 37 394 203 809 497 744 430 938 79 631 456 768 101 464 225 698 387 824 274 883 365 283 254 952 267
415 20 13309 853 393 799 406 929 14 981 421 737 100 951 24 856 286 737 433 923 248 908 44 889 39 837 256 736 250 803 30 646 92 924 151 683 318 713 311 996 462 736 113
416 20 12459 983 119 655 444 913 402 777 259 233 210 855 54 510 218 990 441 979 166 911 191 789 493 486 220 934 429 957 19 613 438 981 66 819 189 665 125 809 276 715 223
417 20 11772 514 467 178 81 514 492 694 466 786 430 470 480 616 7 491 322 751 123 983 89 934 344 654 213 908 115 974 292 819 164 866 25 920 109 779 32 890 56 974 15
418 20 12876 708 429 976 58 957 19 460 367 982 480 695 500 608 154 903 253 909 284 710 109 817 283 560 32 784 263 950 73 925 321 618 193 953 276 738 492 980 415 862 295
419 20 13165 921 379 924 154 793 193 943 451 795 244 620 224 961 178 991 31 519 129 641 90 664 35 645 206 749 32 931 69 906 213 880 354 959 466 878 372 899 155 838 15
420 20 12963 986 87 899 133 985 298 929 4 809 381 920 480 880 27 604 138 743 466 986 75 604 252 969 292 938 388 954 407 683 136 467 292 980 228 465 85 717 248 686 316
421 20 12310 930 207 517 44 849 330 581 323 608 497 832 321 973 218 409 335 805 132 956 422 506 13 993 314 635 46 807 110 833 26 886 296 572 84 889 465 866 201 941 493
422 20 12467 842 306 951 91 714 324 817 244 915 339 924 48 880 345 689 182 538 178 871 239 894 343 929 140 834 313 866 89 813 29 474 102 990 469 468 271 260 14 915 315
423 20 12635 935 259 935 426 992 379 657 404 558 89 933 395 925 11 896 393 513 259 831 326 707 425 741 499 938 227 879 311 758 394 1000 4 977 116 375 219 890 429 354 455
424 20 13270 957 323 808 79 898 152 818 347 714 281 853 166 803 63 910 386 892 480 956 96 667 251 756 466 850 462 970 31 792 153 999 80 872 33 891 461 881 361 301 39
425 20 12601 862 34 837 67 946 307 999 357 466 449 940 312 967 22 842 477 932 142 777 289 834 314 925 428 132 204 763 317 879 164 778 432 941 304 618 215 973 240 341 82
426 20 12906 941 43 533 223 888 211 862 101 987 84 992 84 814 102 988 447 885 312 751 103 616 218 740 280 675 342 941 280 959 488 449 71 842 452 599 441 904 77 767 285
427 20 12656 977 290 733 395 780 200 450 303 917 446 956 94 502 335 956 199 806 123 920 288 760 84 451 206 583 224 725 218 930 344 963 184 998 428 861 244 691 139 862 13
428 20 12496 562 29 822 400 540 76 895 125 953 83 981 249 886 342 748 421 997 297 559 238 199 425 744 369 864 308 752 281 677 170 869 222 848 51 927 309 991 132 806 202
429 20 12611 632 278 940 392 986 282 956 346 977 495 924 340 791 494 890 232 994 363 714 195 989 141 673 254 809 95 421 152 940 469 937 403 132 73 585 68 699 305 775 29
430 20 12658 440 98 925 173 846 96 582 82 895 132 746 487 541 337 962 191 946 341 824 217 995 464 682 26 862 335 856 1 787 418 849 357 962 60 624 87 696 415 803 28
431 20 12427 997 234 916 370 663 82 842 237 985 250 591 260 732 43 900 449 477 178 775 275 912 464 764 405 833 465 808 472 748 145 604 363 602 23 573 437 997 87 815 406
432 20 12465 857 85 964 473 748 290 849 316 307 198 974 131 720 48 854 338 983 37 722 493 842 389 362 321 983 355 829 354 557 365 987 345 865 79 892 339 779 55 508 386
433 20 11634 868 498 726 407 361 478 680 274 769 67 436 366 772 145 659 487 755 453 696 477 910 257 743 134 879 258 574 23 874 104 558 466 609 405 744 424 995 54 935 392
434 20 13115 927 79 933 321 964 262 835 445 971 273 849 311 564 465 956 327 732 454 684 243 889 496 513 445 521 358 895 308 915 370 830 289 756 189 971 312 898 358 791 340
435 20 14304 835 201 953 219 797 5 817 338 911 151 878 31 689 305 982 382 947 448 977 77 978 435 937 371 742 477 826 191 985 94 893 312 869 71 942 241 989 345 934 155
436 20 13357 923 96 986 127 829 9 938 429 855 292 933 315 916 68 694 259 334 211 913 160 931 432 918 261 458 317 954 216 859 392 945 379 922 58 520 108 885 228 984 453
437 20 13791 785 376 794 173 827 428 922 489 865 499 857 144 810 240 726 337 922 180 910 466 962 425 891 312 884 408 982 351 787 206 794 63 849 125 888 1 921 318 863 179
438 20 12296 875 490 850 114 267 498 484 374 688 259 974 276 919 79 885 24 371 212 848 229 837 25 992 301 886 74 581 422 645 267 887 400 753 331 741 480 976 483 911 125
439 20 13148 902 389 911 267 971 446 574 140 912 144 901 93 601 263 517 269 872 440 991 126 846 17 836 487 659 351 870 420 954 422 961 164 344 242 936 41 968 436 909 89
440 20 12289 945 208 751 287 993 409 961 69 811 110 955 356 702 287 774 385 551 351 625 406 432 36 976 407 985 410 586 98 292 475 748 188 888 398 879 324 796 62 712 355
441 20 13188 958 2 880 63 988 337 899 337 780 337 992 365 617 81 928 39 953 336 844 345 884 274 988 25 674 332 980 157 555 423 919 481 357 240 928 2 823 413 538 191
442 20 13715 860 142 798 402 974 481 932 319 452 16 914 470 958 54 557 423 939 470 887 83 959 497 904 383 833 271 946 275 808 357 898 388 615 16 991 118 941 217 978 8
443 20 12765 980 101 438 230 753 283 564 270 979 20 808 326 900 500 978 121 880 9 947 296 635 261 930 11 696 84 779 429 994 307 496 301 992 174 795 92 717 86 696 457
444 20 12956 935 327 999 388 814 426 462 91 772 183 885 51 953 47 734 464 969 493 630 146 980 71 457 75 784 391 666 47 905 500 945 183 462 418 931 263 974 246 939 125
445 20 12656 623 302 786 8 874 489 970 46 397 281 967 291 990 115 597 179 846 102 683 417 967 40 655 227 629 7 817 190 841 149 965 88 978 65 859 269 816 146 561 207
446 20 13948 992 223 760 432 871 290 982 475 996 210 992 353 875 32 762 470 955 299 904 392 945 99 766 499 828 73 869 94 748 222 875 382 619 351 892 343 913 71 892 97
447 20 11962 983 328 989 475 790 1 863 411 708 77 816 61 670 446 819 41 427 214 524 229 924 12 631 179 993 191 305 372 401 355 783 320 999 418 848 233 835 485 645 89
448 20 13037 867 16 912 166 977 224 533 162 994 342 997 245 788 210 890 396 941 467 899 11 840 66 780 126 737 180 926 315 533 461 785 75 470 154 859 32 970 349 599 221
449 20 13484 932 199 941 183 795 129 756 235 720 53 924 82 932 398 907 300 870 467 670 370 805 116 989 119 461 346 796 72 959 89 802 44 904 280 941 153 834 55 917 433
450 20 13140 968 142 598 248 790 222 593 192 970 323 949 315 793 176 869 37 892 273 868 19 984 178 685 171 820 1 974 165 1000 119 637 93 259 199 952 205 908 113 916 398
451 20 13836 714 326 961 157 1000 480 815 129 979 248 895 459 1000 275 851 326 712 37 944 90 934 140 872 471 915 89 834 158 924 500 974 83 905 129 669 456 770 65 628 74
452 20 13183 900 12 984 322 858 149 624 280 908 348 975 287 806 141 585 251 736 254 932 375 824 36 778 344 930 427 502 132 756 203 984 91 774 109 957 185 860 214 806 169
453 20 12738 780 459 940 339 671 258 724 207 765 180 927 445 832 117 961 249 689 113 738 369 873 186 990 256 953 444 868 472 648 57 959 121 740 114 646 156 781 498 438 38
454 20 12552 886 114 796 38 643 40 845 103 417 27 536 383 960 232 745 495 909 162 694 200 988 349 878 130 978 277 965 345 768 309 803 493 675 301 926 314 507 497 771 326
455 20 12570 925 144 831 69 937 308 559 120 933 93 993 475 759 489 916 23 619 408 955 59 396 62 838 261 937 487 585 347 755 64 347 475 858 26 994 70 746 203 830 466
456 20 12848 908 364 947 216 680 364 304 136 764 472 718 245 981 351 954 356 950 436 926 468 899 440 632 47 853 340 894 38 975 121 828 500 831 338 546 418 838 239 632 426
457 20 12833 745 419 948 167 810 400 786 210 379 420 928 61 943 59 779 243 771 233 999 386 996 187 823 173 593 214 751 215 947 164 627 210 598 344 830 442 812 380 977 37
458 20 12359 960 109 690 288 469 212 858 151 685 17 834 184 985 170 887 209 976 56 859 91 983 166 819 309 689 431 728 116 556 19 472 447 248 489 970 156 907 343 874 467
459 20 11548 868 270 697 350 701 375 657 365 777 22 732 111 721 434 965 303 700 24 541 440 942 277 410 15 411 299 788 338 805 352 923 81 769 314 759 446 372 56 897 344
460 20 13033 746 321 821 237 890 266 891 280 595 45 707 206 768 395 861 5 709 37 668 180 987 17 848 212 990 211 870 83 922 328 565 364 992 327 939 209 817 193 706 441
461 20 12879 874 314 745 339 987 403 952 451 680 119 929 103 687 2 921 89 890 485 591 366 806 21 522 157 532 168 935 305 775 475 943 22 854 36 763 405 953 434 760 134
462 20 12678 998 446 939 141 915 447 830 407 994 93 986 46 868 79 915 230 581 405 979 492 742 466 635 9 566 67 895 89 802 385 827 144 539 286 595 4 422 427 820 420
463 20 12804 822 16 927 182 996 367 829 164 698 248 753 276 948 380 981 209 699 428 780 231 371 496 973 173 835 152 799 484 651 291 833 287 750 195 452 299 924 456 984 28
464 20 12881 961 32 832 152 956 3 734 66 854 107 719 404 919 323 837 71 665 170 700 310 619 425 799 240 852 314 698 49 751 18 957 27 892 246 837 151 767 219 753 414
465 20 12654 915 322 819 220 543 138 813 171 606 399 453 455 953 295 981 106 695 91 854 78 825 172 973 240 734 354 989 22 799 24 715 374 651 344 998 278 975 406 527 319
466 20 12132 460 239 775 10 948 188 932 97 978 62 866 239 580 202 921 177 961 431 972 324 855 26 899 302 800 219 733 442 422 314 603 38 509 282 744 208 714 104 493 320
467 20 12571 713 15 418 120 946 377 816 204 992 390 732 142 833 189 609 24 686 99 684 203 956 283 851 256 910 460 988 121 803 7 947 119 671 115 654 491 690 421 815 85
468 20 12388 771 3 762 305 927 51 995 141 294 167 760 432 982 405 779 235 769 149 434 108 996 310 645 422 590 77 873 426 673 369 932 63 890 34 749 8 959 396 705 273
469 20 12804 727 276 924 297 934 110 849 238 989 491 505 188 628 337 957 117 881 326 836 289 981 103 741 93 773 15 347 336 754 400 998 45 873 169 571 130 901 219 836 88
470 20 13130 1000 77 972 291 734 24 840 64 848 1 766 238 697 447 713 78 1000 228 866 408 791 406 302 311 775 252 346 399 987 289 917 73 915 367 984 250 969 250 991 213
471 20 13347 941 439 732 243 432 143 887 93 851 140 843 388 846 111 973 301 760 477 901 322 729 371 985 71 892 47 924 419 920 156 851 450 770 7 569 80 991 9 887 475
472 20 12204 588 184 658 383 761 101 907 466 553 311 728 23 414 144 975 248 532 193 920 141 837 116 799 403 824 98 861 433 992 259 637 253 938 376 663 100 849 172 819 304
473 20 10704 756 337 302 291 797 23 595 453 820 339 812 159 473 291 506 239 840 150 591 483 379 382 419 61 627 461 827 143 855 192 752 309 528 325 672 362 904 190 925 495
474 20 11450 630 353 911 68 817 231 712 84 882 394 703 350 949 191 785 377 626 206 408 179 431 296 814 336 623 238 905 86 999 171 536 47 699 48 754 456 494 253 635 62
475 20 11181 985 144 697 285 477 259 952 387 410 396 836 212 907 9 680 101 726 53 600 435 540 439 859 278 799 102 989 144 440 299 288 495 591 153 550 158 892 472 759 253
476 20 13179 947 310 717 266 771 337 897 152 980 36 626 119 987 25 882 198 944 487 868 17 892 106 737 304 585 52 738 91 923 26 882 88 966 455 631 130 827 332 674 9
477 20 13114 989 89 816 10 887 192 936 314 989 305 801 299 880 440 621 42 998 4 942 401 982 203 742 48 927 459 811 236 953 415 753 161 535 252 707 177 344 287 780 322
478 20 12647 767 13 708 185 840 105 892 257 890 338 539 449 785 441 505 413 936 341 861 353 787 352 804 136 972 141 959 421 851 267 583 337 795 414 990 478 658 248 687 124
479 20 12882 900 112 918 428 739 156 857 7 959 474 982 495 793 64 796 208 970 82 951 278 757 406 984 90 538 205 617 266 964 248 283 112 819 32 916 209 462 67 898 150
480 20 11615 926 19 422 358 815 16 992 198 820 389 786 159 660 87 977 356 926 419 587 118 522 106 487 315 472 228 826 131 733 470 875 275 546 165 674 136 963 147 510 73
481 20 12434 675 372 456 491 809 446 658 249 648 237 434 247 933 234 850 153 951 364 952 221 675 443 677 385 866 153 880 66 975 436 434 20 939 302 969 55 933 329 829 399
482 20 13625 923 116 961 69 768 264 695 155 640 193 786 265 921 460 985 144 833 244 948 266 866 252 893 490 826 108 787 264 961 175 902 490 560 183 999 117 818 396 960 337
483 20 12984 982 57 657 130 775 454 970 155 951 81 515 486 733 224 697 311 808 34 764 102 925 17 712 202 792 465 738 81 929 132 860 400 768 9 978 131 872 337 804 185
484 20 12908 984 122 885 429 670 220 679 122 971 125 987 207 704 73 930 358 591 105 998 97 988 314 943 193 630 101 708 142 757 194 986 341 386 335 499 76 845 160 994 261
485 20 13784 589 187 870 430 985 175 788 100 881 272 961 351 980 327 834 405 566 91 672 221 944 12 996 475 992 207 934 103 988 247 968 430 641 430 847 462 898 194 896 50
486 20 12200 802 457 893 227 760 171 839 428 764 348 828 388 683 223 546 79 505 326 324 63 957 55 958 150 892 305 701 218 893 44 761 176 836 65 540 485 923 22 845 102
487 20 13002 755 409 920 331 798 139 590 34 987 402 750 45 814 303 949 271 918 483 535 65 910 68 683 465 858 33 760 481 629 121 983 476 836 337 917 464 963 71 698 297
488 20 12809 343 408 877 284 862 38 992 324 849 199 931 137 900 500 654 11 966 42 979 188 700 234 864 68 806 239 932 345 565 344 844 254 553 382 816 302 877 188 702 83
489 20 12659 897 85 805 284 613 131 740 472 986 468 654 155 811 123 948 292 631 305 553 412 754 125 879 22 823 328 675 16 861 347 728 434 925 451 769 88 781 423 991 491
490 20 12860 791 240 779 90 986 43 938 45 778 127 350 386 850 289 872 313 352 229 808 343 754 352 902 131 592 379 932 414 798 93 964 358 903 101 876 67 866 164 984 224
491 20 12686 728 92 971 245 691 217 862 402 640 53 899 345 895 318 949 91 604 355 816 438 705 497 702 335 698 295 746 146 571 175 904 371 900 66 708 149 974 375 895 154
492 20 13499 850 304 939 132 960 197 843 330 739 395 667 211 955 337 689 146 801 180 885 132 899 191 764 441 836 239 876 439 984 135 951 269 961 59 822 267 685 3 768 358
493 20 13526 746 396 998 461 959 46 937 130 837 346 786 477 819 43 983 247 813 398 975 310 773 368 465 94 925 231 959 74 887 325 890 9 786 70 954 143 982 106 434 407
494 20 12612 603 356 946 393 527 131 936 462 784 112 784 192 821 132 887 405 714 325 604 142 874 211 796 423 504 185 434 428 933 138 864 381 990 393 993 397 796 450 975 76
495 20 12874 919 51 969 87 424 143 780 127 694 371 824 30 861 184 882 153 775 461 718 107 595 42 717 210 878 135 855 465 787 68 971 380 998 140 858 477 728 145 860 262
496 20 13264 981 74 886 222 502 404 860 119 933 98 909 497 998 386 595 114 716 271 949 281 787 150 817 307 865 403 693 497 924 93 831 69 970 6 740 203 899 26 726 425
497 20 13327 736 491 905 84 917 409 836 347 898 362 847 337 804 331 829 338 962 313 899 23 765 136 520 406 660 279 878 257 978 311 587 173 848 494 931 344 911 125 948 282
498 20 12273 800 324 627 349 644 333 849 252 711 50 933 422 728 124 958 135 512 135 721 347 959 212 502 78 730 124 284 185 824 381 967 231 853 477 905 450 932 105 903 239
499 20 11885 931 44 951 48 983 303 882 204 617 397 941 200 614 409 790 426 808 169 733 434 969 433 533 254 125 88 707 153 500 297 640 380 977 489 686 299 955 174 515 149
500 20 12700 722 327 750 22 644 108 689 145 915 40 896 66 855 470 662 64 921 479 903 479 701 180 816 245 213 405 900 281 747 265 861 199 966 359 953 365 847 3 914 24
