1 20 4716 1 0 0 1 1 1 1 0 1 1 1 1 1 1 1 1 0 1 1 1 
2 20 5459 1 1 0 1 1 1 1 1 1 1 1 0 1 1 0 0 1 1 1 1 
3 20 4734 1 1 1 0 1 1 0 1 0 1 1 1 1 1 0 1 1 1 1 1 
4 20 4830 1 1 1 0 1 1 1 1 1 0 0 1 1 0 1 1 1 1 1 1 
5 20 4754 0 1 0 1 1 1 0 1 1 1 1 1 1 0 1 0 1 1 1 1 
6 20 5600 1 1 1 1 1 1 1 1 1 0 1 1 0 0 1 1 1 1 1 0 
7 20 4173 0 0 0 1 1 1 1 1 1 1 1 0 1 1 1 1 1 1 1 1 
8 20 4496 1 1 1 1 1 1 1 1 1 0 1 0 1 1 0 0 1 1 1 1 
9 20 3916 1 1 1 1 0 1 1 1 1 1 1 1 0 1 1 1 1 1 0 0 
10 20 4566 1 1 1 0 1 0 0 1 1 1 1 1 1 1 1 1 1 1 1 0 
11 20 4356 1 1 1 0 1 1 1 1 1 0 1 1 0 0 1 1 0 1 1 1 
12 20 4604 0 1 1 1 1 1 0 1 1 1 1 0 1 1 1 1 0 1 1 1 
13 20 5160 1 1 0 1 1 0 0 0 1 1 1 1 1 1 1 1 1 1 1 1 
14 20 4811 0 1 0 1 1 1 0 1 1 1 1 1 1 1 0 1 1 1 1 1 
15 20 5120 1 1 1 1 1 1 1 0 1 1 1 0 0 1 1 1 1 1 1 0 
16 20 4136 0 1 1 1 0 1 1 1 0 1 1 1 1 1 1 1 1 1 0 1 
17 20 5525 1 0 1 1 0 1 1 1 0 1 1 1 0 1 1 1 1 1 1 1 
18 20 3602 1 1 0 0 1 1 1 1 0 1 1 1 1 1 0 1 1 1 1 1 
19 20 5131 1 1 1 1 1 0 1 0 1 1 1 0 0 1 1 1 1 1 1 1 
20 20 5447 1 1 1 1 1 0 1 1 1 1 0 1 1 0 0 1 1 1 1 1 
21 20 4181 1 1 0 0 1 1 1 1 1 1 1 1 1 1 0 1 1 1 0 1 
22 20 4203 1 0 1 1 1 1 1 1 1 1 1 1 0 0 1 1 0 1 1 1 
23 20 5082 1 1 1 1 1 1 1 0 1 1 1 1 1 1 1 1 0 0 1 0 
24 20 5129 1 1 0 1 1 1 1 0 1 1 1 1 0 1 0 1 1 1 1 1 
25 20 5418 0 1 1 1 1 0 1 1 1 0 1 1 1 1 1 1 1 1 1 0 
26 20 4584 1 1 0 1 1 0 1 1 1 1 1 1 1 1 1 1 1 1 0 0 
27 20 4921 1 1 1 1 1 0 1 1 0 1 1 1 1 1 1 0 1 1 1 0 
28 20 4455 1 0 1 1 1 1 1 1 0 1 0 1 1 1 1 1 1 1 0 1 
29 20 4112 0 1 1 1 1 1 1 1 1 0 0 1 1 0 1 1 1 1 1 1 
30 20 5157 1 1 1 0 1 0 1 1 1 1 1 1 0 1 1 1 0 1 1 1 
31 20 4196 1 1 0 1 0 1 1 0 1 0 1 1 1 1 1 1 1 1 1 1 
32 20 4412 1 1 0 1 1 1 1 0 1 1 1 1 0 0 1 1 1 1 1 1 
33 20 5528 1 1 1 0 0 0 0 1 1 1 1 1 1 1 1 1 1 1 1 1 
34 20 3631 1 1 0 1 1 1 1 1 1 1 1 1 0 0 1 1 0 1 1 1 
35 20 5995 0 1 1 1 1 1 1 1 0 1 1 1 1 1 0 1 1 0 1 1 
36 20 3765 1 1 1 1 0 1 1 1 1 1 0 1 1 1 1 1 1 1 0 0 
37 20 5125 1 1 1 1 1 0 1 1 1 1 0 1 0 0 1 1 1 1 1 1 
38 20 4869 1 1 0 1 1 1 1 1 0 0 1 1 0 1 1 1 1 1 1 1 
39 20 4780 1 1 1 0 1 1 1 1 0 1 0 1 1 1 1 0 1 1 1 1 
40 20 5515 1 0 0 1 1 1 1 1 1 1 1 1 1 1 0 1 1 1 0 1 
41 20 4947 1 1 1 1 1 1 1 1 0 1 1 1 1 0 0 0 1 1 0 1 
42 20 4435 0 0 1 1 1 1 1 1 1 1 1 1 1 1 0 1 1 1 0 1 
43 20 4697 1 1 0 0 1 1 1 1 1 1 0 0 1 1 1 1 1 1 1 1 
44 20 5003 1 1 1 0 1 1 1 0 0 1 1 1 1 1 1 1 0 1 1 1 
45 20 4942 1 1 0 1 1 1 1 1 1 1 0 1 1 0 1 1 1 1 1 0 
46 20 4214 1 0 1 1 1 1 0 1 1 1 0 1 1 1 0 1 1 1 1 1 
47 20 5643 0 1 1 1 1 1 0 1 1 0 1 1 1 1 1 1 1 0 1 1 
48 20 5467 1 1 1 1 1 1 1 0 1 1 1 1 0 1 1 1 1 1 0 0 
49 20 4469 1 1 0 0 1 1 1 1 1 1 0 0 1 1 1 1 1 1 0 1 
50 20 4398 1 1 1 1 0 1 1 1 1 1 1 1 0 1 1 1 1 1 0 0 
51 20 5703 1 1 1 0 1 1 1 1 1 1 1 0 1 0 1 0 1 1 1 1 
52 20 4537 1 0 1 1 1 1 1 0 1 0 1 1 1 1 1 1 1 1 0 1 
53 20 3751 1 1 0 1 1 1 1 1 0 1 0 1 1 1 0 1 1 1 1 1 
54 20 5844 1 1 1 1 1 1 0 0 1 1 1 1 0 0 1 1 1 1 1 1 
55 20 4359 1 1 1 0 1 1 1 0 1 1 1 1 1 1 1 1 1 0 0 1 
56 20 3748 1 1 1 0 0 1 1 1 1 1 0 1 0 1 1 1 1 1 1 1 
57 20 3889 1 0 1 0 1 1 1 0 1 1 1 1 1 1 1 1 0 1 1 1 
58 20 4873 1 1 1 1 1 0 1 1 1 1 0 0 1 1 1 1 1 1 0 1 
59 20 4967 1 1 1 1 0 1 1 1 1 1 0 0 1 0 1 1 1 1 1 1 
60 20 5082 1 1 1 1 1 1 0 0 1 1 1 1 1 1 1 1 1 0 0 1 
61 20 4311 0 1 0 1 1 1 1 1 1 1 0 1 0 1 1 1 1 1 1 1 
62 20 4494 1 1 0 0 1 1 1 1 1 1 1 1 1 1 0 1 1 0 1 1 
63 20 4862 1 1 0 1 1 1 1 1 1 1 1 1 1 1 0 1 1 0 1 0 
64 20 3866 1 0 1 0 1 1 1 0 1 1 1 1 1 1 0 1 1 1 1 1 
65 20 4168 0 1 1 0 1 1 1 1 1 1 1 1 1 1 0 0 1 1 1 1 
66 20 5327 1 1 1 1 1 1 1 0 1 1 1 1 1 0 0 0 1 1 1 1 
67 20 4625 1 1 1 1 1 1 1 1 0 0 1 0 1 1 1 1 1 0 1 1 
68 20 4737 0 1 1 0 0 1 1 1 1 1 0 1 1 1 1 1 1 1 1 1 
69 20 4347 0 0 1 1 1 1 1 0 1 1 1 1 1 1 0 1 1 1 1 1 
70 20 4545 1 1 1 0 1 0 1 0 1 1 1 1 1 0 1 1 1 1 0 1 
71 20 4746 0 1 1 1 1 1 1 1 1 1 1 1 1 1 1 0 1 0 0 1 
72 20 5365 1 0 1 1 1 1 1 1 1 1 1 1 0 1 1 0 1 0 1 1 
73 20 5608 1 1 1 0 1 0 0 1 1 1 1 0 1 1 1 1 1 1 1 1 
74 20 4927 1 1 1 1 1 1 1 1 1 1 0 0 1 1 0 1 1 1 1 0 
75 20 5454 1 1 1 1 1 0 1 1 1 1 1 1 1 0 1 0 1 1 0 1 
76 20 4967 1 1 1 1 1 1 1 0 1 1 1 1 1 0 0 1 1 1 1 0 
77 20 5086 1 1 0 1 0 1 1 1 0 1 1 1 0 1 1 1 1 1 1 1 
78 20 4560 1 1 1 0 1 1 1 1 0 1 1 1 0 1 1 1 1 0 1 1 
79 20 5376 0 1 1 1 1 0 1 1 1 1 1 1 1 1 0 1 1 1 1 0 
80 20 4240 1 1 1 1 1 1 1 0 1 1 1 0 1 1 1 1 1 1 0 0 
81 20 3540 1 0 1 1 1 1 1 1 1 1 1 0 1 1 0 1 0 1 1 0 
82 20 4875 1 1 1 1 1 0 1 1 1 0 1 1 1 1 0 1 1 1 1 0 
83 20 5104 1 0 1 0 1 1 1 1 1 1 0 1 1 1 1 1 1 1 1 0 
84 20 4567 1 1 1 0 1 1 0 1 0 1 1 1 1 0 1 1 1 1 1 1 
85 20 4812 1 1 1 1 1 0 0 1 1 1 1 0 0 1 1 1 1 1 1 1 
86 20 5178 1 1 0 1 1 0 1 1 1 1 1 1 0 1 1 1 1 1 1 0 
87 20 3960 0 1 1 1 1 0 1 1 1 1 1 1 0 0 1 1 1 1 1 1 
88 20 3966 1 1 0 0 0 0 1 1 1 1 1 1 1 1 1 1 1 1 1 1 
89 20 4895 0 1 0 1 1 1 1 0 0 1 1 1 1 1 1 1 1 1 1 1 
90 20 4833 1 1 1 1 0 1 1 1 1 1 1 1 1 0 1 1 1 0 0 1 
91 20 4487 1 1 1 1 1 1 1 1 1 1 0 0 1 1 1 1 0 0 0 1 
92 20 5658 1 1 0 1 1 1 1 1 1 1 1 0 1 1 1 1 0 1 1 0 
93 20 5083 1 1 1 1 0 1 1 0 1 1 1 1 0 0 1 1 1 0 1 1 
94 20 4792 1 1 1 1 1 0 0 1 1 1 1 0 1 1 1 0 1 1 1 1 
95 20 4781 1 1 1 1 1 0 1 1 0 1 1 0 0 1 1 1 1 1 1 1 
96 20 5141 1 1 0 1 1 1 1 1 1 1 1 1 1 0 1 1 0 1 0 1 
97 20 4752 1 1 0 1 1 0 0 1 1 1 1 0 1 1 1 1 1 1 1 1 
98 20 4376 1 1 1 0 1 1 0 1 1 1 1 1 1 0 0 1 1 1 1 1 
99 20 4696 1 1 0 0 1 1 1 1 1 1 1 1 1 1 1 1 0 1 0 1 
100 20 3783 1 1 1 0 1 1 1 1 1 1 0 1 1 1 1 0 1 1 0 1 
101 20 4733 1 1 1 1 0 0 1 1 0 1 1 1 1 1 0 1 1 1 1 1 
102 20 5479 1 0 1 1 1 1 1 1 0 1 1 1 1 0 1 1 1 1 0 1 
103 20 5263 1 1 1 1 0 1 0 1 1 1 1 1 1 1 1 0 0 1 1 1 
104 20 4694 1 0 1 0 1 1 1 1 1 1 1 0 1 0 1 1 1 1 1 1 
105 20 4083 1 1 1 1 1 1 1 0 0 1 1 1 1 0 1 1 1 1 1 0 
106 20 5231 0 1 1 1 0 1 0 1 0 1 1 1 0 1 1 1 1 1 1 1 
107 20 3387 1 0 1 0 1 1 1 0 1 1 1 1 1 1 1 0 1 1 1 1 
108 20 4939 1 0 1 1 1 1 0 1 1 0 1 1 1 1 0 1 1 0 1 1 
109 20 3706 1 1 1 1 0 1 0 1 1 1 1 0 1 1 1 0 1 1 1 1 
110 20 5365 1 1 1 1 1 1 1 1 1 0 1 1 0 1 1 1 0 1 0 1 
111 20 5292 1 1 1 1 1 1 0 1 1 1 1 0 1 0 0 1 0 1 1 1 
112 20 5143 1 1 1 0 1 1 0 0 0 1 1 1 1 1 1 1 1 1 1 1 
113 20 4540 1 1 1 1 0 1 1 1 1 1 0 1 0 1 1 1 0 1 1 1 
114 20 3753 1 1 0 1 1 1 1 1 1 1 1 1 0 1 1 0 1 0 1 1 
115 20 4486 1 1 1 1 0 1 1 1 1 0 1 1 1 1 0 1 0 1 1 1 
116 20 5668 1 1 1 0 0 1 1 1 0 1 0 1 1 1 1 1 1 1 1 1 
117 20 5017 1 1 1 1 1 1 1 1 1 0 0 1 0 1 1 0 1 1 1 1 
118 20 3630 0 1 1 1 1 0 1 1 1 1 1 1 1 1 1 0 1 0 1 1 
119 20 4073 1 1 1 1 1 1 1 1 1 1 1 0 0 1 1 1 0 1 1 0 
120 20 4049 1 1 0 1 1 1 1 1 1 1 0 1 1 1 1 0 1 1 1 0 
121 20 4667 1 1 1 0 1 1 1 1 1 1 0 1 1 1 1 0 1 0 1 1 
122 20 5017 0 1 1 1 1 0 1 1 1 1 1 1 0 1 1 1 1 1 0 1 
123 20 4931 0 1 1 1 1 0 1 1 0 1 1 1 1 1 1 1 1 0 1 1 
124 20 4647 1 0 1 0 1 1 1 1 1 1 0 1 1 1 1 0 1 1 1 1 
125 20 5322 0 1 1 1 0 1 1 1 1 0 1 1 1 1 1 0 1 1 1 1 
126 20 4089 1 1 1 1 1 1 1 1 0 1 1 0 1 1 1 0 0 1 1 1 
127 20 5188 1 1 1 1 0 1 1 1 1 0 1 1 1 0 1 0 1 1 1 1 
128 20 5408 0 1 1 0 1 1 1 1 1 1 1 1 0 1 1 1 1 0 1 1 
129 20 5699 1 1 0 0 1 1 1 0 1 1 1 1 1 1 1 1 1 0 1 1 
130 20 4859 1 1 1 1 1 1 1 1 1 1 1 1 0 1 0 1 0 1 0 1 
131 20 4878 1 1 0 1 1 0 0 0 1 1 1 1 1 1 1 1 1 1 1 1 
132 20 4578 1 1 1 1 1 1 1 1 1 0 0 1 0 1 1 0 1 1 1 1 
133 20 4757 1 1 1 1 1 1 1 1 1 1 0 0 1 0 1 1 0 1 1 1 
134 20 4522 1 0 0 1 1 1 1 1 1 1 1 1 1 1 1 0 1 1 1 0 
135 20 3860 1 0 1 1 1 1 1 1 0 0 0 1 1 1 1 1 1 1 0 1 
136 20 5268 1 0 0 1 1 0 0 1 1 1 1 1 1 1 1 1 1 1 1 1 
137 20 4736 1 1 1 1 1 0 1 1 1 0 1 1 1 1 0 1 1 1 0 1 
138 20 4569 1 1 1 1 1 1 1 1 0 1 1 1 1 1 1 0 0 1 0 1 
139 20 4538 1 1 0 1 1 1 0 0 1 1 1 1 1 1 1 0 1 1 1 1 
140 20 4718 1 0 1 1 0 1 1 1 1 1 1 1 1 1 1 0 1 0 1 1 
141 20 4555 0 1 1 1 1 1 1 1 1 1 1 1 0 1 0 1 1 1 0 1 
142 20 4297 1 0 1 1 1 0 1 1 1 1 1 0 1 1 1 1 1 1 1 0 
143 20 5367 1 1 1 1 1 1 1 1 1 1 1 1 1 1 0 0 0 1 0 1 
144 20 5104 0 1 1 1 1 1 1 0 1 1 1 1 1 1 1 0 1 1 0 1 
145 20 4743 1 1 0 1 1 1 1 1 1 0 0 1 1 1 0 1 1 1 1 1 
146 20 4268 1 1 1 1 1 0 1 1 1 0 1 1 0 1 1 1 0 1 1 1 
147 20 4447 1 0 1 1 1 1 1 1 1 1 0 1 1 1 0 1 0 1 1 1 
148 20 5257 1 0 1 1 1 1 0 1 1 1 1 1 1 1 1 0 1 1 1 0 
149 20 4922 1 0 1 1 0 1 0 1 1 1 1 1 1 1 1 0 1 1 1 1 
150 20 5024 0 0 1 1 0 1 1 1 1 1 1 1 0 1 1 1 0 1 1 1 
151 20 4602 1 1 1 1 1 1 1 1 1 1 1 0 0 1 0 0 1 1 1 1 
152 20 4794 1 1 1 1 1 1 1 1 1 1 0 0 1 1 0 1 1 0 1 1 
153 20 4638 1 1 1 1 1 1 1 1 0 0 1 1 0 1 1 1 1 0 1 1 
154 20 3316 1 1 1 1 0 1 1 1 1 0 1 1 1 1 0 1 1 1 1 0 
155 20 5264 1 1 1 1 1 1 1 1 1 1 0 1 1 1 1 1 0 0 0 1 
156 20 3584 0 0 1 1 1 1 1 0 1 0 1 1 1 1 1 1 1 1 1 1 
157 20 5603 1 1 1 1 1 1 1 0 0 1 1 1 1 1 1 0 1 1 0 1 
158 20 3988 1 0 1 0 1 0 1 1 1 1 1 0 1 1 1 1 1 1 1 1 
159 20 5393 1 1 1 0 1 1 1 1 1 0 1 1 0 0 1 1 1 1 1 0 
160 20 4148 0 1 1 1 1 1 1 1 1 1 1 1 1 0 1 0 1 0 1 1 
161 20 4739 0 1 1 1 1 1 1 1 0 1 0 1 1 1 1 1 1 1 1 0 
162 20 4818 0 1 1 1 1 0 1 1 1 1 0 1 1 1 1 1 1 0 1 1 
163 20 4733 1 1 1 1 0 1 1 1 1 1 1 0 1 0 1 1 0 1 1 1 
164 20 4428 1 1 1 0 1 1 0 1 1 0 1 1 1 1 1 1 0 1 1 1 
165 20 4819 1 0 0 0 1 1 1 1 1 0 1 1 1 1 1 1 1 1 1 1 
166 20 4005 1 1 1 1 0 1 1 1 1 0 1 1 1 0 1 1 1 1 0 1 
167 20 4464 0 1 1 1 1 1 1 1 1 0 1 1 0 1 1 1 0 1 1 1 
168 20 5580 1 1 0 1 1 1 1 1 1 1 1 0 1 1 1 1 1 0 0 1 
169 20 5037 1 1 1 0 1 1 1 1 1 0 1 1 1 1 1 1 1 1 0 0 
170 20 4202 1 1 1 1 0 1 1 1 1 0 1 1 1 1 1 1 0 1 0 1 
171 20 4928 1 1 1 1 0 1 1 1 0 1 0 1 1 1 1 1 1 1 1 0 
172 20 3936 1 0 1 1 1 0 0 1 1 1 1 0 1 1 1 1 1 1 1 1 
173 20 4602 1 1 1 1 1 1 0 1 1 1 1 0 0 1 1 1 0 1 0 1 
174 20 4797 1 0 1 1 1 1 1 1 0 0 0 1 1 1 1 1 1 1 1 1 
175 20 4922 1 1 1 0 1 1 1 0 1 0 0 1 1 1 1 1 1 1 1 1 
176 20 5239 1 1 1 1 1 0 1 1 1 1 0 1 1 1 1 1 0 1 1 0 
177 20 4911 1 1 0 1 1 1 1 1 1 1 1 1 0 0 1 1 0 1 1 1 
178 20 4203 1 1 0 1 1 1 0 1 1 1 0 1 1 1 0 1 0 1 1 1 
179 20 5840 1 1 1 1 1 1 1 1 1 1 1 0 1 0 0 1 1 1 0 1 
180 20 5118 1 0 0 1 1 0 1 1 0 1 1 1 1 1 1 1 1 1 1 1 
181 20 3892 1 1 1 1 1 1 1 1 0 0 1 1 1 1 0 0 1 1 1 1 
182 20 4335 1 0 1 1 1 1 1 1 1 1 1 0 1 1 1 0 0 1 1 1 
183 20 5577 1 1 1 1 0 1 1 0 1 1 0 1 1 1 1 1 1 1 1 0 
184 20 4816 1 1 0 1 1 1 1 1 1 1 0 1 1 1 1 0 1 1 0 1 
185 20 5149 1 1 0 1 0 1 1 1 1 1 0 1 0 1 1 1 1 0 1 1 
186 20 5288 0 1 1 1 1 0 1 1 1 0 1 0 1 1 1 1 1 1 1 1 
187 20 4969 1 1 1 1 0 1 1 0 1 1 1 1 1 1 0 1 1 1 1 0 
188 20 4766 1 0 1 1 1 1 1 1 1 1 1 1 0 1 0 1 0 0 1 1 
189 20 3749 1 0 1 0 1 1 1 1 1 1 1 1 1 1 1 0 1 0 1 1 
190 20 5848 0 1 1 0 1 1 1 0 1 0 1 1 1 1 1 1 1 1 1 1 
191 20 4977 1 1 1 1 1 0 0 1 1 1 1 1 1 1 1 0 1 1 1 0 
192 20 5148 1 0 1 1 1 1 1 1 1 0 1 0 1 1 1 0 1 1 1 1 
193 20 5148 1 1 1 1 1 1 1 0 1 0 1 1 1 1 0 1 1 1 0 1 
194 20 4040 1 0 1 1 0 1 1 0 1 1 1 1 1 0 1 1 1 1 1 1 
195 20 4332 1 0 1 1 1 1 1 1 1 1 1 1 1 0 1 1 0 1 1 0 
196 20 4218 1 0 0 1 0 1 1 1 1 1 1 1 1 1 1 1 1 0 1 1 
197 20 5655 1 1 1 1 1 1 1 1 0 1 0 0 1 0 1 1 1 1 1 1 
198 20 4016 1 1 1 1 0 1 1 1 0 1 1 1 1 1 1 1 0 1 0 1 
199 20 5891 1 1 0 0 1 1 1 1 1 1 1 1 1 1 1 1 0 1 1 0 
200 20 4912 1 1 1 0 1 1 1 0 1 0 0 1 1 1 1 1 1 1 1 1 
201 20 5656 1 1 0 1 1 1 1 1 1 1 1 1 0 1 0 0 1 1 1 1 
202 20 4262 0 1 1 1 0 1 1 1 1 1 1 1 1 1 1 0 0 1 1 1 
203 20 4591 1 1 1 1 1 1 1 0 1 1 0 1 1 1 1 0 1 1 0 1 
204 20 4942 1 1 1 1 1 1 1 1 1 0 0 1 1 1 0 1 1 1 1 0 
205 20 5464 1 1 1 1 1 1 1 1 0 0 1 1 1 1 0 1 0 1 1 1 
206 20 4574 1 0 1 1 1 1 1 0 1 1 1 1 1 1 1 1 0 1 1 0 
207 20 5346 0 0 1 1 1 1 1 1 1 1 1 0 1 1 0 1 1 1 1 1 
208 20 4604 0 1 1 1 1 0 1 1 0 1 0 1 1 1 1 1 1 1 1 1 
209 20 4633 0 1 0 1 1 1 0 1 1 1 1 1 1 1 1 1 1 0 1 1 
210 20 4805 0 1 1 0 1 1 1 1 1 0 1 1 1 1 1 0 1 1 1 1 
211 20 4611 1 0 1 1 1 1 0 1 0 1 1 1 1 1 1 1 0 1 1 1 
212 20 4751 1 1 1 1 0 0 1 1 0 1 1 1 1 1 1 1 1 0 1 1 
213 20 4326 0 1 1 0 1 0 1 1 1 1 1 1 0 1 1 1 1 1 1 1 
214 20 5066 1 1 1 1 1 1 1 1 1 1 0 1 1 1 1 1 0 0 1 0 
215 20 4986 1 1 0 1 0 1 0 1 1 1 1 1 1 1 1 1 1 1 1 0 
216 20 4886 1 1 0 1 1 1 1 0 1 1 1 1 1 1 0 1 0 0 1 1 
217 20 4524 1 1 1 1 1 1 1 0 0 1 0 1 1 1 1 1 1 0 1 1 
218 20 5098 1 1 1 0 0 0 1 1 1 1 1 1 1 1 1 1 0 0 1 1 
219 20 4727 1 1 0 1 0 1 1 1 1 0 1 1 1 1 1 1 1 1 1 0 
220 20 5525 0 1 1 1 1 1 1 1 1 1 0 0 1 1 1 1 1 1 1 0 
221 20 4636 1 1 1 1 1 1 1 1 0 1 0 1 1 1 0 0 1 1 1 1 
222 20 5100 1 1 1 1 1 1 1 1 0 1 1 1 0 0 1 1 1 1 0 1 
223 20 3994 1 0 1 1 1 1 0 1 0 1 1 1 1 1 1 1 1 1 0 1 
224 20 4360 0 1 1 0 1 1 1 1 1 1 1 1 1 0 1 1 1 0 1 1 
225 20 5221 1 1 1 1 1 0 1 0 1 0 1 1 1 1 1 0 1 1 1 0 
226 20 3985 1 1 1 1 1 1 1 1 0 0 0 1 0 1 0 1 1 1 1 1 
227 20 4297 0 1 1 1 1 1 1 1 0 0 1 1 0 1 1 1 1 1 1 1 
228 20 3789 1 1 1 1 0 1 0 0 0 1 1 1 1 1 1 1 1 1 1 1 
229 20 4746 1 1 1 0 1 0 1 1 1 1 0 1 1 1 1 1 1 1 0 1 
230 20 4542 1 0 0 0 1 1 1 0 1 1 1 1 1 1 1 1 1 1 1 1 
231 20 4356 1 1 0 1 1 1 0 1 1 0 1 1 1 1 1 1 1 0 1 1 
232 20 3866 0 1 1 1 1 1 1 0 1 1 1 1 1 1 1 0 1 0 1 1 
233 20 4761 1 1 1 1 0 1 1 0 1 1 1 0 0 1 1 1 1 1 1 1 
234 20 4668 1 1 1 1 0 1 1 1 1 0 1 1 1 0 1 1 1 1 1 0 
235 20 4801 1 1 1 1 1 1 0 1 0 1 1 0 1 1 1 1 0 1 1 1 
236 20 4324 1 1 1 0 1 1 1 0 1 1 1 0 1 1 0 1 1 1 1 1 
237 20 4355 1 1 1 0 1 1 1 1 1 1 1 0 1 0 1 0 1 1 1 1 
238 20 4573 1 1 1 1 1 1 1 1 0 1 1 0 1 1 1 0 1 1 1 0 
239 20 4776 1 0 0 1 1 1 1 0 1 0 1 1 1 1 0 1 1 1 1 1 
240 20 5200 1 1 1 0 1 1 1 1 1 1 0 0 1 1 0 1 1 1 1 1 
241 20 4043 1 0 1 1 1 1 1 1 1 1 0 1 1 1 0 1 1 1 0 1 
242 20 4930 1 0 1 1 0 1 1 1 1 1 1 1 1 1 1 1 0 1 1 0 
243 20 4915 1 1 1 1 0 1 1 1 1 0 1 1 1 0 1 1 0 1 1 1 
244 20 4645 1 1 1 1 0 1 1 1 1 0 0 1 1 1 1 1 1 1 0 1 
245 20 5603 1 1 0 1 1 1 1 1 1 0 1 1 0 1 1 1 1 0 1 1 
246 20 3343 1 1 0 1 1 1 1 1 1 1 0 1 1 0 1 1 1 1 1 0 
247 20 6085 1 0 1 0 1 1 1 1 1 0 1 0 1 1 1 1 1 1 1 1 
248 20 4954 0 1 1 1 1 1 1 1 0 1 1 0 1 0 1 1 1 1 1 1 
249 20 4045 1 1 1 0 0 1 1 1 0 1 1 1 1 0 1 1 1 1 1 1 
250 20 4086 0 1 1 1 0 1 1 1 1 0 1 1 1 0 1 1 1 1 1 1 
251 20 5046 0 0 1 1 1 1 1 0 1 1 1 1 1 1 1 1 1 0 1 1 
252 20 5175 1 1 0 1 1 1 1 1 1 1 0 1 0 1 1 1 1 1 0 1 
253 20 5281 1 1 1 1 0 1 1 0 0 1 1 1 1 1 1 1 1 1 0 1 
254 20 4478 0 1 1 1 1 1 1 1 1 0 1 1 0 1 1 1 0 1 1 1 
255 20 5309 1 0 0 1 1 1 1 0 1 1 1 0 1 1 1 1 1 0 1 1 
256 20 4526 1 1 1 1 1 1 0 1 1 0 1 1 1 1 1 1 1 0 0 1 
257 20 4953 1 1 0 0 1 1 0 1 1 1 1 0 1 1 1 1 1 1 1 1 
258 20 5116 1 1 0 1 0 1 1 1 1 1 0 1 1 1 1 1 1 1 1 0 
259 20 4589 0 1 1 1 0 1 1 1 0 1 0 1 1 1 1 1 1 1 1 1 
260 20 5203 1 1 0 1 0 1 1 0 1 1 1 1 1 0 1 1 1 1 1 1 
261 20 4167 0 1 1 1 1 1 1 1 1 1 0 1 0 1 1 1 0 1 1 1 
262 20 5595 1 1 0 1 0 1 1 1 1 1 1 1 1 1 1 1 1 1 0 0 
263 20 4412 1 0 0 1 1 1 1 1 0 1 1 1 1 1 1 1 0 1 1 1 
264 20 5307 0 0 1 1 1 1 1 1 1 1 1 1 1 1 1 1 0 1 1 0 
265 20 5066 1 1 1 1 1 1 0 0 0 1 1 1 1 1 1 1 1 1 0 1 
266 20 4697 1 1 1 1 1 1 1 0 1 0 0 1 1 1 1 1 1 1 1 0 
267 20 4387 1 1 0 1 0 1 1 1 1 1 1 0 1 1 0 1 1 1 1 1 
268 20 5968 0 1 1 1 1 1 1 0 1 1 1 1 0 1 1 1 1 1 0 1 
269 20 5637 1 0 1 1 1 1 1 1 1 1 1 0 1 0 1 1 1 0 1 1 
270 20 4952 1 0 0 1 1 1 1 0 1 1 1 1 1 0 1 1 1 1 1 1 
271 20 4528 1 0 1 1 1 1 1 0 1 1 1 0 1 1 1 1 1 1 0 1 
272 20 4365 1 1 1 1 1 1 1 0 1 0 1 1 1 1 1 1 0 0 1 1 
273 20 4375 0 1 1 0 1 1 1 1 0 1 1 1 1 1 1 1 1 1 0 1 
274 20 4544 1 1 0 1 1 0 0 1 1 1 1 1 1 1 1 1 1 1 0 1 
275 20 5919 0 1 1 1 1 0 1 1 1 1 1 1 1 0 0 1 1 1 1 1 
276 20 4948 1 1 1 1 1 1 1 1 1 0 1 1 1 0 1 0 1 0 1 1 
277 20 4968 1 1 1 1 1 1 1 0 1 1 1 0 1 0 1 0 1 1 1 1 
278 20 5227 1 1 1 1 1 1 0 1 1 1 1 1 0 1 0 1 1 0 1 1 
279 20 4664 1 1 1 0 1 1 1 0 1 1 1 1 1 0 1 1 1 0 1 1 
280 20 3758 1 1 1 0 1 1 1 1 1 1 0 1 1 1 1 1 1 0 0 1 
281 20 4469 0 1 1 1 0 0 1 1 1 1 1 1 1 1 0 1 1 1 1 1 
282 20 3612 1 1 1 1 1 1 1 0 1 1 0 1 1 1 0 1 1 1 1 0 
283 20 3645 1 1 1 1 1 0 1 1 1 1 0 1 1 1 1 0 1 1 1 0 
284 20 4189 0 1 1 1 0 1 1 1 1 1 1 0 1 0 1 1 1 1 1 1 
285 20 4994 1 1 1 0 1 1 1 0 1 0 1 1 1 1 1 1 1 1 0 1 
286 20 5169 0 1 1 1 1 1 1 1 1 1 1 1 1 0 1 1 1 1 0 0 
287 20 4533 1 1 1 1 1 1 0 1 1 1 1 1 1 1 1 1 1 0 1 0 
288 20 4527 0 1 1 1 1 1 0 1 0 1 1 0 1 1 1 1 1 1 1 1 
289 20 4188 1 0 1 1 1 1 1 1 1 1 0 1 0 1 1 1 1 1 0 1 
290 20 5103 0 1 0 1 0 1 0 1 1 1 1 1 1 1 1 1 1 1 1 0 
291 20 4908 1 1 1 1 1 1 1 1 0 1 0 1 1 1 1 0 1 1 1 0 
292 20 3573 1 0 0 0 1 1 1 1 0 1 1 1 1 1 1 1 1 1 1 1 
293 20 4621 1 1 1 1 1 1 1 1 0 1 0 1 1 1 1 1 0 1 0 1 
294 20 5929 1 1 1 1 1 1 0 1 1 0 1 0 1 1 1 1 1 1 0 1 
295 20 4246 1 1 1 1 1 1 1 0 1 1 1 1 1 1 1 0 1 0 0 1 
296 20 4705 1 1 1 0 0 1 1 0 1 1 1 1 1 1 1 1 1 0 1 1 
297 20 5190 1 1 1 1 1 1 1 1 1 1 1 1 1 1 1 0 0 0 0 1 
298 20 5310 1 1 1 0 1 1 1 1 1 1 0 1 1 0 1 1 1 1 0 1 
299 20 4870 1 1 0 1 1 1 1 1 1 1 0 0 1 1 1 0 1 1 1 1 
300 20 4295 1 1 1 1 1 1 1 1 1 1 1 1 0 1 0 1 1 1 0 0 
301 20 4861 1 1 1 1 1 1 1 1 1 0 1 1 0 1 1 0 1 1 1 0 
302 20 4644 1 0 1 1 1 1 0 1 1 1 1 1 1 1 1 1 1 0 0 1 
303 20 4969 1 1 1 1 0 1 0 1 1 0 1 0 1 1 1 1 1 1 1 1 
304 20 4082 0 1 1 1 1 1 1 1 1 1 0 1 1 1 1 0 1 0 1 1 
305 20 4724 1 1 1 1 1 0 0 1 1 0 1 1 1 0 1 1 1 1 1 1 
306 20 3876 1 1 1 1 1 0 1 0 1 1 1 1 1 0 1 1 1 1 1 0 
307 20 5066 0 0 1 1 1 1 1 1 1 0 1 1 1 1 1 1 1 1 0 1 
308 20 5083 1 1 0 1 1 1 1 1 1 1 1 1 0 0 0 1 1 1 1 1 
309 20 4333 0 1 1 1 1 1 1 0 0 1 1 1 1 1 1 1 1 1 1 0 
310 20 4408 1 1 1 1 1 1 1 0 0 1 1 1 0 1 1 1 0 0 1 1 
311 20 4894 1 1 1 1 1 1 1 1 1 1 1 0 0 1 1 0 1 1 0 1 
312 20 5047 1 0 0 1 0 1 1 1 1 1 1 1 1 1 1 1 1 1 0 1 
313 20 5435 1 1 0 1 1 1 1 1 1 0 1 1 1 0 1 1 1 0 1 1 
314 20 4863 1 1 0 1 1 1 1 1 1 0 1 1 1 1 0 0 1 1 1 1 
315 20 3628 1 0 1 1 1 1 1 1 0 1 1 1 1 1 1 1 0 1 0 1 
316 20 4955 1 1 1 1 1 1 1 0 1 1 0 1 0 1 1 1 1 1 0 1 
317 20 5608 1 1 0 0 1 1 1 1 1 1 0 1 1 1 1 1 0 1 1 1 
318 20 3695 1 1 1 1 0 0 1 1 1 1 1 1 1 0 1 0 1 1 1 1 
319 20 5338 1 1 1 0 0 0 1 1 1 1 1 1 1 1 1 1 1 1 1 0 
320 20 4567 1 1 1 1 1 1 1 1 1 1 1 1 0 1 0 0 1 1 1 0 
321 20 4622 0 1 1 1 1 1 1 0 1 1 0 1 1 1 0 1 1 1 1 1 
322 20 5166 1 1 1 1 1 1 0 1 1 0 1 1 1 0 1 1 1 1 1 0 
323 20 5086 1 1 1 1 1 1 1 1 1 0 0 1 1 1 1 0 1 0 1 1 
324 20 4854 1 1 1 1 1 1 1 1 0 1 1 0 1 1 1 1 0 1 1 0 
325 20 4887 0 1 0 0 1 1 1 1 1 0 1 1 1 1 1 1 1 1 1 1 
326 20 5817 1 1 1 0 1 1 1 0 1 1 1 1 1 1 1 0 0 1 1 1 
327 20 4178 0 1 0 1 1 1 1 1 0 1 1 1 0 1 1 1 1 1 1 1 
328 20 5440 1 1 0 1 1 1 0 1 1 1 0 1 1 1 1 1 1 1 1 0 
329 20 4563 1 0 1 1 0 1 1 1 1 1 1 1 1 1 0 0 1 1 1 1 
330 20 4704 1 1 0 1 1 0 1 0 1 1 0 1 1 1 1 1 1 1 1 1 
331 20 5006 1 1 1 0 1 1 1 1 1 1 1 1 1 1 1 1 1 0 0 0 
332 20 5107 1 1 1 1 0 1 1 1 0 1 0 1 1 1 1 1 1 1 1 0 
333 20 4707 1 0 1 1 1 1 0 1 1 1 1 1 1 0 1 1 1 1 0 1 
334 20 4379 1 1 0 1 1 1 1 1 1 1 1 0 0 1 0 1 1 1 1 1 
335 20 5010 1 1 1 1 1 0 1 1 1 1 1 1 0 1 1 1 0 0 1 1 
336 20 4984 1 1 1 1 0 1 0 1 0 1 1 1 1 1 1 0 1 1 1 1 
337 20 5224 1 0 1 1 1 1 1 1 1 0 1 1 1 0 1 1 0 1 1 1 
338 20 5458 1 1 1 1 0 1 1 0 1 0 1 1 0 1 1 1 1 1 1 1 
339 20 4371 1 0 1 1 1 1 1 1 1 1 0 1 1 1 1 0 1 0 1 1 
340 20 4391 1 1 1 1 1 1 1 1 1 1 1 1 1 0 0 1 1 0 0 1 
341 20 4976 1 1 1 1 1 0 1 0 1 1 1 1 1 1 1 0 1 1 0 1 
342 20 4289 1 1 0 0 1 1 0 1 1 1 1 1 1 1 1 1 1 0 1 1 
343 20 5253 1 1 1 1 0 1 0 1 0 1 1 1 1 1 1 1 1 1 1 0 
344 20 4247 1 1 0 1 0 1 0 1 1 1 1 1 1 0 1 1 1 1 1 1 
345 20 4438 1 1 1 1 1 1 1 1 1 0 1 1 0 0 1 1 1 1 1 0 
346 20 4435 0 1 1 0 1 1 0 1 1 0 1 1 1 1 1 1 1 1 1 1 
347 20 4603 1 1 1 1 0 1 1 1 1 1 1 1 0 1 0 1 1 1 0 1 
348 20 5204 0 1 1 1 1 1 1 1 1 0 1 1 1 1 1 1 1 1 0 0 
349 20 4431 1 0 1 1 1 1 1 0 1 1 1 1 1 1 0 1 1 0 1 1 
350 20 5538 1 0 0 1 1 0 1 1 1 1 1 1 1 1 1 1 0 1 1 1 
351 20 5142 0 0 1 1 1 1 1 1 1 1 1 0 1 1 1 1 1 0 1 1 
352 20 4747 1 1 1 1 0 1 1 0 0 1 0 1 1 1 1 1 1 1 1 1 
353 20 5073 0 0 1 0 1 1 1 1 1 1 1 1 1 1 1 1 0 1 1 1 
354 20 4559 1 0 1 0 1 1 1 1 1 0 1 1 0 1 1 1 1 0 1 1 
355 20 5917 1 1 1 1 1 1 1 1 0 1 1 1 1 1 0 0 1 0 1 1 
356 20 4900 1 1 1 1 1 1 0 0 1 0 1 1 1 1 1 1 0 1 1 1 
357 20 5507 0 1 1 1 1 1 1 1 1 1 1 1 0 1 1 1 1 1 0 0 
358 20 4783 1 1 1 1 0 1 0 1 1 1 1 0 1 0 1 1 1 1 1 1 
359 20 5313 1 0 1 1 1 0 1 1 1 0 1 1 1 1 1 1 1 0 1 1 
360 20 4554 1 1 1 1 1 1 1 1 0 1 1 1 1 1 1 1 0 0 0 1 
361 20 5230 1 1 1 1 1 1 0 1 1 1 1 1 1 0 1 1 1 0 0 1 
362 20 5276 1 1 1 1 0 1 1 1 1 0 0 1 1 1 1 1 0 1 1 1 
363 20 5223 1 1 1 0 1 1 1 1 1 1 1 0 1 0 1 1 0 1 1 1 
364 20 4632 0 1 1 1 1 1 1 1 1 1 0 1 1 0 1 1 1 0 1 1 
365 20 4171 0 0 1 1 1 1 1 1 1 1 0 0 1 1 1 1 1 1 1 1 
366 20 4833 0 1 0 1 1 1 1 0 1 1 1 1 1 1 1 1 1 1 0 1 
367 20 4415 1 1 1 1 1 1 1 0 1 0 1 1 1 1 0 1 1 0 1 0 
368 20 4895 1 1 1 1 1 1 0 1 1 1 1 1 1 0 1 1 1 0 1 0 
369 20 4262 1 1 1 0 1 1 1 1 1 0 0 1 1 1 0 1 1 1 1 1 
370 20 4117 1 1 1 0 1 1 1 1 0 0 1 1 1 1 0 1 1 1 1 1 
371 20 4166 1 1 1 1 0 0 1 1 1 1 1 0 1 1 1 1 1 0 1 1 
372 20 4463 0 1 1 1 1 1 0 1 1 0 1 1 1 1 1 0 1 1 1 1 
373 20 5144 1 1 0 1 1 1 0 1 0 1 1 1 1 1 0 1 1 1 1 1 
374 20 4786 1 1 1 1 1 1 1 1 1 1 0 1 0 1 1 1 1 0 0 1 
375 20 5841 1 1 0 1 1 1 1 1 1 1 1 1 1 1 0 1 0 0 1 1 
376 20 4849 1 1 1 1 0 1 1 1 1 1 0 0 1 1 1 1 1 0 1 1 
377 20 4777 0 0 1 1 1 0 0 1 1 1 1 1 1 1 1 1 1 1 1 1 
378 20 5278 1 1 1 0 1 1 1 0 0 1 0 1 1 1 1 1 1 1 1 1 
379 20 4593 1 1 0 0 1 1 1 1 1 1 1 1 1 1 1 1 0 0 1 1 
380 20 5068 1 1 1 1 1 1 0 0 0 1 1 1 1 1 1 0 1 1 1 1 
381 20 5045 1 1 1 1 1 1 1 1 1 0 1 1 1 1 1 0 1 0 1 0 
382 20 3184 1 1 1 0 1 1 1 0 0 0 1 1 1 1 1 1 1 1 1 1 
383 20 4217 1 1 1 1 1 0 0 1 1 1 1 1 1 0 1 1 1 1 1 0 
384 20 5038 1 1 1 1 1 1 1 1 1 1 0 1 1 1 0 0 0 1 1 1 
385 20 4392 0 1 1 0 1 0 1 1 1 1 1 1 1 1 1 1 1 0 1 1 
386 20 3916 1 1 1 1 1 1 1 1 1 0 1 1 0 1 1 1 0 1 0 1 
387 20 4919 1 1 1 1 1 1 1 1 0 1 1 1 1 1 0 0 0 1 1 1 
388 20 4522 1 1 1 0 1 1 1 0 1 0 1 1 1 0 1 1 1 1 1 1 
389 20 4698 1 1 1 1 1 1 0 1 1 1 0 1 1 0 1 0 1 1 1 1 
390 20 4892 1 1 1 0 1 1 1 1 1 1 1 1 1 1 1 0 1 0 1 0 
391 20 4295 1 1 1 1 0 1 1 1 1 1 1 1 0 1 1 0 1 1 0 1 
392 20 3922 1 1 0 1 1 1 1 0 1 1 0 1 1 1 1 1 1 0 1 1 
393 20 5384 1 0 1 1 1 1 1 1 1 1 1 1 1 0 0 0 1 1 1 1 
394 20 4835 1 1 1 1 1 1 1 1 1 1 1 0 1 1 1 1 1 0 0 0 
395 20 4714 1 1 1 0 1 1 1 1 1 1 1 0 1 0 1 0 1 1 1 1 
396 20 4789 1 1 0 1 1 1 0 1 1 1 0 1 1 1 1 0 1 1 1 1 
397 20 4947 1 1 1 1 1 1 1 1 0 1 1 1 0 1 1 1 0 1 0 1 
398 20 3628 1 1 1 1 1 0 1 1 1 0 0 1 1 1 1 1 1 0 1 1 
399 20 5201 1 1 1 1 1 1 1 1 0 0 1 1 1 1 0 1 1 0 1 1 
400 20 4129 1 1 1 1 0 1 1 1 1 1 1 1 0 1 1 0 1 1 0 1 
401 20 4703 1 1 1 1 1 1 1 1 1 1 0 1 1 1 1 1 0 1 0 0 
402 20 4044 0 1 0 1 1 1 1 1 1 0 1 1 1 1 1 1 1 0 1 1 
403 20 5084 1 1 1 1 1 1 1 1 1 0 1 1 0 0 0 1 1 1 1 1 
404 20 4617 1 1 1 0 0 1 1 1 1 0 1 1 0 1 1 1 1 1 1 1 
405 20 4673 1 1 0 1 1 1 1 1 1 1 0 1 1 1 1 0 1 0 1 1 
406 20 3827 1 0 1 1 1 0 1 1 1 1 1 1 0 1 1 1 1 0 1 1 
407 20 4703 1 1 1 1 1 1 0 1 1 1 1 1 0 1 0 1 1 0 1 1 
408 20 4923 0 1 1 0 1 1 1 1 0 1 1 1 0 1 1 1 1 1 1 1 
409 20 4995 1 1 0 0 1 0 1 1 1 1 1 1 1 0 1 1 1 1 1 1 
410 20 4878 1 1 1 1 1 1 0 1 1 0 1 1 1 1 1 1 0 1 1 0 
411 20 4732 1 0 1 1 1 1 1 1 1 1 1 1 1 1 0 0 0 1 1 1 
412 20 4112 1 1 1 1 1 1 1 1 0 0 1 1 1 0 1 1 1 1 0 1 
413 20 4570 1 0 0 0 1 1 1 1 1 1 1 1 1 1 1 1 1 0 1 1 
414 20 5602 1 1 1 1 0 1 1 1 1 1 1 0 1 0 1 1 1 1 0 1 
415 20 5451 1 0 1 1 1 1 0 1 1 1 1 1 1 1 1 1 0 1 0 1 
416 20 5248 0 0 1 1 1 0 1 1 1 1 1 1 1 1 1 1 1 0 1 1 
417 20 5051 1 1 1 1 1 1 1 0 1 1 1 1 1 0 1 1 0 0 1 1 
418 20 3867 1 1 1 1 1 1 0 1 1 1 0 1 1 1 1 1 0 1 0 1 
419 20 4421 1 1 1 1 0 1 1 1 1 1 1 0 0 1 1 1 1 1 0 1 
420 20 4488 1 0 1 1 1 1 1 1 1 1 1 0 1 1 0 1 1 1 1 0 
421 20 4872 0 1 1 1 0 1 1 1 1 0 0 1 1 1 1 0 1 1 1 1 
422 20 5227 1 1 1 1 1 0 1 0 1 0 1 1 1 1 0 1 1 1 1 1 
423 20 4769 1 1 1 1 1 1 1 1 1 0 1 1 1 1 0 1 0 1 0 1 
424 20 5151 1 1 1 1 1 0 0 1 1 1 1 1 0 1 1 1 0 1 1 0 
425 20 3669 1 1 1 1 0 1 1 1 1 0 0 1 1 1 1 1 0 1 1 1 
426 20 4232 1 1 0 1 1 1 1 1 1 1 0 1 1 1 1 1 1 0 0 1 
427 20 4288 0 1 1 1 1 0 1 0 1 1 1 1 1 1 0 1 1 1 1 1 
428 20 4593 1 0 1 1 1 1 0 1 0 1 0 1 1 1 1 1 1 1 1 1 
429 20 4802 1 1 0 1 0 1 1 1 0 1 0 1 1 1 1 1 1 1 1 1 
430 20 5208 1 1 1 0 1 1 0 1 1 1 1 1 1 1 0 1 0 1 1 1 
431 20 4719 1 0 1 1 0 1 1 1 1 1 1 1 1 1 1 1 1 0 0 1 
432 20 4841 1 1 1 1 1 0 0 0 1 1 1 1 0 1 1 1 1 1 1 1 
433 20 4999 0 1 1 1 0 1 1 1 1 1 0 1 1 1 0 1 1 1 1 1 
434 20 5505 1 0 1 1 1 0 0 1 1 1 1 1 1 1 0 1 1 1 1 1 
435 20 5183 0 1 1 1 0 1 1 1 1 1 1 1 1 1 1 1 1 0 1 0 
436 20 5513 1 1 1 0 1 1 1 1 0 1 1 0 1 1 1 1 0 1 1 1 
437 20 4269 1 0 1 1 1 1 0 1 1 0 1 1 1 1 1 0 1 1 1 1 
438 20 5127 1 1 1 1 0 1 1 0 1 1 0 1 1 1 1 0 1 1 1 1 
439 20 3365 0 1 1 0 1 1 1 1 1 0 1 1 1 1 1 0 1 1 0 1 
440 20 4051 0 0 1 1 1 1 1 1 1 1 1 1 1 1 1 0 1 1 1 0 
441 20 4251 1 1 1 1 1 0 1 1 1 1 0 1 0 1 1 1 1 0 1 1 
442 20 5098 1 0 1 0 1 1 1 1 1 1 0 1 1 1 0 1 1 1 1 1 
443 20 5307 1 0 1 1 1 1 1 0 1 1 1 0 1 1 0 1 1 1 1 1 
444 20 4390 0 1 1 0 1 0 1 1 1 1 1 1 1 1 1 1 1 1 0 1 
445 20 4905 0 0 1 1 1 1 1 1 1 1 1 1 1 1 1 1 0 0 1 1 
446 20 4617 1 1 1 1 1 1 1 0 1 1 1 1 1 0 1 1 0 0 1 1 
447 20 4754 0 0 0 1 1 1 1 1 1 1 1 1 0 1 1 1 1 1 1 1 
448 20 5888 1 1 1 1 1 0 1 1 1 1 0 0 0 1 1 1 1 1 1 1 
449 20 4827 0 1 1 1 1 1 1 1 0 1 1 1 1 0 1 1 0 1 1 1 
450 20 5251 0 0 1 1 1 1 1 1 1 0 1 1 1 1 1 1 0 1 1 1 
451 20 4925 1 1 1 0 0 1 1 1 1 1 0 1 1 1 1 1 0 1 1 1 
452 20 5124 1 1 0 1 1 1 1 0 1 1 1 1 1 1 0 1 0 1 1 1 
453 20 4398 1 1 1 1 1 1 0 1 1 1 1 1 1 1 1 0 1 0 0 1 
454 20 5135 1 1 1 0 1 0 1 1 0 1 1 1 1 0 1 1 1 1 1 1 
455 20 4917 1 1 1 1 0 1 1 1 1 0 1 1 1 1 1 1 1 0 1 0 
456 20 4168 1 0 1 1 1 0 1 1 1 1 1 1 1 1 1 1 1 0 1 0 
457 20 4719 1 1 1 1 1 1 1 1 1 1 1 1 0 0 1 0 1 0 1 1 
458 20 5745 1 0 1 1 1 0 1 1 0 1 1 1 1 1 0 1 1 1 1 1 
459 20 3852 1 1 0 1 1 1 1 0 1 1 1 1 0 1 0 1 1 1 1 1 
460 20 4369 1 0 1 1 1 1 1 1 1 1 1 1 0 0 1 1 1 1 0 1 
461 20 4109 1 0 0 1 1 1 1 1 1 1 1 1 1 1 1 0 1 1 1 0 
462 20 3843 1 1 1 0 1 1 1 1 1 1 1 1 1 1 0 1 0 0 1 1 
463 20 5519 1 1 1 0 0 1 1 1 1 1 1 0 1 1 0 1 1 1 1 1 
464 20 5271 1 1 1 1 0 0 1 0 1 1 1 1 1 0 1 1 1 1 1 1 
465 20 3505 1 0 1 1 0 1 1 0 1 1 1 1 1 1 1 1 1 1 0 1 
466 20 4811 1 1 1 1 1 1 1 0 1 0 1 1 1 1 1 0 1 0 1 1 
467 20 3806 1 1 1 1 1 1 1 0 1 1 0 1 1 1 0 1 1 1 0 1 
468 20 4977 1 0 0 1 0 0 1 1 1 1 1 1 1 1 1 1 1 1 1 1 
469 20 3495 1 1 0 1 1 0 1 1 1 1 1 0 1 1 1 1 1 1 1 0 
470 20 4329 1 0 1 0 1 0 1 1 1 1 1 1 1 0 1 1 1 1 1 1 
471 20 4503 1 1 1 1 1 1 1 1 1 1 1 1 1 0 0 1 1 0 1 0 
472 20 5279 1 1 0 1 1 1 1 0 1 1 1 1 1 1 0 1 0 0 1 1 
473 20 5022 1 1 1 0 1 1 1 0 1 1 1 1 1 1 1 1 1 1 0 0 
474 20 5007 1 0 1 1 1 1 0 1 1 1 1 0 0 1 1 1 1 1 1 1 
475 20 4489 1 1 1 0 0 1 1 1 1 0 1 1 1 1 1 1 0 1 1 1 
476 20 4249 1 1 1 1 1 1 0 1 0 1 1 0 0 1 1 1 1 1 1 1 
477 20 5284 1 1 1 1 1 1 1 0 0 1 1 1 1 0 1 0 1 1 1 1 
478 20 4481 1 0 1 1 1 1 1 1 0 1 1 1 0 1 1 1 1 1 0 1 
479 20 4320 0 1 1 1 0 1 0 1 1 1 1 1 0 1 1 1 1 1 0 1 
480 20 5417 1 0 1 1 1 1 1 1 0 1 0 0 1 1 1 1 1 1 1 1 
481 20 3974 1 1 1 1 1 1 0 1 1 1 1 1 0 0 1 1 1 1 1 0 
482 20 4307 1 0 1 1 0 1 1 1 1 1 1 1 1 1 1 0 1 1 1 0 
483 20 4211 1 1 0 1 1 1 1 1 1 0 1 0 1 1 0 1 1 1 1 1 
484 20 4590 1 1 1 0 1 1 1 1 1 1 1 1 1 0 1 0 1 1 1 0 
485 20 5142 1 1 0 1 1 1 0 1 0 1 1 1 0 1 1 1 1 1 1 1 
486 20 4678 1 1 1 1 1 0 1 1 1 1 1 1 0 0 1 0 1 1 1 1 
487 20 5592 1 1 1 1 0 1 1 0 1 1 0 1 1 1 1 1 1 1 1 0 
488 20 4934 1 1 0 1 1 1 0 1 1 1 1 1 1 1 0 1 1 0 1 1 
489 20 4310 1 0 1 1 1 1 1 0 1 1 1 0 1 1 1 1 1 1 1 0 
490 20 4514 1 1 1 1 1 0 1 0 1 0 1 1 1 1 1 1 1 0 1 1 
491 20 4603 1 1 1 1 0 1 1 0 1 1 1 1 1 0 1 1 0 1 1 1 
492 20 5110 1 1 1 1 1 1 1 1 0 0 1 1 0 1 1 1 1 1 0 1 
493 20 4342 1 1 1 1 1 0 0 1 0 1 1 1 1 1 1 1 1 1 0 1 
494 20 5889 1 0 1 1 1 1 1 1 1 1 1 0 0 1 0 1 1 1 1 1 
495 20 4308 1 0 1 1 1 1 1 1 1 1 0 1 0 1 1 1 1 0 1 1 
496 20 5233 0 1 1 1 1 0 0 1 1 1 1 1 0 1 1 1 1 1 1 1 
497 20 4565 1 1 1 1 1 1 1 1 0 0 0 1 1 1 1 0 1 1 1 1 
498 20 4890 1 1 1 1 0 1 1 1 1 0 1 1 1 0 1 1 1 1 0 1 
499 20 5264 1 1 1 1 1 1 1 1 1 1 0 1 0 1 0 1 1 0 1 1 
500 20 4273 1 1 1 1 1 1 1 1 0 1 0 1 0 1 0 1 1 1 1 1 
