74
75
76
75
78
78
77
79
79
81
80
83
83
84
82
83
82
81
79
79
80
78
81
81
81
80
80
77
78
78
78
79
80
79
79
80
78
76
76
76
75
70
72
76
76
79
76
71
73
74
73
73
72
73
72
73
73
73
73
72
73
76
76
78
78
81
81
81
79
79
79
80
78
79
80
78
77
79
76
74
72
74
75
76
74
77
79
79
79
80
76
76
76
80
81
82
81
81
80
78
79
79
80
80
80
79
80
79
79
82
82
85
87
86
85
85
85
85
85
83
82
79
79
77
80
81
81
82
81
79
81
77
80
82
80
81
80
79
77
79
78
76
75
75
74
72
71
71
74
73
74
76
76
78
79
80
82
82
82
82
83
81
83
82
80
80
81
82
82
82
81
80
79
79
79
76
76
75
76
76
78
79
80
78
76
76
76
75
74
73
76
77
75
75
77
77
76
78
80
81
79
77
79
78
76
74
76
77
76
74
74
74
72
78
78
77
78
77
76
77
73
73
73
73
77
77
79
77
76
72
73
77
75
74
73
75
73
74
71
73
69
69
71
70
72
73
76
77
76
77
73
74
74
76
76
78
81
78
79
78
78
79
76
75
72
74
73
75
75
76
76
79
79
83
81
81
82
78
79
78
80
81
81
81
82
81
79
76
73
75
77
76
76
75
79
78
78
78
78
78
80
81
81
77
76
76
71
70
73
75
77
77
75
77
78
74
76
79
82
80
80
77
74
76
76
74
73
74
78
77
78
77
78
79
80
81
78
80
78
78
77
78
74
74
78
81
81
81
83
83
83
80
81
80
80
81
82
81
82
80
82
82
79
78
77
77
78
79
78
79
82
78
80
77
82
81
81
82
82
83
83
82
83
83
82
79
80
79
78
80
78
76
77
75
72
74
76
78
79
78
77
77
76
75
76
75
76
77
76
77
78
79
83
83
79
79
79
80
79
78
79
82
82
82
80
81
80
82
81
81
82
81
79
82
82
81
82
80
81
80
80
78
79
78
80
76
74
77
77
77
76
75
77
77
81
82
82
82
83
84
83
83
79
78
76
76
73
74
74
73
74
74
74
75
75
74
73
72
75
76
77
78
77
78
77
74
73
75
78
78
78
75
76
77
78
79
77
80
79
80
81
81
80
79
78
79
78
78
78
79
76
78
80
77
76
78
78
77
75
74
75
77
75
77
77
79
78
75
75
71
71
72
75
76
77
77
80
78
80
79
80
79
80
81
81
81
80
79
84
84
84
82
84
85
84
84
83
83
79
79
78
79
76
78
79
81
79
78
80
82
82
84
83
82
82
83
83
83
84
84
84
86
85
81
81
79
78
76
77
76
77
76
76
76
75
77
77
76
79
80
81
80
80
78
75
76
73
73
74
77
78
78
77
79
77
75
77
79
80
80
78
77
78
80
79
79
77
79
77
78
80
78
77
77
75
75
77
78
77
74
74
76
77
78
79
79
77
76
78
75
73
76
79
77
77
77
76
76
77
75
75
76
75
76
75
76
77
75
77
77
78
79
81
82
82
79
81
80
80
78
79
79
80
80
79
78
79
79
79
80
80
82
81
81
83
82
82
81
82
83
84
83
80
76
80
78
77
73
74
78
78
77
74
76
74
71
74
76
79
80
81
81
81
81
83
80
82
83
83
81
83
82
83
82
83
82
81
78
78
78
75
78
79
82
83
78
78
76
78
75
74
77
75
72
75
75
76
77
77
79
77
79
77
76
76
76
77
78
80
80
78
80
80
79
79
79
77
76
76
77
78
77
72
74
75
73
74
72
69
71
73
73
74
73
73
74
78
79
80
79
78
79
80
80
80
82
82
82
82
85
85
85
83
82
82
80
75
75
76
77
76
77
78
77
76
79
77
74
74
73
77
81
77
76
77
78
77
78
79
78
75
75
74
75
75
73
73
75
77
80
80
80
80
79
80
79
77
79
79
80
78
75
74
76
74
74
72
71
71
73
74
72
73
72
72
73
73
72
73
73
70
72
72
76
78
77
74
71
75
76
76
76
76
76
77
79
80
78
77
80
81
79
81
79
81
84
86
83
83
82
83
87
83
83
82
83
80
83
80
78
80
81
79
79
79
83
84
85
87
85
84
82
79
76
75
74
73
73
76
75
77
77
78
80
81
79
79
79
79
74
77
75
75
75
76
77
77
79
78
76
76
77
77
75
75
77
77
77
78
77
75
74
74
74
73
74
77
77
77
77
77
77
76
73
75
77
80
78
78
78
76
75
77
76
76
75
76
73
75
75
74
75
77
78
77
76
79
77
73
75
77
78
78
78
80
80
81
83
81
81
79
78
76
75
74
76
75
77
79
77
74
72
74
77
79
80
82
82
83
82
83
83
82
83
85
84
83
81
82
82
82
81
83
84
79
79
79
82
82
80
79
84
85
81
81
80
81
82
84
84
84
83
83
82
83
83
83
84
82
81
81
81
81
78
78
77
76
76
80
76
77
78
77
78
80
81
80
81
82
82
82
82
81
81
83
83
81
83
83
83
79
77
77
78
76
77
78
76
77
75
71
71
72
72
73
75
74
73
74
72
74
76
77
78
78
75
78
77
78
77
78
76
79
82
82
80
81
80
81
80
80
81
79
81
80
81
79
79
75
76
77
79
78
77
77
77
80
77
78
78
78
78
78
82
82
82
80
80
81
84
86
86
84
84
83
83
80
83
82
80
79
79
77
77
79
79
76
75
77
79
79
79
80
77
80
77
77
80
83
85
84
83
82
83
84
85
83
82
83
83
81
80
82
83
85
86
86
86
85
83
83
83
84
84
81
80
81
80
79
80
80
81
80
79
79
79
80
79
79
80
80
82
83
83
82
82
82
81
81
79
78
77
78
79
80
79
79
80
79
78
78
79
79
79
79
79
79
77
78
75
73
73
74
79
78
79
83
83
86
86
84
83
84
85
86
84
80
79
80
79
79
79
78
77
76
79
78
79
80
80
81
81
82
76
82
85
84
84
82
82
83
85
85
83
84
85
86
85
82
85
82
81
82
82
82
81
83
86
87
85
82
81
79
79
76
79
76
74
71
74
73
72
70
70
67
67
68
68
69
71
69
72
75
73
74
76
79
78
79
78
75
77
71
75
72
71
73
71
67
68
69
71
77
79
76
79
80
81
81
81
81
80
77
74
74
76
74
76
77
74
74
74
73
71
71
71
72
74
75
79
78
79
78
80
78
78
78
78
77
77
79
76
77
76
76
77
76
75
75
78
75
75
78
78
79
79
78
74
75
77
78
79
79
79
80
81
79
77
76
74
71
74
76
75
76
75
75
75
76
77
78
76
74
74
75
74
73
74
75
77
75
75
76
75
75
77
75
77
78
75
73
75
78
75
77
79
75
75
74
77
77
80
77
76
75
73
76
80
79
80
80
76
72
72
71
74
74
74
71
70
69
70
70
70
71
75
74
76
76
76
75
75
77
77
78
75
76
75
77
80
81
82
83
81
81
80
81
83
83
83
82
82
82
80
80
78
77
78
77
77
76
78
78
80
80
79
79
79
79
80
82
78
80
78
76
82
76
75
75
74
75
76
77
74
73
73
73
73
76
77
79
78
79
78
79
79
81
82
82
81
81
81
81
81
79
77
81
84
83
83
84
87
87
85
85
86
85
85
83
86
84
86
85
85
84
82
81
81
78
78
79
79
79
85
86
83
83
80
80
81
81
83
80
78
79
81
80
78
78
80
78
80
80
79
83
79
82
81
80
79
77
77
77
80
76
77
77
75
76
77
77
78
77
78
78
76
74
74
75
75
75
78
77
74
76
76
74
76
74
72
75
72
72
72
75
75
75
75
75
77
75
77
75
75
76
73
71
73
76
77
76
75
74
74
75
74
74
74
75
76
74
74
73
74
78
78
77
78
77
79
77
76
77
78
77
77
78
81
80
80
80
76
75
75
76
75
78
80
81
78
79
78
77
78
80
79
78
80
82
82
82
80
79
80
81
81
77
77
78
78
79
78
79
76
77
78
77
78
75
74
75
75
76
75
75
72
71
72
75
74
75
79
75
75
75
76
75
75
73
73
74
77
74
73
71
75
75
75
78
78
75
77
77
78
76
73
72
73
74
74
75
75
76
73
74
74
74
76
79
79
80
80
80
79
75
74
75
79
76
74
74
74
72
72
72
70
70
70
73
72
71
71
75
75
72
76
74
69
72
73
76
75
79
75
75
78
79
78
81
80
76
77
74
73
72
71
72
75
76
79
80
80
80
76
77
79
79
79
79
78
77
77
76
74
74
73
74
75
74
75
73
74
77
77
78
78
77
78
76
79
80
81
79
76
75
70
75
76
78
79
78
79
81
81
79
83
83
79
79
79
79
79
82
78
80
80
80
77
81
77
77
78
79
78
78
79
79
76
75
79
78
78
78
82
78
82
83
83
81
80
82
78
77
76
78
79
79
78
77
78
80
80
81
83
86
85
84
86
84
85
84
85
84
84
80
84
84
83
82
82
82
82
82
82
83
82
80
78
77
78
77
74
76
77
79
79
76
79
78
77
74
73
73
74
75
74
75
77
74
77
78
77
76
74
75
73
74
75
76
77
77
76
77
78
78
79
79
78
78
78
78
77
78
80
79
78
80
82
82
83
82
83
82
79
80
82
79
79
78
78
77
78
74
72
74
76
79
80
81
81
81
83
83
81
81
78
79
79
79
79
80
82
82
81
80
81
82
81
81
82
83
82
82
79
79
80
79
77
78
78
79
78
76
79
79
81
82
81
80
81
83
83
83
81
81
80
81
80
80
80
80
80
80
84
83
85
85
85
85
85
84
84
83
83
83
84
82
81
83
81
82
81
80
79
80
80
77
76
78
80
78
78
81
80
80
79
79
77
78
79
81
81
82
84
81
80
77
77
76
78
79
76
78
80
80
81
81
82
82
80
79
76
78
81
81
81
79
79
81
79
72
71
73
74
76
77
75
73
76
73
74
73
76
78
78
80
79
81
84
83
81
79
80
78
78
78
76
76
73
72
73
75
74
75
74
73
73
74
76
80
78
78
80
80
77
77
73
75
73
71
74
77
76
78
80
82
82
80
79
78
79
76
78
77
75
71
71
73
73
73
71
70
70
75
77
75
74
73
73
76
75
76
76
79
79
80
80
76
78
76
76
76
74
74
74
76
77
79
79
79
78
73
76
74
76
75
76
76
77
76
77
76
78
78
77
73
73
72
73
73
75
77
77
77
77
74
72
77
77
78
79
79
80
81
80
79
78
80
81
80
79
77
73
72
71
72
75
75
74
78
78
78
77
78
80
81
81
81
80
80
79
76
77
77
74
77
78
78
79
75
78
77
79
82
84
83
81
81
81
82
81
82
82
82
82
81
82
84
83
83
85
85
85
83
79
83
83
78
79
81
84
79
81
80
79
78
79
80
78
81
80
80
77
78
75
74
74
75
73
73
75
74
75
73
71
72
73
73
73
77
79
79
77
77
77
76
77
80
82
83
82
81
81
80
78
80
80
81
80
81
81
81
81
79
79
79
78
77
77
71
74
74
76
74
80
80
77
76
75
74
77
76
77
77
79
80
78
79
79
79
79
78
75
74
77
76
75
75
73
76
76
76
78
78
77
79
77
74
75
75
74
73
74
73
74
73
74
77
76
76
74
75
73
76
74
72
72
73
72
73
72
69
70
72
75
73
75
75
76
78
79
81
79
81
81
80
78
78
76
78
77
79
79
82
82
80
79
80
79
80
78
81
83
80
76
74
76
76
78
77
74
74
79
83
80
80
81
82
82
81
81
81
82
82
82
82
81
79
79
79
75
75
75
76
74
76
79
80
80
81
82
84
81
79
78
77
78
78
77
76
77
76
79
84
84
83
81
81
79
78
75
75
78
76
74
75
76
76
75
78
77
76
76
79
79
78
78
79
79
80
76
77
76
75
73
74
74
75
77
75
76
73
75
74
73
74
80
81
82
83
82
83
81
76
71
73
71
70
71
71
70
71
68
71
70
73
70
66
67
68
70
73
71
72
74
75
78
76
79
76
78
78
76
76
75
76
76
75
73
75
75
77
79
79
82
81
81
81
80
78
81
79
81
83
84
83
82
80
77
77
77
80
79
78
78
77
79
78
77
78
79
80
84
80
80
79
77
79
81
80
80
78
77
77
78
77
77
79
80
79
80
76
79
80
81
81
82
80
78
78
79
78
84
84
86
85
84
80
81
80
79
79
80
79
79
80
86
85
80
81
80
79
79
76
75
75
79
81
80
79
79
80
79
81
81
80
80
82
84
84
82
82
77
75
78
84
85
83
79
78
80
80
82
81
82
80
78
79
80
78
77
80
81
80
75
77
81
78
79
79
77
77
76
79
79
75
74
75
73
73
76
79
80
83
80
79
80
80
80
77
76
76
78
77
79
80
78
78
77
73
72
70
72
74
75
76
76
74
72
74
72
74
72
71
72
73
77
76
78
76
77
77
77
82
81
81
79
79
81
76
76
76
81
81
81
80
80
81
81
80
80
82
80
81
79
80
82
81
80
81
81
79
82
83
83
83
83
84
84
83
82
83
81
81
82
82
76
78
81
80
81
78
77
83
77
77
76
77
77
80
80
79
79
77
77
76
75
80
82
82
80
78
79
78
76
76
78
80
81
81
80
76
75
75
74
75
72
74
75
76
76
76
71
76
77
77
78
79
77
75
75
76
73
70
70
65
66
69
71
68
68
68
73
68
69
70
69
68
68
66
68
69
68
73
73
73
72
72
73
77
77
79
79
77
76
76
76
75
76
75
75
77
76
75
75
74
73
75
73
72
68
70
73
74
73
75
75
74
76
78
78
81
78
78
78
78
79
78
78
79
76
77
78
79
80
77
79
79
81
82
82
81
79
81
81
82
83
83
82
82
79
79
78
75
76
79
79
82
80
81
81
80
78
79
79
84
83
82
79
79
78
78
77
77
78
76
79
83
79
74
76
79
79
80
80
80
80
80
80
81
80
79
79
76
76
76
78
80
82
81
77
75
72
72
73
73
72
72
70
70
68
71
73
80
78
81
84
83
84
82
80
81
78
79
80
79
80
79
77
76
77
77
77
74
74
71
74
74
74
73
76
76
75
74
73
75
76
76
75
76
77
76
78
76
76
72
73
75
75
78
78
77
79
81
81
81
81
81
82
82
81
83
83
83
82
82
83
81
80
81
79
79
78
76
78
78
79
77
79
80
81
81
81
80
79
80
83
84
85
82
80
83
83
80
78
76
76
76
75
73
75
76
78
76
79
78
76
77
76
79
78
79
79
79
79
79
80
80
79
79
81
83
81
80
78
79
79
78
76
75
76
76
79
79
79
76
76
77
76
73
73
73
74
73
76
73
74
74
76
77
78
78
79
76
76
75
77
76
79
76
77
76
73
74
76
76
73
71
71
70
72
73
79
82
80
79
82
81
78
78
78
79
79
82
82
81
78
79
79
78
76
80
79
76
74
76
74
75
77
76
78
78
76
75
72
75
78
79
79
77
75
79
79
80
80
80
80
81
80
81
81
81
80
80
80
79
77
77
76
82
84
84
82
80
82
81
81
80
79
81
81
79
80
80
80
83
84
85
83
84
83
83
84
84
84
83
82
84
84
83
83
81
82
80
80
79
82
80
80
81
81
82
80
80
79
78
77
78
78
80
81
80
79
80
79
79
80
80
80
78
78
77
75
75
77
77
81
81
82
82
82
82
81
79
79
79
78
78
79
78
79
80
81
85
81
80
84
84
85
85
80
85
79
80
81
80
80
80
82
80
78
78
78
80
80
83
80
83
82
80
81
81
80
82
80
82
82
84
84
81
78
77
79
79
80
79
79
80
79
80
80
79
79
77
76
77
77
77
77
77
74
74
74
74
75
75
74
73
74
75
75
75
77
75
73
73
72
74
77
74
77
75
76
75
76
77
78
75
76
77
79
79
79
83
80
83
80
80
80
78
78
76
75
73
73
76
77
78
78
78
78
76
77
77
76
77
76
77
79
79
80
78
81
78
80
82
84
82
82
81
82
82
82
82
82
82
81
82
82
79
80
78
78
80
80
79
79
77
75
76
76
75
74
75
76
78
77
75
75
75
75
73
74
75
75
77
74
76
76
75
75
79
76
77
76
79
79
77
75
75
73
75
74
75
74
74
76
80
80
81
81
78
81
80
76
74
74
73
77
76
74
74
73
72
74
75
77
75
77
75
74
76
76
78
80
79
80
78
77
77
76
78
76
79
83
84
81
82
81
81
83
80
81
81
81
80
80
81
81
79
79
81
80
82
82
82
82
83
84
80
84
80
81
82
76
82
80
77
78
78
76
77
79
74
73
73
73
71
71
71
72
73
75
81
81
81
81
79
77
77
78
79
80
81
82
80
79
79
80
79
81
81
81
81
83
84
84
85
85
85
82
82
83
88
88
88
88
88
88
88
88
88
88
88
88
88
88
88
88
88
88
88
88
88
88
88
88
88
88
88
88
88
88
88
88
88
88
88
88
88
88
88
88
88
88
88
88
88
88
88
88
88
88
88
88
88
88
88
88
88
88
88
88
88
88
88
88
88
88
88
88
88
88
88
88
88
88
88
88
88
88
88
88
84
80
80
79
79
80
79
81
84
84
88
88
88
88
88
88
88
88
88
88
88
88
88
88
88
88
88
88
88
88
88
88
88
88
88
88
87
86
81
80
80
77
78
77
78
78
80
78
79
79
77
74
75
75
78
78
80
80
84
84
84
84
83
82
82
85
85
84
84
84
85
85
83
83
82
83
82
82
81
81
82
81
81
80
77
79
75
76
78
81
81
78
77
74
73
73
72
72
71
74
74
74
73
74
73
70
71
71
71
75
78
79
80
80
83
83
82
81
79
76
73
73
77
80
82
78
78
83
83
82
83
83
83
84
83
81
73
74
75
76
78
84
83
82
83
77
78
77
78
75
76
75
75
76
76
76
75
79
81
77
77
77
79
77
77
76
74
75
76
77
79
80
79
80
79
79
78
79
80
79
79
79
80
80
80
80
84
85
85
82
79
79
80
80
76
80
79
78
78
75
71
73
73
74
73
72
73
74
73
73
74
75
75
76
76
76
78
77
73
71
71
73
75
76
76
76
78
81
81
79
79
80
80
80
80
78
79
78
75
74
75
78
79
81
81
77
82
79
78
70
71
70
74
75
76
78
78
81
78
77
79
76
79
79
77
79
77
77
77
76
77
80
78
76
77
76
75
76
75
74
74
72
75
76
75
77
76
79
78
78
77
77
77
75
76
78
78
74
75
74
73
75
73
72
69
71
71
73
73
77
80
78
76
77
77
77
78
78
79
79
79
80
80
80
82
79
77
77
79
76
79
77
75
78
75
75
77
75
75
77
78
80
80
79
80
80
79
80
81
81
81
81
76
81
80
80
80
79
79
77
76
78
79
78
77
78
79
78
79
78
78
78
77
75
74
78
79
79
79
78
76
78
80
78
77
76
77
80
79
75
75
77
76
78
79
79
79
83
81
83
83
83
83
82
82
82
80
77
77
77
76
79
79
83
83
83
83
80
81
78
79
79
82
84
85
87
86
84
81
80
79
78
77
78
79
79
78
77
77
76
78
82
85
83
79
83
80
81
79
79
74
75
76
75
76
77
78
76
78
77
79
80
79
79
78
80
80
81
81
83
82
83
84
86
88
88
88
88
88
88
88
88
88
88
88
88
88
88
88
88
88
88
88
88
88
88
88
88
88
88
88
88
88
88
88
88
88
88
88
88
88
88
88
88
88
88
88
88
88
88
88
88
88
88
88
88
88
88
88
88
88
88
88
88
88
88
88
88
88
88
88
88
88
88
88
88
88
88
88
88
88
88
88
88
88
88
88
88
88
88
88
88
88
88
88
88
88
88
88
88
88
88
88
88
88
88
88
88
88
88
88
88
88
88
88
88
88
88
88
88
88
88
88
88
85
83
84
84
85
86
85
85
85
84
84
83
84
83
80
75
75
75
80
78
78
79
80
82
80
79
74
74
76
77
78
80
80
81
81
77
76
75
77
75
76
75
75
73
73
74
72
75
75
77
77
77
77
81
83
83
80
80
78
79
78
79
78
80
80
80
80
80
83
82
82
81
79
78
78
80
81
82
83
82
80
81
78
77
79
82
81
81
82
81
77
76
76
75
78
76
76
78
77
75
74
74
75
76
78
80
79
77
80
80
80
80
78
76
79
80
80
80
80
79
82
83
81
84
83
81
83
80
77
77
77
76
73
72
75
70
70
71
71
70
70
74
70
68
69
71
70
69
69
72
74
74
74
74
74
73
73
73
73
73
75
77
79
79
82
82
81
82
84
84
84
84
83
83
80
80
78
80
80
79
82
79
81
80
81
79
79
79
80
78
78
81
81
82
82
78
78
76
76
74
76
76
75
76
76
73
71
74
74
74
72
70
70
67
69
71
71
71
74
75
77
79
77
79
80
79
77
80
78
77
74
76
74
75
75
74
74
75
75
71
72
77
74
74
74
74
76
79
80
80
80
80
80
78
76
78
78
77
75
75
78
78
78
77
77
78
79
80
80
79
79
79
77
77
79
78
82
82
84
80
79
79
82
80
82
83
83
85
84
81
79
78
79
79
79
76
75
76
79
79
76
76
76
76
76
76
76
79
79
77
78
79
78
79
80
80
82
81
81
82
81
83
81
81
77
77
78
77
77
79
81
81
82
82
82
81
80
80
77
76
79
78
79
78
78
79
77
79
77
77
73
74
75
74
75
78
78
78
78
76
74
78
74
74
77
78
78
77
76
73
76
76
75
75
75
75
75
76
76
75
79
80
81
79
79
79
81
82
82
82
82
83
83
80
80
83
79
80
79
79
80
78
77
77
78
79
79
77
78
77
77
82
82
82
79
79
79
79
81
82
85
83
81
79
77
78
77
80
80
80
80
80
80
80
80
78
76
79
80
78
77
75
77
77
79
79
80
79
80
76
75
75
75
77
78
76
74
73
75
75
76
75
74
74
73
70
69
72
74
72
72
71
75
74
72
73
74
74
74
74
72
74
74
76
77
75
74
72
72
72
72
74
75
75
72
75
77
77
77
77
77
77
79
81
79
79
79
77
78
79
78
78
78
77
77
80
76
72
74
74
76
76
76
78
76
77
79
81
81
79
77
76
76
76
76
79
79
80
78
78
78
78
77
79
78
78
78
78
76
76
79
81
80
78
78
77
78
75
74
74
74
76
74
71
71
69
72
69
71
71
72
69
70
71
72
72
73
75
79
81
81
82
82
81
80
79
75
75
75
75
77
76
77
77
77
77
76
76
76
76
75
74
75
80
82
82
82
77
77
78
78
78
77
76
76
77
77
79
78
78
78
79
81
81
82
83
80
78
82
82
79
80
77
75
76
79
79
78
78
76
78
78
77
78
77
78
79
77
79
81
77
78
78
76
76
77
77
76
79
79
77
78
79
79
78
80
81
80
76
76
73
74
75
75
77
75
77
77
75
75
74
74
72
72
71
73
78
77
75
76
77
77
77
79
78
79
77
77
78
81
82
82
85
83
81
82
81
82
82
83
81
81
79
79
77
78
78
79
79
80
80
80
79
80
82
82
83
83
83
83
82
79
80
80
81
77
78
80
82
85
84
84
83
84
84
84
84
83
81
78
80
78
81
81
78
78
75
74
73
77
78
77
77
80
80
80
80
80
79
77
77
76
77
77
75
74
75
77
79
78
79
79
80
79
82
82
79
78
78
78
80
82
80
82
82
83
84
83
85
85
83
81
83
82
80
79
78
79
79
80
80
80
78
79
81
79
77
76
76
76
80
81
81
80
80
79
80
81
82
81
78
77
79
78
80
80
82
80
79
75
76
80
80
80
80
81
83
82
82
83
83
84
82
81
83
80
80
80
82
82
81
81
79
81
82
81
81
79
80
80
80
77
78
80
82
81
78
77
77
82
80
79
81
79
78
78
80
81
81
84
84
78
76
74
75
78
79
79
81
80
76
73
74
78
77
77
77
77
78
76
76
73
75
73
76
78
80
80
80
76
75
75
73
74
75
76
75
74
77
77
75
75
75
76
76
77
80
78
80
77
80
78
78
75
77
76
77
75
74
73
72
72
73
73
71
72
73
74
73
76
77
81
82
85
86
85
85
85
81
77
80
77
79
78
78
79
79
82
79
80
79
79
80
82
78
78
75
76
74
74
74
79
80
80
81
81
79
81
81
84
84
86
85
84
82
83
82
83
85
85
85
86
87
87
86
86
87
84
82
78
77
76
76
78
81
81
79
77
73
75
73
74
73
75
77
73
75
79
77
75
75
77
81
80
77
76
74
78
78
78
78
79
78
76
76
72
72
72
74
76
74
72
72
75
78
75
76
78
77
80
79
80
77
77
75
75
75
75
75
74
74
75
72
68
70
68
71
72
73
76
75
77
73
72
73
72
73
73
76
78
81
82
81
79
77
77
76
77
78
77
76
74
76
75
75
74
75
75
81
80
82
84
84
84
84
84
86
86
86
86
86
81
79
78
79
78
78
75
77
75
73
74
73
74
74
71
76
76
79
79
80
81
80
81
83
84
82
83
83
82
83
84
84
82
79
77
77
77
76
76
78
78
79
79
77
77
76
75
75
75
74
75
77
76
81
81
81
81
80
81
81
80
79
79
79
80
80
80
78
80
79
77
77
78
77
76
76
72
73
73
72
74
73
72
74
75
73
76
75
76
77
78
77
77
79
80
81
84
83
84
85
85
85
82
81
81
81
82
82
82
81
82
82
84
83
83
83
81
80
80
79
81
76
75
74
75
80
80
80
80
80
79
79
79
79
74
76
80
83
80
81
81
80
82
83
83
82
82
81
84
80
81
80
81
80
81
81
83
80
83
83
82
83
80
78
77
78
80
80
82
84
84
83
85
86
83
83
83
83
79
82
82
85
87
84
84
84
82
82
82
80
82
83
81
83
85
82
81
80
79
82
82
82
82
83
83
84
84
84
86
83
84
84
82
81
80
78
79
76
73
72
73
75
73
73
73
76
78
78
78
77
77
77
79
79
79
76
75
76
77
78
76
77
76
75
76
76
77
76
79
79
77
79
81
82
81
82
85
81
81
79
81
81
79
81
81
81
77
75
81
82
81
83
83
82
84
85
86
86
86
85
80
75
75
74
70
72
76
76
79
77
81
81
81
84
83
81
81
83
82
81
81
79
80
80
79
80
79
80
82
80
80
80
80
82
82
81
79
79
78
76
79
79
80
84
83
82
82
84
84
81
81
82
83
85
87
87
85
84
79
80
78
79
76
79
77
77
76
79
78
75
75
76
78
80
81
81
79
81
82
80
80
79
83
84
84
84
83
83
84
85
84
85
86
86
85
85
85
84
86
86
86
86
83
81
79
77
76
74
74
74
76
76
75
76
74
78
80
80
79
79
76
79
76
78
80
78
78
78
82
82
80
83
83
83
81
81
82
82
82
80
82
82
85
85
82
83
84
84
84
84
86
86
86
86
85
84
82
82
82
82
84
81
81
81
81
81
78
76
78
76
74
72
71
68
69
69
68
70
70
70
72
71
73
75
75
75
76
76
74
75
74
73
75
74
74
74
74
76
74
74
73
72
75
73
73
75
75
75
74
74
78
80
79
79
77
75
78
76
77
75
77
78
79
77
77
75
76
76
73
72
72
71
71
72
72
74
75
76
76
76
77
82
83
82
85
85
79
78
78
78
78
77
74
78
78
77
76
76
77
74
75
78
79
79
76
74
72
74
75
74
77
77
77
77
78
78
78
76
78
78
75
74
76
74
78
79
81
80
80
81
85
85
85
84
85
84
83
81
81
80
80
82
82
83
83
78
80
80
79
80
82
83
82
80
77
76
78
77
77
79
78
76
78
79
82
83
83
80
79
80
80
82
82
81
82
82
81
80
83
80
81
83
83
83
83
82
83
83
83
81
80
79
81
82
81
81
77
77
76
76
77
79
79
77
78
79
79
77
77
74
77
80
78
79
81
83
83
82
79
80
77
77
80
79
78
78
77
74
76
76
76
79
81
80
80
79
80
80
80
80
76
76
78
81
81
80
79
83
85
85
83
83
83
84
84
83
81
78
78
78
77
79
81
78
76
75
77
77
78
77
77
77
76
79
78
77
75
78
78
77
80
81
81
80
80
80
81
80
80
78
78
78
80
75
76
76
76
76
76
80
76
75
75
75
76
74
77
78
79
79
81
80
79
79
81
81
81
81
80
81
81
81
81
82
81
79
80
79
76
78
77
77
79
78
81
84
81
81
84
81
80
80
78
80
82
83
85
83
83
79
79
81
82
81
77
76
73
76
73
75
76
78
77
79
79
77
79
80
81
80
80
81
81
81
81
81
81
81
81
79
81
80
78
78
78
80
81
81
81
77
77
78
75
75
79
78
79
80
79
79
79
79
81
82
79
77
76
74
76
75
77
76
76
76
77
72
72
73
78
79
80
80
79
82
85
85
86
85
80
80
78
79
76
76
75
76
78
79
80
80
81
81
83
82
83
83
84
84
84
84
80
84
83
83
83
84
82
81
78
76
80
79
80
81
80
79
79
80
78
78
80
81
81
80
79
78
78
79
80
81
82
81
82
81
81
82
81
81
83
87
85
85
85
84
86
83
86
83
82
79
76
74
74
76
76
79
80
80
78
79
80
80
81
82
80
82
80
77
77
77
77
77
77
77
79
79
82
83
83
83
81
81
78
77
77
77
74
75
77
77
78
78
79
79
81
81
79
78
79
77
79
79
80
80
81
82
76
76
76
77
77
77
77
76
77
79
79
79
79
79
81
79
78
75
76
75
76
77
77
78
80
79
78
79
78
79
79
76
77
77
77
81
78
77
77
77
78
81
82
82
81
78
78
80
80
77
77
76
76
76
77
77
80
81
80
80
80
79
79
76
74
77
77
75
76
74
77
76
76
78
79
77
74
74
74
74
74
73
74
74
78
77
80
80
78
79
79
79
76
78
78
77
78
80
85
80
81
79
79
81
81
82
82
80
81
79
79
79
76
77
78
78
77
78
78
78
79
79
78
78
78
79
77
78
78
77
80
82
80
79
79
80
79
79
81
78
79
77
78
78
78
74
75
75
76
76
73
76
80
77
75
75
76
77
77
77
77
81
81
82
83
82
80
79
77
79
81
79
81
82
84
83
85
85
85
83
85
85
82
82
81
82
84
83
83
83
82
82
81
80
77
78
77
77
77
77
80
77
76
76
77
80
78
80
82
82
83
82
84
82
82
82
83
83
84
83
83
83
83
83
83
81
83
83
83
83
83
83
83
83
82
81
82
81
80
80
77
77
77
80
83
84
83
81
82
79
79
78
76
77
75
75
71
71
71
71
69
70
71
71
72
73
73
76
75
74
73
74
76
76
76
78
79
78
81
81
81
82
82
84
82
82
82
80
80
81
80
78
78
78
78
75
73
72
75
74
75
77
80
79
77
79
77
76
76
78
79
79
79
79
79
79
78
76
77
77
78
82
82
82
82
82
82
79
78
78
80
79
80
77
77
77
77
76
76
78
78
78
77
77
77
79
77
76
75
76
77
79
80
81
81
80
80
82
82
82
82
82
83
82
82
78
76
77
77
77
77
76
79
76
77
77
78
80
81
82
81
80
82
81
80
78
80
76
76
77
76
77
78
77
77
81
81
81
76
76
76
75
76
76
78
77
79
82
80
78
75
74
74
77
75
74
78
79
76
77
77
79
79
79
80
78
78
77
77
77
76
75
76
76
76
75
75
70
71
71
71
73
75
76
75
74
75
77
78
79
79
76
76
75
75
76
75
76
75
75
74
74
74
71
71
70
73
77
77
75
76
72
71
71
73
73
73
72
73
73
73
75
72
72
73
72
76
72
73
73
77
74
76
78
78
78
77
80
81
81
79
80
74
72
72
74
75
75
75
76
77
79
77
75
75
79
80
80
80
80
78
78
78
78
78
77
77
77
78
75
77
76
78
76
77
78
81
81
80
80
83
81
83
83
81
82
83
82
82
84
84
83
83
83
81
79
78
79
81
79
79
78
77
77
77
77
77
76
76
75
76
78
77
76
76
75
74
74
73
74
74
74
72
75
76
76
78
78
80
80
79
80
80
80
80
80
80
81
81
83
83
82
83
83
80
81
79
79
79
79
82
83
81
79
79
77
79
81
80
80
81
81
79
80
80
77
77
77
77
73
72
72
75
77
78
78
75
75
77
79
81
79
79
75
72
73
73
74
75
78
76
76
76
72
81
82
82
83
81
81
80
80
80
78
80
81
80
80
80
75
77
77
77
77
76
80
83
83
85
85
85
86
83
81
82
80
78
77
74
76
76
75
77
79
79
81
81
81
83
84
82
81
81
81
81
79
78
78
78
79
78
78
79
80
78
83
80
78
75
77
79
78
80
79
79
77
78
79
80
80
81
83
84
83
83
86
86
86
86
83
82
82
82
82
82
78
78
78
79
81
82
83
82
81
77
75
78
79
78
77
74
79
77
80
78
79
79
81
78
78
78
77
76
76
76
76
78
76
76
77
77
77
77
77
77
78
79
79
83
80
79
79
79
79
81
80
80
78
78
79
79
79
80
80
80
80
79
80
81
80
80
80
80
81
81
81
81
79
78
78
78
78
78
80
80
81
80
80
79
79
79
79
79
80
79
78
78
79
79
78
77
78
78
78
80
80
82
82
82
83
83
82
80
77
76
77
79
82
82
79
79
79
80
82
82
82
80
79
78
77
81
80
82
82
82
82
82
82
81
81
81
81
81
80
81
82
84
82
81
82
83
81
81
78
79
81
81
81
82
82
82
82
81
79
81
82
80
79
79
79
79
80
79
79
76
75
73
75
78
76
78
80
80
81
78
79
77
77
77
77
76
75
75
75
77
79
77
76
74
75
78
79
80
80
80
79
78
76
74
76
76
74
72
72
73
74
73
73
71
73
76
76
76
78
79
79
77
77
75
77
76
77
76
78
81
82
81
81
83
84
85
83
84
83
83
83
83
83
83
81
79
77
77
78
80
78
79
76
79
77
79
81
81
79
78
79
78
79
78
77
76
76
76
79
79
78
77
75
73
76
77
81
79
78
78
80
80
77
78
78
79
79
78
74
74
74
77
79
77
77
77
77
77
78
79
76
75
79
82
82
82
81
82
82
82
80
80
80
80
80
77
76
75
78
77
78
78
75
74
76
79
79
80
79
81
81
81
79
79
76
76
77
77
76
76
79
80
80
82
83
83
83
86
85
85
84
84
84
82
81
80
81
81
81
80
79
80
79
78
79
76
76
76
79
76
77
78
80
80
81
81
81
80
80
80
78
78
79
79
80
80
78
80
80
80
80
80
79
80
81
81
81
78
78
78
78
80
83
84
81
80
82
80
79
82
81
81
81
81
82
82
81
81
81
79
77
80
79
80
78
79
81
81
82
81
83
83
84
85
84
84
81
81
81
81
77
77
78
77
78
77
79
78
79
81
81
81
80
79
80
78
79
80
80
78
79
78
79
81
82
82
82
82
84
83
83
86
86
86
86
86
86
85
84
81
81
81
79
79
79
79
81
78
78
78
78
80
79
79
79
76
74
79
79
78
78
78
78
75
77
77
77
81
81
78
78
79
77
77
76
78
77
77
77
78
80
80
80
80
80
78
80
80
79
78
75
74
76
76
77
77
76
78
78
76
79
79
79
79
78
79
81
81
81
82
82
82
82
80
80
75
75
76
77
77
75
76
76
75
76
75
75
76
79
78
78
79
79
79
79
78
78
81
79
81
81
80
77
78
78
77
77
78
78
79
79
80
78
78
78
78
78
77
76
78
78
80
80
77
78
80
80
80
81
81
80
79
79
79
79
79
80
78
78
80
80
79
79
79
79
80
80
81
82
84
82
84
84
83
80
81
79
83
83
82
83
84
84
84
83
82
82
81
83
82
80
80
80
81
81
81
81
79
80
79
80
80
80
81
80
78
80
79
78
77
79
80
81
80
78
78
78
78
78
76
76
78
78
76
76
77
76
77
75
76
75
78
79
81
81
81
81
79
79
78
78
78
80
80
79
80
78
80
78
78
76
76
76
77
76
77
77
78
80
79
78
77
75
76
77
78
76
77
76
75
76
76
76
78
78
78
76
75
75
75
77
76
76
77
80
79
79
81
78
82
82
81
81
83
84
83
83
84
84
84
84
84
83
84
84
85
85
84
82
84
83
84
84
84
79
77
77
77
80
80
80
80
80
80
81
81
81
81
81
76
75
74
77
81
82
82
80
80
80
78
78
76
76
76
76
76
78
78
77
79
82
81
80
80
81
82
83
80
80
80
80
84
84
84
84
84
83
82
82
81
78
81
81
81
81
82
83
83
83
83
82
82
82
82
81
81
82
79
79
79
78
77
77
77
77
74
74
74
77
79
81
85
83
83
84
84
84
84
83
82
80
78
76
78
78
75
78
79
79
79
77
76
78
77
78
80
83
75
75
77
77
79
77
78
78
78
77
77
77
79
79
79
79
79
80
80
79
79
79
80
80
80
81
81
81
83
83
81
81
80
79
77
80
80
80
81
81
81
81
80
83
83
83
82
81
82
82
82
82
80
81
81
81
82
83
83
84
84
85
84
84
83
82
81
82
82
81
79
80
81
79
81
80
83
83
83
83
81
83
84
82
82
82
80
78
77
78
80
81
80
83
82
81
80
81
80
81
80
80
77
78
79
78
79
78
79
79
80
78
76
79
79
81
79
79
78
79
80
79
75
78
79
79
78
77
73
75
74
72
72
72
71
72
73
75
73
75
74
75
76
73
74
76
76
76
76
77
77
77
77
75
74
71
71
72
72
72
75
74
74
74
77
76
78
78
77
77
80
78
75
74
76
74
75
75
77
75
73
75
75
73
73
74
74
77
76
76
74
76
78
78
78
77
80
81
81
81
81
80
78
78
78
78
77
80
80
80
80
78
78
81
80
79
78
79
79
76
76
78
78
78
79
80
77
77
77
76
76
76
75
75
76
79
80
80
79
79
79
75
79
78
79
79
78
80
80
80
79
75
76
78
81
79
81
81
80
81
81
81
81
81
81
80
83
83
84
82
82
84
84
83
83
83
84
83
82
82
83
80
80
80
78
81
81
82
82
80
81
83
84
84
82
81
80
80
81
79
77
78
77
76
75
77
75
76
76
72
72
74
73
74
79
80
78
78
82
83
83
83
83
82
81
82
82
83
80
80
81
80
80
80
80
80
79
78
79
80
80
79
77
77
75
77
78
79
78
79
82
82
82
82
84
84
81
81
80
78
79
79
81
82
79
79
78
79
82
82
84
84
85
85
85
85
84
85
86
84
84
85
86
84
85
85
85
85
84
84
84
84
84
84
83
82
82
82
82
85
83
83
84
84
82
81
81
81
82
82
81
81
81
81
81
81
78
77
77
78
77
79
79
79
80
79
79
78
79
80
80
78
78
79
80
80
80
76
76
76
80
79
79
82
82
84
81
78
78
77
75
75
77
78
76
75
75
74
74
74
76
76
76
77
74
77
79
80
79
78
78
78
82
82
81
82
85
85
85
87
86
81
80
81
82
82
82
84
84
85
85
82
80
80
77
78
78
78
78
78
79
79
81
77
74
78
79
78
81
83
82
82
82
83
83
83
83
83
82
82
83
84
84
83
83
84
83
82
80
80
80
82
83
84
83
83
82
82
82
82
82
79
78
78
79
78
78
79
79
79
81
80
80
78
78
78
79
80
81
81
80
77
76
79
76
77
77
77
76
76
76
76
76
77
79
79
79
80
82
81
81
82
81
80
80
82
79
79
81
80
82
83
83
82
81
81
82
80
80
79
78
79
80
81
82
82
79
82
85
85
85
83
83
84
83
82
83
84
84
84
82
83
83
81
81
81
80
79
76
76
75
76
76
75
75
73
73
74
74
74
73
76
79
78
76
79
81
78
78
78
81
82
84
84
85
84
84
82
79
85
84
84
84
84
84
83
85
85
83
83
83
83
84
82
83
84
83
85
85
81
81
81
81
78
78
78
77
77
76
75
72
72
75
72
77
80
82
81
80
75
75
75
82
79
82
81
80
83
85
82
82
80
79
77
77
79
77
76
76
78
77
78
80
82
82
80
77
78
80
81
79
80
81
81
81
76
78
78
77
76
77
78
78
78
79
79
79
81
78
79
78
79
82
81
81
83
85
85
85
85
85
87
87
87
87
86
84
85
85
86
84
84
84
82
82
80
79
79
76
76
76
70
71
75
76
76
77
76
76
77
79
76
79
77
79
80
76
80
80
81
78
78
78
76
76
78
77
76
77
78
77
76
77
77
81
80
78
79
79
79
77
76
78
78
78
80
77
80
80
80
82
82
85
85
81
82
82
82
83
82
83
83
84
84
83
83
82
82
78
78
82
83
82
82
81
81
82
81
82
82
82
82
81
81
81
81
82
83
85
87
87
87
87
85
86
86
81
80
81
82
81
81
81
80
82
83
81
83
83
83
84
85
85
85
84
85
85
85
84
85
85
87
87
87
87
87
85
87
87
86
87
87
86
88
88
88
88
88
88
88
88
88
88
88
88
88
88
88
88
88
88
88
88
88
88
88
88
88
88
88
88
88
88
88
88
88
88
88
88
88
88
88
88
88
88
88
88
88
88
88
88
88
88
88
88
88
88
88
88
88
88
88
88
88
88
88
88
88
88
88
88
88
88
88
88
88
88
88
88
88
88
88
88
88
88
88
88
88
88
88
88
88
88
88
88
88
88
88
88
88
88
88
88
88
88
88
88
88
88
88
88
88
88
88
88
88
88
88
88
88
88
88
88
88
88
88
88
88
88
88
88
88
88
88
88
88
88
88
88
88
88
88
88
88
88
88
88
88
88
88
88
88
88
88
88
88
88
88
88
88
88
88
88
88
88
88
88
88
88
88
88
88
88
88
88
88
88
88
88
88
88
88
88
88
88
88
88
88
88
88
88
88
88
88
88
88
88
88
88
88
88
88
88
88
88
88
88
88
88
88
88
88
88
88
88
88
88
88
88
88
88
88
88
88
88
88
88
88
88
88
88
88
88
88
88
88
88
88
88
88
88
88
88
88
88
88
88
88
88
88
88
88
88
88
88
88
88
88
88
88
88
88
88
88
88
88
88
88
88
88
88
88
88
88
88
88
88
88
88
88
88
88
88
88
88
88
88
88
88
88
88
88
88
88
88
88
88
88
88
88
88
88
88
88
88
88
88
88
88
88
88
88
88
88
88
88
88
88
88
88
88
88
88
88
88
88
88
88
88
88
88
88
88
88
88
88
88
88
88
88
88
88
88
88
88
88
88
88
88
88
88
88
88
88
88
88
88
88
88
88
88
88
88
88
88
88
88
88
88
88
88
88
88
88
88
88
88
88
88
88
88
88
88
88
88
88
88
88
88
88
88
88
88
88
88
88
88
88
88
88
88
88
88
88
88
88
88
88
88
88
88
88
88
88
88
88
88
88
88
88
88
88
88
88
88
88
88
88
88
88
88
88
88
88
88
88
88
88
88
88
88
88
88
88
88
88
88
88
88
88
88
88
88
88
88
88
88
88
88
88
88
88
88
88
88
88
88
88
88
88
88
88
88
88
88
88
88
88
88
88
88
88
88
88
88
88
88
88
88
88
88
88
88
88
88
88
88
88
88
88
88
88
88
88
88
88
88
88
88
88
88
88
88
88
88
88
88
88
88
88
88
88
88
88
88
88
88
88
88
88
88
88
88
88
88
88
88
88
88
88
88
88
88
88
88
88
88
88
88
88
88
88
88
88
88
88
88
88
88
88
88
88
88
88
88
88
88
88
88
88
88
88
88
88
88
88
88
88
88
88
88
88
88
88
88
88
88
88
88
88
88
88
88
88
88
88
88
88
88
88
88
88
88
88
88
88
88
88
88
88
88
88
88
88
88
88
88
88
88
88
88
88
88
88
88
88
88
88
88
88
88
88
88
88
88
88
88
88
88
88
88
88
88
88
88
88
88
88
88
88
88
88
88
88
88
88
88
88
88
88
88
88
88
88
88
88
88
88
88
88
88
88
88
88
88
88
88
88
88
88
88
88
88
88
88
88
88
88
88
88
88
88
88
88
88
88
88
88
88
88
88
88
88
88
88
88
88
88
88
88
88
88
88
88
88
88
88
88
88
88
88
88
88
88
88
88
88
88
88
88
88
88
88
88
88
88
88
88
88
88
88
88
88
88
88
88
88
88
88
88
88
88
88
88
88
88
88
88
88
88
88
88
88
88
88
88
88
88
88
88
88
88
88
88
88
88
88
88
88
88
88
88
88
88
88
88
88
88
88
88
88
88
88
88
88
88
88
88
88
88
88
88
88
88
88
88
88
88
88
88
88
88
88
88
88
88
88
88
88
88
88
88
88
88
88
88
88
88
88
88
88
88
88
88
88
88
88
88
88
88
88
88
88
88
88
88
88
88
88
88
88
88
88
88
88
88
88
88
88
88
88
88
88
88
88
88
88
88
88
88
88
88
88
88
88
88
88
88
88
88
88
88
88
88
88
88
88
88
88
88
88
88
88
88
88
88
88
88
88
88
88
88
88
88
88
88
88
88
88
88
88
88
88
88
88
88
88
88
88
88
88
88
88
88
88
88
88
88
88
88
88
88
88
88
88
88
88
88
88
88
88
88
88
88
88
88
88
88
88
88
88
88
88
88
88
88
88
88
88
88
88
88
88
88
88
88
88
88
88
88
88
88
88
88
88
88
88
88
88
88
88
88
88
88
88
88
88
88
88
88
88
88
88
88
88
88
88
88
88
88
88
88
88
88
88
88
88
88
88
88
88
88
88
88
88
88
88
88
88
88
88
88
88
88
88
88
88
88
88
88
88
88
88
88
88
88
88
88
88
88
88
88
88
88
88
88
88
88
88
88
88
88
88
88
88
88
88
88
88
88
88
88
88
88
88
88
88
88
88
88
88
88
88
88
88
88
88
88
88
88
88
88
88
88
88
88
88
88
88
88
88
88
88
88
88
88
88
88
88
88
88
88
88
88
88
88
88
88
88
88
88
88
88
88
88
88
88
88
88
88
88
88
88
88
88
88
88
88
88
88
88
88
88
88
88
88
88
88
88
88
88
88
88
88
88
88
88
88
88
88
88
88
88
88
88
88
88
88
88
88
88
88
88
88
88
88
88
88
88
88
88
88
88
88
88
88
88
88
88
88
88
88
88
88
88
88
88
88
88
88
88
88
88
88
88
88
88
88
88
88
88
88
88
88
88
88
88
88
88
88
88
88
88
88
88
88
88
88
88
88
88
88
88
88
88
88
88
88
88
88
88
88
88
88
88
88
88
88
88
88
88
88
88
88
88
88
88
88
88
88
88
88
88
88
88
88
88
88
88
88
88
88
88
88
88
88
88
88
88
88
88
88
88
88
88
88
88
88
88
88
88
88
88
88
88
88
88
88
88
88
88
88
88
88
88
88
88
88
88
88
88
88
88
88
88
88
88
88
88
88
88
88
88
88
88
88
88
88
88
88
88
88
88
88
88
88
88
88
88
88
88
88
88
88
88
88
88
88
88
88
88
88
88
88
88
88
88
88
88
88
88
88
88
88
88
88
88
88
88
88
88
88
88
88
88
88
88
88
88
88
88
88
88
88
88
88
88
88
88
88
88
88
88
88
88
88
88
88
88
88
88
88
88
88
88
88
88
88
88
88
88
88
88
88
88
88
88
88
88
88
88
88
88
88
88
88
88
88
88
88
88
88
88
88
88
88
88
88
88
88
88
88
88
88
88
88
88
88
88
88
88
88
88
88
88
88
88
88
88
88
88
88
88
88
88
88
88
88
88
88
88
88
88
88
88
88
88
88
88
88
88
88
88
88
88
88
88
88
88
88
88
88
88
88
88
88
88
88
88
88
88
88
88
88
88
88
88
88
88
88
88
88
88
88
88
88
88
88
88
88
88
88
88
88
88
88
88
88
88
88
88
88
88
88
88
88
88
88
88
88
88
88
88
88
88
88
88
88
88
88
88
88
88
88
88
88
88
88
88
88
88
88
88
88
88
88
88
88
88
88
88
88
88
88
88
88
88
88
88
88
88
88
88
88
88
88
88
88
88
88
88
88
88
88
88
88
88
88
88
88
88
88
88
88
88
88
88
88
88
88
88
88
88
88
88
88
88
88
88
88
88
88
88
88
88
88
88
88
88
88
88
88
88
88
88
88
88
88
88
88
88
88
88
88
88
88
88
88
88
88
88
88
88
88
88
88
88
88
88
88
88
88
88
88
88
88
88
88
88
88
88
88
88
88
88
88
88
88
88
88
88
88
88
88
88
88
88
88
88
88
88
88
88
88
88
88
88
88
88
88
88
88
88
88
88
88
88
88
88
88
88
88
88
88
88
88
88
88
88
88
88
88
88
88
88
88
88
88
88
88
88
88
88
88
88
88
88
88
88
88
88
88
88
88
88
88
88
88
88
88
88
88
88
88
88
88
88
88
88
88
88
88
88
88
88
88
88
88
88
88
88
88
88
88
88
88
88
88
88
88
88
88
88
88
88
88
88
88
88
88
88
88
88
88
88
88
88
88
88
88
88
88
88
88
88
88
88
88
88
88
88
88
88
88
88
88
88
88
88
88
88
88
88
88
88
88
88
88
88
88
88
88
88
88
88
88
88
88
88
88
88
88
88
88
88
88
88
88
88
88
88
88
88
88
88
88
88
88
88
88
88
88
88
88
88
88
88
88
88
88
88
88
88
88
88
88
88
88
88
88
88
88
88
88
88
88
88
88
88
88
88
88
88
88
88
88
88
88
88
88
88
88
88
88
88
88
88
88
88
88
88
88
88
88
88
88
88
88
88
88
88
88
88
88
88
88
88
88
88
88
88
88
88
88
88
88
88
88
88
88
88
88
88
88
88
88
88
88
88
88
88
88
88
88
88
88
88
88
88
88
88
88
88
88
88
88
88
88
88
88
88
88
88
88
88
88
88
88
88
88
88
88
88
88
88
88
88
88
88
88
88
88
88
88
88
88
88
88
88
88
88
88
88
88
88
88
88
88
88
88
88
88
88
88
88
88
88
88
88
88
88
88
88
88
88
88
88
88
88
88
88
88
88
88
88
88
88
88
88
88
88
88
88
88
88
88
88
88
88
88
88
88
88
88
88
88
88
88
88
88
88
88
88
88
88
88
88
88
88
88
88
88
88
88
88
88
88
88
88
88
88
88
88
88
88
88
88
88
88
88
88
88
88
88
88
88
88
88
88
88
88
88
88
88
88
88
88
88
88
88
88
88
88
88
88
88
88
88
88
88
88
88
88
88
88
88
88
88
88
88
88
88
88
88
88
88
88
88
88
88
88
88
88
88
88
88
88
88
88
88
88
88
88
88
88
88
88
88
88
88
88
88
88
88
88
88
88
88
88
88
88
88
88
88
88
88
88
88
88
88
88
88
88
88
88
88
88
88
88
88
88
88
88
88
88
88
88
88
88
88
88
88
88
88
88
88
88
88
88
88
88
88
88
88
88
88
88
88
88
88
88
88
88
88
88
88
88
88
88
88
88
88
88
88
88
88
88
88
88
88
88
88
88
88
88
88
88
88
88
88
88
88
88
88
88
88
88
88
88
88
88
88
88
88
88
88
88
88
88
88
88
88
88
88
88
88
88
88
88
88
88
88
88
88
88
88
88
88
88
88
88
88
88
88
88
88
88
88
88
88
88
88
88
88
88
88
88
88
88
88
88
88
88
88
88
88
88
88
88
88
88
88
88
88
88
88
88
88
88
88
88
88
88
88
88
88
88
88
88
88
88
88
88
88
88
88
88
88
88
88
88
88
88
88
88
88
88
88
88
88
88
88
88
88
88
88
88
88
88
88
88
88
88
88
88
88
88
88
88
88
88
88
88
88
88
88
88
88
88
88
88
88
88
88
88
88
88
88
88
88
88
88
88
88
88
88
88
88
88
88
88
88
88
88
88
88
88
88
88
88
88
88
88
88
88
88
88
88
88
88
88
88
88
88
88
88
88
88
88
88
88
88
88
88
88
88
88
88
88
88
88
88
88
88
88
88
88
88
88
88
88
88
88
88
88
88
88
88
88
88
88
88
88
88
88
88
88
88
88
88
88
88
88
88
88
88
88
88
88
88
88
88
88
88
88
88
88
88
88
88
88
88
88
88
88
88
88
88
88
88
88
88
88
88
88
88
88
88
88
88
88
88
88
88
88
88
88
88
88
88
88
88
88
88
88
88
88
88
88
88
88
88
88
88
88
88
88
88
88
88
88
88
88
88
88
88
88
88
88
88
88
88
88
88
88
88
88
88
88
88
88
88
88
88
88
88
88
88
88
88
88
88
88
88
88
88
88
88
88
88
88
88
88
88
88
88
88
88
88
88
88
88
88
88
88
88
88
88
88
88
88
88
88
88
88
88
88
88
88
88
88
88
88
88
88
88
88
88
88
88
88
88
88
88
88
88
88
88
88
88
88
88
88
88
88
88
88
88
88
88
88
88
88
88
88
88
88
88
88
88
88
88
88
88
88
88
88
88
88
88
88
88
88
88
88
88
88
88
88
88
88
88
88
88
88
88
88
88
88
88
88
88
88
88
88
88
88
88
88
88
88
88
88
88
88
88
88
88
88
88
88
88
88
88
88
88
88
88
88
88
88
88
88
88
88
88
88
88
88
88
88
88
88
88
88
88
88
88
88
88
88
88
88
88
88
88
88
88
88
88
88
88
88
88
88
88
88
88
88
88
88
88
88
88
88
88
88
88
88
88
88
88
88
88
88
88
88
88
88
88
88
88
88
88
88
88
88
88
88
88
88
88
88
88
88
88
88
88
88
88
88
88
88
88
88
88
88
88
88
88
88
88
88
88
88
88
88
88
88
88
88
88
88
88
88
88
88
88
88
88
88
88
88
88
88
88
88
88
88
88
88
88
88
88
88
88
88
88
88
88
88
88
88
88
88
88
88
88
88
88
88
88
88
88
88
88
88
88
88
88
88
88
88
88
88
88
88
88
88
88
88
88
88
88
88
88
88
88
88
88
88
88
88
88
88
88
88
88
88
88
88
88
88
88
88
88
88
88
88
88
88
88
88
88
88
88
88
88
88
88
88
88
88
88
88
88
88
88
88
88
88
88
88
88
88
88
88
88
88
88
88
88
88
88
88
88
88
88
88
88
88
88
88
88
88
88
88
88
88
88
88
88
88
88
88
88
88
88
88
88
88
88
88
88
88
88
88
88
88
88
88
88
88
88
88
88
88
88
88
88
88
88
88
88
88
88
88
88
88
88
88
88
88
88
88
88
88
88
88
88
88
88
88
88
88
88
88
88
88
88
88
88
88
88
88
88
88
88
88
88
88
88
88
88
88
88
88
88
88
88
88
88
88
88
88
88
88
88
88
88
88
88
88
88
88
88
88
88
88
88
88
88
88
88
88
88
88
88
88
88
88
88
88
88
88
88
88
88
88
88
88
88
88
88
88
88
88
88
88
88
88
88
88
88
88
88
88
88
88
88
88
88
88
88
88
88
88
88
88
88
88
88
88
88
88
88
88
88
88
88
88
88
88
88
88
88
88
88
88
88
88
88
88
88
88
88
88
88
88
88
88
88
88
88
88
88
88
88
88
88
88
88
88
88
88
88
88
88
88
88
88
88
88
88
88
88
88
88
88
88
88
88
88
88
88
88
88
88
88
88
88
88
88
88
88
88
88
88
88
88
88
88
88
88
88
88
88
88
88
88
88
88
88
88
88
88
88
88
88
88
88
88
88
88
88
88
88
88
88
88
88
88
88
88
88
88
88
88
88
88
88
88
88
88
88
88
88
88
88
88
88
88
88
88
88
88
88
88
88
88
88
88
88
88
88
88
88
88
88
88
88
88
88
88
88
88
88
88
88
88
88
88
88
88
88
88
88
88
88
88
88
88
88
88
88
88
88
88
88
88
88
88
88
88
88
88
88
88
88
88
88
88
88
88
88
88
88
88
88
88
88
88
88
88
88
88
88
88
88
88
88
88
88
88
88
88
88
88
88
88
88
88
88
88
88
88
88
88
88
88
88
88
88
88
88
88
88
88
88
88
88
88
88
88
88
88
88
88
88
88
88
88
88
88
88
88
88
88
88
88
88
88
88
88
88
88
88
88
88
88
88
88
88
88
88
88
88
88
88
88
88
88
88
88
88
88
88
88
88
88
88
88
88
88
88
88
88
88
88
88
88
88
88
88
88
88
88
88
88
88
88
88
88
88
88
88
88
88
88
88
88
88
88
88
88
88
88
88
88
88
88
88
88
88
88
88
88
88
88
88
88
88
88
88
88
88
88
88
88
88
88
88
88
88
88
88
88
88
88
88
88
88
88
88
88
88
88
88
88
88
88
88
88
88
88
88
88
88
88
88
88
88
88
88
88
88
88
88
88
88
88
88
88
88
88
88
88
88
88
88
88
88
88
88
88
88
88
88
88
88
88
88
88
88
88
88
88
88
88
88
88
88
88
88
88
88
88
88
88
88
88
88
88
88
88
88
88
88
88
88
88
88
88
88
88
88
88
88
88
88
88
88
88
88
88
88
88
88
88
88
88
88
88
88
88
88
88
88
88
88
88
88
88
88
88
88
88
88
88
88
88
88
88
88
88
88
88
88
88
88
88
88
88
88
88
88
88
88
88
88
88
88
88
88
88
88
88
88
88
88
88
88
88
88
88
88
88
88
88
88
88
88
88
88
88
88
88
88
88
88
88
88
88
88
88
88
88
88
88
88
88
88
88
88
88
88
88
88
88
88
88
88
88
88
88
88
88
88
88
88
88
88
88
88
88
88
88
88
88
88
88
88
88
88
88
88
88
88
88
88
88
88
88
88
88
88
88
88
88
88
88
88
88
88
88
88
88
88
88
88
88
88
88
88
88
88
88
88
88
88
88
88
88
88
88
88
88
88
88
88
88
88
88
88
88
88
88
88
88
88
88
88
88
88
88
88
88
88
88
88
88
88
88
88
88
88
88
88
88
88
88
88
88
88
88
88
88
88
88
88
88
88
88
88
88
88
88
88
88
88
88
88
88
88
88
88
88
88
88
88
88
88
88
88
88
88
88
88
88
88
88
88
88
88
88
88
88
88
88
88
88
88
88
88
88
88
88
88
88
88
88
88
88
88
88
88
88
88
88
88
88
88
88
88
88
88
88
88
88
88
88
88
88
88
88
88
88
88
88
88
88
88
88
88
88
88
88
88
88
88
88
88
88
88
88
88
88
88
88
88
88
88
88
88
88
88
88
88
88
88
88
88
88
88
88
88
88
88
88
88
88
88
88
88
88
88
88
88
88
88
88
88
88
88
88
88
88
88
88
88
88
88
88
88
88
88
88
88
88
88
88
88
88
88
88
88
88
88
88
88
88
88
88
88
88
88
88
88
88
88
88
88
88
88
88
88
88
88
88
88
88
88
88
88
88
88
88
88
88
88
88
88
88
88
88
88
88
88
88
88
88
88
88
88
88
88
88
88
88
88
88
88
88
88
88
88
88
88
88
88
88
88
88
88
88
88
88
88
88
88
88
88
88
88
88
88
88
88
88
88
88
88
88
88
88
88
88
88
88
88
88
88
88
88
88
88
88
88
88
88
88
88
88
88
88
88
88
88
88
88
88
88
88
88
88
88
88
88
88
88
88
88
88
88
88
88
88
88
88
88
88
88
88
88
88
88
88
88
88
88
88
88
88
88
88
88
88
88
88
88
88
88
88
88
88
88
88
88
88
88
88
88
88
88
88
88
88
88
88
88
88
88
88
88
88
88
88
88
88
88
88
88
88
88
88
88
88
88
88
88
88
88
88
88
88
88
88
88
88
88
88
88
88
88
88
88
88
88
88
88
88
88
88
88
88
88
88
88
88
88
88
88
88
88
88
88
88
88
88
88
88
88
88
88
88
88
88
88
88
88
88
88
88
88
88
88
88
88
88
88
88
88
88
88
88
88
88
88
88
88
88
88
88
88
88
88
88
88
88
88
88
88
88
88
88
88
88
88
88
88
88
88
88
88
88
88
88
88
88
88
88
88
88
88
88
88
88
88
88
88
88
88
88
88
88
88
88
88
88
88
88
88
88
88
88
88
88
88
88
88
88
88
88
88
88
88
88
88
88
88
88
88
88
88
88
88
88
88
88
88
88
88
88
88
88
88
88
88
88
88
88
88
88
88
88
88
88
88
88
88
88
88
88
88
88
88
88
88
88
88
88
88
88
88
88
88
88
88
88
88
88
88
88
88
88
88
88
88
88
88
88
88
88
88
88
88
88
88
88
88
88
88
88
88
88
88
88
88
88
88
88
88
88
88
88
88
88
88
88
88
88
88
88
88
88
88
88
88
88
88
88
88
88
88
88
88
88
88
88
88
88
88
88
88
88
88
88
88
88
88
88
88
88
88
88
88
88
88
88
88
88
88
88
88
88
88
88
88
88
88
88
88
88
88
88
88
88
88
88
88
88
88
88
88
88
88
88
88
88
88
88
88
88
88
88
88
88
88
88
88
88
88
88
88
88
88
88
88
88
88
88
88
88
88
88
88
88
88
88
88
88
88
88
88
88
88
88
88
88
88
88
88
88
88
88
88
88
88
88
88
88
88
88
88
88
88
88
88
88
88
88
88
88
88
88
88
88
88
88
88
88
88
88
88
88
88
88
88
88
88
88
88
88
88
88
88
88
88
88
88
88
88
88
88
88
88
88
88
88
88
88
88
88
88
88
88
88
88
88
88
88
88
88
88
88
88
88
88
88
88
88
88
88
88
88
88
88
88
88
88
88
88
88
88
88
88
88
88
88
88
88
88
88
88
88
88
88
88
88
88
88
88
88
88
88
88
88
88
88
88
88
88
88
88
88
88
88
88
88
88
88
88
88
88
88
88
88
88
88
88
88
88
88
88
88
88
88
88
88
88
88
88
88
88
88
88
88
88
88
88
88
88
88
88
88
88
88
88
88
88
88
88
88
88
88
88
88
88
88
88
88
88
88
88
88
88
88
88
88
88
88
88
88
88
88
88
88
88
88
88
88
88
88
88
88
88
88
88
88
88
88
88
88
88
88
88
88
88
88
88
88
88
88
88
88
88
88
88
88
88
88
88
88
88
88
88
88
88
88
88
88
88
88
88
88
88
88
88
88
88
88
88
88
88
88
88
88
88
88
88
88
88
88
88
88
88
88
88
88
88
88
88
88
88
88
88
88
88
88
88
88
88
88
88
88
88
88
88
88
88
88
88
88
88
88
88
88
88
88
88
88
88
88
88
88
88
88
88
88
88
88
88
88
88
88
88
88
88
88
88
88
88
88
88
88
88
88
88
88
88
88
88
88
88
88
88
88
88
88
88
88
88
88
88
88
88
88
88
88
88
88
88
88
88
88
88
88
88
88
88
88
88
88
88
88
88
88
88
88
88
88
88
88
88
88
88
88
88
88
88
88
88
88
88
88
88
88
88
88
88
88
88
88
88
88
88
88
88
88
88
88
88
88
88
88
88
88
88
88
88
88
88
88
88
88
88
88
88
88
88
88
88
88
88
88
88
88
88
88
88
88
88
88
88
88
88
88
88
88
88
88
88
88
88
88
88
88
88
88
88
88
88
88
88
88
88
88
88
88
88
88
88
88
88
88
88
88
88
88
88
88
88
88
88
88
88
88
88
88
88
88
88
88
88
88
88
88
88
88
88
88
88
88
88
88
88
88
88
88
88
88
88
88
88
88
88
88
88
88
88
88
88
88
88
88
88
88
88
88
88
88
88
88
88
88
88
88
88
88
88
88
88
88
88
88
88
88
88
88
88
88
88
88
88
88
88
88
88
88
88
88
88
88
88
88
88
88
88
88
88
88
88
88
88
88
88
88
88
88
88
88
88
88
88
88
88
88
88
88
88
88
88
88
88
88
88
88
88
88
88
88
88
88
88
88
88
88
88
88
88
88
88
88
88
88
88
88
88
88
88
88
88
88
88
88
88
88
88
88
88
88
88
88
88
88
88
88
88
88
88
88
88
88
88
88
88
88
88
88
88
88
88
88
88
88
88
88
88
88
88
88
88
88
88
88
88
88
88
88
88
88
88
88
88
88
88
88
88
88
88
88
88
88
88
88
88
88
88
88
88
88
88
88
88
88
88
88
88
88
88
88
88
88
88
88
88
88
88
88
88
88
88
88
88
88
88
88
88
88
88
88
88
88
88
88
88
88
88
88
88
88
88
88
88
88
88
88
88
88
88
88
88
88
88
88
88
88
88
88
88
88
88
88
88
88
88
88
88
88
88
88
88
88
88
88
88
88
88
88
88
88
88
88
88
88
88
88
88
88
88
88
88
88
88
88
88
88
88
88
88
88
88
88
88
88
88
88
88
88
88
88
88
88
88
88
88
88
88
88
88
88
88
88
88
88
88
88
88
88
88
88
88
88
88
88
88
88
88
88
88
88
88
88
88
88
88
88
88
88
88
88
88
88
88
88
88
88
88
88
88
88
88
88
88
88
88
88
88
88
88
88
88
88
88
88
88
88
88
88
88
88
88
88
88
88
88
88
88
88
88
88
88
88
88
88
88
88
88
88
88
88
88
88
88
88
88
88
88
88
88
88
88
88
88
88
88
88
88
88
88
88
88
88
88
88
88
88
88
88
88
88
88
88
88
88
88
88
88
88
88
88
88
88
88
88
88
88
88
88
88
88
88
88
88
88
88
88
88
88
88
88
88
88
88
88
88
88
88
88
88
88
88
88
88
88
88
88
88
88
88
88
88
88
88
88
88
88
88
88
88
88
88
88
88
88
88
88
88
88
88
88
88
88
88
88
88
88
88
88
88
88
88
88
88
88
88
88
88
88
88
88
88
88
88
88
88
88
88
88
88
88
88
88
88
88
88
88
88
88
88
88
88
88
88
88
88
88
88
88
88
88
88
88
88
88
88
88
88
88
88
88
88
88
88
88
88
88
88
88
88
88
88
88
88
88
88
88
88
88
88
88
88
88
88
88
88
88
88
88
88
88
88
88
88
88
88
88
88
88
88
88
88
88
88
88
88
88
88
88
88
88
88
88
88
88
88
88
88
88
88
88
88
88
88
88
88
88
88
88
88
88
88
88
88
88
88
88
88
88
88
88
88
88
88
88
88
88
88
88
88
88
88
88
88
88
88
88
88
88
88
88
88
88
88
88
88
88
88
88
88
88
88
88
88
88
88
88
88
88
88
88
88
88
88
88
88
88
88
88
88
88
88
88
88
88
88
88
88
88
88
88
88
88
88
88
88
88
88
88
88
88
88
88
88
88
88
88
88
88
88
88
88
88
88
88
88
88
88
88
88
88
88
88
88
88
88
88
88
88
88
88
88
88
88
88
88
88
88
88
88
88
88
88
88
