80
78
79
80
78
78
78
78
80
83
83
82
78
82
81
82
81
80
81
79
81
79
82
81
80
79
76
77
77
74
71
72
77
72
68
70
68
71
73
72
73
75
76
75
76
79
79
75
75
79
80
81
82
79
79
79
77
77
80
78
82
80
79
80
79
80
82
80
80
79
77
77
76
78
76
77
80
77
80
82
80
82
82
81
80
80
79
77
75
76
76
75
75
77
77
77
79
78
76
77
75
74
76
77
76
72
71
69
68
71
72
72
73
74
72
71
71
73
72
72
71
70
70
73
73
75
73
75
74
75
78
77
79
80
81
79
78
80
80
81
81
81
80
77
76
77
76
76
76
79
81
82
83
82
83
81
81
79
80
79
78
77
77
77
80
78
79
79
79
79
77
76
75
75
76
78
76
81
78
77
79
82
80
82
82
82
82
82
82
81
79
80
80
80
79
82
79
79
79
74
75
72
73
76
77
79
78
78
79
79
77
77
76
76
76
77
75
77
76
80
79
78
76
76
78
79
77
79
78
74
73
73
75
76
75
76
74
73
75
76
77
78
80
79
82
79
76
79
79
80
76
76
75
76
76
75
77
74
74
76
78
77
76
80
80
76
76
74
74
72
73
76
77
75
75
76
76
76
78
79
79
82
81
82
82
85
82
80
80
80
77
74
73
73
70
68
66
66
69
71
71
74
71
70
74
70
71
75
74
76
77
78
78
78
79
81
79
80
82
81
82
83
81
80
81
79
80
79
77
79
79
80
83
85
82
83
84
82
81
84
83
82
82
80
79
79
80
80
80
80
81
83
84
84
87
87
88
88
86
86
82
82
78
78
75
77
79
77
76
75
76
77
77
79
79
81
81
78
78
79
79
77
79
81
81
80
80
78
77
78
77
77
76
76
77
79
82
80
80
81
82
82
82
84
82
82
80
77
74
76
80
77
75
74
73
73
73
74
74
74
73
75
77
77
80
79
78
77
78
78
79
80
79
80
78
77
78
78
80
78
78
77
77
75
75
71
72
67
69
71
74
78
77
76
77
79
78
82
80
76
76
78
78
77
80
81
83
82
77
76
77
80
81
81
79
81
82
83
80
80
84
84
82
80
81
83
82
82
83
84
80
78
81
79
78
79
78
75
75
81
76
70
76
76
75
76
77
77
77
76
74
74
76
74
75
80
75
74
76
76
76
76
76
79
79
79
75
74
78
78
74
75
75
75
75
73
70
70
70
72
72
72
72
71
73
73
74
77
74
78
77
80
77
78
80
82
79
78
79
82
84
81
80
82
80
82
81
80
77
76
78
79
78
78
79
79
80
80
79
78
75
73
76
73
74
74
74
79
74
79
81
79
79
76
79
81
81
76
74
74
68
68
68
71
74
71
75
76
76
76
76
76
76
77
76
77
78
79
78
77
77
78
78
76
76
76
75
76
75
76
73
75
75
73
74
76
78
81
79
76
74
75
77
78
77
76
78
77
79
80
78
81
81
84
83
80
77
76
77
76
75
80
80
74
74
74
77
77
77
74
74
74
77
78
80
77
77
74
74
76
76
78
79
76
77
78
77
79
77
80
77
75
78
80
81
78
79
79
80
79
83
81
82
83
79
80
82
81
79
80
82
82
84
83
85
82
84
85
85
85
84
84
81
82
80
78
82
82
80
79
79
79
77
77
74
77
79
77
74
78
79
80
79
78
77
79
78
78
79
78
78
76
78
77
77
77
76
75
76
78
81
83
82
82
81
82
82
80
80
79
77
76
78
80
81
83
84
83
84
86
85
82
82
82
81
83
83
81
77
78
81
80
79
75
78
77
78
79
77
80
79
80
83
84
84
82
81
78
79
78
77
78
79
79
79
78
80
78
77
77
77
77
78
77
77
76
77
76
77
78
77
79
76
77
79
79
80
79
82
83
82
79
77
79
81
81
77
77
77
79
81
78
76
77
78
77
77
78
81
79
79
79
79
76
78
77
78
76
79
79
78
79
81
81
80
77
76
78
78
76
72
73
73
70
70
67
69
71
69
72
73
77
77
79
78
77
78
80
78
79
79
81
82
82
81
83
79
78
79
81
81
81
81
81
83
81
80
80
80
82
80
78
77
75
75
72
74
74
74
77
78
79
78
77
76
77
73
73
74
74
74
73
72
74
75
76
78
79
76
74
78
78
77
77
76
75
76
74
73
74
74
75
76
78
78
77
76
75
78
78
73
76
75
77
76
75
77
78
78
76
79
77
79
79
80
80
80
80
79
79
78
78
77
76
76
77
76
77
80
80
80
76
77
75
70
69
71
72
72
74
73
73
74
74
76
74
75
78
78
80
80
81
79
81
78
78
78
76
78
76
76
79
78
78
76
76
77
78
82
82
79
83
83
80
79
80
81
81
79
79
80
81
77
76
76
72
72
76
78
80
75
76
79
79
80
81
83
81
79
76
75
77
78
79
77
76
72
73
75
74
73
74
75
76
77
78
76
78
76
75
77
79
77
79
80
78
78
79
78
77
78
77
79
77
77
77
75
77
76
77
75
76
76
79
78
79
85
85
86
86
85
82
81
79
81
79
79
80
80
81
80
79
79
80
79
79
80
85
80
78
77
78
80
80
78
78
77
77
80
77
76
77
80
78
75
74
78
74
74
74
75
74
68
69
71
68
72
72
74
74
75
73
75
75
76
76
75
78
80
82
80
79
81
80
78
80
82
82
79
80
79
77
78
72
72
76
78
78
78
79
80
83
82
82
79
78
76
75
76
76
77
78
79
78
79
77
77
74
75
76
78
78
78
77
76
76
78
77
78
77
74
70
72
72
75
76
80
79
75
76
73
77
76
74
71
72
74
79
81
80
79
80
82
80
75
77
74
73
74
71
74
77
78
77
75
76
77
73
73
73
74
74
77
76
74
71
70
72
77
77
77
74
74
79
81
80
77
78
77
73
76
73
73
72
71
70
70
73
74
73
76
72
73
76
74
75
72
72
75
74
75
76
76
78
80
79
79
79
83
84
79
77
78
80
80
80
79
79
80
77
77
78
76
74
76
76
76
76
76
77
77
79
79
79
78
79
79
80
77
78
78
79
82
80
80
82
81
80
80
80
79
80
79
75
79
79
79
79
81
82
81
80
80
74
69
71
69
69
71
68
71
76
77
75
76
73
72
73
75
73
72
72
72
72
75
74
77
74
74
77
80
79
81
81
83
83
81
82
84
83
81
79
80
82
83
82
83
80
78
77
77
79
80
78
73
72
77
76
79
80
83
83
81
81
81
80
80
80
80
80
80
82
80
81
84
84
83
82
80
80
79
80
85
83
85
85
85
85
84
83
78
79
80
80
76
76
74
78
76
77
76
78
77
76
76
77
78
80
78
78
79
79
79
80
80
79
78
78
83
81
81
83
85
85
85
83
81
80
81
81
84
82
81
78
80
82
80
83
81
82
81
82
80
81
81
80
79
79
80
82
82
81
81
80
78
77
76
77
77
77
77
77
77
77
76
76
74
71
71
71
74
77
77
78
78
77
76
77
76
74
74
71
71
72
71
72
73
75
74
76
76
76
78
79
77
76
77
76
75
74
73
75
76
77
76
76
76
77
78
77
82
83
82
82
80
80
78
81
78
80
80
77
76
76
76
73
72
75
75
72
69
71
69
72
72
72
71
68
71
73
73
75
76
77
77
76
76
79
79
81
80
81
82
83
83
82
82
83
81
79
81
78
74
77
79
78
77
74
71
70
73
74
72
72
74
75
73
75
74
72
75
76
76
77
78
79
78
77
77
78
79
78
77
78
80
79
81
81
81
80
81
80
77
77
79
82
83
84
82
81
80
79
80
83
78
77
79
83
85
80
80
76
80
81
80
83
81
79
78
78
79
78
75
78
77
76
75
78
79
80
79
80
79
81
80
81
81
81
81
82
84
84
84
84
85
84
82
84
82
79
79
81
82
82
81
81
80
80
78
80
77
77
77
80
77
77
78
76
76
73
73
70
71
74
74
74
72
73
72
74
75
74
77
78
77
78
75
79
77
76
75
76
77
78
77
78
80
79
80
81
81
80
81
80
80
81
82
83
84
82
84
81
80
77
80
83
82
82
81
79
78
78
78
80
83
81
82
83
83
83
83
82
82
79
79
79
75
79
78
75
74
76
75
74
73
73
74
73
73
76
76
75
77
79
78
79
79
80
80
76
78
80
78
82
82
85
81
80
78
78
79
78
78
78
76
78
82
80
82
82
81
81
79
80
81
81
80
81
82
80
80
80
80
80
82
81
84
85
84
81
79
79
80
80
78
80
81
82
82
81
79
80
78
80
76
79
81
79
75
71
73
73
77
73
72
74
72
74
74
75
72
74
74
75
75
77
75
75
75
74
73
73
74
73
71
71
70
72
71
70
72
73
74
73
73
73
75
74
76
74
73
73
72
73
72
71
71
75
76
77
79
80
80
78
76
75
75
76
74
76
77
80
75
74
74
75
75
75
77
77
77
76
76
78
80
78
80
80
81
83
83
84
83
81
81
79
79
77
77
79
78
80
80
80
78
78
79
78
77
78
79
82
83
82
82
81
82
79
75
79
77
77
75
76
75
74
78
79
78
79
75
78
77
76
74
73
74
76
77
76
76
77
77
80
81
80
79
80
80
79
79
80
78
78
79
80
78
78
78
78
81
79
81
83
84
86
86
86
83
83
83
86
86
82
86
84
84
81
80
80
81
81
81
81
80
83
83
83
86
86
85
85
86
83
78
76
74
75
74
75
74
76
75
77
80
77
77
77
75
77
74
73
72
72
71
73
73
74
72
74
76
74
76
74
72
72
72
74
75
76
77
79
76
75
76
79
79
79
77
78
79
82
81
80
77
78
78
78
79
80
82
82
82
82
81
81
80
80
80
77
80
80
77
76
78
79
77
76
75
77
78
79
78
76
78
79
79
84
81
82
80
77
78
76
74
75
72
71
72
72
73
76
74
74
75
78
77
79
77
76
75
72
69
71
72
74
77
76
78
80
78
76
76
76
76
77
76
76
78
77
78
77
77
76
77
77
75
72
72
72
72
72
72
73
74
73
72
74
73
72
74
75
77
77
76
75
74
78
74
77
74
75
74
75
76
75
72
69
69
71
70
75
80
78
77
76
77
74
76
73
74
73
74
76
76
73
76
77
76
76
76
79
79
81
83
80
79
80
83
81
80
77
78
80
76
77
79
80
80
80
79
74
74
74
73
75
72
76
77
77
74
75
75
80
79
73
74
72
75
74
78
78
81
83
81
80
78
79
79
79
78
82
78
78
79
76
75
75
75
77
78
78
78
74
72
70
69
74
75
76
76
77
80
79
81
82
78
77
76
76
77
79
79
81
80
79
77
79
75
76
75
75
77
77
76
78
77
78
78
79
79
75
69
69
73
73
70
70
72
70
66
71
75
74
76
75
75
79
79
76
77
78
77
76
79
80
79
79
80
79
80
82
84
83
83
84
83
79
81
78
77
74
76
76
75
77
75
76
78
79
82
79
80
79
79
79
78
78
79
78
79
79
81
82
81
78
77
78
74
76
80
78
77
81
83
81
77
77
77
77
78
77
78
77
80
77
78
81
81
81
77
78
79
79
78
79
79
79
78
78
75
76
76
76
73
74
74
77
78
78
76
76
74
74
70
71
70
70
69
69
70
69
73
69
69
73
73
75
73
75
77
77
77
78
78
77
79
79
78
75
75
76
75
77
77
78
81
78
79
80
80
78
76
77
80
80
79
80
79
80
79
78
79
79
79
80
79
78
79
80
79
79
75
77
77
76
78
78
78
78
79
80
84
82
81
80
82
82
82
82
80
79
79
78
78
79
80
79
81
79
78
76
76
76
76
74
72
74
75
74
72
70
72
73
74
74
77
78
79
82
80
77
78
78
76
74
74
74
74
74
74
73
76
77
79
80
82
82
78
80
79
78
80
81
80
79
81
79
79
79
79
79
79
79
79
81
83
82
83
83
83
83
81
79
78
80
78
77
77
78
78
81
81
81
82
81
81
80
79
79
81
82
80
81
80
77
76
74
70
71
71
71
72
73
76
76
77
72
75
74
76
76
78
80
83
81
80
77
77
74
73
74
76
77
79
79
80
82
82
80
82
82
80
82
81
81
77
76
75
73
74
75
74
74
76
74
75
79
78
76
76
74
74
75
76
76
77
77
78
75
75
75
75
76
78
77
78
79
79
79
79
80
82
80
79
78
77
78
80
80
77
78
75
74
75
75
77
80
78
75
74
74
75
74
77
76
72
78
74
77
78
78
76
79
78
74
71
71
74
75
71
71
69
69
68
67
70
70
70
69
74
74
76
78
75
78
79
80
79
79
74
74
76
78
82
81
80
80
78
76
76
76
80
80
75
74
74
73
73
74
74
74
76
76
75
77
76
79
77
79
81
83
83
82
81
78
78
76
77
79
79
76
77
80
80
80
83
83
80
79
81
83
80
78
77
78
74
76
77
77
79
81
80
77
77
76
77
78
79
79
78
76
75
74
74
75
77
75
75
77
76
78
77
78
77
78
76
74
74
74
76
78
80
79
76
73
71
75
77
76
75
73
71
73
75
77
75
76
76
75
74
78
78
77
78
78
78
76
78
80
80
78
77
78
75
76
76
73
72
71
73
75
75
73
76
74
74
75
79
80
81
82
81
82
82
83
82
82
83
83
83
85
83
82
79
78
79
79
77
77
77
77
76
76
79
78
78
77
77
77
77
78
79
77
76
77
80
80
80
80
80
79
78
78
77
77
77
76
73
73
74
75
75
75
75
74
73
74
75
75
75
73
74
75
74
74
77
75
75
75
74
75
76
75
76
77
77
77
77
76
76
76
76
74
74
76
76
75
76
75
76
77
77
76
78
79
80
79
76
77
77
80
80
78
80
79
81
78
77
80
81
79
79
74
72
75
73
78
78
78
81
83
83
83
83
83
79
76
74
73
72
70
69
72
74
74
73
74
77
77
74
74
75
76
72
72
76
74
69
71
76
75
72
72
73
75
74
75
74
74
74
75
76
79
79
77
81
83
83
82
84
82
77
74
75
76
75
79
80
83
83
79
80
79
78
78
76
77
78
79
77
78
80
81
81
80
80
79
78
78
77
77
74
74
74
71
73
72
71
70
72
72
75
77
77
79
81
80
78
80
82
84
81
80
81
81
83
82
81
81
80
77
80
77
75
78
78
80
78
78
75
74
75
76
76
76
74
76
76
76
76
73
76
75
78
76
74
78
80
78
80
78
78
72
73
75
75
75
75
74
74
76
75
76
72
73
73
72
74
73
72
73
75
74
79
78
78
77
75
77
78
78
77
79
78
79
78
80
79
81
81
79
80
81
79
81
80
81
82
81
78
78
79
79
80
80
83
83
83
83
84
81
82
80
77
77
73
75
75
74
72
73
73
72
72
75
78
78
77
77
75
77
76
74
75
70
70
71
74
75
76
76
76
77
74
75
76
76
76
80
79
81
83
82
82
82
82
82
81
79
79
78
78
75
73
75
78
81
80
80
83
83
83
81
79
81
79
79
79
81
80
79
76
77
76
73
76
77
75
74
75
75
76
77
72
74
74
74
75
75
72
75
71
72
70
70
72
74
75
76
77
76
78
76
74
75
75
73
72
74
76
78
80
81
81
80
77
78
79
78
78
77
76
77
80
79
77
77
79
82
83
82
82
82
82
83
79
76
76
73
73
71
72
77
77
77
77
77
77
83
83
81
81
80
81
80
79
80
76
74
75
74
73
75
76
77
81
82
80
75
73
73
70
70
71
70
71
74
77
76
76
73
75
74
75
75
73
74
74
74
75
74
75
75
75
74
75
74
76
74
75
78
79
80
78
82
81
80
78
77
76
79
79
80
81
78
81
80
80
76
74
74
76
74
75
76
76
76
76
77
77
76
80
81
78
79
80
81
83
82
81
83
82
83
81
77
77
77
78
77
74
72
74
79
79
83
83
83
85
85
81
76
77
77
77
73
74
76
80
80
82
82
83
79
83
82
78
76
77
75
75
75
75
76
75
76
77
77
76
72
74
74
73
74
73
73
75
74
75
74
73
70
70
68
67
72
71
72
75
78
78
80
82
83
82
81
82
79
79
79
80
76
78
79
78
78
78
79
77
78
77
76
78
79
78
79
77
76
77
76
75
75
75
78
78
76
80
80
80
80
80
80
80
82
83
81
83
81
81
80
78
78
76
77
73
72
70
72
73
72
72
72
75
77
76
76
74
76
75
76
74
74
75
74
75
76
76
75
76
77
75
75
79
76
76
75
76
78
78
77
78
78
78
76
78
78
76
76
80
80
79
77
77
76
77
77
76
75
77
73
73
71
70
74
75
78
78
81
81
81
81
81
78
80
78
78
77
77
79
77
75
74
75
76
75
74
74
76
81
81
80
80
78
78
78
77
73
76
80
77
79
79
82
78
77
75
76
78
80
77
80
77
76
75
74
75
75
77
77
73
71
73
71
71
68
72
74
78
79
82
80
82
81
82
82
79
78
78
78
78
78
76
76
77
78
75
78
78
78
73
74
73
73
75
74
76
75
76
76
78
75
79
76
78
80
77
78
79
76
76
76
74
76
78
79
78
79
80
80
80
78
80
79
80
77
78
77
79
81
85
85
83
82
82
83
83
83
82
82
80
78
75
70
68
75
74
70
72
75
77
75
76
77
76
77
76
76
76
76
75
76
79
76
76
74
75
74
76
75
76
77
80
81
81
82
81
79
78
79
78
79
80
79
77
78
80
83
84
82
81
81
78
81
83
85
83
80
77
75
78
77
78
81
80
82
79
80
81
81
81
81
82
82
82
82
81
81
79
81
80
78
73
76
78
76
78
81
78
82
83
81
82
81
82
79
80
78
77
79
77
76
76
75
74
74
76
78
77
74
74
74
75
77
78
76
73
73
74
76
80
79
76
77
75
79
79
79
79
79
79
78
82
80
76
76
76
75
78
78
75
71
71
73
77
73
73
76
75
74
76
78
77
78
76
77
80
83
85
83
79
78
80
80
80
80
80
79
80
79
78
79
79
79
78
78
80
82
82
80
78
77
81
77
79
77
79
79
78
75
73
75
73
75
77
76
77
75
74
75
77
76
74
75
78
79
80
80
77
78
78
77
78
78
79
79
82
79
79
79
79
75
74
74
74
75
72
71
74
73
72
75
71
68
71
71
70
65
69
69
71
75
76
78
78
78
80
81
77
78
81
83
87
87
87
83
80
80
77
73
72
71
73
72
72
72
74
76
78
74
78
76
75
74
77
77
77
77
77
77
75
75
74
73
77
75
78
77
77
72
74
75
72
75
76
73
74
74
79
75
75
73
77
78
78
78
80
80
82
82
78
78
78
78
78
78
78
78
78
77
77
79
79
78
76
78
77
78
79
82
83
85
84
86
84
82
82
80
83
82
82
80
77
77
76
80
77
76
78
76
75
76
76
75
75
73
72
72
71
72
74
73
73
76
76
76
75
75
76
74
74
75
76
76
75
77
75
75
75
76
77
81
77
73
76
79
83
83
81
81
80
83
80
82
82
80
85
85
84
84
83
83
81
83
85
81
80
81
78
77
76
75
73
71
72
72
70
72
74
75
72
73
73
72
73
75
74
76
76
75
74
74
74
75
77
74
74
72
73
72
72
70
73
75
76
75
75
76
78
76
75
76
80
76
76
73
72
70
70
70
69
69
70
71
69
71
73
76
76
74
70
71
70
70
72
71
71
71
72
74
77
82
82
83
83
82
80
79
77
75
78
78
79
76
78
73
75
70
69
70
74
78
78
76
73
75
75
74
74
76
75
76
73
73
74
77
75
74
77
74
75
75
74
76
74
75
75
76
75
77
75
75
75
75
76
74
69
70
69
70
74
74
73
72
73
73
72
72
75
80
79
79
79
79
81
81
82
81
82
82
82
82
82
81
80
78
77
78
76
75
73
71
67
66
66
69
71
73
74
72
73
72
72
75
74
76
76
76
76
76
75
73
75
73
72
74
71
71
71
70
69
71
70
75
75
76
76
75
76
74
74
76
77
77
76
76
75
78
77
77
75
75
78
75
73
73
77
76
77
76
75
75
75
77
75
73
75
76
77
75
73
73
75
74
76
77
77
77
77
76
76
76
76
76
76
76
75
78
79
78
75
77
77
75
74
74
76
76
79
80
80
82
81
78
77
78
80
78
79
78
78
79
80
80
80
80
79
79
79
80
80
82
83
81
78
78
78
77
78
76
75
76
76
76
73
76
75
76
79
80
83
82
83
79
74
74
77
76
77
76
77
76
77
77
78
77
79
82
81
79
79
79
79
80
80
77
79
76
76
77
81
80
79
80
80
77
75
76
75
76
75
76
77
78
77
77
76
76
73
72
71
70
70
71
71
70
70
72
70
72
75
78
78
76
78
80
77
80
78
79
78
79
78
77
75
76
77
78
81
80
82
84
83
84
84
84
84
82
84
81
81
80
78
78
77
76
76
77
78
76
74
73
71
72
75
76
75
75
72
71
73
73
76
78
79
77
76
78
78
78
78
79
77
79
81
82
82
80
80
80
80
80
78
77
79
82
81
80
80
80
80
81
80
81
80
80
79
84
85
84
82
81
78
79
79
78
79
78
78
76
74
73
74
73
76
76
78
76
75
75
77
76
75
75
77
77
77
77
77
76
75
75
77
79
79
81
77
81
81
79
81
81
78
81
81
81
79
78
79
77
79
79
80
79
79
79
77
76
77
76
77
78
77
77
75
73
73
72
73
72
73
72
68
70
70
74
77
73
75
74
78
79
76
78
77
77
77
76
74
72
72
69
69
71
73
73
69
68
68
66
68
67
69
73
74
72
75
78
76
76
74
71
72
73
69
70
70
70
73
77
77
78
80
80
80
78
77
75
73
75
78
77
79
79
81
78
75
78
74
78
77
77
76
77
77
77
78
76
77
75
74
72
69
69
71
69
68
73
73
77
77
74
74
76
80
80
80
81
81
80
79
80
75
76
80
78
80
80
80
80
81
80
80
80
84
84
79
78
78
77
77
78
81
77
74
75
73
75
75
75
76
77
77
77
78
77
76
75
74
73
73
73
74
74
73
75
79
79
79
79
81
83
83
82
83
82
83
81
79
81
82
81
81
79
77
78
77
77
75
74
73
75
75
78
77
78
78
78
80
81
80
80
76
76
75
74
71
71
72
70
70
72
72
73
73
75
76
76
77
78
80
79
78
75
74
75
73
76
78
77
76
73
67
69
72
72
72
72
76
76
77
77
78
77
77
78
76
79
79
78
77
73
74
74
77
77
77
76
74
75
75
78
78
77
77
75
75
77
75
76
74
76
78
76
76
78
77
77
75
74
74
75
75
72
75
76
82
81
82
82
82
81
82
83
83
82
80
79
79
78
76
76
76
77
76
76
77
77
76
73
73
73
75
80
79
79
78
79
78
79
80
80
83
82
83
79
83
82
80
79
81
84
82
81
84
84
84
85
82
79
79
78
76
74
79
77
77
76
78
78
73
78
78
75
73
73
74
74
69
70
73
74
75
75
76
76
74
76
73
73
74
71
70
72
74
75
75
74
73
71
75
79
80
79
82
82
79
82
80
80
80
79
79
79
80
79
79
79
79
80
82
80
82
80
78
80
78
79
79
82
81
76
74
74
74
77
76
76
76
72
72
72
76
79
79
76
76
78
76
75
73
74
76
78
78
78
78
78
78
79
78
79
79
80
81
80
79
81
79
77
77
76
77
76
76
76
77
77
73
77
78
75
78
75
74
73
74
76
74
72
72
72
77
76
77
74
78
78
77
75
76
78
78
77
78
80
79
77
77
77
77
77
77
78
77
79
79
79
79
79
79
77
77
77
76
77
73
77
76
76
77
76
76
80
80
77
75
75
75
77
77
77
81
83
81
81
80
80
80
79
79
79
79
80
76
77
76
74
72
71
74
77
76
75
77
76
75
75
77
77
75
79
78
77
78
79
76
76
76
75
74
76
76
78
80
80
82
80
83
80
80
82
80
79
79
80
80
81
81
82
82
84
84
84
84
84
84
82
83
84
79
80
78
78
78
78
77
77
78
80
81
82
81
80
80
79
78
77
77
78
79
80
78
80
80
77
74
74
77
79
81
80
78
76
76
78
75
74
74
76
75
75
75
73
73
72
74
76
76
76
75
76
75
74
73
74
74
75
78
77
77
77
77
77
77
77
76
78
76
80
78
78
76
76
79
79
79
77
77
75
77
78
79
79
82
82
80
80
82
80
81
81
81
79
80
80
74
76
82
80
78
78
77
79
79
79
79
80
79
81
81
78
76
74
72
71
71
71
71
73
75
74
74
75
77
76
81
81
80
78
78
80
79
80
81
82
81
80
81
81
81
79
78
78
79
76
75
75
76
77
77
79
79
80
79
77
77
80
83
84
84
84
82
81
81
83
84
82
80
79
80
79
76
76
77
76
76
75
75
76
76
76
76
75
75
75
77
78
78
79
81
82
85
83
83
83
82
79
80
80
81
84
84
84
84
85
84
83
81
83
83
83
82
82
82
80
78
77
78
79
76
75
72
71
69
73
73
74
74
74
74
74
74
73
73
73
71
69
74
74
72
77
78
81
81
78
78
76
73
73
76
76
77
78
79
80
80
80
79
82
81
82
80
80
80
79
82
82
83
84
85
84
84
85
82
83
84
81
84
83
82
80
78
78
79
81
79
82
82
80
80
79
82
84
83
84
85
86
85
82
83
83
85
84
83
83
82
80
77
80
77
80
80
77
80
78
75
77
77
77
77
76
74
75
76
78
81
78
76
75
74
76
74
74
73
78
79
79
78
76
77
73
73
77
75
71
72
72
72
73
69
72
73
73
73
74
73
76
77
78
80
84
84
84
84
80
77
77
77
81
82
80
79
77
77
79
79
78
77
78
77
77
78
81
84
79
84
84
84
83
85
85
85
86
88
88
87
87
87
84
86
86
83
84
83
82
80
80
80
80
82
83
82
75
75
75
83
83
81
82
82
82
80
77
78
77
76
79
80
79
77
78
78
78
80
82
83
83
81
78
77
74
75
77
80
79
78
78
77
78
79
78
79
80
81
81
81
80
82
82
81
80
80
79
78
78
77
75
76
75
75
75
76
76
78
77
76
75
76
76
80
79
77
77
76
75
74
73
75
75
75
77
74
75
75
75
74
74
72
70
71
72
73
74
75
74
72
76
77
76
75
77
75
77
78
75
78
79
78
76
71
73
72
71
72
72
76
72
72
73
74
74
73
76
76
75
76
78
76
78
78
78
76
76
78
78
80
80
80
78
80
80
80
80
80
78
78
77
76
76
77
77
79
81
79
80
79
78
77
75
75
74
79
78
81
78
77
76
77
77
77
77
79
80
79
78
75
78
79
78
78
79
80
82
83
82
84
84
84
85
82
80
81
82
86
85
85
86
86
86
85
85
82
80
80
80
80
80
80
78
78
78
78
77
80
81
81
77
74
75
75
76
77
78
79
81
77
77
78
78
78
80
82
79
79
78
78
79
79
78
72
73
77
80
79
78
76
77
76
77
80
82
80
80
78
78
76
76
76
75
78
79
78
80
81
81
81
78
78
76
78
76
77
79
76
74
76
76
74
76
78
76
74
76
76
75
78
78
79
79
78
82
80
80
82
79
80
82
82
81
82
81
77
76
75
75
73
72
73
72
73
74
75
79
76
76
77
78
76
73
76
76
78
79
76
72
69
69
73
75
75
75
75
75
77
74
77
81
81
80
79
78
76
79
76
78
77
76
76
77
78
77
77
76
80
76
77
77
78
78
79
80
79
79
78
77
77
79
79
79
78
80
78
78
76
75
76
78
78
77
77
75
71
74
74
73
75
75
74
74
73
74
73
74
74
74
74
75
74
75
74
75
74
75
75
75
79
80
78
81
80
79
79
80
79
79
78
78
78
75
76
75
76
80
82
80
80
81
83
81
78
78
78
79
80
81
79
80
79
79
75
74
74
74
74
74
74
78
79
78
74
77
74
74
76
74
76
77
79
78
82
81
78
78
79
84
83
83
82
77
78
78
81
82
80
82
81
80
81
81
79
79
79
78
78
77
76
73
74
75
72
71
73
75
74
73
76
77
78
78
74
74
73
73
73
73
74
78
76
78
73
73
75
76
80
80
79
76
79
79
78
79
76
76
77
76
76
78
78
79
79
78
76
79
80
81
81
82
82
80
82
82
80
83
81
83
82
82
82
82
80
81
78
80
77
76
75
76
77
78
80
80
81
79
78
78
78
77
78
78
84
83
81
79
79
82
82
80
80
79
79
79
82
80
75
79
76
74
75
76
75
75
75
75
77
76
79
79
77
77
79
79
79
79
80
76
75
76
76
77
77
75
76
77
74
77
78
77
77
78
79
79
80
80
78
78
77
75
75
75
76
77
77
76
78
78
79
82
84
83
83
83
82
80
80
79
78
77
75
77
78
76
75
74
75
78
77
73
75
73
73
77
79
79
80
77
78
76
74
74
74
74
74
74
71
72
74
74
75
75
76
77
78
77
78
80
78
79
81
77
78
77
78
77
77
77
76
76
75
76
75
78
78
78
80
80
78
79
79
78
77
78
79
79
79
78
77
74
74
76
78
76
76
77
79
77
76
76
78
78
79
78
81
81
81
82
82
82
82
82
80
79
79
77
77
79
77
77
76
77
77
78
78
78
77
78
80
78
79
81
80
80
78
78
78
77
78
77
76
76
77
74
74
72
72
72
73
77
77
78
78
79
78
77
82
83
83
81
82
82
79
76
77
81
82
84
82
79
79
80
77
76
74
74
76
78
79
80
79
75
73
76
75
76
77
78
74
74
73
72
70
67
68
69
69
68
71
73
74
74
73
70
70
66
69
73
76
73
74
76
76
78
85
85
85
79
78
75
74
77
79
83
83
82
80
77
79
80
80
79
79
82
82
82
83
79
80
81
80
79
80
78
79
80
79
77
78
77
76
76
77
78
82
80
79
80
83
83
83
80
80
80
79
78
78
79
79
79
78
77
78
77
79
78
79
79
79
80
79
78
79
78
77
78
77
76
77
79
77
80
81
79
81
80
79
79
78
79
81
78
77
80
84
84
83
81
81
82
81
81
80
80
79
75
78
80
79
79
77
77
77
77
77
74
76
76
77
77
78
78
79
79
80
79
76
76
78
79
81
81
80
78
78
79
75
75
77
75
74
75
74
75
77
78
78
77
77
77
75
74
75
77
77
78
76
77
78
78
77
77
79
78
78
72
73
72
73
72
73
70
71
71
74
73
72
72
71
73
73
73
73
71
72
71
77
77
77
77
74
76
76
77
77
77
76
77
76
79
77
80
82
82
82
81
82
81
81
81
79
79
78
78
79
79
78
78
77
78
79
81
80
76
78
78
82
83
82
82
76
76
83
84
84
85
85
83
83
82
82
83
84
85
86
86
85
84
83
78
83
83
83
83
82
82
75
74
77
77
80
85
83
81
80
79
79
79
79
79
79
80
80
80
81
81
81
80
81
80
80
80
82
81
81
81
83
83
85
85
84
82
83
83
82
83
80
80
80
79
79
80
79
79
78
78
79
77
75
72
73
78
76
78
80
79
80
82
82
82
81
80
77
78
81
78
78
80
80
82
82
80
79
76
78
79
82
82
83
82
82
80
79
79
80
81
80
80
81
81
81
81
80
80
80
79
77
81
81
81
79
77
75
75
79
79
78
79
79
80
80
79
81
82
82
81
78
78
81
78
76
73
76
74
75
77
76
80
79
79
78
80
81
80
77
78
79
78
78
76
76
78
79
79
80
78
78
78
79
77
76
79
80
78
78
80
81
80
79
77
79
79
79
80
80
81
85
84
82
82
80
82
84
82
81
81
84
84
84
83
83
80
77
76
75
77
75
72
72
74
76
76
76
75
75
74
77
73
73
73
75
77
75
76
80
80
81
82
83
81
81
82
83
84
83
83
84
81
81
82
82
83
79
80
80
82
85
85
85
85
85
83
83
83
82
84
82
81
83
81
80
78
78
78
78
74
73
74
74
75
74
76
76
76
74
73
73
74
74
75
76
75
76
75
72
72
73
75
76
76
76
78
78
78
77
78
81
80
81
81
77
80
82
81
79
79
79
79
80
81
83
81
82
80
80
77
77
80
80
81
79
78
79
79
80
81
80
77
81
79
81
80
81
82
79
78
78
79
82
79
78
81
80
81
80
79
76
77
74
78
78
80
80
78
78
78
74
78
76
77
74
78
75
75
73
72
72
73
76
76
74
77
78
77
78
74
77
74
74
75
74
76
76
76
76
76
76
77
78
77
79
78
76
76
76
76
77
77
78
78
78
79
78
78
77
79
80
78
78
78
77
76
82
82
82
81
82
82
84
83
83
84
81
81
81
78
76
77
79
79
79
81
81
79
79
78
80
80
81
81
81
77
77
75
77
79
82
82
79
78
76
79
76
74
72
78
78
79
77
80
79
76
80
79
79
79
77
76
76
79
79
79
80
78
82
80
78
79
78
76
76
75
75
75
77
77
74
75
79
79
76
76
73
71
75
80
79
79
79
79
81
79
79
77
76
76
74
75
77
76
76
76
72
70
72
72
71
74
78
78
74
74
74
77
76
75
76
77
78
79
80
81
80
80
80
80
81
84
83
83
84
85
83
80
79
80
80
79
81
80
79
81
82
81
81
79
80
78
80
76
77
79
81
79
80
80
78
80
82
82
81
80
76
76
71
76
78
79
77
80
77
74
72
72
74
75
74
71
71
72
72
70
71
67
70
71
70
70
70
68
70
68
72
73
75
78
77
79
80
77
80
80
77
77
74
75
80
81
81
82
83
82
80
80
83
82
81
81
81
81
83
83
80
75
75
76
74
74
78
79
81
81
79
77
77
76
77
77
77
76
78
79
78
79
78
78
76
78
78
78
78
79
78
81
81
80
80
82
82
82
81
82
77
77
74
72
73
72
70
71
73
74
75
75
77
80
76
76
76
78
78
77
76
77
75
76
77
77
79
78
77
76
76
77
78
76
76
78
74
73
73
73
74
74
76
75
74
72
74
72
74
71
69
70
69
69
70
69
71
72
75
76
76
76
76
72
70
71
70
74
77
78
74
75
76
80
79
78
78
78
78
75
78
79
80
81
81
78
78
78
75
73
73
72
74
76
76
75
78
80
78
78
77
77
77
78
78
82
82
78
77
76
77
76
76
72
73
77
77
79
80
79
80
80
81
77
76
75
75
77
75
79
80
80
80
79
81
80
78
78
78
82
78
79
79
81
82
81
81
82
82
81
82
82
82
82
82
82
80
80
75
75
70
71
71
74
74
74
76
78
78
77
77
76
75
76
78
77
77
78
74
75
78
78
78
78
75
74
74
74
73
73
74
72
75
72
71
71
71
74
74
73
74
77
78
78
75
74
73
73
70
69
72
71
71
74
75
75
73
70
68
71
72
70
71
70
69
71
73
74
73
71
75
74
74
76
80
80
78
78
80
77
79
82
80
81
84
84
84
83
79
81
79
81
81
82
80
79
78
77
78
79
80
80
81
81
82
81
80
79
79
79
80
81
80
80
80
82
81
82
81
81
77
78
77
77
82
84
80
80
82
85
83
83
81
81
80
79
80
78
77
78
77
80
81
80
82
83
83
83
81
82
80
78
76
76
77
77
79
77
79
79
79
79
79
77
79
79
79
79
79
79
77
77
77
81
81
80
81
84
84
84
80
79
80
81
80
80
82
83
85
87
85
82
82
78
78
80
79
79
75
74
72
70
74
70
69
70
74
75
74
71
71
71
74
75
73
74
75
72
72
72
73
75
73
75
76
75
77
75
78
79
79
79
78
79
77
77
75
74
74
77
77
77
77
77
77
77
78
78
78
79
78
79
80
79
76
76
77
76
77
76
76
75
76
78
77
79
79
81
82
79
80
80
82
85
84
84
84
84
81
81
81
79
78
78
78
78
79
79
75
77
77
80
80
77
76
78
76
77
80
80
83
79
77
77
72
72
71
76
75
76
79
78
78
74
76
77
77
77
79
77
78
74
74
75
75
73
73
73
73
73
72
71
71
70
75
75
69
69
71
72
68
73
74
77
77
77
76
76
73
74
72
75
76
72
75
74
75
75
76
74
76
75
75
76
75
75
75
76
76
78
77
78
79
76
75
73
71
71
70
70
70
70
70
70
72
69
70
73
71
74
73
73
75
75
75
77
77
75
75
76
75
73
73
73
77
79
79
82
81
78
77
77
77
74
71
72
72
72
73
77
79
79
81
82
82
80
80
80
77
75
79
75
74
75
75
74
73
75
76
73
73
73
72
75
74
74
77
77
77
77
77
80
79
79
76
77
76
75
76
74
72
76
78
80
78
77
77
79
82
81
78
78
78
76
77
81
81
84
82
82
81
81
80
80
81
81
79
80
80
80
82
84
85
84
85
85
81
81
81
80
78
80
78
79
79
79
80
78
79
82
79
78
75
77
77
77
80
79
79
79
77
79
78
76
76
75
77
75
74
75
75
74
77
79
74
74
74
75
69
75
75
77
77
75
79
82
82
83
82
85
85
85
85
84
84
85
84
84
86
83
81
80
83
83
82
80
80
81
81
80
81
81
84
84
81
81
77
75
78
81
79
81
81
81
79
78
75
77
76
76
79
78
78
79
79
75
76
74
74
71
71
73
72
71
73
73
73
70
71
71
71
71
70
72
70
72
74
80
80
80
80
79
76
76
77
76
75
75
76
78
78
80
80
80
77
74
79
79
79
78
76
78
76
78
80
83
80
78
78
78
79
79
79
81
77
77
77
77
81
79
79
80
80
79
79
77
77
80
80
81
81
81
83
78
77
80
81
78
78
83
83
82
85
83
83
79
79
79
78
76
74
75
72
73
75
75
75
75
79
80
82
82
80
80
79
80
81
78
79
79
79
79
77
77
76
74
74
73
75
76
74
75
76
76
76
79
78
80
78
79
82
81
83
81
80
77
75
76
76
78
81
83
82
80
79
79
80
80
80
80
77
78
77
77
77
77
75
75
74
75
77
80
80
80
83
78
78
75
73
72
72
73
73
74
77
75
77
75
73
75
75
77
77
75
77
78
78
76
76
76
75
76
77
74
74
75
75
75
74
74
75
78
76
75
77
79
79
78
78
77
76
77
77
77
77
77
80
81
80
82
79
80
80
79
80
81
80
78
77
77
79
80
79
80
78
77
75
77
79
79
82
81
81
79
77
77
80
81
80
81
76
76
76
75
78
78
76
76
75
76
75
76
78
78
78
79
81
81
82
81
82
78
78
79
78
78
81
78
77
75
75
76
80
82
82
82
80
83
82
81
81
81
79
76
74
76
79
76
77
77
77
76
77
78
79
79
78
78
78
80
81
83
82
81
81
80
81
82
82
81
82
82
81
82
81
81
79
80
78
79
79
79
78
78
80
80
77
78
77
75
73
75
75
75
78
78
78
78
78
78
78
76
74
76
76
76
73
75
78
77
75
77
75
74
74
77
78
80
83
85
85
83
83
80
77
77
77
76
76
78
76
77
74
72
74
74
73
74
79
78
76
75
77
75
75
73
72
74
76
76
77
79
79
76
76
76
78
79
77
78
78
80
77
76
74
74
73
73
73
73
75
76
76
75
75
75
76
76
78
78
78
74
74
74
75
75
77
77
77
79
79
79
83
81
82
82
79
77
77
78
81
82
79
78
76
77
80
80
79
77
76
76
79
79
81
77
77
78
78
76
75
79
80
81
79
74
73
75
76
76
81
79
80
80
79
75
74
72
72
75
70
67
68
74
73
67
68
68
68
67
67
69
70
73
77
77
76
80
81
81
78
80
79
80
77
76
73
72
74
74
76
76
75
76
76
76
77
79
80
81
82
83
82
82
84
86
86
83
83
83
82
82
82
83
82
81
81
80
81
81
81
76
77
78
78
79
79
79
79
80
80
79
78
75
72
73
75
74
74
71
73
77
73
74
72
72
75
72
74
74
70
69
70
72
74
72
72
72
76
75
73
75
75
77
77
80
76
78
76
76
76
78
78
76
79
78
78
77
76
77
78
82
84
85
80
80
80
78
78
81
79
81
76
76
74
73
73
71
69
71
73
74
73
72
72
71
72
73
74
74
71
73
75
79
79
79
79
79
79
79
80
83
83
81
81
82
81
81
81
78
77
76
76
76
76
76
75
77
76
78
80
83
80
79
77
78
79
81
82
82
82
82
83
83
81
80
80
80
80
80
78
78
78
78
79
79
79
81
78
78
78
77
77
74
74
72
69
69
71
71
73
80
79
79
82
83
83
83
83
83
84
86
84
84
85
85
84
84
84
84
81
81
81
77
80
80
83
81
80
81
82
83
82
84
81
80
80
80
80
81
81
81
81
81
81
81
80
82
82
79
80
82
81
79
78
78
78
78
80
78
78
80
80
79
80
80
78
78
79
81
82
82
82
81
81
79
79
77
77
77
78
79
76
77
78
79
80
81
80
81
81
81
80
79
80
84
84
81
81
80
80
78
81
84
81
77
77
80
80
77
76
80
84
84
82
82
83
81
79
76
76
75
79
79
79
80
79
79
79
77
79
78
77
79
79
80
79
81
81
83
82
81
78
79
82
80
82
82
81
79
79
79
79
81
82
82
83
83
83
81
83
84
84
84
84
83
83
81
78
81
80
82
82
83
83
85
85
81
81
83
82
82
82
80
80
77
79
79
80
82
83
81
77
78
81
82
82
79
79
77
77
76
78
76
78
78
79
80
80
80
80
82
80
80
79
79
80
80
79
79
78
76
78
79
78
79
78
79
81
81
82
84
84
83
81
78
80
81
81
84
84
81
83
83
85
84
82
82
82
80
78
82
85
83
83
79
81
79
79
80
81
86
86
86
86
81
86
84
80
80
81
82
81
80
79
79
76
75
75
73
70
71
72
71
71
70
72
76
74
74
72
74
74
72
72
71
73
76
77
78
75
78
80
82
80
79
78
78
76
78
78
74
75
76
78
80
79
74
74
76
76
78
77
79
81
81
79
81
80
78
80
82
81
83
85
84
84
84
84
84
81
81
80
81
82
82
79
79
79
79
79
79
82
84
83
83
85
83
81
80
82
81
80
81
80
79
80
79
78
76
76
79
78
78
78
79
80
83
82
84
84
84
84
82
82
84
84
84
84
82
84
82
80
83
81
77
77
77
80
80
77
80
79
79
77
77
77
79
76
78
74
72
70
71
73
74
75
75
75
74
76
77
80
82
81
81
81
81
82
82
82
78
81
81
80
80
75
75
79
78
75
75
72
72
74
76
74
74
74
75
75
75
78
83
84
83
83
84
80
76
78
77
78
79
79
82
81
81
82
83
82
82
82
81
83
82
82
82
80
82
80
78
77
79
78
79
80
79
78
80
80
81
81
78
82
82
80
78
78
78
80
81
82
82
84
84
84
82
82
82
82
81
79
79
77
79
79
79
81
81
82
81
81
83
84
82
84
83
79
80
80
81
80
80
80
82
81
84
85
84
84
82
82
81
78
78
78
78
78
75
76
75
75
77
77
74
74
70
67
70
69
71
72
72
74
76
77
79
78
77
76
77
77
79
78
79
78
78
78
76
78
82
78
79
79
78
78
75
78
78
78
75
74
76
77
77
80
80
78
77
75
78
78
77
77
76
78
73
73
76
73
76
78
76
77
79
76
75
75
75
74
72
74
76
78
78
78
77
77
77
77
77
78
77
77
80
80
79
79
77
77
77
79
79
81
82
82
84
83
85
83
83
82
82
80
82
81
82
82
82
80
80
78
79
79
82
82
85
83
85
85
83
82
82
83
81
82
81
81
77
76
76
79
79
78
79
79
75
75
75
77
77
77
76
76
76
77
76
80
80
80
80
79
82
84
81
81
81
81
81
77
78
80
79
77
77
78
78
77
77
80
83
84
83
84
84
84
84
84
84
83
84
84
83
82
79
81
78
79
78
79
77
78
79
78
76
75
77
79
79
82
81
81
81
85
84
84
82
81
82
80
77
76
76
76
79
75
75
76
76
74
74
74
72
72
74
73
76
74
72
73
73
77
76
75
74
73
73
73
75
75
78
76
77
78
77
78
77
71
73
74
74
74
74
76
75
75
74
77
74
77
76
76
77
78
76
77
77
79
77
77
75
77
77
77
77
77
77
79
79
79
77
76
76
76
77
77
77
75
80
80
79
81
81
81
79
78
79
79
81
80
80
81
83
83
85
84
84
81
80
80
81
79
76
75
76
79
82
82
84
84
84
84
84
84
84
84
86
86
85
86
86
86
86
86
85
85
87
84
83
83
84
85
85
85
84
83
84
84
81
81
77
77
77
77
79
82
85
86
85
84
84
83
84
84
87
86
86
86
86
86
86
83
81
82
80
78
78
78
81
82
83
82
83
80
80
82
80
82
80
80
76
77
82
77
77
74
79
79
79
83
84
84
82
82
84
84
84
83
83
83
83
82
82
82
82
80
81
79
80
80
81
83
83
80
84
81
82
82
79
82
81
85
85
85
85
84
84
84
85
83
83
83
83
84
85
82
79
76
71
72
72
74
74
74
76
74
75
77
76
79
76
78
76
75
75
76
74
78
78
74
75
76
76
76
79
80
79
78
81
77
77
77
77
77
78
79
75
74
75
76
78
76
77
76
73
73
77
75
75
75
75
75
72
68
67
73
73
75
76
78
78
77
75
78
78
78
78
79
77
76
78
78
78
78
78
78
79
77
77
79
79
79
78
78
78
79
78
81
79
79
79
79
77
78
77
75
75
73
73
73
75
76
76
74
76
78
74
75
75
74
75
79
78
78
77
77
78
76
80
78
78
76
77
75
77
76
76
76
76
79
79
76
76
80
80
80
80
80
76
77
76
76
76
77
79
78
78
77
77
77
79
80
80
76
77
76
76
76
76
77
76
76
76
76
75
75
75
76
76
77
76
75
76
75
78
80
78
77
78
78
78
78
78
78
76
76
77
77
76
76
76
78
77
78
77
77
75
75
76
80
80
80
77
75
77
77
77
79
80
77
73
76
77
77
77
77
76
74
74
78
77
77
80
80
81
80
78
81
81
81
83
83
84
79
79
80
80
81
81
81
86
86
86
87
87
84
80
80
82
83
83
83
83
83
84
81
81
81
77
77
77
76
78
80
82
83
83
82
79
79
79
79
79
79
80
79
78
78
78
78
77
77
78
78
78
77
79
79
79
79
78
75
77
78
78
78
77
71
73
74
76
78
80
83
83
78
79
78
78
76
76
77
76
76
78
77
78
78
79
79
81
79
79
81
83
83
82
83
83
78
75
78
77
76
81
81
82
78
79
77
77
77
79
79
78
77
78
78
79
76
77
77
77
76
77
77
80
81
77
78
78
77
77
76
76
76
77
79
81
81
78
78
78
77
77
75
73
75
76
77
79
79
79
79
75
75
75
75
74
76
76
76
76
79
78
79
81
81
81
83
83
83
83
84
83
81
83
84
83
83
83
79
80
81
80
79
80
80
80
76
76
80
81
80
81
81
80
80
81
79
81
82
80
80
79
80
80
79
78
77
77
77
77
76
76
77
77
75
78
74
78
83
83
81
81
81
79
79
79
76
79
79
79
78
77
75
76
76
78
78
77
80
79
79
77
77
80
81
83
84
86
86
86
87
86
86
86
85
85
86
84
85
85
85
85
85
85
87
87
86
86
83
79
81
80
79
80
81
83
81
80
81
81
78
80
80
81
80
79
78
78
78
75
77
77
78
79
78
77
75
77
77
78
77
78
78
78
80
82
82
81
78
78
78
78
79
78
79
77
76
76
76
74
74
70
68
68
71
71
73
78
76
76
76
76
76
77
77
77
79
77
76
76
76
77
76
77
76
75
76
78
80
80
81
82
80
80
82
79
82
82
82
82
82
82
81
84
81
81
80
79
80
82
84
83
83
83
83
82
83
83
82
80
82
78
77
78
78
77
74
75
78
76
73
73
75
77
79
79
79
80
80
78
78
77
76
76
77
76
76
76
73
75
78
79
76
78
77
77
77
77
76
77
78
80
82
81
79
78
80
78
79
78
78
78
80
78
75
73
73
74
76
78
76
76
77
74
74
76
76
75
74
72
74
74
74
74
76
76
76
78
78
75
73
76
76
76
76
75
76
78
82
81
81
81
81
78
77
74
74
78
78
78
79
79
78
84
84
84
85
83
82
81
81
81
82
82
83
85
84
85
85
83
81
81
83
83
83
83
78
78
78
76
75
75
75
76
77
77
75
75
78
79
79
79
80
83
83
82
83
83
80
79
77
78
80
81
81
81
80
79
80
80
79
78
80
82
80
82
81
81
79
77
77
75
76
76
75
74
75
77
77
74
77
76
78
79
77
74
73
72
75
74
75
75
72
70
69
71
71
71
71
77
77
79
79
80
81
79
80
84
84
83
83
82
82
77
76
76
74
75
75
74
75
74
73
73
75
75
76
74
72
76
76
76
78
76
74
76
75
75
77
73
74
74
78
74
73
76
76
78
78
77
75
78
81
80
80
77
77
79
81
79
82
81
81
81
80
82
80
80
79
80
80
82
82
82
82
82
82
82
82
84
83
82
81
78
79
79
77
77
79
80
79
78
78
78
78
79
79
79
78
77
78
80
78
78
77
77
79
79
78
78
76
76
75
74
75
78
78
78
78
78
75
77
78
78
78
78
78
78
77
78
78
77
76
77
79
79
79
80
79
76
77
76
75
76
79
81
81
81
81
80
79
79
78
78
79
77
75
80
82
82
82
81
81
83
81
81
79
80
78
81
82
78
77
77
76
76
77
78
78
77
76
79
80
79
81
83
82
84
84
85
84
81
81
79
79
80
80
80
80
79
80
77
75
76
76
77
77
77
77
77
77
78
78
78
77
73
73
74
74
75
74
73
73
73
74
71
71
74
76
78
77
77
78
78
78
79
80
79
78
80
79
79
79
80
79
77
75
77
77
78
76
77
73
75
78
82
83
81
81
83
83
83
81
80
80
76
77
76
76
75
76
77
76
77
77
79
80
81
84
84
83
83
83
83
83
84
83
83
83
84
83
83
85
85
85
83
83
85
86
85
85
85
84
85
85
85
85
83
85
85
86
84
82
82
82
82
83
83
84
83
85
85
85
83
85
81
80
81
81
79
79
79
81
83
81
81
80
80
81
83
83
82
82
81
79
80
77
79
79
79
78
78
80
80
80
79
81
80
80
80
82
82
80
80
80
80
77
77
78
78
81
81
82
81
81
82
83
83
83
81
81
79
80
75
73
72
74
74
74
76
77
77
78
78
80
78
78
76
76
75
75
74
78
75
74
75
73
76
78
78
75
74
73
74
75
73
73
74
73
74
73
73
73
75
76
74
76
74
76
79
80
79
79
79
81
81
81
79
80
80
81
82
82
82
82
83
83
83
83
82
85
82
82
81
81
81
84
83
82
84
84
84
83
82
81
80
80
81
81
83
81
80
79
80
79
79
79
78
78
79
79
79
79
81
83
85
82
81
83
81
81
82
82
84
83
83
83
83
83
84
84
83
83
84
81
84
82
83
83
85
85
85
84
84
84
83
82
85
85
85
84
84
84
83
80
79
79
79
79
78
78
78
79
80
81
82
82
82
83
81
82
82
81
82
81
83
83
83
81
81
78
77
77
79
77
78
78
79
75
75
77
78
78
77
77
75
74
74
72
73
72
72
73
75
76
78
77
78
77
79
79
81
83
81
83
81
79
79
77
80
80
80
83
80
80
79
79
79
79
81
77
77
76
77
74
74
76
76
83
81
81
81
81
81
83
80
82
81
81
77
77
77
77
77
77
78
79
79
78
76
77
75
75
75
76
77
77
78
79
79
80
81
82
81
81
81
82
81
79
79
79
79
74
74
77
80
78
80
80
80
79
79
79
79
79
79
79
81
81
80
78
77
77
77
80
79
82
78
78
75
75
75
75
71
71
71
70
70
71
75
75
75
75
71
75
74
74
71
69
69
71
71
69
71
71
75
76
75
75
77
78
79
78
76
77
76
79
76
76
77
80
80
80
78
78
78
78
79
80
80
82
80
80
78
80
78
76
78
78
78
78
79
79
80
81
80
75
76
76
77
80
82
83
84
82
84
84
83
83
83
83
84
83
83
80
80
78
79
78
76
79
79
80
81
81
80
83
83
83
82
82
82
82
83
80
78
78
79
79
81
81
81
80
73
76
76
77
77
75
76
76
76
76
79
79
77
77
79
80
81
79
77
79
79
76
76
76
78
81
81
80
80
81
78
79
77
78
78
76
77
76
79
81
81
82
80
79
79
79
79
79
79
80
77
78
77
76
75
74
75
76
74
74
77
78
78
77
76
76
76
77
77
78
76
74
76
76
79
77
78
80
80
79
80
82
81
81
81
80
79
79
80
82
81
81
80
80
80
80
78
79
80
79
81
81
81
81
81
82
83
83
86
83
78
79
78
78
77
77
78
78
79
79
80
85
84
84
85
84
83
82
82
83
83
83
80
80
80
78
80
79
76
75
75
81
83
84
86
86
84
83
82
82
82
80
81
77
78
78
76
76
75
74
75
75
78
75
78
75
75
75
77
75
75
76
73
75
72
71
76
79
77
78
77
78
78
78
76
76
76
77
78
77
78
79
80
81
77
81
81
83
82
83
83
83
83
81
80
80
80
81
81
79
77
79
79
79
77
79
81
80
80
78
79
79
83
84
83
83
81
81
82
82
83
83
81
79
79
77
77
79
79
79
79
79
79
81
78
79
79
82
82
83
83
83
83
82
81
81
80
81
81
81
82
81
80
79
80
80
79
79
79
79
78
78
79
79
79
79
79
79
79
79
77
75
75
75
75
75
77
79
79
79
77
77
77
79
84
83
82
77
78
79
78
79
84
83
82
82
83
84
85
86
87
86
87
87
87
86
85
85
84
84
83
84
84
84
84
84
85
86
86
87
87
88
88
88
88
88
88
88
88
88
88
88
88
88
88
88
88
88
88
88
88
88
88
88
88
88
88
88
88
88
88
88
88
88
88
88
88
88
88
88
88
88
88
88
88
88
88
88
88
88
88
88
88
88
88
88
88
88
88
88
88
88
88
88
88
88
88
88
88
88
88
88
88
88
88
88
88
88
88
88
88
88
88
88
88
88
88
88
88
88
88
88
88
88
88
88
88
88
88
88
88
88
88
88
88
88
88
88
88
88
88
88
88
88
88
88
88
88
88
88
88
88
88
88
88
88
88
88
88
88
88
88
88
88
88
88
88
88
88
88
88
88
88
88
88
88
88
88
88
88
88
88
88
88
88
88
88
88
88
88
88
88
88
88
88
88
88
88
88
88
88
88
88
88
88
88
88
88
88
88
88
88
88
88
88
88
88
88
88
88
88
88
88
88
88
88
88
88
88
88
88
88
88
88
88
88
88
88
88
88
88
88
88
88
88
88
88
88
88
88
88
88
88
88
88
88
88
88
88
88
88
88
88
88
88
88
88
88
88
88
88
88
88
88
88
88
88
88
88
88
88
88
88
88
88
88
88
88
88
88
88
88
88
88
88
88
88
88
88
88
88
88
88
88
88
88
88
88
88
88
88
88
88
88
88
88
88
88
88
88
88
88
88
88
88
88
88
88
88
88
88
88
88
88
88
88
88
88
88
88
88
88
88
88
88
88
88
88
88
88
88
88
88
88
88
88
88
88
88
88
88
88
88
88
88
88
88
88
88
88
88
88
88
88
88
88
88
88
88
88
88
88
88
88
88
88
88
88
88
88
88
88
88
88
88
88
88
88
88
88
88
88
88
88
88
88
88
88
88
88
88
88
88
88
88
88
88
88
88
88
88
88
88
88
88
88
88
88
88
88
88
88
88
88
88
88
88
88
88
88
88
88
88
88
88
88
88
88
88
88
88
88
88
88
88
88
88
88
88
88
88
88
88
88
88
88
88
88
88
88
88
88
88
88
88
88
88
88
88
88
88
88
88
88
88
88
88
88
88
88
88
88
88
88
88
88
88
88
88
88
88
88
88
88
88
88
88
88
88
88
88
88
88
88
88
88
88
88
88
88
88
88
88
88
88
88
88
88
88
88
88
88
88
88
88
88
88
88
88
88
88
88
88
88
88
88
88
88
88
88
88
88
88
88
88
88
88
88
88
88
88
88
88
88
88
88
88
88
88
88
88
88
88
88
88
88
88
88
88
88
88
88
88
88
88
88
88
88
88
88
88
88
88
88
88
88
88
88
88
88
88
88
88
88
88
88
88
88
88
88
88
88
88
88
88
88
88
88
88
88
88
88
88
88
88
88
88
88
88
88
88
88
88
88
88
88
88
88
88
88
88
88
88
88
88
88
88
88
88
88
88
88
88
88
88
88
88
88
88
88
88
88
88
88
88
88
88
88
88
88
88
88
88
88
88
88
88
88
88
88
88
88
88
88
88
88
88
88
88
88
88
88
88
88
88
88
88
88
88
88
88
88
88
88
88
88
88
88
88
88
88
88
88
88
88
88
88
88
88
88
88
88
88
88
88
88
88
88
88
88
88
88
88
88
88
88
88
88
88
88
88
88
88
88
88
88
88
88
88
88
88
88
88
88
88
88
88
88
88
88
88
88
88
88
88
88
88
88
88
88
88
88
88
88
88
88
88
88
88
88
88
88
88
88
88
88
88
88
88
88
88
88
88
88
88
88
88
88
88
88
88
88
88
88
88
88
88
88
88
88
88
88
88
88
88
88
88
88
88
88
88
88
88
88
88
88
88
88
88
88
88
88
88
88
88
88
88
88
88
88
88
88
88
88
88
88
88
88
88
88
88
88
88
88
88
88
88
88
88
88
88
88
88
88
88
88
88
88
88
88
88
88
88
88
88
88
88
88
88
88
88
88
88
88
88
88
88
88
88
88
88
88
88
88
88
88
88
88
88
88
88
88
88
88
88
88
88
88
88
88
88
88
88
88
88
88
88
88
88
88
88
88
88
88
88
88
88
88
88
88
88
88
88
88
88
88
88
88
88
88
88
88
88
88
88
88
88
88
88
88
88
88
88
88
88
88
88
88
88
88
88
88
88
88
88
88
88
88
88
88
88
88
88
88
88
88
88
88
88
88
88
88
88
88
88
88
88
88
88
88
88
88
88
88
88
88
88
88
88
88
88
88
88
88
88
88
88
88
88
88
88
88
88
88
88
88
88
88
88
88
88
88
88
88
88
88
88
88
88
88
88
88
88
88
88
88
88
88
88
88
88
88
88
88
88
88
88
88
88
88
88
88
88
88
88
88
88
88
88
88
88
88
88
88
88
88
88
88
88
88
88
88
88
88
88
88
88
88
88
88
88
88
88
88
88
88
88
88
88
88
88
88
88
88
88
88
88
88
88
88
88
88
88
88
88
88
88
88
88
88
88
88
88
88
88
88
88
88
88
88
88
88
88
88
88
88
88
88
88
88
88
88
88
88
88
88
88
88
88
88
88
88
88
88
88
88
88
88
88
88
88
88
88
88
88
88
88
88
88
88
88
88
88
88
88
88
88
88
88
88
88
88
88
88
88
88
88
88
88
88
88
88
88
88
88
88
88
88
88
88
88
88
88
88
88
88
88
88
88
88
88
88
88
88
88
88
88
88
88
88
88
88
88
88
88
88
88
88
88
88
88
88
88
88
88
88
88
88
88
88
88
88
88
88
88
88
88
88
88
88
88
88
88
88
88
88
88
88
88
88
88
88
88
88
88
88
88
88
88
88
88
88
88
88
88
88
88
88
88
88
88
88
88
88
88
88
88
88
88
88
88
88
88
88
88
88
88
88
88
88
88
88
88
88
88
88
88
88
88
88
88
88
88
88
88
88
88
88
88
88
88
88
88
88
88
88
88
88
88
88
88
88
88
88
88
88
88
88
88
88
88
88
88
88
88
88
88
88
88
88
88
88
88
88
88
88
88
88
88
88
88
88
88
88
88
88
88
88
88
88
88
88
88
88
88
88
88
88
88
88
88
88
88
88
88
88
88
88
88
88
88
88
88
88
88
88
88
88
88
88
88
88
88
88
88
88
88
88
88
88
88
88
88
88
88
88
88
88
88
88
88
88
88
88
88
88
88
88
88
88
88
88
88
88
88
88
88
88
88
88
88
88
88
88
88
88
88
88
88
88
88
88
88
88
88
88
88
88
88
88
88
88
88
88
88
88
88
88
88
88
88
88
88
88
88
88
88
88
88
88
88
88
88
88
88
88
88
88
88
88
88
88
88
88
88
88
88
88
88
88
88
88
88
88
88
88
88
88
88
88
88
88
88
88
88
88
88
88
88
88
88
88
88
88
88
88
88
88
88
88
88
88
88
88
88
88
88
88
88
88
88
88
88
88
88
88
88
88
88
88
88
88
88
88
88
88
88
88
88
88
88
88
88
88
88
88
88
88
88
88
88
88
88
88
88
88
88
88
88
88
88
88
88
88
88
88
88
88
88
88
88
88
88
88
88
88
88
88
88
88
88
88
88
88
88
88
88
88
88
88
88
88
88
88
88
88
88
88
88
88
88
88
88
88
88
88
88
88
88
88
88
88
88
88
88
88
88
88
88
88
88
88
88
88
88
88
88
88
88
88
88
88
88
88
88
88
88
88
88
88
88
88
88
88
88
88
88
88
88
88
88
88
88
88
88
88
88
88
88
88
88
88
88
88
88
88
88
88
88
88
88
88
88
88
88
88
88
88
88
88
88
88
88
88
88
88
88
88
88
88
88
88
88
88
88
88
88
88
88
88
88
88
88
88
88
88
88
88
88
88
88
88
88
88
88
88
88
88
88
88
88
88
88
88
88
88
88
88
88
88
88
88
88
88
88
88
88
88
88
88
88
88
88
88
88
88
88
88
88
88
88
88
88
88
88
88
88
88
88
88
88
88
88
88
88
88
88
88
88
88
88
88
88
88
88
88
88
88
88
88
88
88
88
88
88
88
88
88
88
88
88
88
88
88
88
88
88
88
88
88
88
88
88
88
88
88
88
88
88
88
88
88
88
88
88
88
88
88
88
88
88
88
88
88
88
88
88
88
88
88
88
88
88
88
88
88
88
88
88
88
88
88
88
88
88
88
88
88
88
88
88
88
88
88
88
88
88
88
88
88
88
88
88
88
88
88
88
88
88
88
88
88
88
88
88
88
88
88
88
88
88
88
88
88
88
88
88
88
88
88
88
88
88
88
88
88
88
88
88
88
88
88
88
88
88
88
88
88
88
88
88
88
88
88
88
88
88
88
88
88
88
88
88
88
88
88
88
88
88
88
88
88
88
88
88
88
88
88
88
88
88
88
88
88
88
88
88
88
88
88
88
88
88
88
88
88
88
88
88
88
88
88
88
88
88
88
88
88
88
88
88
88
88
88
88
88
88
88
88
88
88
88
88
88
88
88
88
88
88
88
88
88
88
88
88
88
88
88
88
88
88
88
88
88
88
88
88
88
88
88
88
88
88
88
88
88
88
88
88
88
88
88
88
88
88
88
88
88
88
88
88
88
88
88
88
88
88
88
88
88
88
88
88
88
88
88
88
88
88
88
88
88
88
88
88
88
88
88
88
88
88
88
88
88
88
88
88
88
88
88
88
88
88
88
88
88
88
88
88
88
88
88
88
88
88
88
88
88
88
88
88
88
88
88
88
88
88
88
88
88
88
88
88
88
88
88
88
88
88
88
88
88
88
88
88
88
88
88
88
88
88
88
88
88
88
88
88
88
88
88
88
88
88
88
88
88
88
88
88
88
88
88
88
88
88
88
88
88
88
88
88
88
88
88
88
88
88
88
88
88
88
88
88
88
88
88
88
88
88
88
88
88
88
88
88
88
88
88
88
88
88
88
88
88
88
88
88
88
88
88
88
88
88
88
88
88
88
88
88
88
88
88
88
88
88
88
88
88
88
88
88
88
88
88
88
88
88
88
88
88
88
88
88
88
88
88
88
88
88
88
88
88
88
88
88
88
88
88
88
88
88
88
88
88
88
88
88
88
88
88
88
88
88
88
88
88
88
88
88
88
88
88
88
88
88
88
88
88
88
88
88
88
88
88
88
88
88
88
88
88
88
88
88
88
88
88
88
88
88
88
88
88
88
88
88
88
88
88
88
88
88
88
88
88
88
88
88
88
88
88
88
88
88
88
88
88
88
88
88
88
88
88
88
88
88
88
88
88
88
88
88
88
88
88
88
88
88
88
88
88
88
88
88
88
88
88
88
88
88
88
88
88
88
88
88
88
88
88
88
88
88
88
88
88
88
88
88
88
88
88
88
88
88
88
88
88
88
88
88
88
88
88
88
88
88
88
88
88
88
88
88
88
88
88
88
88
88
88
88
88
88
88
88
88
88
88
88
88
88
88
88
88
88
88
88
88
88
88
88
88
88
88
88
88
88
88
88
88
88
88
88
88
88
88
88
88
88
88
88
88
88
88
88
88
88
88
88
88
88
88
88
88
88
88
88
88
88
88
88
88
88
88
88
88
88
88
88
88
88
88
88
88
88
88
88
88
88
88
88
88
88
88
88
88
88
88
88
88
88
88
88
88
88
88
88
88
88
88
88
88
88
88
88
88
88
88
88
88
88
88
88
88
88
88
88
88
88
88
88
88
88
88
88
88
88
88
88
88
88
88
88
88
88
88
88
88
88
88
88
88
88
88
88
88
88
88
88
88
88
88
88
88
88
88
88
88
88
88
88
88
88
88
88
88
88
88
88
88
88
88
88
88
88
88
88
88
88
88
88
88
88
88
88
88
88
88
88
88
88
88
88
88
88
88
88
88
88
88
88
88
88
88
88
88
88
88
88
88
88
88
88
88
88
88
88
88
88
88
88
88
88
88
88
88
88
88
88
88
88
88
88
88
88
88
88
88
88
88
88
88
88
88
88
88
88
88
88
88
88
88
88
88
88
88
88
88
88
88
88
88
88
88
88
88
88
88
88
88
88
88
88
88
88
88
88
88
88
88
88
88
88
88
88
88
88
88
88
88
88
88
88
88
88
88
88
88
88
88
88
88
88
88
88
88
88
88
88
88
88
88
88
88
88
88
88
88
88
88
88
88
88
88
88
88
88
88
88
88
88
88
88
88
88
88
88
88
88
88
88
88
88
88
88
88
88
88
88
88
88
88
88
88
88
88
88
88
88
88
88
88
88
88
88
88
88
88
88
88
88
88
88
88
88
88
88
88
88
88
88
88
88
88
88
88
88
88
88
88
88
88
88
88
88
88
88
88
88
88
88
88
88
88
88
88
88
88
88
88
88
88
88
88
88
88
88
88
88
88
88
88
88
88
88
88
88
88
88
88
88
88
88
88
88
88
88
88
88
88
88
88
88
88
88
88
88
88
88
88
88
88
88
88
88
88
88
88
88
88
88
88
88
88
88
88
88
88
88
88
88
88
88
88
88
88
88
88
88
88
88
88
88
88
88
88
88
88
88
88
88
88
88
88
88
88
88
88
88
88
88
88
88
88
88
88
88
88
88
88
88
88
88
88
88
88
88
88
88
88
88
88
88
88
88
88
88
88
88
88
88
88
88
88
88
88
88
88
88
88
88
88
88
88
88
88
88
88
88
88
88
88
88
88
88
88
88
88
88
88
88
88
88
88
88
88
88
88
88
88
88
88
88
88
88
88
88
88
88
88
88
88
88
88
88
88
88
88
88
88
88
88
88
88
88
88
88
88
88
88
88
88
88
88
88
88
88
88
88
88
88
88
88
88
88
88
88
88
88
88
88
88
88
88
88
88
88
88
88
88
88
88
88
88
88
88
88
88
88
88
88
88
88
88
88
88
88
88
88
88
88
88
88
88
88
88
88
88
88
88
88
88
88
88
88
88
88
88
88
88
88
88
88
88
88
88
88
88
88
88
88
88
88
88
88
88
88
88
88
88
88
88
88
88
88
88
88
88
88
88
88
88
88
88
88
88
88
88
88
88
88
88
88
88
88
88
88
88
88
88
88
88
88
88
88
88
88
88
88
88
88
88
88
88
88
88
88
88
88
88
88
88
88
88
88
88
88
88
88
88
88
88
88
88
88
88
88
88
88
88
88
88
88
88
88
88
88
88
88
88
88
88
88
88
88
88
88
88
88
88
88
88
88
88
88
88
88
88
88
88
88
88
88
88
88
88
88
88
88
88
88
88
88
88
88
88
88
88
88
88
88
88
88
88
88
88
88
88
88
88
88
88
88
88
88
88
88
88
88
88
88
88
88
88
88
88
88
88
88
88
88
88
88
88
88
88
88
88
88
88
88
88
88
88
88
88
88
88
88
88
88
88
88
88
88
88
88
88
88
88
88
88
88
88
88
88
88
88
88
88
88
88
88
88
88
88
88
88
88
88
88
88
88
88
88
88
88
88
88
88
88
88
88
88
88
88
88
88
88
88
88
88
88
88
88
88
88
88
88
88
88
88
88
88
88
88
88
88
88
88
88
88
88
88
88
88
88
88
88
88
88
88
88
88
88
88
88
88
88
88
88
88
88
88
88
88
88
88
88
88
88
88
88
88
88
88
88
88
88
88
88
88
88
88
88
88
88
88
88
88
88
88
88
88
88
88
88
88
88
88
88
88
88
88
88
88
88
88
88
88
88
88
88
88
88
88
88
88
88
88
88
88
88
88
88
88
88
88
88
88
88
88
88
88
88
88
88
88
88
88
88
88
88
88
88
88
88
88
88
88
88
88
88
88
88
88
88
88
88
88
88
88
88
88
88
88
88
88
88
88
88
88
88
88
88
88
88
88
88
88
88
88
88
88
88
88
88
88
88
88
88
88
88
88
88
88
88
88
88
88
88
88
88
88
88
88
88
88
88
88
88
88
88
88
88
88
88
88
88
88
88
88
88
88
88
88
88
88
88
88
88
88
88
88
88
88
88
88
88
88
88
88
88
88
88
88
88
88
88
88
88
88
88
88
88
88
88
88
88
88
88
88
88
88
88
88
88
88
88
88
88
88
88
88
88
88
88
88
88
88
88
88
88
88
88
88
88
88
88
88
88
88
88
88
88
88
88
88
88
88
88
88
88
88
88
88
88
88
88
88
88
88
88
88
88
88
88
88
88
88
88
88
88
88
88
88
88
88
88
88
88
88
88
88
88
88
88
88
88
88
88
88
88
88
88
88
88
88
88
88
88
88
88
88
88
88
88
88
88
88
88
88
88
88
88
88
88
88
88
88
88
88
88
88
88
88
88
88
88
88
88
88
88
88
88
88
88
88
88
88
88
88
88
88
88
88
88
88
88
88
88
88
88
88
88
88
88
88
88
88
88
88
88
88
88
88
88
88
88
88
88
88
88
88
88
88
88
88
88
88
88
88
88
88
88
88
88
88
88
88
88
88
88
88
88
88
88
88
88
88
88
88
88
88
88
88
88
88
88
88
88
88
88
88
88
88
88
88
88
88
88
88
88
88
88
88
88
88
88
88
88
88
88
88
88
88
88
88
88
88
88
88
88
88
88
88
88
88
88
88
88
88
88
88
88
88
88
88
88
88
88
88
88
88
88
88
88
88
88
88
88
88
88
88
88
88
88
88
88
88
88
88
88
88
88
88
88
88
88
88
88
88
88
88
88
88
88
88
88
88
88
88
88
88
88
88
88
88
88
88
88
88
88
88
88
88
88
88
88
88
88
88
88
88
88
88
88
88
88
88
88
88
88
88
88
88
88
88
88
88
88
88
88
88
88
88
88
88
88
88
88
88
88
88
88
88
88
88
88
88
88
88
88
88
88
88
88
88
88
88
88
88
88
88
88
88
88
88
88
88
88
88
88
88
88
88
88
88
88
88
88
88
88
88
88
88
88
88
88
88
88
88
88
88
88
88
88
88
88
88
88
88
88
88
88
88
88
88
88
88
88
88
88
88
88
88
88
88
88
88
88
88
88
88
88
88
88
88
88
88
88
88
88
88
88
88
88
88
88
88
88
88
88
88
88
88
88
88
88
88
88
88
88
88
88
88
88
88
88
88
88
88
88
88
88
88
88
88
88
88
88
88
88
88
88
88
88
88
88
88
88
88
88
88
88
88
88
88
88
88
88
88
88
88
88
88
88
88
88
88
88
88
88
88
88
88
88
88
88
88
88
88
88
88
88
88
88
88
88
88
88
88
88
88
88
88
88
88
88
88
88
88
88
88
88
88
88
88
88
88
88
88
88
88
88
88
88
88
88
88
88
88
88
88
88
88
88
88
88
88
88
88
88
88
88
88
88
88
88
88
88
88
88
88
88
88
88
88
88
88
88
88
88
88
88
88
88
88
88
88
88
88
88
88
88
88
88
88
88
88
88
88
88
88
88
88
88
88
88
88
88
88
88
88
88
88
88
88
88
88
88
88
88
88
88
88
88
88
88
88
88
88
88
88
88
88
88
88
88
88
88
88
88
88
88
88
88
88
88
88
88
88
88
88
88
88
88
88
88
88
88
88
88
88
88
88
88
88
88
88
88
88
88
88
88
88
88
88
88
88
88
88
88
88
88
88
88
88
88
88
88
88
88
88
88
88
88
88
88
88
88
88
88
88
88
88
88
88
88
88
88
88
88
88
88
88
88
88
88
88
88
88
88
88
88
88
88
88
88
88
88
88
88
88
88
88
88
88
88
88
88
88
88
88
88
88
88
88
88
88
88
88
88
88
88
88
88
88
88
88
88
88
88
88
88
88
88
88
88
88
88
88
88
88
88
88
88
88
88
88
88
88
88
88
88
88
88
88
88
88
88
88
88
88
88
88
88
88
88
88
88
88
88
88
88
88
88
88
88
88
88
88
88
88
88
88
88
88
88
88
88
88
88
88
88
88
88
88
88
88
88
88
88
88
88
88
88
88
88
88
88
88
88
88
88
88
88
88
88
88
88
88
88
88
88
88
88
88
88
88
88
88
88
88
88
88
88
88
88
88
88
88
88
88
88
88
88
88
88
88
88
88
88
88
88
88
88
88
88
88
88
88
88
88
88
88
88
88
88
88
88
88
88
88
88
88
88
88
88
88
88
88
88
88
88
88
88
88
88
88
88
88
88
88
88
88
88
88
88
88
88
88
88
88
88
88
88
88
88
88
88
88
88
88
88
88
88
88
88
88
88
88
88
88
88
88
88
88
88
88
88
88
88
88
88
88
88
88
88
88
88
88
88
88
88
88
88
88
88
88
88
88
88
88
88
88
88
88
88
88
88
88
88
88
88
88
88
88
88
88
88
88
88
88
88
88
88
88
88
88
88
88
88
88
88
88
88
88
88
88
88
88
88
88
88
88
88
88
88
88
88
88
88
88
88
88
88
88
88
88
88
88
88
88
88
88
88
88
88
88
88
88
88
88
88
88
88
88
88
88
88
88
88
88
88
88
88
88
88
88
88
88
88
88
88
88
88
88
88
88
88
88
88
88
88
88
88
88
88
88
88
88
88
88
88
88
88
88
88
88
88
88
88
88
88
88
88
88
88
88
88
88
88
88
88
88
88
88
88
88
88
88
88
88
88
88
88
88
88
88
88
88
88
88
88
88
88
88
88
88
88
88
88
88
88
88
88
88
88
88
88
88
88
88
88
88
88
88
88
88
88
88
88
88
88
88
88
88
88
88
88
88
88
88
88
88
88
88
88
88
88
88
88
88
88
88
88
88
88
88
88
88
88
88
88
88
88
88
88
88
88
88
88
88
88
88
88
88
88
88
88
88
88
88
88
88
88
88
88
88
88
88
88
88
88
88
88
88
88
88
88
88
88
88
88
88
88
88
88
88
88
88
88
88
88
88
88
88
88
88
88
88
88
88
88
88
88
88
88
88
88
88
88
88
88
88
88
88
88
88
88
88
88
88
88
88
88
88
88
88
88
88
88
88
88
88
88
88
88
88
88
88
88
88
88
88
88
88
88
88
88
88
88
88
88
88
88
88
88
88
88
88
88
88
88
88
88
88
88
88
88
88
88
88
88
88
88
88
88
88
88
88
88
88
88
88
88
88
88
88
88
88
88
88
88
88
88
88
88
88
88
88
88
88
88
88
88
88
88
88
88
88
88
88
88
88
88
88
88
88
88
88
88
88
88
88
88
88
88
88
88
88
88
88
88
88
88
88
88
88
88
88
88
88
88
88
88
88
88
88
88
88
88
88
88
88
88
88
88
88
88
88
88
88
88
88
88
88
88
88
88
88
88
88
88
88
88
88
88
88
88
88
88
88
88
88
88
88
88
88
88
88
88
88
88
88
88
88
88
88
88
88
88
88
88
88
88
88
88
88
88
88
88
88
88
88
88
88
88
88
88
88
88
88
88
88
88
88
88
88
88
88
88
88
88
88
88
88
88
88
88
88
88
88
88
88
88
88
88
88
88
88
88
88
88
88
88
88
88
88
88
88
88
88
88
88
88
88
88
88
88
88
88
88
88
88
88
88
88
88
88
88
88
88
88
88
88
88
88
88
88
88
88
88
88
88
88
88
88
88
88
88
88
88
88
88
88
88
88
88
88
88
88
88
88
88
88
88
88
88
88
88
88
88
88
88
88
88
88
88
88
88
88
88
88
88
88
88
88
88
88
88
88
88
88
88
88
88
88
88
88
88
88
88
88
88
88
88
88
88
88
88
88
88
88
88
88
88
88
88
88
88
88
88
88
88
88
88
88
88
88
88
88
88
88
88
88
88
88
88
88
88
88
88
88
88
88
88
88
88
88
88
88
88
88
88
88
88
88
88
88
88
88
88
88
88
88
88
88
88
88
88
88
88
88
88
88
88
88
88
88
88
88
88
88
88
88
88
88
88
88
88
88
88
88
88
88
88
88
88
88
88
88
88
88
88
88
88
88
88
88
88
88
88
88
88
88
88
88
88
88
88
88
88
88
88
88
88
88
88
88
88
88
88
88
88
88
88
88
88
88
88
88
88
88
88
88
88
88
88
88
88
88
88
88
88
88
88
88
88
88
88
88
88
88
88
88
88
88
88
88
88
88
88
88
88
88
88
88
88
88
88
88
88
88
88
88
88
88
88
88
88
88
88
88
88
88
88
88
88
88
88
88
88
88
88
88
88
88
88
88
88
88
88
88
88
88
88
88
88
88
88
88
88
88
88
88
88
88
88
88
88
88
88
88
88
88
88
88
88
88
88
88
88
88
88
88
88
88
88
88
88
88
88
88
88
88
88
88
88
88
88
88
88
88
88
88
88
88
88
88
88
88
88
88
88
88
88
88
88
88
88
88
88
88
88
88
88
88
88
88
88
88
88
88
88
88
88
88
88
88
88
88
88
88
88
88
88
88
88
88
88
88
88
88
88
88
88
88
88
88
88
88
88
88
88
88
88
88
88
88
88
88
88
88
88
88
88
88
88
88
88
88
88
88
88
88
88
88
88
88
88
88
88
88
88
88
88
88
88
88
88
88
88
88
88
88
88
88
88
88
88
88
88
88
88
88
88
88
88
88
88
88
88
88
88
88
88
88
88
88
88
88
88
88
88
88
88
88
88
88
88
88
88
88
88
88
88
88
88
88
88
88
88
88
88
88
88
88
88
88
88
88
88
88
88
88
88
88
88
88
88
88
88
88
88
88
88
88
88
88
88
88
88
88
88
88
88
88
88
88
88
88
88
88
88
88
88
88
88
88
88
88
88
88
88
88
88
88
88
88
88
88
88
88
88
88
88
88
88
88
88
88
88
88
88
88
88
88
88
88
88
88
88
88
88
88
88
88
88
88
88
88
88
88
88
88
88
88
88
88
88
88
88
88
88
88
88
88
88
88
88
88
88
88
88
88
88
88
88
88
88
88
88
88
88
88
88
88
88
88
88
88
88
88
88
88
88
88
88
88
88
88
88
88
88
88
88
88
88
88
88
88
88
88
88
88
88
88
88
88
88
88
88
88
88
88
88
88
88
88
88
88
88
88
88
88
88
88
88
88
88
88
88
88
88
88
88
88
88
88
88
88
88
88
88
88
88
88
88
88
88
88
88
88
88
88
88
88
88
88
88
88
88
88
88
88
88
88
88
88
88
88
88
88
88
88
88
88
88
88
88
88
88
88
88
88
88
88
88
88
88
88
88
88
88
88
88
88
88
88
88
88
88
88
88
88
88
88
88
88
88
88
88
88
88
88
88
88
88
88
88
88
88
88
88
88
88
88
88
88
88
88
88
88
88
88
88
88
88
88
88
88
88
88
88
88
88
88
88
88
88
88
88
88
88
88
88
88
88
88
88
88
88
88
88
88
88
88
88
88
88
88
88
88
88
88
88
88
88
88
88
88
88
88
88
88
88
88
88
88
88
88
88
88
88
88
88
88
88
88
88
88
88
88
88
88
88
88
88
88
88
88
88
88
88
88
88
88
88
88
88
88
88
88
88
88
88
88
88
88
88
88
88
88
88
88
88
88
88
88
88
88
88
88
88
88
88
88
88
88
88
88
88
88
88
88
88
88
88
88
88
88
88
88
88
88
88
88
88
88
88
88
88
88
88
88
88
88
88
88
88
88
88
88
88
88
88
88
88
88
88
88
88
88
88
88
88
88
88
88
88
88
88
88
88
88
88
88
88
88
88
88
88
88
88
88
88
88
88
88
88
88
88
88
88
88
88
88
88
88
88
88
88
88
88
88
88
88
88
88
88
88
88
88
88
88
88
88
88
88
88
88
88
88
88
88
88
88
88
88
88
88
88
88
88
88
88
88
88
88
88
88
88
88
88
88
88
88
88
88
88
88
88
88
88
88
88
88
88
88
88
88
88
88
88
88
88
88
88
88
88
88
88
88
88
88
88
88
88
88
88
88
88
88
88
88
88
88
88
88
88
88
88
88
88
88
88
88
88
88
88
88
88
88
88
88
88
88
88
88
88
88
88
88
88
88
88
88
88
88
88
88
88
88
88
88
88
88
88
88
88
88
88
88
88
88
88
88
88
88
88
88
88
88
88
88
88
88
88
88
88
88
88
88
88
88
88
88
88
88
88
88
88
88
88
88
88
88
88
88
88
88
88
88
88
88
88
88
88
88
88
88
88
88
88
88
88
88
88
88
88
88
88
88
88
88
88
88
88
88
88
88
88
88
88
88
88
88
88
88
88
88
88
88
88
88
88
88
88
88
88
88
88
88
88
88
88
88
88
88
88
88
88
88
88
88
88
88
88
88
88
88
88
88
88
88
88
88
88
88
88
88
88
88
88
88
88
88
88
88
88
88
88
88
88
88
88
88
88
88
88
88
88
88
88
88
88
88
88
88
88
88
88
88
88
88
88
88
88
88
88
88
88
88
88
88
88
88
88
88
88
88
88
88
88
88
88
88
88
88
88
88
88
88
88
88
88
88
88
88
88
88
88
88
88
88
88
88
88
88
88
88
88
88
88
88
88
88
88
88
88
88
88
88
88
88
88
88
88
88
88
88
88
88
88
88
88
88
88
88
88
88
88
88
88
88
88
88
88
88
88
88
88
88
88
88
88
88
88
88
88
88
88
88
88
88
88
88
88
88
88
88
88
88
88
88
88
88
88
88
88
88
88
88
88
88
88
88
88
88
88
88
88
88
88
88
88
88
88
88
88
88
88
88
88
88
88
88
88
88
88
88
88
88
88
88
88
88
88
88
88
88
88
88
88
88
88
88
88
88
88
88
88
88
88
88
88
88
88
88
88
88
88
88
88
88
88
88
88
88
88
88
88
88
88
88
88
88
88
88
88
88
88
88
88
88
88
88
88
88
88
88
88
88
88
88
88
88
88
88
88
88
88
88
88
88
88
88
88
88
88
88
88
88
88
88
88
88
88
88
88
88
88
88
88
88
88
88
88
88
88
88
88
88
88
88
88
88
88
88
88
88
88
88
88
88
88
88
88
88
88
88
88
88
88
88
88
88
88
88
88
88
88
88
88
88
88
88
88
88
88
88
88
88
88
88
88
88
88
88
88
88
88
88
88
88
88
88
88
88
88
88
88
88
88
88
88
88
88
88
88
88
88
88
88
88
88
88
88
88
88
88
88
88
88
88
88
88
88
88
88
88
88
88
88
88
88
88
88
88
88
88
88
88
88
88
88
88
88
88
88
88
88
88
88
88
88
88
88
88
88
88
88
88
88
88
88
88
88
88
88
88
88
88
88
88
88
88
88
88
88
88
88
88
88
88
88
88
88
88
88
88
88
88
88
88
88
88
88
88
88
88
88
88
88
88
88
88
88
88
88
88
88
88
88
88
88
88
88
88
88
88
88
88
88
88
88
88
88
88
88
88
88
88
88
88
88
88
88
88
88
88
88
88
88
88
88
88
88
88
88
88
88
88
88
88
88
88
88
88
88
88
88
88
88
88
88
88
88
88
88
88
88
88
88
88
88
88
88
88
88
88
88
88
88
88
88
88
88
88
88
88
88
88
88
88
88
88
88
88
88
88
88
88
88
88
88
88
88
88
88
88
88
88
88
88
88
88
88
88
88
88
88
88
88
88
88
88
88
88
88
88
88
88
88
88
88
88
88
88
88
88
88
88
88
88
88
88
88
88
88
88
88
88
88
88
88
88
88
88
88
88
88
88
88
88
88
88
88
88
88
88
88
88
88
88
88
88
88
88
88
88
88
88
88
88
88
88
88
88
88
88
88
88
88
88
88
88
88
88
88
88
88
88
88
88
88
88
88
88
88
88
88
88
88
88
88
88
88
88
88
88
88
88
88
88
88
88
88
88
88
88
88
88
88
88
88
88
88
88
88
88
88
88
88
88
88
88
88
88
88
88
88
88
88
88
88
88
88
88
88
88
88
88
88
88
88
88
88
88
88
88
88
88
88
88
88
88
88
88
88
88
88
88
88
88
88
88
88
88
88
88
88
88
88
88
88
88
88
88
88
88
88
88
88
88
88
88
88
88
88
88
88
88
88
88
88
88
88
88
88
88
88
88
88
88
88
88
88
88
88
88
88
88
88
88
88
88
88
88
88
88
88
88
88
88
88
88
88
88
88
88
88
88
88
88
88
88
88
88
88
88
88
88
88
88
88
88
88
88
88
88
88
88
88
88
88
88
88
88
88
88
88
88
88
88
88
88
88
88
88
88
88
88
88
88
88
88
88
88
88
88
88
88
88
88
88
88
88
88
88
88
88
88
88
88
88
88
88
88
88
88
88
88
88
88
88
88
88
88
88
88
88
88
88
88
88
88
88
88
88
88
88
88
88
88
88
88
88
88
88
88
88
88
88
88
88
88
88
88
88
88
88
88
88
88
88
88
88
88
88
88
88
88
88
88
88
88
88
88
88
88
88
88
88
88
88
88
88
88
88
88
88
88
88
88
88
88
88
88
88
88
88
88
88
88
88
88
88
88
88
88
88
88
88
88
88
88
88
88
88
88
88
88
88
88
88
88
88
88
88
88
88
88
88
88
88
88
88
88
88
88
88
88
88
88
88
88
88
88
88
88
88
88
88
88
88
88
88
88
88
88
88
88
88
88
88
88
88
88
88
88
88
88
88
88
88
88
88
88
88
88
88
88
88
88
88
88
88
88
88
88
88
88
88
88
88
88
88
88
88
88
88
88
88
88
88
88
88
88
88
88
88
88
88
88
88
88
88
88
88
88
88
88
88
88
88
88
88
88
88
88
88
88
88
88
88
88
88
88
88
88
88
88
88
88
88
88
88
88
88
88
88
88
88
88
88
88
88
88
88
88
88
88
88
88
88
88
88
88
88
88
88
88
88
88
88
88
88
88
88
88
88
88
88
88
88
88
88
88
88
88
88
88
88
88
88
88
88
88
88
88
88
88
88
88
88
88
88
88
88
88
88
88
88
88
88
88
88
88
88
88
88
88
88
88
88
88
88
88
88
88
88
88
88
88
88
88
88
88
88
88
88
88
88
88
88
88
88
88
88
88
88
88
88
88
88
88
88
88
88
88
88
88
88
88
88
88
88
88
88
88
88
88
88
88
88
88
88
88
88
88
88
88
88
88
88
88
88
88
88
88
88
88
88
88
88
88
88
88
88
88
88
88
88
88
88
88
88
88
88
88
88
88
88
88
88
88
88
88
88
88
88
88
88
88
88
88
88
88
88
88
88
88
88
88
88
88
88
88
88
88
88
88
88
88
88
88
88
88
88
88
88
88
88
88
88
88
88
88
88
88
88
88
88
88
88
88
88
88
88
88
88
88
88
88
88
88
88
88
88
88
88
88
88
88
88
88
88
88
88
88
88
88
88
88
88
88
88
88
88
88
88
88
88
88
88
88
88
88
88
88
88
88
88
88
88
88
88
88
88
88
88
88
88
88
88
88
88
88
88
88
88
88
88
88
88
88
88
88
88
88
88
88
88
88
88
88
88
88
88
88
88
88
88
88
88
88
88
88
88
88
88
88
88
88
88
88
88
88
88
88
88
88
88
88
88
88
88
88
88
88
88
88
88
88
88
88
88
88
88
88
88
88
88
88
88
88
88
88
88
88
88
88
88
88
88
88
88
88
88
88
88
88
88
88
88
88
88
88
88
88
88
88
88
88
88
88
88
88
88
88
88
88
88
88
88
88
88
88
88
88
88
88
88
88
88
88
88
88
88
88
88
88
88
88
88
88
88
88
88
88
88
88
88
88
88
88
88
88
88
88
88
88
88
88
88
88
88
88
88
88
88
88
88
88
88
88
88
88
88
88
88
88
88
88
88
88
88
88
88
88
88
88
88
88
88
88
88
88
88
88
88
88
88
88
88
88
88
88
88
88
88
88
88
88
88
88
88
88
88
88
88
88
88
88
88
88
88
88
88
88
88
88
88
88
88
88
88
88
88
88
88
88
88
88
88
88
88
88
88
88
88
88
88
88
88
88
88
88
88
88
88
88
88
88
88
88
88
88
88
88
88
88
88
88
88
88
88
88
88
88
88
88
88
88
88
88
88
88
88
88
88
88
88
88
88
88
88
88
88
88
88
88
88
88
88
88
88
88
88
88
88
88
88
88
88
88
88
88
88
88
88
88
88
88
88
88
88
88
88
88
88
88
88
88
88
88
88
88
88
88
88
88
88
88
88
88
88
88
88
88
88
88
88
88
88
88
88
88
88
88
88
88
88
88
88
88
88
88
88
88
88
88
88
88
88
88
88
88
88
88
88
88
88
88
88
88
88
88
88
88
88
88
88
88
88
88
88
88
88
88
88
88
88
88
88
88
88
88
88
88
88
88
88
88
88
88
88
88
88
88
88
88
88
88
88
88
88
88
88
88
88
88
88
88
88
88
88
88
88
88
88
88
88
88
88
88
88
88
88
88
88
88
88
88
88
88
88
88
88
88
88
88
88
88
88
88
88
88
88
88
88
88
88
88
88
88
88
88
88
88
88
88
88
88
88
88
88
88
88
88
88
88
88
88
88
88
88
88
88
88
88
88
88
88
88
88
88
88
88
88
88
88
88
88
88
88
88
88
88
88
88
88
88
88
88
88
88
88
88
88
88
88
88
88
88
88
88
88
88
88
88
88
88
88
88
88
88
88
88
88
88
88
88
88
88
88
88
88
88
88
88
88
88
88
88
88
88
88
88
88
88
88
88
88
88
88
88
88
88
88
88
88
88
88
88
88
88
88
88
88
88
88
88
88
88
88
88
88
88
88
88
88
88
88
88
88
88
88
88
88
88
88
88
88
88
88
88
88
88
88
88
88
88
88
88
88
88
88
88
88
88
88
88
88
88
88
88
88
88
88
88
88
88
88
88
88
88
88
88
88
88
88
88
88
88
88
88
88
88
88
88
88
88
88
88
88
88
88
88
88
88
88
88
88
88
88
88
88
88
88
88
88
88
88
88
88
88
88
88
88
88
88
88
88
88
88
88
88
88
88
88
88
88
88
88
88
88
88
88
88
88
88
88
88
88
88
88
88
88
88
88
88
88
88
88
88
88
88
88
88
88
88
88
88
88
88
88
88
88
88
88
88
88
88
88
88
88
88
88
88
88
88
88
88
88
88
88
88
88
88
88
88
88
88
88
88
88
88
88
88
88
88
88
88
88
88
88
88
88
88
88
88
88
88
88
88
88
88
88
88
88
88
88
88
88
88
88
88
88
88
88
88
88
88
88
88
88
88
88
88
88
88
88
88
88
88
88
88
88
88
88
88
88
88
88
88
88
88
88
88
88
88
88
88
88
88
88
88
88
88
88
88
88
88
88
88
88
88
88
88
88
88
88
88
88
88
88
88
88
88
88
88
88
88
88
88
88
88
88
88
88
88
88
88
88
88
88
88
88
88
88
88
88
88
88
88
88
88
88
88
88
88
88
88
88
88
88
88
88
88
88
88
88
88
88
88
88
88
88
88
88
88
88
88
88
88
88
88
88
88
88
88
88
88
88
88
88
88
88
88
88
88
88
88
88
88
88
88
88
88
88
88
88
88
88
88
88
88
88
88
88
88
88
88
88
88
88
88
88
88
88
88
88
88
88
88
88
88
88
88
88
88
88
88
88
88
88
88
88
88
88
88
88
88
88
88
88
88
88
88
88
88
88
88
88
88
88
88
88
88
88
88
88
88
88
88
88
88
88
88
88
88
88
88
88
88
88
88
88
88
88
88
88
88
88
88
88
88
88
88
88
88
88
88
88
88
88
88
88
88
88
88
88
88
88
88
88
88
88
88
88
88
88
88
88
88
88
88
88
88
88
88
88
88
88
88
88
88
88
88
88
88
88
88
88
88
88
88
88
88
88
88
88
88
88
88
88
88
88
88
88
88
88
88
88
88
88
88
88
88
88
88
88
88
88
88
88
88
88
88
88
88
88
88
88
88
88
88
88
88
88
88
88
88
88
88
88
88
88
88
88
88
88
88
88
88
88
88
88
88
88
88
88
88
88
88
88
88
88
88
88
88
88
88
88
88
88
88
88
88
88
88
88
88
88
88
88
88
88
88
88
88
88
88
88
88
88
88
88
88
88
88
88
88
88
88
88
88
88
88
88
88
88
88
88
88
88
88
88
88
88
88
88
88
88
88
88
88
88
88
88
88
88
88
88
88
88
88
88
88
88
88
88
88
88
88
88
88
88
88
88
88
88
88
88
88
88
88
88
88
88
88
88
88
88
88
88
88
88
88
88
88
88
88
88
88
88
88
88
88
88
88
88
88
88
88
88
88
88
88
88
88
88
88
88
88
88
88
88
88
88
88
88
88
88
88
88
88
88
88
88
88
88
88
88
88
88
88
88
88
88
88
88
88
88
88
88
88
88
88
88
88
88
88
88
88
88
88
88
88
88
88
88
88
88
88
88
88
88
88
88
88
88
88
88
88
88
88
88
88
88
88
88
88
88
88
88
88
88
88
88
88
88
88
88
88
88
88
88
88
88
88
88
88
88
88
88
88
88
88
88
88
88
88
88
88
88
88
88
88
88
88
88
88
88
88
88
88
88
88
88
88
88
88
88
88
88
88
88
88
88
88
88
88
88
88
88
88
88
88
88
88
88
88
88
88
88
88
88
88
88
88
88
88
88
88
88
88
88
88
88
88
88
88
88
88
88
88
88
88
88
88
88
88
88
88
88
88
88
88
88
88
88
88
88
88
88
88
88
88
88
88
88
88
88
88
88
88
88
88
88
88
88
88
88
88
88
88
88
88
88
88
88
88
88
88
88
88
88
88
88
88
88
88
88
88
88
88
88
88
88
88
88
88
88
88
88
88
88
88
88
88
88
88
88
88
88
88
88
88
88
88
88
88
88
88
88
88
88
88
88
88
88
88
88
88
88
88
88
88
88
88
88
88
88
88
88
88
88
88
88
88
88
88
88
88
88
88
88
88
88
88
88
88
88
88
88
88
88
88
88
88
88
88
88
88
88
88
88
88
88
88
88
88
88
88
88
88
88
88
88
88
88
88
88
88
88
88
88
88
88
88
88
88
88
88
88
88
88
88
88
88
88
88
88
88
88
88
88
88
88
88
88
88
88
88
88
88
88
88
88
88
88
88
88
88
88
88
88
88
88
88
88
88
88
88
88
88
88
88
88
88
88
88
88
88
88
88
88
88
88
88
88
88
88
88
88
