62
66
62
61
59
60
61
58
59
64
67
69
71
69
67
64
64
64
66
68
70
72
71
71
70
70
69
71
68
67
70
71
75
76
75
76
75
74
74
72
72
73
74
71
70
67
68
67
67
67
65
64
67
68
68
67
63
67
66
66
70
70
66
65
63
64
60
59
61
62
61
58
61
62
64
62
67
65
64
59
57
53
57
58
58
61
60
61
60
60
58
59
62
62
62
61
64
63
63
62
65
64
67
68
68
69
68
69
68
67
65
66
67
67
69
70
68
69
64
63
68
69
69
68
64
68
64
63
65
66
66
66
67
68
68
71
67
66
67
68
71
72
71
67
69
69
68
67
67
69
68
69
68
68
67
69
69
70
67
68
70
70
70
71
72
73
74
70
71
71
73
73
73
72
73
71
69
68
69
72
72
75
74
75
72
72
72
71
69
69
67
68
68
67
65
66
67
61
60
60
61
63
62
60
60
61
61
62
61
62
62
62
61
56
60
59
61
61
58
61
59
61
64
65
68
70
71
70
66
66
64
63
65
64
62
63
62
62
63
65
66
66
66
65
65
66
67
69
71
70
70
70
69
69
73
71
70
72
70
70
72
69
72
71
72
69
74
73
72
72
72
69
70
70
72
72
72
73
72
72
71
69
68
68
71
69
68
71
73
73
72
72
68
69
69
71
73
72
69
68
69
68
67
66
69
68
69
68
68
64
65
66
67
68
69
67
67
66
66
65
66
66
69
69
68
66
69
70
69
70
69
72
69
66
67
67
69
71
73
70
73
70
73
72
73
72
69
71
71
69
72
73
73
74
72
73
70
68
68
66
66
66
65
67
66
69
69
66
70
73
74
72
68
71
70
71
71
72
72
72
71
71
72
71
72
70
72
73
72
73
73
68
65
71
74
73
73
72
71
72
74
70
70
74
72
72
73
74
73
73
74
73
73
72
69
69
66
64
64
65
65
66
69
70
71
71
69
68
66
68
68
68
68
68
70
66
65
64
67
66
64
66
64
65
66
67
69
66
64
64
65
68
67
68
71
70
70
70
68
68
70
69
70
71
72
74
73
73
74
73
73
73
73
74
72
71
71
71
74
74
74
74
74
74
73
76
76
73
76
77
72
72
72
76
76
77
77
78
78
78
78
78
78
78
78
78
78
78
78
78
78
78
78
78
78
78
78
78
78
78
78
78
78
78
78
78
78
78
78
78
78
78
78
78
78
78
78
78
78
78
78
78
78
78
78
78
78
78
78
78
78
78
78
78
78
78
78
78
78
78
78
78
78
78
78
78
78
78
78
78
78
78
78
78
78
78
78
78
78
78
78
78
78
78
78
78
78
78
78
78
78
78
78
78
78
78
78
78
78
78
78
78
78
78
78
78
78
78
78
78
78
78
78
78
78
78
78
78
78
78
78
78
78
78
78
78
78
78
78
78
78
78
78
78
78
78
78
78
78
78
78
78
78
78
78
78
78
78
78
78
78
78
78
78
78
78
78
78
78
78
78
78
78
78
78
78
78
78
78
78
78
78
78
78
78
78
78
78
78
78
78
78
78
78
78
78
78
78
78
78
78
78
78
78
78
78
78
78
78
78
78
78
78
78
78
78
78
78
78
78
78
78
78
78
78
78
78
78
78
78
78
78
78
78
78
78
78
78
78
78
78
78
78
78
78
78
78
78
78
78
78
78
78
78
78
78
78
78
78
78
78
78
78
78
78
78
78
78
78
78
78
78
78
78
78
78
78
78
78
78
78
78
78
78
78
78
78
78
78
78
78
78
78
78
78
78
78
78
78
78
78
78
78
78
78
78
78
78
78
78
78
78
78
78
78
78
78
78
78
78
78
78
78
78
78
78
78
78
78
78
78
78
78
78
78
78
78
78
78
78
78
78
78
78
78
78
78
78
78
78
78
78
78
78
78
78
78
78
78
78
78
78
78
78
78
78
78
78
78
78
78
78
78
78
78
78
78
78
78
78
78
78
78
78
78
78
78
78
78
78
78
78
78
78
78
78
78
78
78
78
78
78
78
78
78
78
78
78
78
78
78
78
78
78
78
78
78
78
78
78
78
78
78
78
78
78
78
78
78
78
78
78
78
78
78
78
78
78
78
78
78
78
78
78
78
78
78
78
78
78
78
78
78
78
78
78
78
78
78
78
78
78
78
78
78
78
78
78
78
78
78
78
78
78
78
78
78
78
78
78
78
78
78
78
78
78
78
78
78
78
78
78
78
78
78
78
78
78
78
78
78
78
78
78
78
78
78
78
78
78
78
78
78
78
78
78
78
78
78
78
78
78
78
78
78
78
78
78
78
78
78
78
78
78
78
78
78
78
78
78
78
78
78
78
78
78
78
78
78
78
78
78
78
78
78
78
78
78
78
78
78
78
78
