^D:\SCHOOL\NI-KOP\GITLAB\TASK03\NI-KOP - TASK03 - EXP HOD KVALITY ALG\NI-KOP - TASK03 - EXP HOD KVALITY ALG\X64\RELEASE\BAG.OBJ|D:\SCHOOL\NI-KOP\GITLAB\TASK03\NI-KOP - TASK03 - EXP HOD KVALITY ALG\NI-KOP - TASK03 - EXP HOD KVALITY ALG\X64\RELEASE\MAIN.OBJ|D:\SCHOOL\NI-KOP\GITLAB\TASK03\NI-KOP - TASK03 - EXP HOD KVALITY ALG\NI-KOP - TASK03 - EXP HOD KVALITY ALG\X64\RELEASE\TIMER.OBJ
/OUT:"D:\SCHOOL\NI-KOP\GITLAB\TASK03\NI-KOP - TASK03 - EXP HOD KVALITY ALG\X64\RELEASE\NI-KOP - TASK03 - EXP HOD KVALITY ALG.EXE" /INCREMENTAL:NO /NOLOGO KERNEL32.LIB USER32.LIB GDI32.LIB WINSPOOL.LIB COMDLG32.LIB ADVAPI32.LIB SHELL32.LIB OLE32.LIB OLEAUT32.LIB UUID.LIB ODBC32.LIB ODBCCP32.LIB /MANIFEST /MANIFESTUAC:"level='asInvoker' uiAccess='false'" /manifest:embed /DEBUG /PDB:"D:\SCHOOL\NI-KOP\GITLAB\TASK03\NI-KOP - TASK03 - EXP HOD KVALITY ALG\X64\RELEASE\NI-KOP - TASK03 - EXP HOD KVALITY ALG.PDB" /SUBSYSTEM:CONSOLE /OPT:REF /OPT:ICF /LTCG:incremental /LTCGOUT:"X64\RELEASE\NI-KOP - TASK03 - EXP HOD KVALITY ALG.IOBJ" /TLBID:1 /DYNAMICBASE /NXCOMPAT /IMPLIB:"D:\SCHOOL\NI-KOP\GITLAB\TASK03\NI-KOP - TASK03 - EXP HOD KVALITY ALG\X64\RELEASE\NI-KOP - TASK03 - EXP HOD KVALITY ALG.LIB" /MACHINE:X64 X64\RELEASE\BAG.OBJ
X64\RELEASE\MAIN.OBJ
X64\RELEASE\TIMER.OBJ
