127
68
52
108
108
40
39
37
38
37
49
83
43
39
38
37
29
37
38
39
36
36
38
78
42
37
57
36
38
38
38
38
36
38
36
38
152
39
35
35
33
36
34
44
37
34
75
35
28
33
27
34
35
35
35
36
34
32
35
35
27
37
35
35
36
34
35
37
27
35
34
34
33
27
69
66
64
35
36
34
34
35
27
32
36
34
34
42
34
35
34
35
33
35
35
34
34
36
35
32
35
34
37
59
35
36
35
36
35
34
35
33
35
34
35
35
35
27
33
34
35
36
41
33
35
26
34
32
35
35
34
34
35
35
36
36
35
35
34
87
37
36
33
26
26
39
47
34
33
34
34
33
40
36
34
35
36
35
34
35
33
27
34
34
34
42
34
35
36
73
132
35
37
45
37
37
27
36
35
36
35
35
27
35
46
39
34
34
33
35
35
35
38
32
36
35
36
33
34
34
26
32
34
39
34
33
26
34
35
44
34
26
35
33
26
26
32
32
33
35
33
35
36
32
35
32
36
35
42
43
40
61
76
54
36
32
32
35
34
32
35
34
33
34
35
35
34
34
34
35
27
35
32
32
26
34
35
35
34
33
34
37
36
60
61
62
65
68
62
64
70
63
44
35
52
92
57
36
34
64
40
61
59
49
61
50
38
70
82
91
81
84
85
76
80
81
87
81
77
55
47
38
75
73
37
33
34
38
35
35
34
33
33
33
40
34
35
32
33
35
35
26
36
65
45
43
34
50
39
34
35
39
57
56
59
60
52
43
37
60
53
34
35
33
35
34
34
26
34
34
34
35
34
33
34
34
35
35
34
34
33
26
33
36
36
35
35
33
34
32
39
36
34
34
45
60
64
35
37
38
49
59
34
33
34
35
36
45
38
35
36
43
35
35
26
35
35
35
34
36
48
34
33
33
34
33
33
34
32
35
34
34
34
34
29
36
42
60
65
41
34
35
35
34
35
32
35
26
36
35
35
34
34
35
34
34
34
41
28
34
35
35
35
34
34
33
35
34
35
32
35
35
34
34
34
34
35
35
33
35
35
54
64
56
36
35
34
34
34
33
34
34
35
35
35
35
26
35
34
35
34
37
35
35
32
34
46
35
28
34
34
35
34
34
34
38
37
32
32
35
