1286
1845
1716
1770
1695
1800
1907
1943
1794
1735
1303
1506
1772
1536
1395
1311
1554
1606
1726
1970
1695
1689
2030
1582
1602
1875
1777
1533
1948
1542
1543
1890
1808
2196
1710
1862
1606
1998
1640
1978
1690
2026
1618
1514
1631
1208
1820
1564
1825
1410
1999
1509
1390
1713
1806
1785
1460
1197
2090
1505
1388
1914
1222
1194
1522
1591
1696
1951
1669
1693
1598
1696
1571
1332
1507
1849
1844
1610
1601
1617
1623
1842
1812
1652
1832
1235
1857
1740
1642
3040
2049
1434
1722
1760
1985
1982
1496
1439
2184
1694
1914
2223
1067
1503
1516
1582
1626
2187
1553
1362
1915
1717
1790
1968
1746
1909
1587
1483
1542
1897
1908
1895
1923
1956
1536
1866
1611
1400
1194
1888
1705
1877
1963
1654
1298
1569
1309
1856
1925
1568
1709
1807
1598
1683
1941
2056
1739
1928
1383
1209
1719
1676
2219
1729
2172
1654
1677
1513
1777
2174
2328
1996
1975
2131
1541
1413
2092
1506
1942
1772
1813
1415
1948
1854
1724
1951
1973
1999
1610
1346
1990
1599
1941
1518
1332
1527
2019
1947
1951
1297
1288
1665
1824
1619
1613
1564
1586
1526
1650
2065
1885
1539
1573
1696
1147
1602
1109
1798
1609
1520
1617
1578
1669
1978
2116
1611
1665
1392
1954
2067
1797
1658
1738
1884
1890
1229
1200
1348
1438
1406
1367
2019
1060
1681
1801
1773
1611
1651
1504
1629
1830
1269
1751
1198
1084
2343
1802
1591
1196
1710
1563
1580
1112
1861
1999
1750
1334
2577
2260
2245
1972
1775
2213
1645
1185
1802
2334
1847
1787
2034
1359
1778
2042
2813
1963
2054
1374
2540
2367
2591
1426
1913
2690
1036
1639
1988
1847
1686
1848
1766
1848
1591
1983
1763
2503
1730
2115
1420
2119
2108
1489
2750
2813
3047
2007
1942
1692
1881
1728
1885
2145
1435
1197
1585
1758
1835
1573
2055
1140
2174
2087
1636
1680
1769
1804
2064
2031
1608
1891
1936
2047
1334
1880
2081
1990
2058
1804
1618
1867
1689
1299
1245
1728
1980
1756
1230
1622
1367
1349
1890
1842
1702
1936
1857
1616
1917
2089
1959
1866
1708
1578
1689
2159
1727
1930
1838
1651
1285
2171
1750
1938
1687
1704
2031
1555
1946
1760
1839
2146
1224
1656
1717
1583
1508
1465
1645
1732
1599
1898
1824
1962
1665
1665
1977
1594
1546
1667
938
1377
1584
1761
1796
1718
1934
1672
1581
1516
1844
1829
2012
1790
2035
2066
1884
1901
1972
1946
1536
1605
1395
1640
1728
1718
1665
1741
1502
2106
1510
1664
2101
1704
1539
2026
1863
1430
1640
1786
1373
1470
1642
1782
1343
1695
2164
1634
1645
1854
1621
2062
1989
1974
1560
2262
2021
1643
1900
2269
1662
1283
1767
1918
1920
1531
1787
1665
1150
1622
1923
1608
1470
1238
1712
1308
1591
1876
1776
1260
1775
2041
1558
1798
1632
1891
1711
1847
1854
2137
1523
1267
1403
1622
2122
1951
1281
1784
1675
1668
1722
2273
2102
