5138
5887
6282
5328
6639
6660
6398
4955
4990
5267
4530
3837
5072
4729
6546
4566
4911
5285
5550
6976
5845
6351
6177
5561
4767
6043
6248
5652
6133
4633
5156
5639
5627
5702
5456
4835
5812
4463
5038
6938
5699
5887
5142
4894
5897
4898
4293
5708
5493
5281
6336
7004
7094
5857
4889
3598
4360
5999
6290
5599
4494
5586
4970
5591
5894
5398
5340
6097
4943
3475
5713
5582
5259
4221
2544
5991
28244
5926
5305
4653
4890
2697
1796
5644
4962
5295
4795
6588
4947
4489
6431
5851
3457
5914
4532
5428
5894
5853
5884
5551
10343
7347
5109
5260
5185
4999
3762
6227
4576
5561
5656
6410
4481
4814
5504
5146
4969
1846
2478
5517
6002
5752
5766
5620
3753
4859
7586
5525
4358
4923
6076
7959
5001
4578
3810
4701
6112
5827
6541
5540
4123
6572
6941
3737
5086
4783
3881
4283
5231
5500
5271
1106
5149
7233
4301
4448
4051
3929
7001
6693
5508
5805
6850
4104
5475
5603
5173
5430
4831
6015
6697
4885
4245
4909
4505
6292
5564
1072
5080
3854
4850
5382
4794
4556
4692
7141
5333
5886
4141
4703
3718
5993
5499
4519
4306
4633
5121
5771
5541
5058
4804
5674
6608
3735
5910
5361
7623
6872
5528
7304
5289
5247
6555
5593
6222
6058
7066
5660
4132
6244
4723
5484
7149
4817
6107
3828
5580
5596
4870
5656
5766
6305
4529
6227
5377
5578
4391
4503
5149
5722
4032
1056
4853
4921
5702
5628
5012
5030
5858
5665
5897
5026
6134
6059
5865
4952
4306
5507
6059
5980
5016
2881
5417
3747
6426
6608
5304
5984
4814
5558
6106
5588
451
5033
6201
5979
5549
5367
6288
5335
4817
4461
5062
8339
8053
5821
6706
5032
4241
6264
4461
5353
5554
5172
5848
5958
5531
6043
4667
5513
5337
5732
5251
5800
5777
5278
4772
4614
4642
5388
4298
4956
5508
5222
6044
3319
1366
5329
4356
5368
5011
4388
6195
5353
4814
5309
6244
4527
4320
7322
5820
4188
1027
5282
5225
4928
5589
4229
5128
5234
5810
5066
6038
4326
4374
5668
4056
5233
5221
5701
608
4488
5010
5535
5111
6646
5346
6642
5971
4603
4414
5086
5936
5014
5633
5285
4872
5349
5098
2555
5223
5377
5295
5738
5153
6000
6161
5212
4437
5089
4978
5773
4523
4764
4798
1986
5896
5944
640
5990
4569
6620
5943
5904
5426
5493
5941
5401
4498
5286
5696
4723
5647
6861
5935
5496
4971
5506
4943
4923
5638
5667
4530
6387
4917
4439
5358
4172
5259
5864
5019
5667
4940
5338
3979
5066
5655
5424
5336
5999
5072
5251
6388
7635
5315
5409
5679
5849
5000
5463
5197
4851
5078
5456
4691
4990
7116
5879
4697
4649
5296
6305
6142
4678
5817
5789
451
5267
5162
4685
4643
4679
6118
7115
6112
4417
5677
5060
5359
5257
5657
5723
5060
6171
5539
4817
54105
5784
5200
6303
5485
5043
5390
5170
5922
5103
4474
4456
5280
5265
5000
4692
5313
118
5291
3498
2348
4787
5458
5859
