62
47
44
43
44
45
46
45
42
45
56
160
55
77
83
78
84
77
75
78
78
79
82
80
80
80
76
75
76
79
77
88
79
80
83
77
81
79
80
80
83
77
80
49
39
43
43
41
41
40
42
42
41
42
41
41
72
52
44
66
82
47
42
40
52
44
43
41
43
42
42
42
41
43
42
43
43
43
44
73
79
47
43
50
43
42
42
43
43
41
45
42
42
41
72
76
48
42
41
64
45
42
42
42
44
41
43
44
41
44
45
41
41
41
69
74
43
41
42
42
41
42
42
42
45
44
43
52
45
41
40
41
42
42
43
43
43
43
39
43
42
39
64
43
42
56
50
41
41
41
41
42
40
44
41
39
41
43
41
42
39
46
43
41
43
41
41
39
41
59
41
41
42
41
41
44
44
42
42
42
40
43
41
43
42
43
41
41
43
42
41
43
42
115
68
65
44
45
46
43
43
41
40
42
43
42
43
42
43
42
43
41
40
43
40
42
47
43
42
44
43
42
42
41
40
41
41
41
43
42
42
41
44
42
43
39
42
42
40
42
62
40
42
44
45
74
48
43
40
42
42
41
41
40
60
42
43
39
39
41
41
41
40
42
50
40
43
44
44
41
43
40
45
40
41
42
41
41
40
42
38
42
43
43
40
42
44
40
42
52
42
41
40
41
40
40
44
69
69
42
42
43
43
43
42
43
42
44
42
41
41
44
42
53
44
42
40
42
45
43
41
40
43
43
43
42
42
38
43
41
40
42
42
41
41
41
42
42
44
43
44
43
43
42
42
40
42
41
41
41
55
44
92
69
56
80
79
74
79
76
76
78
84
47
43
43
43
43
46
47
45
47
46
45
46
45
42
91
62
64
65
67
62
64
65
61
66
65
68
63
62
64
61
49
75
76
72
70
69
71
70
43
41
43
44
44
44
47
46
41
43
43
42
56
44
48
41
47
41
40
47
43
41
42
42
44
40
47
43
41
43
44
41
43
42
101
85
44
43
72
55
51
48
46
42
43
50
45
47
44
42
44
44
41
44
44
43
43
68
51
50
46
63
42
48
46
40
45
44
45
43
47
45
44
45
43
47
43
43
42
42
61
65
43
88
56
48
52
95
118
88
90
76
74
45
40
43
74
69
52
