29
13
11
12
11
12
13
12
13
12
13
13
12
12
13
13
13
12
12
13
13
12
13
13
11
6
6
6
5
6
6
6
5
6
5
6
6
8
6
6
10
5
5
5
6
6
6
6
6
6
6
5
6
5
6
22
6
6
6
6
6
6
5
5
6
6
6
5
6
6
6
5
6
6
6
6
6
6
6
6
6
5
6
6
6
5
6
5
6
5
5
6
6
6
6
6
6
5
6
6
6
6
5
5
5
5
6
6
6
6
6
6
6
6
6
6
6
6
6
6
6
6
6
6
6
6
5
6
6
6
6
6
6
5
6
6
5
6
6
6
6
6
5
6
6
6
6
6
6
5
6
6
5
6
6
6
6
6
6
6
6
5
5
6
5
6
6
6
6
6
6
6
6
6
6
6
6
6
6
6
5
10
9
6
6
6
6
6
6
6
6
6
6
6
6
6
6
6
6
6
6
6
6
11
13
12
12
12
12
12
9
6
6
6
6
6
6
6
6
6
22
6
6
6
6
6
5
6
6
5
6
6
5
5
6
6
5
6
6
6
6
6
6
6
6
5
5
6
6
6
6
5
6
6
6
6
6
6
6
5
5
6
6
6
6
6
6
6
6
6
6
6
6
6
6
6
5
6
6
6
5
6
5
6
5
5
6
6
6
6
6
5
5
5
5
5
6
5
6
6
6
5
6
6
6
6
6
6
6
6
6
6
6
6
43
20
5
5
6
6
6
6
6
6
6
5
6
5
13
7
6
6
5
6
6
6
6
6
5
5
6
5
6
6
6
5
6
6
6
6
5
6
6
6
6
6
6
6
5
5
5
5
5
6
6
5
6
5
6
6
6
5
6
5
5
6
5
6
6
6
5
5
5
5
6
6
6
6
6
6
6
6
6
5
6
5
5
6
6
6
6
6
6
6
5
6
5
6
6
5
5
5
6
6
6
6
5
5
5
6
6
6
6
5
5
5
6
6
5
6
6
5
5
5
6
5
6
6
17
6
5
5
6
5
6
5
5
6
5
5
6
6
5
5
6
5
6
5
6
6
6
5
5
5
5
5
5
6
6
6
6
6
6
6
6
6
5
5
6
6
5
6
6
5
5
5
5
6
5
7
5
6
5
16
6
6
6
6
6
6
