95
65
73
66
66
69
98
157
68
73
120
114
88
156
178
76
65
114
100
74
114
112
108
108
109
117
105
173
142
154
155
101
70
65
62
72
94
87
79
124
121
114
76
141
133
115
111
150
177
117
118
118
102
121
111
132
114
99
355
123
128
162
123
123
115
157
139
126
117
132
112
105
141
146
174
135
209
139
128
109
117
176
129
181
161
157
194
139
138
73
71
77
83
72
98
163
106
106
62
68
78
78
66
131
74
63
92
69
73
65
63
65
66
61
68
71
70
67
65
61
67
96
116
99
66
71
63
64
65
62
63
62
63
66
65
62
63
106
74
138
128
125
111
118
120
112
148
85
76
68
111
105
62
62
62
62
82
65
65
63
84
63
59
64
61
64
92
61
61
63
61
81
120
137
116
67
156
67
62
64
63
60
65
64
61
64
64
68
81
72
66
65
68
62
66
63
64
65
74
63
74
61
70
71
131
98
73
77
77
99
101
101
132
63
64
127
119
127
125
124
112
111
114
74
125
72
71
64
66
90
65
71
62
71
69
66
63
64
62
75
65
62
65
63
61
62
61
63
64
63
66
63
63
65
68
90
73
63
135
74
63
63
63
65
66
68
66
64
68
69
75
64
65
64
63
72
85
64
74
57
66
60
61
64
62
69
70
66
65
64
69
67
122
73
62
65
138
78
71
80
70
63
64
65
65
64
64
67
64
61
65
63
61
61
64
64
66
66
68
65
61
63
62
65
62
97
67
101
67
69
74
73
62
65
63
62
61
61
68
66
62
62
63
76
63
71
76
69
65
64
70
68
65
63
61
66
62
62
61
130
70
63
73
69
70
71
66
65
64
65
67
65
64
64
65
65
62
63
79
65
65
64
62
74
65
61
61
66
68
80
68
66
62
116
73
65
80
65
75
71
76
65
68
66
64
67
68
65
62
118
74
72
64
66
61
62
64
69
65
67
63
64
86
67
63
156
120
137
87
84
68
62
81
64
66
61
64
74
67
69
69
63
67
69
61
63
61
61
61
62
62
62
65
66
68
61
58
61
64
65
101
63
67
65
64
61
63
64
69
78
65
65
61
64
69
65
62
63
66
62
64
69
66
60
69
92
67
72
67
114
66
61
66
69
70
100
161
122
79
66
