1 20 2937 0 0 1 1 1 1 1 1 1 1 1 1 1 1 1 0 1 1 1 1 
2 20 4740 1 1 1 1 1 1 1 1 0 1 1 0 1 1 1 0 0 1 1 1 
3 20 5589 1 1 0 0 1 1 1 1 1 1 1 1 1 1 0 1 1 1 1 1 
4 20 5300 1 0 1 1 1 1 1 1 0 1 1 1 1 1 1 1 1 1 1 0 
5 20 5625 1 1 1 1 1 1 1 1 1 0 0 1 1 1 1 1 1 1 1 0 
6 20 4048 1 0 0 0 1 1 1 1 1 1 1 1 1 1 1 1 1 1 1 1 
7 20 4713 1 1 1 1 0 1 1 1 1 1 0 1 1 1 1 1 1 1 0 1 
8 20 4660 1 0 1 0 1 1 1 1 1 1 0 1 1 1 1 0 1 1 1 1 
9 20 5218 1 1 0 1 0 1 1 1 1 1 1 1 1 1 1 1 1 1 1 1 
10 20 4910 1 1 1 1 1 0 1 1 0 0 1 1 1 1 1 1 1 1 1 1 
11 20 4598 1 1 1 1 0 1 1 1 1 0 1 1 1 1 1 1 1 0 1 1 
12 20 4344 1 1 1 1 1 1 1 1 1 1 0 1 1 1 0 1 1 1 1 0 
13 20 5193 1 1 1 1 1 1 0 1 1 1 0 1 0 1 1 1 1 0 1 1 
14 20 5703 1 1 1 1 0 1 1 1 1 1 1 1 1 1 0 1 0 1 1 1 
15 20 5490 1 1 1 1 0 1 0 1 1 1 0 1 1 1 1 1 1 1 1 1 
16 20 5379 1 0 1 1 1 1 1 1 0 1 0 1 1 1 1 1 1 1 1 1 
17 20 4769 1 1 0 0 1 1 1 1 1 0 1 1 1 1 1 1 1 1 1 1 
18 20 5366 1 1 1 1 1 1 0 1 1 1 1 0 0 1 1 1 1 1 1 1 
19 20 4093 1 1 0 1 1 1 1 1 0 1 1 1 1 1 1 1 1 0 1 1 
20 20 3592 1 1 1 0 0 1 1 0 1 1 0 1 1 0 1 1 1 1 1 1 
21 20 4555 1 1 1 1 1 1 0 1 1 1 1 1 1 1 1 0 1 1 1 1 
22 20 4487 1 0 1 1 1 0 1 1 1 1 1 1 1 1 1 0 1 1 1 1 
23 20 4915 1 1 1 1 1 1 1 1 1 1 1 0 0 0 1 0 1 1 1 1 
24 20 4875 0 1 1 1 1 1 1 0 1 1 0 1 1 1 1 1 1 0 1 1 
25 20 4228 1 1 1 1 0 0 1 1 1 1 1 1 1 1 0 1 0 1 1 1 
26 20 5192 1 1 1 0 1 1 1 1 1 0 1 1 1 1 1 0 1 1 1 1 
27 20 3982 1 1 1 1 1 1 1 0 1 0 1 0 1 1 1 1 1 1 1 1 
28 20 3543 1 1 0 1 1 1 1 1 1 0 1 1 1 1 1 0 1 1 1 0 
29 20 5098 1 1 1 0 1 0 0 1 1 0 1 1 1 1 1 1 1 1 1 1 
30 20 4871 1 1 1 1 1 1 0 1 1 0 1 1 1 1 1 1 1 1 1 1 
31 20 5567 1 1 1 1 1 1 1 0 1 1 1 0 0 1 1 1 1 1 1 1 
32 20 5255 1 1 1 1 1 1 0 1 1 1 0 0 1 1 1 1 1 1 0 1 
33 20 4673 0 1 0 1 1 0 1 1 1 1 1 1 1 1 1 1 1 1 1 1 
34 20 4798 1 1 1 1 1 1 1 1 0 1 0 1 1 1 1 1 1 1 1 1 
35 20 5102 0 1 1 1 1 1 1 0 1 1 1 0 1 1 1 1 1 1 0 1 
36 20 4302 1 1 1 1 1 1 1 1 1 1 0 1 1 1 1 1 0 1 1 1 
37 20 4611 1 1 1 0 1 0 1 1 1 1 1 1 1 1 1 1 0 1 1 1 
38 20 3615 1 1 1 1 1 0 1 1 1 0 0 0 1 1 1 1 1 1 1 1 
39 20 4617 1 1 1 1 1 0 1 1 0 1 1 1 1 0 1 1 1 1 1 1 
40 20 3602 0 0 1 1 1 1 1 1 1 1 1 1 1 1 1 1 0 1 1 1 
41 20 3825 1 1 1 1 1 0 1 1 1 1 0 1 1 0 1 1 1 1 1 1 
42 20 4939 1 1 1 0 0 1 1 1 1 1 0 1 1 1 1 1 1 1 1 1 
43 20 4792 1 1 0 0 0 1 1 1 1 1 1 1 1 1 1 1 0 1 1 1 
44 20 5900 1 1 0 1 1 0 1 0 1 1 1 1 1 1 1 1 1 1 1 1 
45 20 4966 1 1 1 1 1 0 1 1 1 1 1 1 1 0 1 0 1 0 1 1 
46 20 3993 1 1 1 0 0 1 1 1 1 1 0 1 1 0 1 1 1 1 1 1 
47 20 4819 1 0 1 1 0 1 1 1 1 1 1 0 1 1 1 1 1 1 1 1 
48 20 3432 1 1 1 0 0 1 1 1 0 1 1 1 1 1 1 0 1 1 1 1 
49 20 4854 1 1 1 1 1 1 1 1 1 0 1 1 0 1 1 1 1 1 1 0 
50 20 5776 1 0 0 1 1 1 0 1 1 1 1 1 1 1 1 0 1 1 1 1 
51 20 4908 0 1 1 1 1 1 1 1 1 1 1 0 1 1 1 0 1 1 1 1 
52 20 3854 1 1 1 1 1 1 1 0 0 1 1 1 1 1 1 1 1 1 0 0 
53 20 5525 0 1 1 1 1 0 1 1 0 1 1 1 1 1 1 1 1 1 1 1 
54 20 4481 1 1 1 1 0 1 1 1 0 1 1 0 1 1 1 1 1 0 1 0 
55 20 4863 1 0 1 1 1 1 1 1 1 0 1 1 1 0 1 1 1 1 1 1 
56 20 5249 0 1 1 1 1 1 0 1 1 1 1 1 1 1 1 1 1 1 1 0 
57 20 4313 1 1 1 1 1 0 1 1 1 1 1 0 1 1 1 1 1 1 1 1 
58 20 5534 1 1 1 1 1 1 0 1 1 1 1 1 1 1 1 1 1 1 1 0 
59 20 5183 0 1 1 1 1 1 1 1 1 1 1 1 0 1 1 1 1 1 0 1 
60 20 4775 1 1 1 1 0 1 1 1 1 1 1 0 1 1 1 1 1 0 1 1 
61 20 4253 1 1 1 0 1 1 1 1 1 0 1 1 1 1 1 1 1 0 1 1 
62 20 4295 1 1 1 1 1 1 1 1 1 0 1 1 1 1 1 0 0 1 1 1 
63 20 4729 0 1 1 1 1 1 1 1 1 1 1 1 1 1 1 1 0 1 1 0 
64 20 4387 1 0 0 0 1 1 1 1 1 1 1 1 1 1 1 1 1 1 1 1 
65 20 4606 1 1 1 1 1 1 1 1 1 1 1 1 1 1 1 1 1 0 0 1 
66 20 4069 1 1 1 1 1 0 1 1 1 1 0 0 1 1 1 1 1 1 1 1 
67 20 4927 1 1 0 0 1 1 1 1 1 1 1 0 1 1 1 1 1 1 1 1 
68 20 6124 0 1 1 1 1 0 1 1 1 1 1 1 1 1 0 1 1 1 1 1 
69 20 5511 1 1 0 0 1 1 0 1 1 1 1 1 1 1 1 1 1 1 1 1 
70 20 4224 1 1 1 1 1 1 1 1 1 0 1 1 1 0 0 0 1 0 1 1 
71 20 4566 0 1 1 1 1 1 1 1 1 1 0 1 1 1 1 1 0 1 1 1 
72 20 6148 1 1 1 1 0 1 1 1 1 0 1 1 1 1 1 1 1 1 1 1 
73 20 4494 1 0 1 1 1 1 1 1 1 1 1 1 1 1 1 1 1 0 1 0 
74 20 5637 1 1 1 0 1 0 1 0 1 1 1 1 1 1 1 1 1 1 1 1 
75 20 5413 1 1 1 0 1 1 1 1 1 1 1 1 1 1 1 1 1 0 0 1 
76 20 5424 1 1 1 1 1 1 1 1 1 1 1 1 1 1 0 0 1 1 0 0 
77 20 5998 1 1 1 1 1 1 0 1 1 0 1 1 1 1 1 1 1 1 0 1 
78 20 4314 1 1 1 1 1 1 1 1 1 1 0 0 1 1 1 0 1 1 1 0 
79 20 4656 1 1 1 1 1 1 1 0 1 1 1 0 1 1 1 1 1 0 1 1 
80 20 3525 1 1 1 0 0 1 1 1 1 1 1 1 1 1 1 1 1 0 1 0 
81 20 4170 1 0 1 1 1 1 1 1 1 1 1 1 1 1 1 1 1 1 0 1 
82 20 3252 1 1 1 1 1 1 1 0 1 1 0 1 1 1 1 1 1 0 1 1 
83 20 5577 1 1 1 1 1 1 1 1 1 1 1 1 1 1 1 1 1 1 0 0 
84 20 4774 1 1 1 1 1 1 1 1 1 1 1 1 1 1 0 1 1 1 1 0 
85 20 4545 0 0 1 1 1 1 1 1 1 1 1 0 1 1 1 1 1 1 1 1 
86 20 4716 1 1 1 1 1 1 0 1 1 0 1 1 1 1 1 1 1 1 1 0 
87 20 4034 1 1 1 1 1 1 1 1 1 0 1 1 1 1 0 0 1 0 1 1 
88 20 3534 1 1 0 1 0 1 1 1 1 0 1 1 0 1 1 1 1 1 1 1 
89 20 4457 1 1 1 0 1 1 1 1 1 1 1 1 1 1 0 0 1 0 1 1 
90 20 5032 1 1 1 0 0 1 1 1 1 1 1 1 1 1 0 1 1 1 1 1 
91 20 5182 1 1 1 1 1 1 1 0 1 1 1 1 1 1 1 1 0 1 0 1 
92 20 5618 1 1 0 1 1 1 1 1 1 1 1 1 1 0 1 1 1 0 0 1 
93 20 4206 1 1 0 1 1 1 1 1 1 1 0 1 1 1 0 1 1 1 1 1 
94 20 4767 0 1 1 0 1 1 1 1 1 1 1 1 1 1 0 1 1 1 1 1 
95 20 4843 1 1 1 1 1 1 1 1 0 1 1 1 1 1 1 1 0 1 1 0 
96 20 4348 1 1 1 0 1 1 1 1 1 0 1 1 1 1 1 1 1 0 1 1 
97 20 4535 1 1 1 1 1 1 0 1 0 1 1 1 0 1 1 1 1 1 1 1 
98 20 5474 0 1 0 1 0 1 1 1 1 1 1 1 1 0 1 1 1 1 1 1 
99 20 4827 1 0 1 1 1 1 1 1 1 1 1 1 1 1 1 1 1 1 1 0 
100 20 5360 1 1 1 1 1 1 1 1 1 1 1 1 1 0 0 1 1 1 0 1 
101 20 4293 0 1 1 1 1 0 1 0 0 1 1 1 1 1 1 0 1 1 1 1 
102 20 3683 1 1 1 0 1 1 1 1 1 1 1 1 1 1 1 1 1 0 1 0 
103 20 5213 1 1 0 1 1 1 1 1 1 0 1 1 1 1 1 1 1 1 1 1 
104 20 4509 1 1 1 1 1 1 1 1 1 1 0 1 1 1 1 1 0 1 0 1 
105 20 4299 0 1 1 1 1 1 1 1 0 1 1 1 0 1 1 1 1 1 1 1 
106 20 3922 1 1 1 1 0 1 1 1 1 1 1 1 1 1 0 0 1 1 1 1 
107 20 4381 1 1 1 1 1 1 1 1 1 1 0 1 0 1 1 1 1 0 1 0 
108 20 5504 0 0 1 1 1 1 1 1 1 1 1 0 1 1 1 1 1 1 1 1 
109 20 4308 1 1 1 1 1 0 1 1 0 1 1 1 1 1 1 1 0 1 1 1 
110 20 5439 1 1 1 1 1 1 1 1 1 1 0 1 0 1 0 1 1 1 1 1 
111 20 5193 1 1 1 1 1 1 0 0 0 1 1 1 1 1 1 1 1 1 1 1 
112 20 4857 1 1 1 1 1 0 0 1 1 1 0 1 1 1 1 0 1 1 1 1 
113 20 5593 1 1 1 1 1 1 0 1 1 1 1 1 1 1 0 1 1 1 0 1 
114 20 4671 0 0 1 1 1 1 1 0 1 1 0 1 1 1 1 1 1 1 1 1 
115 20 5346 0 1 1 1 1 1 1 1 1 0 1 1 1 1 0 1 1 1 1 0 
116 20 5234 0 1 1 1 1 1 1 0 0 1 1 1 1 1 1 1 1 1 1 1 
117 20 3581 0 1 1 1 1 1 0 1 1 1 1 1 1 1 1 1 1 1 0 1 
118 20 5661 1 1 1 1 0 1 1 1 1 1 1 1 1 1 1 1 0 1 0 1 
119 20 4592 1 0 1 1 1 1 1 1 1 1 1 0 1 1 1 0 1 1 1 1 
120 20 4217 1 1 1 1 1 1 1 1 1 1 1 0 0 1 1 0 1 1 1 1 
121 20 4444 1 1 1 1 1 1 0 1 1 1 1 1 1 1 1 0 1 1 1 0 
122 20 3573 1 1 1 0 1 1 1 1 1 1 1 1 1 1 1 1 1 0 0 1 
123 20 5250 1 1 1 1 1 1 1 1 1 0 1 0 1 1 1 1 0 1 1 1 
124 20 5207 1 0 1 0 1 1 1 1 1 1 1 1 1 1 1 1 1 1 1 1 
125 20 3771 0 1 1 1 1 1 0 1 1 1 1 0 1 1 1 1 1 1 1 1 
126 20 5266 1 1 1 1 1 1 1 1 1 1 1 1 1 0 1 0 1 0 1 1 
127 20 4752 1 1 1 1 1 1 1 1 0 1 1 1 0 0 1 0 1 1 1 1 
128 20 5293 0 1 0 1 1 1 1 1 1 1 1 1 1 1 1 1 1 1 0 1 
129 20 4464 1 1 1 1 0 0 1 1 1 1 1 1 1 0 1 1 1 1 1 1 
130 20 5184 1 1 1 1 1 1 1 1 1 1 1 1 1 1 1 1 0 1 0 1 
131 20 4763 1 1 0 1 0 1 1 1 1 1 1 1 1 1 1 0 1 1 1 1 
132 20 4001 1 1 1 1 1 1 1 1 1 1 1 1 1 1 1 0 1 0 0 1 
133 20 4408 1 1 1 0 1 1 1 1 1 1 1 1 1 1 1 0 1 1 1 0 
134 20 5447 1 1 1 1 0 1 1 1 1 1 0 1 1 1 1 1 0 1 1 1 
135 20 5667 1 1 0 1 1 1 1 1 1 1 0 0 1 1 1 1 1 1 0 1 
136 20 4709 0 1 1 1 1 1 1 1 1 1 0 1 1 1 1 1 0 1 0 1 
137 20 4777 1 1 1 1 1 1 0 1 1 1 1 1 1 1 1 1 1 1 0 0 
138 20 4815 1 1 1 1 1 1 1 0 0 1 1 1 1 1 0 1 1 1 1 1 
139 20 4899 1 1 0 1 1 1 1 1 1 1 0 1 1 1 1 1 1 1 1 0 
140 20 4628 1 1 1 1 1 1 0 1 1 1 1 1 1 0 1 1 1 1 1 1 
141 20 4622 1 0 1 1 1 1 1 1 1 1 1 1 1 0 1 1 0 1 1 0 
142 20 4576 1 0 1 1 1 1 1 1 1 1 1 1 0 0 1 1 1 1 1 1 
143 20 5761 1 1 1 1 1 1 1 1 1 1 1 1 0 0 1 1 1 0 1 1 
144 20 5423 1 1 1 1 1 1 1 1 1 1 1 0 0 1 1 1 1 1 1 0 
145 20 4188 1 1 1 1 1 1 1 1 1 0 1 1 1 0 1 0 1 1 1 1 
146 20 4699 1 1 1 1 0 1 1 1 1 0 1 1 1 1 1 0 1 1 0 1 
147 20 4993 1 1 1 1 0 1 1 1 1 1 1 1 1 1 1 1 0 1 1 0 
148 20 5770 1 1 1 0 1 1 1 1 1 1 0 1 1 1 1 1 0 1 1 1 
149 20 5257 1 1 1 1 1 1 1 1 1 1 0 1 0 1 1 1 1 1 1 0 
150 20 4653 1 1 1 1 1 1 0 1 0 1 1 1 1 1 0 1 1 0 1 1 
151 20 5036 0 1 1 1 1 1 0 1 1 0 1 1 1 1 1 1 1 1 1 1 
152 20 4535 1 0 1 1 1 0 1 1 1 1 1 1 1 0 1 1 1 1 1 1 
153 20 3833 0 0 1 1 1 1 1 1 0 1 0 1 1 1 1 1 1 1 1 1 
154 20 4302 0 1 1 0 1 1 1 1 1 1 1 1 1 1 1 1 1 1 1 1 
155 20 4517 1 1 1 1 1 0 1 1 1 1 1 1 1 1 1 1 1 0 0 1 
156 20 4985 0 1 0 1 1 1 1 1 1 1 1 1 1 1 1 1 0 1 1 1 
157 20 4433 1 1 1 1 1 1 1 1 1 1 1 0 0 1 1 1 1 1 1 1 
158 20 5404 0 1 1 1 1 1 1 0 1 1 1 1 1 1 1 1 1 0 1 1 
159 20 5217 0 1 1 1 1 1 1 1 1 1 0 1 1 0 1 1 1 1 0 1 
160 20 3872 1 1 1 0 1 1 1 1 1 1 1 1 0 1 0 1 1 1 1 1 
161 20 5705 1 1 1 1 1 1 1 1 1 1 1 1 0 0 1 1 0 1 1 1 
162 20 5015 1 1 1 1 0 1 1 1 0 1 1 0 1 1 1 1 1 1 1 1 
163 20 3782 1 1 1 0 1 1 0 1 1 1 1 0 1 1 1 1 1 1 1 1 
164 20 4775 0 1 0 1 1 1 1 1 1 1 1 1 1 1 1 1 1 0 1 1 
165 20 5194 0 1 1 1 1 1 0 0 1 1 1 1 1 1 1 1 1 1 1 1 
166 20 3486 1 0 1 1 0 1 1 1 1 1 1 0 0 1 1 1 1 1 1 1 
167 20 5088 1 1 1 1 1 1 1 1 0 1 1 1 1 1 1 1 1 1 1 0 
168 20 4616 1 1 1 1 1 1 0 0 1 1 1 0 1 1 1 1 1 1 1 1 
169 20 4473 1 1 1 1 1 1 1 1 1 1 0 0 1 1 1 1 1 1 1 0 
170 20 5031 0 1 1 1 1 0 1 1 0 1 1 1 1 1 1 1 1 1 1 1 
171 20 4976 1 1 1 0 1 0 1 0 1 1 1 1 1 1 1 1 1 1 1 1 
172 20 5053 1 1 0 1 1 1 1 0 1 1 1 1 1 0 1 1 1 1 1 1 
173 20 5032 1 1 1 1 0 1 1 1 1 1 1 1 1 0 1 1 0 1 1 1 
174 20 5185 1 1 1 0 0 1 1 1 1 1 1 1 1 0 1 1 1 1 1 1 
175 20 4601 1 1 1 1 1 1 1 1 1 1 1 0 1 1 0 1 1 1 0 1 
176 20 5013 1 1 0 1 1 1 1 1 1 0 1 1 1 1 1 1 1 0 1 1 
177 20 4712 1 1 1 0 1 1 1 1 1 1 1 1 1 1 1 1 1 1 0 0 
178 20 5144 1 1 0 1 1 1 1 0 1 1 1 1 1 0 1 1 1 1 1 1 
179 20 4000 1 1 0 0 1 1 1 1 1 1 1 1 1 1 1 1 1 1 1 1 
180 20 5156 1 1 0 1 1 0 1 1 1 1 1 0 1 0 1 1 1 1 1 1 
181 20 4563 1 1 0 1 1 1 1 0 1 1 1 1 1 1 1 1 1 1 1 0 
182 20 4707 1 1 1 0 1 1 1 1 1 0 1 1 1 1 1 1 0 1 1 1 
183 20 3950 1 1 1 1 0 1 1 1 1 0 1 0 1 1 1 1 1 0 1 1 
184 20 4995 1 1 1 1 1 1 1 1 0 1 1 0 1 1 0 1 1 1 1 1 
185 20 4470 1 1 1 1 0 1 0 1 1 1 1 1 1 1 1 1 1 1 1 0 
186 20 4580 1 1 1 1 1 1 1 1 0 1 1 1 1 0 1 1 1 0 1 1 
187 20 4852 1 1 1 1 1 1 1 1 1 1 0 0 1 1 1 1 0 1 1 1 
188 20 4582 1 0 1 1 1 1 1 1 1 0 1 1 1 1 1 1 1 1 0 1 
189 20 5167 1 1 1 0 1 0 1 1 1 1 1 1 1 1 1 1 1 1 0 1 
190 20 4889 1 1 1 1 1 1 1 1 1 1 1 1 0 1 1 0 1 1 1 1 
191 20 3919 1 1 1 1 1 1 0 1 1 1 1 1 1 0 0 1 1 0 1 1 
192 20 4343 1 1 1 0 1 1 1 1 1 1 1 0 1 1 1 1 1 1 1 1 
193 20 5350 1 1 0 1 1 1 0 1 1 0 1 1 1 1 1 1 1 1 0 1 
194 20 4624 1 1 1 1 1 1 0 0 1 1 1 0 1 1 1 1 1 1 0 1 
195 20 5774 1 1 1 1 0 1 0 1 1 0 1 1 1 1 1 1 1 1 1 1 
196 20 4618 1 1 1 0 1 1 1 1 1 1 1 0 1 1 1 1 1 1 0 1 
197 20 5009 1 1 1 0 1 1 0 0 1 1 1 1 1 1 1 1 1 1 1 0 
198 20 6408 1 1 1 1 1 1 1 1 1 1 0 0 1 1 0 1 1 1 1 1 
199 20 5091 1 1 1 0 1 1 1 1 1 1 0 1 1 1 1 0 1 0 1 1 
200 20 4232 1 1 1 1 1 1 1 1 1 0 1 1 1 1 0 1 0 1 1 1 
201 20 4862 1 1 1 1 1 1 1 1 1 1 0 1 0 1 1 1 1 1 0 1 
202 20 4763 1 1 1 0 1 1 1 1 0 1 1 1 1 0 1 1 1 1 1 1 
203 20 4320 1 1 0 1 0 1 1 1 1 1 1 1 1 1 1 1 1 0 1 1 
204 20 5436 0 1 1 1 1 1 1 1 1 1 0 1 1 1 1 1 1 0 1 1 
205 20 4690 1 1 0 1 1 1 0 1 1 1 1 1 1 1 1 1 1 1 1 1 
206 20 4433 1 0 1 0 1 1 1 1 1 1 1 1 1 1 0 1 1 1 1 1 
207 20 4933 1 1 1 1 0 0 1 1 1 1 1 1 1 0 1 1 1 0 1 1 
208 20 4419 0 1 1 1 1 1 1 1 1 1 0 1 1 1 1 1 1 1 1 1 
209 20 4987 0 1 1 1 0 1 1 1 0 0 1 1 1 1 1 1 1 1 1 1 
210 20 4666 0 1 1 1 1 1 0 1 1 0 1 0 1 1 1 1 1 1 1 1 
211 20 4497 1 0 1 1 1 1 1 1 1 1 0 1 1 1 1 1 1 1 1 1 
212 20 4434 1 0 1 1 1 0 1 1 1 1 1 0 1 1 1 1 1 1 1 1 
213 20 5101 1 1 1 1 0 0 1 1 1 1 1 1 1 1 0 0 1 1 1 1 
214 20 4807 1 0 1 1 1 1 1 1 1 1 1 1 1 0 1 1 1 0 0 1 
215 20 4678 1 1 1 1 1 0 1 1 0 1 1 1 1 1 0 1 0 1 1 1 
216 20 4983 1 1 1 1 1 1 0 1 1 1 1 1 1 1 0 1 1 1 0 1 
217 20 4786 1 0 1 1 0 1 1 1 1 1 1 1 1 1 0 1 1 1 1 1 
218 20 4736 1 1 1 1 0 1 1 1 1 1 1 1 1 0 1 0 1 1 1 1 
219 20 5003 1 0 1 1 1 1 1 1 1 1 0 1 1 1 0 1 0 0 1 1 
220 20 4931 1 1 1 1 1 1 1 1 1 0 0 1 1 1 0 1 1 1 1 1 
221 20 4626 0 1 1 1 1 1 0 1 1 1 1 1 1 1 1 1 0 1 1 1 
222 20 4543 1 1 1 1 1 1 0 1 0 0 0 1 1 1 1 1 1 1 1 1 
223 20 4105 1 1 1 1 1 1 1 0 1 0 1 1 0 1 1 1 1 1 1 1 
224 20 5247 1 1 1 1 1 1 1 1 1 1 1 1 1 1 1 1 0 1 0 0 
225 20 5241 1 1 0 0 1 1 1 1 1 1 1 1 1 1 1 1 0 1 1 1 
226 20 4898 1 1 1 1 1 1 1 0 0 1 1 1 1 1 1 0 0 1 1 1 
227 20 5362 1 1 1 1 0 1 1 1 1 0 1 1 1 1 1 1 1 1 0 1 
228 20 5424 0 1 1 1 1 1 1 0 1 1 0 1 1 1 1 1 1 1 1 1 
229 20 4116 1 1 1 1 1 1 1 0 1 1 0 1 1 1 1 1 1 1 1 0 
230 20 5118 0 1 1 1 1 1 1 1 0 1 1 1 1 1 1 0 1 1 1 1 
231 20 4897 1 0 1 1 1 0 1 1 1 1 1 1 1 1 1 1 1 1 1 0 
232 20 4989 1 0 1 1 1 1 0 1 1 1 0 1 1 1 1 1 1 1 1 1 
233 20 4185 0 1 1 1 0 1 0 1 1 1 1 1 1 1 1 1 1 1 1 1 
234 20 6121 1 1 1 1 0 1 1 0 1 1 1 1 1 1 0 1 1 1 1 1 
235 20 5008 1 1 0 1 1 1 0 1 0 0 1 1 1 1 1 1 1 1 1 1 
236 20 4705 1 1 1 1 1 1 1 1 1 0 1 1 1 1 0 1 1 1 0 1 
237 20 3874 1 0 1 1 1 1 1 1 1 1 1 1 1 0 0 1 1 1 1 1 
238 20 4814 1 1 1 1 1 1 0 1 1 1 1 1 1 1 1 0 1 1 0 1 
239 20 4890 1 1 1 1 1 1 1 1 0 1 1 1 0 1 1 0 1 1 0 1 
240 20 4085 1 1 0 1 1 1 0 1 1 1 1 1 1 1 1 1 1 1 1 1 
241 20 5039 1 1 1 1 0 1 1 0 1 1 1 1 1 1 0 1 0 1 1 1 
242 20 4453 1 0 1 1 1 1 1 1 1 0 1 1 0 1 1 1 1 1 1 1 
243 20 4530 1 1 1 0 1 1 0 1 1 1 1 1 1 1 1 1 1 1 0 1 
244 20 4619 1 1 1 1 1 1 1 0 1 0 1 1 1 1 1 1 1 1 0 1 
245 20 3339 0 1 1 1 1 1 1 1 1 1 1 1 1 1 1 1 0 1 1 0 
246 20 4408 1 1 1 1 1 1 1 1 1 1 1 1 0 0 1 1 1 1 1 0 
247 20 4379 1 1 1 0 1 1 1 1 1 1 1 0 1 1 0 1 1 1 0 1 
248 20 5337 1 1 1 1 1 0 1 1 1 1 1 1 1 1 1 1 1 0 1 0 
249 20 4330 1 1 1 1 1 1 1 0 0 1 1 1 1 0 1 1 1 0 1 1 
250 20 4674 1 1 1 1 1 1 1 1 1 1 1 1 0 1 0 1 1 0 1 1 
251 20 5784 1 1 1 1 1 1 1 1 0 1 0 1 1 0 1 1 1 1 1 1 
252 20 4614 1 1 1 1 1 1 1 1 1 1 1 0 1 1 1 1 1 1 0 0 
253 20 4990 1 0 1 1 1 1 1 1 0 1 1 0 1 1 1 1 1 1 1 1 
254 20 4742 1 0 1 1 1 1 0 1 1 1 1 1 1 1 0 1 1 1 1 1 
255 20 4561 1 1 1 0 0 1 1 1 1 1 1 1 1 1 1 1 1 0 1 1 
256 20 3297 1 1 1 0 0 1 1 1 1 1 1 1 1 1 1 0 1 1 1 1 
257 20 5446 1 1 1 1 1 1 1 0 1 1 1 1 1 0 1 0 1 1 1 1 
258 20 4074 1 1 1 1 1 0 1 1 0 1 1 1 0 1 1 1 1 1 1 1 
259 20 4624 1 0 1 1 1 1 1 1 1 1 1 0 1 1 1 1 0 1 1 1 
260 20 3848 1 1 1 1 0 1 1 1 1 1 1 0 1 1 1 0 1 1 1 1 
261 20 4349 1 1 1 1 1 1 1 1 1 1 1 1 1 0 1 1 1 1 0 1 
262 20 4456 1 1 1 1 1 1 0 1 1 1 1 1 1 1 0 1 1 1 0 1 
263 20 5118 0 1 1 1 1 0 1 1 0 1 1 1 1 1 1 1 1 1 1 1 
264 20 4831 1 1 1 1 1 1 1 0 1 0 1 1 1 1 1 1 1 1 0 1 
265 20 4112 1 0 1 1 1 1 1 1 1 1 1 1 0 1 1 0 1 1 1 1 
266 20 3903 1 0 1 1 0 1 1 1 1 1 1 1 1 1 1 1 1 1 0 0 
267 20 4568 1 1 0 1 1 1 1 1 1 1 1 1 1 1 1 0 1 1 0 1 
268 20 3735 0 1 1 1 1 1 1 1 0 0 1 1 1 0 1 1 1 0 1 1 
269 20 5312 1 1 1 1 1 1 0 1 1 1 1 1 1 1 1 0 1 1 1 1 
270 20 5093 1 1 1 1 1 0 1 1 1 1 1 1 1 1 1 1 0 1 1 1 
271 20 4769 1 0 1 1 1 1 1 1 1 0 1 1 1 1 1 1 1 1 0 1 
272 20 4965 1 1 1 1 1 1 0 1 1 0 1 1 1 1 1 1 1 0 1 1 
273 20 5024 1 1 1 1 1 0 1 1 1 1 0 1 1 1 1 1 1 1 1 1 
274 20 4956 1 1 1 1 1 0 1 0 1 1 1 1 1 1 0 1 1 0 1 1 
275 20 4937 1 0 1 0 1 1 1 1 1 1 1 1 1 1 1 1 1 1 0 1 
276 20 4707 1 1 1 1 0 1 1 1 1 0 1 1 1 1 1 1 1 1 0 0 
277 20 5594 1 1 1 1 1 1 1 1 1 0 1 1 0 1 1 1 1 1 1 0 
278 20 5674 1 1 1 1 1 1 1 1 0 0 1 1 1 1 1 1 1 1 1 1 
279 20 4698 1 0 1 1 1 1 1 1 1 1 0 1 1 1 1 0 1 1 1 0 
280 20 4704 1 1 0 0 0 1 1 1 1 1 1 1 0 1 1 1 1 1 1 1 
281 20 5099 1 1 1 1 1 1 0 1 1 1 0 1 1 1 1 1 1 1 1 1 
282 20 5652 1 1 1 0 1 1 1 1 1 1 0 0 1 1 1 0 1 1 1 0 
283 20 4453 0 1 0 1 1 1 1 1 1 1 1 1 1 0 1 1 1 1 1 1 
284 20 4117 0 1 1 0 1 1 1 1 1 1 1 1 0 1 0 1 1 1 1 1 
285 20 5038 0 1 0 1 1 1 1 1 1 0 1 1 1 1 1 1 1 1 1 1 
286 20 5144 1 1 1 1 1 1 1 1 1 0 1 0 1 1 1 1 1 1 0 1 
287 20 4539 0 1 1 1 1 1 0 1 1 1 1 1 0 1 1 1 1 1 1 1 
288 20 5882 1 1 0 1 1 1 1 0 1 1 1 1 1 1 1 0 1 1 1 1 
289 20 5471 0 1 0 1 1 1 1 1 1 0 1 1 1 1 1 1 1 1 1 1 
290 20 5291 1 1 0 1 1 0 1 1 1 1 1 1 0 1 1 1 1 1 1 1 
291 20 4983 1 1 1 0 1 1 1 1 1 0 1 1 1 1 0 1 1 1 1 1 
292 20 3792 1 1 1 1 1 1 0 1 1 1 1 1 1 1 1 1 0 1 0 1 
293 20 4577 1 0 1 1 1 1 1 1 1 1 1 1 1 0 1 1 1 1 1 1 
294 20 4686 1 0 0 1 1 1 1 1 1 1 1 1 1 0 1 1 1 1 0 1 
295 20 4598 1 0 1 1 1 1 0 1 1 1 1 1 1 0 1 1 1 1 1 1 
296 20 3790 0 1 0 1 1 1 1 1 1 1 1 1 1 1 1 1 1 1 1 0 
297 20 4358 0 1 1 1 1 1 1 0 1 1 1 1 1 1 1 1 1 0 1 1 
298 20 5265 1 1 1 1 1 1 1 1 1 1 0 1 0 1 1 1 0 1 1 1 
299 20 5239 0 1 0 1 1 1 1 1 1 1 1 1 1 1 0 1 1 1 1 1 
300 20 4238 1 1 0 0 1 1 1 1 1 1 1 0 1 1 1 0 1 1 1 1 
301 20 4051 1 1 1 1 0 1 1 1 0 1 1 1 1 1 1 1 1 0 1 1 
302 20 4892 0 1 1 1 1 0 1 0 1 1 1 1 1 1 1 1 1 0 1 1 
303 20 4810 0 1 1 1 0 0 1 1 1 1 1 1 1 1 1 1 0 1 1 1 
304 20 5555 1 1 1 1 1 1 1 1 1 1 1 1 0 1 0 1 1 0 1 1 
305 20 5139 1 1 1 1 1 1 1 1 1 0 1 1 1 1 1 1 1 0 1 1 
306 20 4514 0 0 1 1 1 1 1 1 1 1 1 1 1 1 1 1 1 1 1 1 
307 20 3854 1 1 1 1 0 1 1 1 0 1 0 1 1 1 1 1 1 1 1 1 
308 20 5406 1 1 1 1 1 1 1 1 1 1 0 0 1 0 1 1 1 1 1 1 
309 20 5210 1 0 0 1 1 1 1 1 1 1 1 1 1 1 1 1 1 1 1 1 
310 20 5275 1 1 1 1 1 1 1 1 1 1 1 1 0 1 0 1 1 0 1 1 
311 20 4793 1 1 1 1 1 1 1 0 1 1 1 1 1 1 0 1 1 1 1 0 
312 20 5499 1 0 1 1 1 1 1 1 1 1 1 1 1 1 0 1 1 0 1 1 
313 20 3877 0 1 1 0 1 1 1 1 1 1 1 1 1 1 0 0 1 1 1 1 
314 20 4532 1 0 1 1 1 0 0 0 1 1 1 1 1 1 1 1 1 1 1 0 
315 20 5231 1 0 1 1 1 1 1 1 1 0 1 1 1 0 1 1 1 1 1 1 
316 20 4746 1 0 1 1 1 1 1 1 0 1 0 1 1 1 1 1 1 1 0 1 
317 20 4218 0 1 1 0 1 1 1 1 1 1 1 0 1 1 1 1 1 1 1 1 
318 20 3382 1 1 1 1 1 1 1 1 0 1 1 1 1 0 0 1 1 1 1 1 
319 20 5573 1 1 1 1 1 0 1 1 1 1 1 1 0 1 1 0 1 1 1 1 
320 20 6099 1 1 1 1 1 0 1 1 0 1 1 1 1 1 1 1 1 1 1 0 
321 20 4460 1 1 0 1 1 1 0 1 1 0 1 0 1 1 1 1 1 1 1 1 
322 20 5029 1 1 1 1 1 1 1 1 0 1 1 1 1 0 1 0 1 1 1 1 
323 20 3067 1 1 1 1 0 1 1 1 1 1 1 1 1 0 1 1 0 1 1 1 
324 20 5284 1 1 1 1 1 0 1 1 1 1 1 1 1 0 1 0 1 1 1 1 
325 20 5535 1 0 0 1 1 1 1 1 1 1 1 1 1 1 1 1 1 1 1 1 
326 20 5460 1 1 1 1 1 1 1 0 1 1 1 1 1 1 0 1 1 1 0 1 
327 20 5059 1 1 1 1 1 1 1 1 1 1 1 1 1 1 0 0 1 1 1 0 
328 20 4240 1 1 1 1 1 1 1 1 0 1 1 1 0 1 1 1 1 1 1 0 
329 20 3511 1 0 1 0 1 1 1 1 1 1 1 1 1 1 1 1 1 1 0 1 
330 20 4205 1 1 1 1 0 1 1 1 1 1 1 1 1 0 1 0 1 1 1 1 
331 20 3668 1 1 1 0 1 1 1 1 1 1 1 1 1 0 1 1 1 1 1 1 
332 20 5273 1 1 1 1 1 1 1 0 1 1 1 0 1 1 1 1 1 0 1 1 
333 20 4578 1 1 0 1 1 1 1 1 1 1 1 1 1 1 1 1 0 0 1 1 
334 20 4776 1 1 1 0 1 1 1 1 1 1 1 1 0 1 1 1 0 0 1 1 
335 20 5459 1 0 1 1 1 1 0 1 1 1 1 1 0 1 1 1 1 1 1 1 
336 20 5006 1 1 1 1 1 1 1 1 1 1 1 1 1 0 0 1 1 1 1 1 
337 20 3620 1 1 1 1 1 1 1 1 1 1 0 1 1 1 1 0 1 1 1 1 
338 20 4865 0 1 1 1 1 0 1 1 1 1 1 1 1 1 1 0 1 1 1 1 
339 20 6185 1 1 0 1 1 1 1 0 1 1 1 1 1 1 1 1 1 1 1 0 
340 20 4654 1 1 1 1 1 1 1 1 1 1 1 1 1 0 1 1 1 0 0 1 
341 20 5050 0 1 1 1 1 1 1 1 0 1 1 1 0 1 1 1 1 1 1 1 
342 20 4013 1 1 1 1 1 1 0 0 0 1 1 1 1 1 0 1 1 1 1 1 
343 20 4380 1 0 1 0 1 1 1 1 1 1 1 1 1 1 1 0 1 1 1 1 
344 20 4554 0 1 1 1 0 1 1 1 1 1 0 1 1 1 1 1 1 1 1 1 
345 20 4439 1 1 1 1 1 1 1 1 0 1 0 1 1 1 1 1 1 1 0 1 
346 20 4911 1 0 1 1 1 1 1 1 0 1 1 1 1 1 1 1 0 1 1 0 
347 20 5186 1 1 1 1 1 1 1 1 1 1 0 0 1 1 1 1 1 0 1 1 
348 20 5295 1 1 1 1 1 1 1 1 1 1 0 1 1 1 1 0 1 0 1 1 
349 20 4393 1 1 1 1 0 1 1 1 0 1 1 1 1 1 1 1 0 1 1 1 
350 20 4565 1 1 1 1 1 1 1 1 1 1 0 1 1 0 1 0 1 1 1 1 
351 20 4560 1 1 1 1 1 1 0 1 1 0 1 1 1 1 1 0 1 1 1 0 
352 20 4230 1 0 1 1 1 1 1 1 1 1 0 1 0 1 1 1 1 1 1 1 
353 20 4549 0 1 1 1 1 1 1 0 1 1 1 1 1 1 1 1 1 0 1 1 
354 20 4994 0 0 1 1 0 1 1 1 1 1 1 1 1 1 1 1 1 1 1 1 
355 20 4006 1 1 1 0 0 1 1 1 0 1 1 1 1 1 1 1 1 1 1 1 
356 20 3989 1 1 1 1 0 1 1 1 1 1 1 0 1 1 1 1 1 1 1 1 
357 20 4419 1 1 1 1 1 1 1 1 0 1 1 0 0 1 0 1 1 0 1 1 
358 20 5847 1 1 1 1 1 1 1 0 0 1 1 1 1 1 1 0 1 1 1 1 
359 20 3908 1 0 0 1 1 1 0 1 1 1 1 0 0 1 1 1 1 1 1 1 
360 20 4782 1 1 1 1 0 1 0 0 1 1 1 1 1 1 1 0 1 1 1 1 
361 20 4242 1 1 1 1 1 1 0 1 0 1 0 1 1 1 1 1 1 1 0 1 
362 20 5829 1 1 1 1 1 0 1 1 1 1 0 1 1 1 1 1 1 0 1 1 
363 20 5084 1 1 1 1 1 0 1 1 1 0 1 0 1 1 1 1 1 1 1 1 
364 20 4442 0 1 1 1 1 1 1 1 1 1 1 1 1 1 1 1 0 1 0 1 
365 20 5067 0 1 1 1 1 1 1 0 1 1 0 1 1 1 1 1 1 1 1 1 
366 20 5331 1 1 1 1 0 1 1 1 1 1 1 1 1 1 1 1 0 1 0 0 
367 20 4149 0 1 1 1 1 1 1 1 1 1 1 1 0 1 1 0 1 1 1 1 
368 20 3995 0 0 1 0 1 1 1 1 1 1 1 1 1 1 1 1 1 1 1 0 
369 20 5206 1 1 1 1 1 0 1 1 0 1 1 1 0 1 1 1 1 1 1 1 
370 20 5009 1 1 1 1 1 1 1 1 1 1 1 1 0 1 1 1 1 0 1 0 
371 20 4626 1 0 1 1 1 1 1 1 1 1 1 1 1 0 1 1 1 1 1 1 
372 20 5432 1 1 1 0 1 1 0 1 1 1 1 1 1 1 1 0 1 1 1 0 
373 20 4855 1 0 1 1 1 1 1 1 1 1 1 1 0 1 1 1 1 1 1 0 
374 20 5062 1 1 1 0 1 1 1 0 1 1 1 1 1 1 1 1 1 0 1 1 
375 20 4894 1 1 1 1 1 1 1 1 1 1 0 1 1 0 1 1 0 1 1 1 
376 20 5108 1 0 1 1 1 1 1 1 1 1 1 1 1 1 1 0 1 1 1 0 
377 20 4678 1 1 1 1 1 0 1 1 1 1 1 1 1 1 0 0 1 1 1 1 
378 20 5414 1 1 1 1 1 1 1 1 1 0 1 1 1 0 1 0 1 1 1 1 
379 20 5492 1 1 0 1 1 1 1 0 1 1 1 1 1 1 1 1 1 0 1 0 
380 20 5015 1 0 1 1 0 1 1 1 1 0 1 1 1 1 1 1 1 1 1 1 
381 20 5174 1 1 1 1 1 1 1 1 1 0 1 1 0 1 1 1 1 1 1 1 
382 20 5279 1 1 1 1 1 1 0 0 1 0 1 1 1 1 1 1 1 1 1 1 
383 20 4457 1 1 1 0 1 1 0 1 1 0 1 1 1 1 0 1 1 1 1 1 
384 20 3977 1 1 1 1 1 1 0 1 1 1 1 1 1 1 0 1 0 1 1 1 
385 20 5101 1 1 1 1 1 1 1 1 1 1 0 1 1 1 1 1 1 0 1 1 
386 20 3420 1 1 1 1 1 1 1 1 1 1 1 1 0 1 0 1 1 1 0 0 
387 20 5694 1 1 0 0 1 1 1 1 1 1 1 0 1 1 1 1 1 1 1 1 
388 20 4517 1 0 1 0 0 0 1 0 1 1 1 1 1 1 1 1 1 1 1 1 
389 20 5045 1 0 1 1 1 1 1 1 1 1 1 0 1 1 0 1 1 1 1 1 
390 20 4509 0 0 1 1 1 1 1 1 0 1 1 1 1 1 1 1 1 0 1 1 
391 20 4085 0 1 1 1 1 1 1 1 1 0 1 1 1 1 0 1 1 1 1 1 
392 20 5839 1 0 0 1 1 1 1 1 0 1 1 1 1 1 1 1 1 1 0 1 
393 20 4827 1 1 1 1 1 0 0 0 1 0 1 1 1 1 1 1 1 1 1 1 
394 20 4704 1 1 1 1 1 1 0 1 1 1 1 1 1 1 0 0 1 1 1 1 
395 20 5219 1 1 1 0 1 1 1 1 1 1 1 1 1 0 1 1 1 1 1 1 
396 20 5125 1 1 1 1 0 1 1 0 1 1 0 1 1 1 1 1 1 1 1 1 
397 20 4893 0 1 1 1 1 0 1 1 1 1 1 1 1 0 1 1 1 1 0 1 
398 20 4446 1 1 1 1 1 0 1 1 0 1 1 1 1 0 1 1 1 1 1 1 
399 20 4627 1 0 1 1 1 1 1 1 1 1 0 1 0 1 1 1 1 1 1 1 
400 20 4864 1 0 0 0 1 1 1 1 1 1 1 1 1 1 1 1 1 1 1 1 
401 20 4826 1 1 1 1 1 0 1 1 0 1 1 0 1 1 1 1 1 0 1 1 
402 20 4251 1 1 1 1 1 1 1 1 0 1 1 1 1 1 1 0 0 1 1 1 
403 20 5560 0 1 1 1 1 1 1 1 1 1 0 1 1 1 1 1 1 1 1 1 
404 20 5131 1 1 1 1 1 1 1 1 1 1 1 0 1 1 1 1 1 1 1 0 
405 20 4650 1 1 1 1 0 1 1 1 0 1 1 1 1 1 1 0 1 1 1 1 
406 20 5187 1 0 1 1 0 1 1 1 1 1 1 1 1 1 1 0 1 1 0 1 
407 20 5743 1 1 1 1 0 1 1 0 1 1 1 1 1 1 1 0 1 1 1 1 
408 20 3797 1 0 1 0 1 1 1 1 1 1 1 1 1 0 0 1 1 1 1 1 
409 20 4973 1 1 1 1 0 1 0 1 1 1 1 1 1 1 1 1 0 1 1 1 
410 20 5349 0 1 1 0 0 1 1 1 1 1 1 1 1 1 1 1 0 1 1 1 
411 20 4522 1 1 1 1 1 1 1 1 1 1 1 1 0 1 1 1 0 1 0 1 
412 20 6237 1 1 1 0 1 1 1 1 1 1 1 1 1 0 1 1 1 0 1 1 
413 20 4601 1 1 1 1 1 1 1 0 1 1 1 1 1 1 1 1 1 1 0 0 
414 20 4590 0 1 1 1 1 1 1 0 1 0 1 1 1 1 1 1 1 1 1 1 
415 20 4444 0 1 1 1 1 1 1 1 0 1 0 1 1 1 1 1 1 1 0 1 
416 20 4484 1 1 1 0 1 1 1 0 1 1 1 1 1 1 1 0 1 1 1 1 
417 20 4719 1 0 0 0 1 1 1 1 1 1 1 1 1 1 1 1 1 1 1 1 
418 20 4693 1 1 1 1 0 1 0 1 0 1 1 0 1 1 1 1 1 1 1 1 
419 20 5168 1 1 1 1 1 1 1 1 0 1 1 1 1 1 1 1 0 1 1 0 
420 20 4543 1 1 1 1 1 1 1 1 1 1 0 1 1 0 1 1 1 1 1 0 
421 20 5354 1 1 1 1 1 0 1 1 1 1 0 1 1 1 1 1 1 0 1 1 
422 20 3822 1 1 1 1 1 1 1 1 1 0 1 0 1 1 1 1 1 0 1 1 
423 20 4657 1 1 1 1 1 1 1 1 1 0 1 1 1 1 1 1 0 1 1 1 
424 20 4810 1 1 1 0 1 1 0 0 1 1 1 1 1 1 1 1 1 1 1 1 
425 20 4350 1 1 1 1 1 1 0 1 1 1 1 1 1 0 1 1 1 1 1 0 
426 20 5310 1 1 1 1 1 1 1 0 1 1 1 1 1 1 0 1 0 1 1 1 
427 20 5108 1 1 1 1 0 1 1 1 1 1 1 0 1 1 1 1 1 1 0 1 
428 20 4691 0 0 1 1 1 1 1 1 1 1 1 1 1 1 1 1 1 0 1 0 
429 20 4958 1 1 1 1 1 1 1 0 1 1 1 1 1 0 1 1 0 1 0 1 
430 20 4142 1 1 1 1 1 1 1 1 1 1 0 1 1 1 0 1 1 0 1 1 
431 20 5007 1 1 1 1 1 1 0 1 1 1 1 1 1 1 1 1 1 0 1 0 
432 20 4630 1 1 1 0 0 1 1 1 1 1 1 1 1 1 1 1 1 0 1 1 
433 20 4148 1 1 1 0 1 1 1 1 0 1 1 1 1 1 1 1 0 1 1 1 
434 20 4234 1 1 1 1 1 0 1 1 1 0 1 1 1 1 1 1 1 1 1 0 
435 20 4801 1 1 1 0 1 1 1 1 1 1 1 1 1 1 1 0 0 1 1 1 
436 20 5074 1 0 0 1 1 1 1 1 1 1 1 1 1 1 1 0 1 1 1 1 
437 20 5416 0 1 1 1 0 1 1 1 1 1 1 1 1 0 1 1 1 0 1 1 
438 20 4605 1 1 0 1 1 1 0 1 1 1 1 1 0 1 1 1 1 1 1 1 
439 20 4618 1 1 0 1 1 1 1 0 1 1 1 1 1 1 1 1 1 1 1 1 
440 20 4612 1 1 1 1 1 1 1 1 1 1 0 1 1 0 1 1 1 1 1 0 
441 20 4137 1 1 1 1 1 0 1 1 1 1 1 0 1 1 0 1 1 1 0 1 
442 20 5521 1 1 1 1 1 1 0 1 1 0 1 1 1 1 1 1 1 0 1 1 
443 20 4669 1 0 0 1 1 1 1 0 1 1 1 1 1 1 1 0 1 1 1 1 
444 20 3522 1 1 1 0 1 1 1 0 1 1 1 1 1 0 1 1 1 1 1 1 
445 20 4313 1 1 1 1 1 1 1 1 1 1 1 0 1 1 1 1 1 0 0 1 
446 20 4843 1 1 0 1 0 1 1 1 1 1 1 0 1 1 1 1 1 1 1 1 
447 20 4878 0 0 1 1 1 1 1 1 1 1 1 1 1 1 1 1 1 1 1 1 
448 20 4745 1 1 1 1 0 1 1 1 1 0 1 0 1 1 1 1 1 1 1 1 
449 20 4409 1 1 1 0 1 1 1 1 1 1 0 1 1 1 1 1 0 1 1 1 
450 20 5607 0 1 1 1 0 1 1 1 1 1 1 1 1 1 1 1 0 1 1 1 
451 20 3267 1 1 1 1 1 1 1 1 1 1 1 1 1 0 1 1 0 1 0 1 
452 20 5298 1 1 1 1 1 1 1 1 1 0 0 1 0 1 0 1 1 1 1 1 
453 20 4496 1 1 1 0 1 0 1 1 1 1 1 1 1 1 1 1 0 1 1 1 
454 20 3989 1 1 1 0 1 1 1 1 0 1 1 1 1 1 1 1 0 1 1 1 
455 20 5460 0 1 1 1 1 1 1 1 1 0 1 1 1 1 1 1 1 1 0 1 
456 20 4962 0 1 0 1 1 1 1 1 0 1 1 1 1 0 1 1 1 1 1 1 
457 20 3640 1 1 0 1 1 1 1 1 1 1 0 1 1 1 1 1 1 1 1 1 
458 20 4754 0 1 1 1 1 1 1 1 1 1 1 1 1 1 0 0 1 1 1 1 
459 20 5233 1 1 1 1 0 1 0 1 1 1 1 1 1 1 1 1 1 1 1 0 
460 20 4932 1 1 1 1 1 1 1 1 1 1 1 1 1 1 1 0 0 1 1 1 
461 20 3917 0 1 1 1 1 1 1 1 1 1 1 1 1 1 0 1 0 1 1 1 
462 20 5713 1 1 0 1 1 1 1 1 1 1 1 1 0 1 1 1 1 1 1 0 
463 20 5172 1 1 1 1 0 1 1 1 0 1 1 1 1 1 1 0 1 1 1 0 
464 20 5263 1 1 1 0 1 1 1 1 1 0 1 1 1 1 1 0 1 1 1 1 
465 20 4886 1 1 1 1 0 1 1 1 1 1 1 0 1 1 1 1 1 1 1 1 
466 20 5548 1 1 1 1 1 0 1 1 1 1 1 1 1 1 1 1 1 0 1 0 
467 20 4627 1 1 1 0 0 1 1 1 0 1 1 1 1 1 1 0 1 1 1 1 
468 20 4198 1 1 1 0 1 1 1 1 1 1 1 1 1 1 1 0 1 1 1 1 
469 20 4781 1 1 0 1 1 1 1 1 1 1 1 0 1 0 0 1 1 1 1 1 
470 20 4634 1 1 1 1 1 1 1 1 1 0 1 0 1 1 0 1 1 1 1 1 
471 20 3012 0 0 1 1 1 1 1 1 1 1 1 1 1 0 1 1 1 1 1 1 
472 20 4763 1 0 1 1 1 1 0 0 1 1 1 1 1 1 1 0 1 1 1 1 
473 20 5214 1 1 1 1 1 0 1 1 1 0 0 1 1 1 1 1 1 0 1 1 
474 20 4852 1 1 1 1 1 1 1 1 1 1 0 1 0 0 1 1 1 1 1 1 
475 20 4047 1 1 1 1 1 1 0 1 1 1 1 1 0 1 1 0 1 1 1 1 
476 20 4914 0 1 1 1 1 1 1 1 0 0 1 1 1 1 1 1 1 1 1 1 
477 20 4969 0 1 1 1 1 1 1 1 1 1 0 1 1 1 1 1 0 1 1 1 
478 20 5170 1 1 1 1 1 0 1 1 1 1 0 1 1 1 1 0 1 0 1 1 
479 20 5626 1 1 1 0 1 1 1 1 1 1 1 1 0 1 0 1 1 1 1 1 
480 20 5457 1 1 1 1 1 1 0 1 1 1 1 1 0 1 1 0 0 1 1 1 
481 20 4717 0 1 0 1 1 1 1 1 1 1 1 1 1 0 1 1 1 1 1 1 
482 20 4748 1 1 1 1 1 1 1 0 1 1 1 1 0 0 1 1 1 1 1 1 
483 20 5194 1 1 0 1 1 1 1 0 1 1 1 1 1 1 1 1 1 1 1 1 
484 20 4913 1 1 1 1 1 1 1 1 1 0 1 1 1 1 1 1 0 1 1 1 
485 20 5609 1 1 1 1 1 0 1 1 1 1 0 1 1 1 1 1 1 1 0 1 
486 20 3931 1 1 0 1 1 1 1 0 0 0 1 1 1 1 1 1 1 1 1 1 
487 20 5279 1 1 0 1 1 1 0 1 0 1 1 1 1 1 1 1 1 1 1 1 
488 20 4303 1 1 1 1 1 1 0 1 0 1 1 1 0 1 1 1 1 1 0 1 
489 20 5150 0 1 1 0 1 0 1 1 1 1 1 1 1 1 1 0 1 1 1 1 
490 20 4477 1 1 1 0 1 1 1 0 1 1 1 1 1 1 1 1 0 1 1 1 
491 20 5375 1 1 1 1 1 1 1 1 1 1 1 1 1 0 1 0 0 1 1 1 
492 20 3698 0 1 1 1 1 1 1 1 1 1 1 1 1 1 1 0 0 0 1 1 
493 20 4539 1 1 1 1 1 1 0 1 0 1 1 1 1 1 0 1 1 1 1 0 
494 20 5440 0 1 1 1 1 0 1 1 1 1 1 1 1 1 1 1 1 1 0 1 
495 20 4675 1 1 0 1 1 1 1 1 1 1 1 1 1 1 0 1 0 1 1 1 
496 20 4731 1 1 1 1 1 1 1 1 1 0 1 1 1 1 1 1 1 1 1 0 
497 20 3545 1 1 0 1 1 1 1 1 1 1 1 0 1 1 1 1 1 1 0 1 
498 20 5211 1 1 1 0 0 1 1 1 1 1 1 1 1 1 1 1 1 1 1 1 
499 20 4956 1 0 1 1 1 1 1 1 1 1 1 0 1 1 1 0 1 1 1 1 
500 20 4449 1 1 1 0 1 1 1 1 1 0 1 1 1 1 1 1 1 0 1 1 
