1 20 4510 0 1 1 1 1 0 1 1 1 1 1 1 1 1 0 1 1 1 1 1 
2 20 5612 1 1 1 1 0 0 1 1 1 1 0 1 0 1 1 1 1 1 1 1 
3 20 5680 1 0 1 0 0 1 1 1 1 1 1 1 1 1 1 1 1 1 1 1 
4 20 4411 1 1 1 1 0 1 1 1 1 1 1 1 1 1 1 1 0 1 1 1 
5 20 4044 1 1 1 1 1 1 1 1 1 1 1 1 0 1 1 0 1 1 1 1 
6 20 4958 0 1 1 0 1 1 1 1 1 1 1 1 1 1 0 1 1 1 1 0 
7 20 5137 1 1 1 1 1 1 1 1 1 1 1 1 1 0 1 1 1 0 1 0 
8 20 3602 1 1 0 1 1 1 1 1 1 1 1 1 1 1 1 0 1 0 1 1 
9 20 5287 1 1 1 1 1 1 1 1 1 1 0 1 0 1 1 1 1 1 1 1 
10 20 5987 1 1 1 1 1 1 1 1 1 0 1 1 0 1 1 0 1 1 1 1 
11 20 5506 1 1 0 1 1 1 1 1 1 1 0 1 1 1 1 0 0 1 1 1 
12 20 4784 0 1 1 1 1 1 1 1 1 1 1 0 0 1 1 1 1 1 1 0 
13 20 4486 1 0 1 1 0 1 1 1 1 1 1 0 1 1 1 1 1 0 1 1 
14 20 3880 1 0 1 1 1 1 1 1 1 1 1 1 0 0 1 1 1 1 1 1 
15 20 4140 0 1 1 1 1 1 1 1 1 1 1 1 1 1 0 1 1 1 1 1 
16 20 3317 1 1 0 1 1 1 1 1 1 1 1 1 0 1 1 1 1 0 1 1 
17 20 4637 1 1 0 1 0 1 1 1 0 1 1 1 0 1 1 1 1 1 1 1 
18 20 4201 1 1 1 1 1 1 1 1 1 1 1 1 0 1 0 1 1 1 1 0 
19 20 4825 1 1 1 1 1 0 1 1 1 0 1 1 1 0 1 1 1 1 1 1 
20 20 4294 1 1 0 0 1 1 1 0 1 1 1 1 1 1 1 1 1 1 1 1 
21 20 4624 1 1 0 1 1 0 1 1 1 1 1 1 1 1 0 1 1 1 0 1 
22 20 5164 1 1 1 1 1 1 1 1 1 1 0 1 1 1 1 1 1 0 0 1 
23 20 4856 1 1 1 1 1 0 1 1 1 1 1 1 1 1 1 1 1 0 1 1 
24 20 4987 1 1 1 1 1 1 1 0 1 1 1 1 0 1 0 1 1 1 1 0 
25 20 4830 1 1 1 1 1 0 1 1 1 0 1 1 1 1 1 1 1 1 1 1 
26 20 4853 0 1 0 1 1 1 1 1 0 1 1 1 1 1 1 1 1 1 1 1 
27 20 4835 1 1 1 1 1 1 1 1 1 1 1 1 1 0 1 1 1 1 0 1 
28 20 5264 1 1 1 1 1 1 1 1 1 1 1 0 0 0 1 1 1 1 1 1 
29 20 4193 1 1 1 0 1 1 1 1 1 1 1 1 1 0 1 1 0 1 1 1 
30 20 4192 0 1 1 1 0 1 1 1 1 1 1 1 1 1 1 1 0 1 1 1 
31 20 4740 1 1 1 1 1 1 1 0 1 1 1 1 1 0 1 1 1 1 1 1 
32 20 5027 1 1 0 1 1 1 1 1 1 0 1 0 0 1 1 1 1 1 1 1 
33 20 4798 1 1 1 1 1 1 1 1 1 1 1 1 1 1 1 1 0 1 1 0 
34 20 4550 1 1 1 1 1 0 1 1 1 1 1 1 1 1 0 1 1 1 0 1 
35 20 4069 1 1 1 0 1 1 1 1 1 1 1 0 1 1 1 1 1 0 1 1 
36 20 4019 1 1 0 1 1 1 1 1 1 1 1 0 1 1 1 1 1 1 1 1 
37 20 5367 1 1 1 0 1 1 1 1 1 1 1 1 1 1 1 0 1 1 1 1 
38 20 4819 0 0 1 1 1 1 1 1 1 1 1 0 1 1 1 1 1 1 0 1 
39 20 4030 1 1 1 1 1 0 0 1 1 1 1 1 0 0 1 1 0 1 1 1 
40 20 4521 1 1 1 1 1 1 1 1 1 1 0 1 0 1 1 1 1 1 1 1 
41 20 4978 1 1 1 1 0 1 1 0 1 1 1 1 1 1 1 1 1 1 1 1 
42 20 5111 1 1 1 1 1 1 1 1 0 1 1 1 1 1 1 0 1 1 1 1 
43 20 4474 1 1 1 1 0 1 1 1 1 1 1 1 1 1 0 1 1 1 1 1 
44 20 5408 1 0 1 1 1 1 1 1 1 1 1 1 1 1 1 1 0 1 1 1 
45 20 4521 1 1 1 1 1 1 1 1 1 1 1 1 0 1 1 1 0 1 1 1 
46 20 5149 1 1 1 1 1 1 1 1 1 1 1 1 0 1 1 1 1 1 0 1 
47 20 4594 1 1 1 1 1 1 0 1 1 1 1 1 1 1 1 1 0 1 1 1 
48 20 4523 0 1 1 1 1 1 1 1 1 1 1 1 0 1 1 1 1 1 1 1 
49 20 5104 1 0 1 0 1 1 1 1 1 1 0 1 1 1 1 1 1 1 1 1 
50 20 4866 1 0 1 1 1 1 1 1 1 1 1 1 1 1 0 1 1 1 1 1 
51 20 4865 1 1 1 1 1 1 1 1 1 0 1 0 0 1 1 1 1 1 1 1 
52 20 4235 1 1 1 1 0 1 1 1 1 1 1 1 0 1 1 1 0 1 1 1 
53 20 5811 1 1 0 0 1 1 1 0 1 1 1 1 1 1 1 1 1 1 1 1 
54 20 5620 1 1 0 1 1 1 1 1 1 1 1 0 1 0 1 1 1 1 1 1 
55 20 4426 1 0 1 1 0 1 0 1 1 1 0 1 1 1 1 1 1 1 1 1 
56 20 3723 1 0 1 1 1 1 1 1 1 1 1 1 0 1 1 0 0 1 1 1 
57 20 5308 1 1 1 1 1 1 1 1 1 1 1 1 0 1 1 1 0 1 1 0 
58 20 4315 1 1 0 0 0 1 1 0 1 1 1 1 1 1 0 1 1 1 1 1 
59 20 3914 1 1 1 1 1 1 1 1 1 0 1 1 1 1 1 1 1 1 0 1 
60 20 5872 0 1 1 1 1 1 1 1 1 0 1 1 1 1 1 1 0 1 1 1 
61 20 4904 1 1 1 1 1 1 0 1 1 1 1 1 1 1 0 1 1 1 0 0 
62 20 2696 0 1 1 1 1 1 1 1 0 1 1 1 0 1 1 1 1 1 1 0 
63 20 5162 1 1 1 1 1 1 1 1 1 1 0 1 1 0 1 1 1 1 1 1 
64 20 4797 1 1 1 1 1 0 1 1 1 0 1 1 1 1 1 1 0 1 0 1 
65 20 4909 1 1 1 1 1 1 0 1 0 0 1 1 0 1 1 1 1 1 1 1 
66 20 3891 1 1 1 0 1 1 1 1 1 1 1 1 1 1 1 1 1 1 0 0 
67 20 4012 0 1 0 1 1 1 1 1 1 1 1 1 0 0 1 1 1 1 1 1 
68 20 4593 1 1 1 1 1 1 1 1 1 1 1 1 1 1 1 1 1 0 0 1 
69 20 4789 0 1 1 1 1 1 1 1 1 1 1 1 1 1 1 1 1 0 1 1 
70 20 5344 1 1 0 1 1 1 1 1 1 1 1 1 1 0 1 1 1 1 1 1 
71 20 3593 1 1 1 1 0 0 1 0 1 1 1 1 1 1 1 1 1 1 1 1 
72 20 4721 1 1 1 1 1 1 1 0 0 1 1 1 1 1 1 0 1 1 1 1 
73 20 5931 1 1 1 1 1 1 1 0 1 1 1 1 1 1 0 1 1 1 1 1 
74 20 5373 1 1 1 1 1 1 0 1 1 0 1 1 1 1 1 1 1 1 1 1 
75 20 5887 1 1 1 1 1 1 1 1 1 0 0 1 1 0 1 1 1 1 1 1 
76 20 5392 1 1 0 1 1 1 1 1 0 1 1 1 1 1 1 1 1 1 1 0 
77 20 3657 1 1 1 1 1 1 1 0 1 1 1 1 1 1 0 0 1 1 1 1 
78 20 4156 1 1 1 1 0 1 1 1 1 1 1 1 1 1 0 1 1 1 1 1 
79 20 5163 1 1 1 1 1 1 1 1 1 1 1 1 1 1 0 0 0 1 1 1 
80 20 4709 0 1 1 1 1 1 0 1 1 1 1 1 1 1 1 1 1 1 1 0 
81 20 4698 1 1 1 1 1 0 1 1 1 1 1 0 1 1 1 1 1 1 1 0 
82 20 4908 1 1 0 1 1 1 1 1 1 1 1 1 1 1 1 1 1 1 1 0 
83 20 4838 1 1 1 1 1 1 1 1 0 1 1 1 1 1 1 0 1 0 1 1 
84 20 4726 1 1 0 0 0 1 1 1 1 1 1 1 1 1 1 1 1 1 1 1 
85 20 5106 1 1 1 1 1 1 1 1 1 1 0 1 0 1 1 1 1 1 1 1 
86 20 3759 1 1 1 1 1 1 1 1 1 0 1 1 0 0 1 1 1 1 1 1 
87 20 5022 0 1 1 1 1 1 1 1 0 1 1 1 0 1 1 1 0 1 1 1 
88 20 5046 1 1 1 1 1 1 0 1 0 1 1 1 1 0 1 1 1 1 1 1 
89 20 3946 1 1 1 1 1 1 1 0 0 1 1 0 0 1 1 1 1 1 1 1 
90 20 4909 1 1 1 1 1 1 1 1 1 1 1 1 1 1 1 1 0 1 0 1 
91 20 5493 1 1 1 1 1 1 1 1 1 1 1 1 1 1 0 1 1 0 1 1 
92 20 4628 1 1 1 1 1 1 1 1 1 1 1 1 0 1 1 1 0 1 1 1 
93 20 5597 1 1 1 1 1 1 1 0 0 1 1 1 1 0 1 0 1 1 1 1 
94 20 4301 0 1 1 1 1 1 1 1 1 1 1 1 1 1 1 1 1 1 1 0 
95 20 4830 0 1 1 0 1 1 1 1 0 1 1 1 1 1 1 1 1 1 1 1 
96 20 4243 1 1 1 1 1 1 1 1 1 0 0 1 1 1 1 1 1 1 1 1 
97 20 3696 1 1 1 1 1 1 0 1 1 1 0 1 1 1 1 1 1 0 1 1 
98 20 4856 1 1 0 1 1 0 1 1 1 1 1 1 1 1 1 1 1 1 1 1 
99 20 4906 1 1 1 1 0 1 1 1 1 0 0 0 1 1 1 1 1 1 0 1 
100 20 4862 1 1 1 0 1 1 1 0 1 1 1 1 1 1 1 1 1 1 1 0 
101 20 5457 0 1 1 1 1 1 1 1 1 1 1 1 0 1 1 0 1 1 1 1 
102 20 4451 1 1 1 1 1 1 1 1 1 1 1 1 0 1 1 1 1 0 1 1 
103 20 4608 1 1 1 1 0 1 1 1 1 1 1 1 0 1 1 1 0 1 1 1 
104 20 4383 1 0 1 1 1 0 1 1 1 1 1 1 1 1 0 1 1 1 1 1 
105 20 4862 1 1 1 1 0 0 1 1 1 1 1 1 1 1 1 1 1 1 1 0 
106 20 5195 0 1 1 1 1 1 1 1 1 1 1 0 1 1 1 1 1 1 1 1 
107 20 4545 1 1 1 1 0 1 1 1 0 1 1 1 1 1 1 1 1 1 0 1 
108 20 4948 0 1 1 1 1 1 1 1 1 1 1 1 1 0 1 0 1 1 1 1 
109 20 5266 0 1 1 1 1 0 1 1 1 1 1 1 0 1 1 1 1 1 1 1 
110 20 3577 1 1 1 1 1 1 1 1 1 1 0 0 1 1 0 1 1 1 0 1 
111 20 5063 1 1 1 1 1 1 1 1 0 1 1 1 1 1 1 1 1 1 0 0 
112 20 6016 1 1 1 1 1 1 1 0 1 1 1 0 1 1 1 1 1 1 1 1 
113 20 4594 1 1 1 1 1 1 1 1 1 1 0 1 1 0 1 0 1 1 1 1 
114 20 4531 1 1 1 1 1 1 1 0 1 0 1 1 1 0 1 1 1 1 1 1 
115 20 4737 1 1 1 0 1 1 0 1 1 1 1 1 1 1 1 1 1 1 1 1 
116 20 4795 1 0 1 1 1 1 0 1 1 1 1 1 1 1 1 1 1 1 1 1 
117 20 4464 1 1 1 1 1 0 1 1 1 1 1 1 1 1 1 0 1 1 1 1 
118 20 4803 1 1 0 1 1 0 1 1 0 1 1 0 1 1 1 1 1 1 1 1 
119 20 4726 1 1 1 1 0 1 1 1 1 1 1 1 1 1 1 0 0 0 1 1 
120 20 4201 1 1 1 1 0 1 1 1 1 1 1 1 1 0 1 1 1 1 1 1 
121 20 4579 1 1 1 1 1 1 1 0 1 0 1 1 1 0 1 1 1 1 1 1 
122 20 4475 1 1 0 1 1 1 1 0 1 1 1 1 1 1 1 1 1 1 1 1 
123 20 5279 0 1 1 1 0 1 0 1 1 1 1 1 1 1 1 1 1 0 1 1 
124 20 4419 0 1 1 1 1 1 1 1 1 1 1 1 1 0 0 1 1 1 1 1 
125 20 6012 1 1 1 0 1 1 1 1 1 0 1 1 1 1 1 1 1 1 0 1 
126 20 4712 1 1 1 1 1 1 1 1 1 1 1 1 1 0 1 1 1 1 0 1 
127 20 5330 1 0 1 1 1 1 1 1 1 1 1 1 1 0 1 1 1 1 1 1 
128 20 4884 1 1 1 1 1 0 1 1 1 0 1 1 0 1 1 1 1 1 1 1 
129 20 4673 0 1 1 1 1 1 1 1 1 1 1 0 1 0 1 1 1 1 1 1 
130 20 4501 1 1 1 0 1 1 1 1 1 0 1 1 1 0 1 1 1 1 0 1 
131 20 5074 1 1 1 1 1 1 0 1 1 0 1 1 1 1 1 1 1 0 1 1 
132 20 4939 1 1 1 1 1 1 1 1 1 1 1 0 1 1 1 1 1 0 1 1 
133 20 4721 1 1 1 1 1 0 1 1 1 1 1 1 1 1 1 1 0 1 1 1 
134 20 4818 1 1 1 1 1 0 1 0 1 0 1 0 1 1 1 1 1 1 1 1 
135 20 4391 1 1 0 1 1 1 1 1 1 1 0 1 0 1 1 1 0 1 1 1 
136 20 5172 1 1 1 1 1 1 0 1 1 0 1 1 1 1 1 1 1 1 0 1 
137 20 4263 1 1 1 1 1 1 1 1 1 0 1 1 1 1 1 1 0 1 1 1 
138 20 5696 1 1 1 1 1 1 0 1 1 1 1 1 0 1 1 1 1 0 1 1 
139 20 5338 1 1 1 1 1 1 1 1 1 0 1 1 1 1 1 0 1 1 1 1 
140 20 5239 1 1 1 1 1 1 1 1 1 1 0 0 0 1 1 1 1 1 1 1 
141 20 4857 1 1 1 1 0 1 1 1 1 1 1 1 1 1 1 1 1 0 1 0 
142 20 4405 0 1 1 0 0 1 1 1 1 1 1 1 1 1 1 1 1 1 1 1 
143 20 6213 1 0 1 1 0 1 1 0 1 1 1 1 1 1 1 1 1 1 1 1 
144 20 4795 1 1 1 1 1 1 0 1 1 1 1 1 1 0 1 1 1 1 1 1 
145 20 5075 1 1 1 1 1 1 1 1 0 1 0 1 1 1 1 0 1 1 1 1 
146 20 4832 1 0 1 1 0 1 1 1 1 1 1 1 1 1 0 0 1 1 1 1 
147 20 4604 0 1 0 1 1 1 1 1 1 1 0 1 1 1 0 1 1 1 1 1 
148 20 6874 1 1 1 1 1 1 1 1 0 1 0 1 1 1 1 1 1 1 1 1 
149 20 4273 0 1 1 1 1 1 0 1 1 1 1 1 1 1 0 1 1 0 1 1 
150 20 3817 0 1 0 0 1 1 1 1 1 1 1 1 1 1 1 1 1 1 1 1 
151 20 5239 1 0 1 1 1 0 1 1 0 1 1 1 1 1 1 1 1 1 1 1 
152 20 4973 1 1 0 1 1 1 1 0 1 1 1 1 1 1 1 1 1 1 1 1 
153 20 3723 1 1 0 1 1 1 1 1 1 1 1 1 1 1 1 1 1 0 1 1 
154 20 4736 1 1 1 1 1 1 1 1 1 0 1 1 1 1 0 1 1 0 1 1 
155 20 3787 1 1 1 1 1 1 1 1 1 0 1 1 1 0 1 1 1 1 1 1 
156 20 3782 1 1 1 0 1 1 0 1 1 1 1 1 1 1 1 1 1 0 1 1 
157 20 4272 0 1 1 1 1 0 1 1 1 1 1 1 1 1 1 1 1 1 1 0 
158 20 4358 1 1 1 1 1 0 1 1 0 1 1 1 0 1 0 1 1 1 1 1 
159 20 5778 1 1 1 1 1 1 1 0 1 1 1 1 1 1 1 0 1 1 0 1 
160 20 5627 1 1 0 1 0 1 1 1 1 1 1 1 0 1 1 1 1 1 1 0 
161 20 4771 1 0 1 1 1 1 1 0 1 1 1 1 1 1 1 0 1 1 1 1 
162 20 4878 1 1 1 1 1 1 1 0 1 0 1 1 1 1 1 0 1 1 1 1 
163 20 4608 1 0 1 1 1 1 1 1 1 1 1 1 1 1 1 1 0 1 1 0 
164 20 5658 0 1 1 1 1 1 1 1 1 1 1 1 0 1 1 1 0 1 1 1 
165 20 4974 0 1 1 1 1 0 1 1 1 1 1 0 1 1 1 1 1 1 1 1 
166 20 4032 1 1 0 0 1 1 1 1 1 1 1 1 1 1 1 1 0 1 1 0 
167 20 4525 1 1 1 1 1 1 1 1 1 1 1 0 1 1 0 1 1 1 1 1 
168 20 4528 1 0 1 1 1 1 1 1 1 1 0 1 1 1 1 1 1 1 1 0 
169 20 4776 1 0 0 1 1 1 1 1 1 0 1 1 1 1 1 0 1 1 1 1 
170 20 5989 0 1 1 1 1 1 1 1 1 1 1 0 1 1 1 1 1 1 1 1 
171 20 5257 1 1 1 1 0 0 1 1 1 1 1 1 1 1 1 1 1 1 1 1 
172 20 5003 1 1 1 1 1 0 1 1 1 0 1 1 1 1 1 1 1 1 1 1 
173 20 5095 1 1 1 1 1 1 1 1 0 1 1 1 1 1 1 1 1 0 1 0 
174 20 4647 1 1 1 1 1 1 1 1 1 0 1 1 1 1 1 0 1 1 1 1 
175 20 5729 1 0 0 1 1 1 1 1 1 1 1 0 1 1 1 1 1 1 1 1 
176 20 4233 0 1 1 1 1 1 1 1 1 1 1 1 1 1 1 1 1 0 1 1 
177 20 4875 0 1 0 1 1 1 1 1 1 1 1 1 0 1 1 1 1 1 1 1 
178 20 5737 0 1 1 1 1 1 1 1 1 1 1 1 0 1 1 1 1 1 0 1 
179 20 4731 1 1 1 0 0 1 1 1 1 0 1 1 0 0 1 1 1 1 1 1 
180 20 5087 1 1 0 1 1 1 0 1 1 1 0 1 1 1 1 1 1 1 1 1 
181 20 4337 1 1 1 1 1 1 1 1 1 1 1 1 1 1 0 0 1 1 0 1 
182 20 5411 1 1 1 1 1 1 1 1 1 1 1 0 1 1 1 0 1 1 1 1 
183 20 5195 1 1 0 1 1 1 1 1 1 1 1 1 1 1 1 0 1 1 1 1 
184 20 4858 1 1 1 1 0 1 1 1 1 1 1 1 1 0 1 1 1 1 1 1 
185 20 5403 1 1 1 1 1 1 1 1 0 1 1 1 1 1 1 1 0 1 1 1 
186 20 4726 1 1 1 1 1 1 1 0 0 1 1 1 1 0 1 1 0 1 0 1 
187 20 4683 1 1 1 1 0 1 0 1 1 1 1 0 1 1 1 1 1 1 1 1 
188 20 4660 1 1 1 1 1 1 1 1 1 1 1 0 1 1 1 1 1 1 0 1 
189 20 5386 0 1 1 1 1 1 1 1 1 1 1 1 1 1 1 1 1 0 1 1 
190 20 4296 1 1 1 1 1 1 1 1 1 0 1 1 1 1 0 0 1 1 1 1 
191 20 3710 1 1 1 1 1 1 1 1 0 1 1 1 0 1 1 1 0 1 0 1 
192 20 5320 1 1 1 1 1 1 0 1 1 1 1 1 1 0 0 1 1 1 1 1 
193 20 4467 1 1 0 1 1 1 0 1 1 1 1 1 0 1 1 1 1 1 1 1 
194 20 4602 1 1 1 1 1 1 1 1 1 1 1 0 1 1 1 1 0 1 1 1 
195 20 5920 1 1 1 1 1 1 1 1 0 1 1 1 1 1 1 1 1 1 1 0 
196 20 5153 1 1 1 1 0 1 1 1 1 1 0 1 1 1 1 1 1 1 0 1 
197 20 4696 1 0 0 1 1 1 0 0 1 1 1 1 1 1 1 1 1 1 1 1 
198 20 4066 1 1 1 1 1 0 1 1 1 0 1 1 1 1 1 1 1 1 1 0 
199 20 4370 1 1 1 1 1 1 1 1 1 0 1 1 0 0 1 1 1 1 1 1 
200 20 4705 1 1 1 1 1 1 1 0 0 1 1 1 0 1 1 1 1 1 1 1 
201 20 3823 1 1 1 1 1 1 1 1 1 1 0 1 1 1 1 1 1 0 1 0 
202 20 5124 1 0 0 1 1 1 1 1 1 1 1 1 1 1 1 1 1 1 1 1 
203 20 5617 1 1 1 1 1 1 1 1 0 1 0 0 1 0 1 1 1 1 1 1 
204 20 4492 1 1 1 1 1 1 1 1 1 1 1 0 1 1 1 1 1 0 1 1 
205 20 3762 0 0 0 1 1 1 1 1 1 1 1 1 1 0 1 1 1 1 0 1 
206 20 4591 1 1 1 1 0 1 1 1 0 1 1 1 0 1 1 1 1 1 1 1 
207 20 5077 1 1 1 1 0 1 1 1 1 1 0 1 1 1 1 1 1 1 1 1 
208 20 2975 0 1 1 1 0 1 1 1 1 1 1 1 1 1 1 1 1 1 0 1 
209 20 4549 1 0 1 1 1 1 1 0 1 1 1 0 1 1 1 1 1 1 1 1 
210 20 4306 1 1 1 0 1 1 0 1 1 1 1 1 1 1 1 1 1 0 1 1 
211 20 5172 1 1 1 1 0 1 1 1 1 1 1 0 0 1 1 1 1 1 1 1 
212 20 5992 1 1 1 1 1 1 1 1 0 0 1 1 1 1 1 0 1 1 1 1 
213 20 5714 1 1 1 1 1 1 1 1 0 0 1 0 1 1 1 1 1 1 1 1 
214 20 4361 1 1 0 1 1 1 1 0 0 1 1 0 1 1 1 1 1 1 1 1 
215 20 5367 1 0 1 1 1 1 1 1 1 1 1 0 1 1 1 1 1 1 1 1 
216 20 3709 1 1 1 0 1 0 0 1 1 1 1 1 1 1 1 1 1 1 1 1 
217 20 5151 1 1 0 1 1 1 1 1 1 1 1 1 0 0 1 1 1 1 1 1 
218 20 3942 1 1 1 1 1 1 1 1 1 1 1 1 0 1 1 1 1 0 1 1 
219 20 5065 1 1 0 1 1 1 1 1 1 1 1 1 1 1 1 0 1 0 1 1 
220 20 5038 1 1 1 1 1 0 1 1 1 1 0 1 0 1 1 1 1 1 1 1 
221 20 5068 1 1 1 1 1 1 1 1 1 0 1 1 1 1 1 1 1 0 1 1 
222 20 4906 1 1 1 1 1 1 0 1 1 1 1 1 0 1 1 1 1 1 1 1 
223 20 4171 1 0 1 1 0 1 0 1 1 1 1 0 1 1 1 1 1 1 0 1 
224 20 4546 1 1 1 1 1 1 0 1 1 0 0 1 1 1 1 1 1 1 1 1 
225 20 3509 1 1 1 1 0 1 1 1 1 0 1 1 1 1 1 1 1 1 1 1 
226 20 3986 1 1 1 1 1 1 1 1 1 1 1 1 1 1 0 0 1 0 1 1 
227 20 4926 1 0 1 1 1 1 1 1 1 1 1 1 1 0 1 1 0 1 1 1 
228 20 4199 1 1 1 1 1 1 1 1 0 0 1 1 1 1 1 1 1 1 1 0 
229 20 4014 0 1 1 1 0 1 0 1 1 1 1 1 1 1 1 1 1 1 1 1 
230 20 5160 1 0 1 0 1 1 1 1 1 0 1 1 0 1 1 1 1 1 1 1 
231 20 4514 1 1 1 1 1 1 1 0 1 1 1 1 1 1 0 0 1 1 1 1 
232 20 3906 1 1 0 1 1 1 0 1 0 1 1 1 0 1 1 1 1 1 1 1 
233 20 4393 1 1 0 1 1 1 1 1 1 1 1 0 1 1 1 0 0 1 1 1 
234 20 4995 1 1 1 1 1 0 1 1 1 0 1 1 0 1 1 1 1 1 1 1 
235 20 4318 1 1 1 1 1 1 0 1 1 1 1 1 1 1 1 0 1 1 1 0 
236 20 5824 1 1 0 1 1 1 0 1 1 0 1 1 1 0 1 1 1 1 1 1 
237 20 4504 1 1 1 1 0 1 1 0 1 1 1 1 1 1 1 1 1 0 1 0 
238 20 4985 1 1 1 0 1 1 0 1 0 1 1 1 1 1 1 1 1 1 1 1 
239 20 5408 1 1 1 0 1 1 1 1 1 1 1 1 1 1 1 0 1 1 1 1 
240 20 5609 1 1 0 1 1 1 1 0 1 1 0 1 1 1 1 1 1 1 1 1 
241 20 4825 1 1 0 0 1 0 1 1 1 1 1 1 1 1 1 1 1 1 1 1 
242 20 4823 0 1 1 1 1 1 1 1 1 1 1 1 1 0 1 1 0 1 1 1 
243 20 4602 1 0 1 1 1 0 1 1 1 1 0 1 1 1 1 1 1 1 1 0 
244 20 4647 1 0 1 1 1 1 0 1 1 1 1 1 1 1 1 1 1 1 0 1 
245 20 4698 1 0 1 1 1 1 1 1 1 1 1 1 1 1 1 1 1 0 1 0 
246 20 5406 1 1 1 1 1 1 1 1 1 1 1 0 1 1 1 0 1 1 1 1 
247 20 4329 1 1 1 1 1 0 1 1 1 1 0 1 1 1 1 1 1 1 1 1 
248 20 4960 1 1 1 1 1 1 1 1 1 1 1 1 1 1 0 1 0 1 1 1 
249 20 3837 1 1 1 0 0 0 1 1 1 1 1 1 1 1 1 1 1 1 1 0 
250 20 4136 1 1 1 1 1 1 1 1 1 1 1 0 1 1 1 0 1 1 1 1 
251 20 6062 1 1 1 1 1 0 1 1 1 1 1 1 1 1 1 1 0 1 0 1 
252 20 4686 1 1 1 1 1 1 1 1 0 1 1 0 1 1 1 1 1 1 0 1 
253 20 4717 1 1 1 1 1 1 1 1 1 1 0 1 1 1 1 0 1 1 1 1 
254 20 4623 1 1 1 1 1 1 0 0 1 1 1 1 1 1 1 1 1 1 1 1 
255 20 4327 1 1 0 1 1 0 1 1 1 1 1 1 1 1 1 1 1 1 0 1 
256 20 4591 1 1 1 1 1 1 1 1 1 1 0 1 1 1 1 0 1 1 1 1 
257 20 5195 1 1 1 1 1 1 0 1 1 1 1 1 1 1 1 1 0 0 1 1 
258 20 5321 1 1 1 1 1 1 0 1 1 1 1 1 0 0 1 1 1 1 1 1 
259 20 4666 1 1 1 1 1 0 1 1 1 1 1 1 1 1 1 1 1 1 1 0 
260 20 4342 0 1 1 1 1 1 1 1 1 1 1 1 1 0 0 1 1 1 1 1 
261 20 4844 0 1 1 1 1 1 0 1 1 1 1 1 1 1 1 1 1 1 0 0 
262 20 5741 1 1 1 1 1 1 1 0 1 0 1 1 1 0 0 1 1 1 1 1 
263 20 4422 0 1 1 1 0 1 1 0 1 1 0 0 1 1 1 1 1 1 1 1 
264 20 4086 0 1 1 1 1 1 1 1 1 1 0 1 1 1 1 1 1 1 0 1 
265 20 5099 1 1 1 1 1 1 0 1 1 1 1 1 1 1 1 1 1 1 1 0 
266 20 5198 1 1 0 1 0 1 0 1 1 1 1 1 1 1 0 1 1 1 1 1 
267 20 5122 1 1 1 1 1 1 1 1 1 1 1 1 1 0 1 1 1 1 0 1 
268 20 4258 1 1 1 1 0 1 1 1 1 0 1 1 0 1 1 1 0 1 1 1 
269 20 4399 0 1 1 1 1 1 0 1 1 1 1 1 1 1 1 1 1 1 1 1 
270 20 5320 1 1 1 1 1 1 1 1 1 0 1 1 1 1 1 1 0 0 1 1 
271 20 5201 1 1 0 1 1 1 1 1 1 1 1 1 0 1 1 1 1 1 0 1 
272 20 4604 1 1 1 1 1 1 1 1 1 0 1 1 0 1 1 1 1 0 1 1 
273 20 5310 1 1 1 1 0 1 1 1 1 1 0 1 1 0 1 1 1 1 1 1 
274 20 4452 0 1 1 1 1 1 1 1 1 1 1 1 1 1 1 0 1 0 1 1 
275 20 5146 0 1 1 1 1 1 1 1 1 1 1 1 0 1 1 1 1 1 1 0 
276 20 4630 1 0 1 1 1 1 1 1 1 1 1 0 1 1 1 1 1 1 1 0 
277 20 4884 1 1 0 1 1 0 1 1 1 1 1 1 1 1 1 1 1 0 1 1 
278 20 5101 1 1 1 1 1 1 0 1 1 1 1 1 1 1 1 0 1 1 1 1 
279 20 4677 1 1 1 1 1 1 1 1 1 1 0 1 0 1 1 1 0 1 0 1 
280 20 4237 1 1 1 1 1 0 1 1 0 1 0 1 1 1 1 1 1 1 1 1 
281 20 4032 1 1 1 0 1 1 1 1 0 1 1 1 1 1 1 1 1 1 1 1 
282 20 3817 1 1 0 1 1 1 1 1 1 1 1 1 1 1 1 1 1 1 1 0 
283 20 4049 1 1 0 1 1 0 1 1 1 1 1 1 1 1 1 1 1 1 0 1 
284 20 4748 1 1 1 1 1 1 1 1 1 1 1 1 1 0 1 1 1 0 1 1 
285 20 4978 1 0 1 1 1 1 0 1 1 1 1 1 1 1 1 1 1 1 1 1 
286 20 5610 1 1 1 1 1 1 1 1 1 1 0 1 1 0 1 1 1 1 1 0 
287 20 4243 1 1 0 1 1 1 1 1 1 1 0 1 1 1 1 1 0 1 1 1 
288 20 3611 1 1 0 1 1 1 1 1 1 0 1 1 1 1 1 1 1 1 0 1 
289 20 5064 1 1 1 1 1 1 1 1 1 0 1 1 1 1 1 1 0 1 1 0 
290 20 5051 1 1 1 1 0 1 1 1 1 1 0 1 1 1 1 1 1 1 1 1 
291 20 5434 1 1 1 1 1 1 1 0 1 0 1 0 1 1 1 1 1 1 1 1 
292 20 4474 1 1 0 1 1 1 1 1 0 1 1 1 0 1 1 1 1 1 1 1 
293 20 4173 1 1 1 1 1 1 1 1 1 0 1 0 1 1 1 0 1 1 1 1 
294 20 5359 1 1 1 1 1 0 1 1 1 1 1 1 1 0 1 1 1 1 1 1 
295 20 5423 1 1 0 1 1 1 0 1 1 1 1 1 1 0 1 1 1 1 1 1 
296 20 4089 1 1 0 1 1 1 1 1 1 1 1 1 1 1 1 0 0 1 1 1 
297 20 4283 1 1 0 1 0 1 1 0 1 1 1 1 1 1 1 1 1 1 1 1 
298 20 4326 1 0 1 1 1 1 1 1 1 1 1 1 1 1 1 1 0 0 1 1 
299 20 4216 1 1 1 1 1 1 1 1 1 1 1 0 1 0 1 1 1 1 0 1 
300 20 5687 1 1 1 1 1 1 1 1 1 1 1 1 1 0 1 1 1 1 0 1 
301 20 5128 1 1 1 1 0 1 0 1 1 1 1 1 1 0 1 1 1 1 1 1 
302 20 5230 1 1 1 1 1 1 1 1 1 0 0 0 1 1 1 1 1 1 1 1 
303 20 5995 1 1 1 1 0 1 0 1 1 1 1 1 1 1 1 1 1 0 1 1 
304 20 5442 1 1 1 1 1 0 1 0 1 1 1 0 1 1 1 1 1 1 1 0 
305 20 4588 1 1 1 1 1 1 1 1 1 1 1 1 0 1 1 0 1 1 1 0 
306 20 4587 1 1 1 1 1 1 1 0 1 1 1 1 1 1 1 1 1 0 1 1 
307 20 6118 1 1 1 0 1 1 1 1 1 1 1 1 1 1 0 1 1 1 1 1 
308 20 5453 1 1 0 1 1 1 0 1 1 1 1 1 1 1 1 1 1 1 1 1 
309 20 5195 1 1 1 1 1 1 1 1 1 0 1 0 1 1 1 1 1 1 1 1 
310 20 3878 1 1 1 1 1 1 0 1 0 1 1 1 1 1 0 1 1 1 1 1 
311 20 4451 1 1 1 1 1 0 1 0 1 1 1 1 1 1 1 1 1 0 1 1 
312 20 5956 1 1 1 0 1 1 1 1 1 1 0 1 1 1 1 1 1 1 1 0 
313 20 4938 1 1 1 1 1 1 1 1 1 1 1 0 1 0 1 1 1 1 1 1 
314 20 5079 1 1 0 1 1 0 1 1 1 1 1 0 1 1 1 1 1 1 1 1 
315 20 4577 0 1 1 1 1 1 1 1 1 1 0 1 1 1 0 1 1 1 1 1 
316 20 4084 0 1 1 1 0 1 1 1 1 1 1 1 1 1 1 1 1 0 1 1 
317 20 4956 1 1 1 1 1 1 1 1 1 0 1 1 1 1 1 1 1 1 1 0 
318 20 4601 1 1 0 1 1 1 1 1 1 0 1 1 1 1 1 1 1 0 1 1 
319 20 4578 1 1 1 0 1 1 1 1 1 1 1 1 1 1 1 1 1 0 1 1 
320 20 4749 1 0 1 1 1 1 1 1 1 1 1 0 1 1 1 1 1 1 1 1 
321 20 5128 0 0 1 1 1 1 1 1 1 1 1 1 1 1 1 1 1 1 1 1 
322 20 4029 0 1 1 1 1 1 1 1 0 1 1 1 1 1 1 1 1 0 1 1 
323 20 4337 1 1 0 1 1 1 1 1 1 0 1 1 1 1 1 1 1 1 1 1 
324 20 4626 1 1 1 0 1 1 1 1 1 1 0 1 1 1 1 1 1 1 1 1 
325 20 5261 1 1 1 1 1 1 1 1 1 1 1 1 1 0 1 0 1 1 1 0 
326 20 5930 1 1 0 1 1 0 1 1 0 1 1 1 1 1 1 1 1 1 1 1 
327 20 4451 1 1 1 1 1 1 1 1 1 1 1 0 1 1 0 1 1 1 1 1 
328 20 5076 1 1 1 1 1 1 1 1 1 0 1 1 1 1 1 1 1 1 1 0 
329 20 5597 1 0 1 0 1 1 1 1 1 1 1 1 1 1 1 1 1 1 0 1 
330 20 5512 1 0 1 1 1 1 0 1 1 1 1 1 1 1 1 1 1 0 1 1 
331 20 4706 1 1 1 1 1 1 1 1 1 1 1 0 1 1 1 0 1 1 1 1 
332 20 5023 0 1 1 1 1 1 1 1 1 1 1 1 0 1 1 1 1 1 1 1 
333 20 4995 1 1 1 1 1 0 1 1 0 1 1 1 1 0 1 1 0 1 1 1 
334 20 4409 1 1 1 0 1 1 1 1 1 1 1 0 1 1 1 0 1 1 0 1 
335 20 3811 0 1 1 1 1 0 1 1 1 1 1 1 1 0 1 1 1 1 1 1 
336 20 4520 0 1 1 1 0 1 1 0 1 1 1 1 1 1 1 1 1 0 1 1 
337 20 5566 1 1 1 1 1 0 0 1 1 1 1 0 1 1 1 1 1 1 1 1 
338 20 5092 1 1 1 1 1 1 1 1 0 0 1 1 1 1 1 1 1 1 0 1 
339 20 5498 1 0 1 1 1 1 1 1 1 1 1 1 1 1 1 1 1 1 0 1 
340 20 4529 1 1 0 1 1 1 0 1 0 1 1 1 1 1 0 1 1 1 1 1 
341 20 4450 1 0 1 1 1 1 1 0 1 1 1 1 1 1 1 1 1 1 1 1 
342 20 3962 1 1 1 1 1 1 1 0 1 1 0 1 1 1 1 1 1 1 1 1 
343 20 3521 1 1 1 0 1 1 1 1 1 1 1 0 1 1 0 1 1 1 1 0 
344 20 4431 1 0 1 1 1 0 1 1 1 1 1 1 1 1 1 1 1 0 1 1 
345 20 5126 1 1 1 0 1 1 0 1 0 1 1 1 1 0 1 1 1 1 1 1 
346 20 5156 1 0 0 1 1 1 1 1 1 1 1 1 0 1 1 1 1 1 1 1 
347 20 5835 1 1 1 1 1 1 0 1 1 1 1 0 0 1 1 1 1 1 1 1 
348 20 4476 1 0 1 1 1 1 1 1 1 1 0 0 0 1 1 1 1 1 1 1 
349 20 3747 1 1 1 1 1 1 0 1 0 1 1 1 1 1 1 1 0 1 1 1 
350 20 5036 1 1 1 1 1 1 1 1 0 1 0 0 1 1 1 1 1 1 1 1 
351 20 5505 0 1 1 1 1 1 1 1 1 0 1 1 1 1 1 0 1 1 1 1 
352 20 4700 1 1 1 1 1 1 1 1 0 1 1 1 1 1 1 1 1 0 0 1 
353 20 3787 1 1 0 1 1 0 1 1 1 1 1 1 1 1 1 0 1 1 1 1 
354 20 3686 1 0 1 1 1 0 0 1 1 1 1 1 0 1 1 1 1 1 1 1 
355 20 5184 1 1 1 1 1 1 1 0 1 1 1 1 1 1 1 1 1 1 0 1 
356 20 5518 1 1 1 0 0 1 1 1 1 1 1 1 0 1 1 0 1 1 1 1 
357 20 4570 1 1 1 1 1 1 1 1 1 1 0 1 1 0 1 0 1 0 1 1 
358 20 4835 1 1 1 1 1 1 0 1 1 0 1 1 1 1 1 0 1 1 1 1 
359 20 5102 0 1 1 1 1 1 0 1 1 1 1 1 1 1 1 1 1 0 1 1 
360 20 4664 1 1 1 1 1 1 1 1 1 1 0 1 1 1 0 1 1 1 1 1 
361 20 5685 1 1 1 1 1 0 0 1 1 1 1 1 1 1 1 1 1 1 1 1 
362 20 5337 1 1 0 1 1 1 1 1 1 1 1 1 1 1 1 1 1 0 1 0 
363 20 4910 1 1 0 1 1 1 1 1 1 0 1 1 1 1 1 1 1 1 1 1 
364 20 5330 1 1 1 1 1 1 1 1 1 1 1 0 1 0 1 1 1 1 0 1 
365 20 5421 1 1 1 0 1 1 1 1 1 1 1 1 1 0 0 1 1 1 1 1 
366 20 5110 0 1 1 1 1 0 1 1 1 1 0 1 1 1 1 1 1 1 1 1 
367 20 3812 1 1 1 1 1 1 1 1 1 1 1 1 1 1 1 1 1 0 0 0 
368 20 5155 1 1 1 1 1 1 1 0 1 1 1 1 1 1 0 1 0 1 1 0 
369 20 4952 1 1 1 1 1 1 1 1 0 1 1 1 0 1 1 0 1 1 1 0 
370 20 4108 1 1 1 1 1 1 1 1 0 1 1 1 1 1 1 1 1 1 0 1 
371 20 4055 0 1 1 1 1 1 1 0 1 1 1 1 1 0 1 1 1 1 1 1 
372 20 4763 1 1 1 1 0 0 1 0 1 1 1 1 1 1 1 1 1 1 1 1 
373 20 6037 0 0 1 1 1 1 1 1 1 1 1 1 1 1 1 1 1 1 1 1 
374 20 4598 1 1 1 1 1 1 1 1 1 1 1 1 0 0 1 1 1 0 1 1 
375 20 4265 1 1 1 1 1 1 1 0 1 0 1 1 1 1 1 1 1 1 1 1 
376 20 4454 0 1 1 0 1 1 1 1 1 1 1 1 1 1 1 1 1 1 1 1 
377 20 5456 1 1 1 1 1 1 1 1 1 1 0 0 1 1 1 1 1 1 1 1 
378 20 5136 1 1 1 1 1 1 1 1 1 1 0 1 1 1 1 0 1 0 0 1 
379 20 4847 1 0 1 0 1 1 1 1 1 1 1 1 1 1 1 1 1 1 1 1 
380 20 5191 1 1 1 1 1 1 1 0 1 0 0 1 1 1 1 1 1 0 1 1 
381 20 4482 1 1 1 1 1 1 1 1 1 1 1 1 1 1 1 0 1 1 1 0 
382 20 4471 1 1 1 1 1 1 1 0 0 1 1 1 1 1 1 1 0 1 1 1 
383 20 4334 1 1 0 1 1 1 1 1 1 1 1 1 0 1 1 0 1 1 1 1 
384 20 4385 1 1 1 0 1 1 1 1 1 1 1 1 1 0 1 1 1 0 1 1 
385 20 5108 1 1 0 1 1 1 1 1 1 1 1 1 1 0 1 1 1 0 1 1 
386 20 5943 1 1 0 1 1 1 1 0 1 1 1 1 1 1 1 1 1 1 0 1 
387 20 5472 1 1 0 1 1 1 1 1 1 1 0 1 1 1 1 1 1 1 1 1 
388 20 5554 1 1 1 1 1 1 1 1 1 0 1 1 1 1 1 0 1 1 0 1 
389 20 3861 1 1 1 1 1 1 1 1 0 0 1 1 1 1 1 1 1 1 1 1 
390 20 4823 0 1 1 1 1 1 0 1 1 1 1 1 1 1 1 1 1 0 1 1 
391 20 4865 1 1 1 1 1 1 1 1 1 1 1 0 1 1 1 1 1 1 0 1 
392 20 5214 1 1 1 1 1 1 0 1 0 1 1 1 1 1 1 1 1 1 1 1 
393 20 5178 1 0 1 1 1 1 1 1 1 1 1 1 1 1 1 1 0 0 1 0 
394 20 4526 0 1 1 1 1 1 1 1 1 0 0 1 1 1 1 1 1 1 1 1 
395 20 5137 1 0 1 1 1 1 1 0 1 1 1 1 1 1 1 1 0 1 1 1 
396 20 5135 1 1 1 0 1 1 1 1 1 1 1 1 1 1 0 1 0 1 1 1 
397 20 6236 1 1 1 1 1 1 1 1 1 0 1 1 1 1 1 0 1 1 1 1 
398 20 5137 1 1 1 1 1 1 0 1 1 1 1 1 1 1 1 1 0 1 1 1 
399 20 3872 0 1 1 1 1 1 1 1 1 1 1 0 1 1 1 1 1 1 1 0 
400 20 6371 1 0 1 1 1 1 1 1 1 0 0 1 1 0 1 1 1 1 1 1 
401 20 5202 1 1 1 1 0 1 1 1 1 0 1 1 1 1 0 1 1 1 1 1 
402 20 6202 1 0 1 1 1 1 1 1 1 1 1 1 1 1 1 1 0 1 0 1 
403 20 4686 0 1 1 1 1 1 1 1 1 1 1 1 1 0 1 1 0 0 1 1 
404 20 4846 1 1 1 0 1 1 0 1 1 1 1 1 0 1 1 1 1 1 1 1 
405 20 4513 1 1 1 1 1 1 1 1 1 0 1 1 0 1 1 1 1 1 1 1 
406 20 4942 0 1 1 1 0 1 1 1 1 1 1 1 0 1 1 1 1 1 1 1 
407 20 4706 1 1 1 1 1 0 0 1 0 1 1 1 1 1 1 1 1 1 0 1 
408 20 4753 1 1 1 1 1 1 1 1 1 1 1 1 0 0 1 1 1 1 0 1 
409 20 5516 1 1 1 1 1 1 1 1 1 1 1 1 1 1 1 1 0 1 0 0 
410 20 4789 1 1 1 1 0 1 1 0 1 1 1 1 1 1 1 1 0 1 1 1 
411 20 4734 1 1 1 1 1 1 1 1 1 1 0 1 1 1 1 1 1 0 1 1 
412 20 5314 0 1 1 1 1 1 1 1 1 1 1 1 1 0 1 1 1 1 1 0 
413 20 4670 1 1 1 1 1 1 0 1 0 1 0 1 1 1 1 1 1 1 1 1 
414 20 5572 1 1 1 1 1 1 1 1 1 1 1 0 1 0 1 1 1 0 1 0 
415 20 4221 1 1 0 0 1 0 1 1 1 0 1 1 1 1 1 1 1 1 1 1 
416 20 5463 1 1 0 1 1 1 1 1 1 1 1 1 1 1 1 0 1 1 1 1 
417 20 4317 0 1 1 1 1 1 1 1 0 1 1 1 1 1 1 1 1 1 0 0 
418 20 4882 0 1 1 1 1 0 1 1 1 1 1 1 1 1 1 1 1 1 1 0 
419 20 4669 1 1 1 1 1 1 1 0 0 1 0 0 1 1 1 1 1 1 1 1 
420 20 4255 1 1 0 1 1 0 1 1 1 1 1 1 1 1 0 1 1 1 1 0 
421 20 4298 1 1 1 1 1 1 0 1 1 0 1 1 1 1 1 1 1 1 0 1 
422 20 5682 0 0 1 1 1 1 1 1 1 1 1 1 1 1 1 1 0 0 1 1 
423 20 4461 1 1 1 1 1 1 1 1 1 0 1 1 1 1 1 1 0 0 1 1 
424 20 4620 1 1 1 1 0 1 1 1 0 1 1 1 0 1 1 1 1 1 1 1 
425 20 5595 1 1 1 1 1 1 1 1 0 1 1 1 1 1 1 1 0 0 1 1 
426 20 4678 1 1 1 1 1 0 1 1 1 1 1 1 1 1 1 0 1 1 1 1 
427 20 3647 1 1 0 1 0 1 1 1 0 1 1 1 1 1 1 1 1 1 1 1 
428 20 4485 1 1 1 1 0 0 1 1 1 1 1 1 0 1 1 1 1 1 1 1 
429 20 3843 0 1 0 1 0 1 1 1 1 1 1 1 1 1 1 1 1 1 1 1 
430 20 4949 1 1 0 1 0 0 1 1 1 1 1 1 1 1 1 1 0 1 1 1 
431 20 4829 0 1 1 1 0 1 0 1 1 1 1 1 1 1 1 1 1 1 1 1 
432 20 4611 1 0 1 1 1 1 1 1 1 1 1 1 1 1 1 1 1 1 1 0 
433 20 5351 1 0 1 1 1 1 0 1 1 1 1 1 1 1 1 1 0 1 1 1 
434 20 5460 1 1 1 1 1 1 1 1 1 1 1 0 1 1 1 1 1 0 1 1 
435 20 4767 1 1 0 1 1 1 1 1 0 1 1 1 1 0 1 1 1 1 1 1 
436 20 4203 1 1 1 1 1 1 1 1 1 1 1 0 1 1 1 1 1 1 0 1 
437 20 4740 0 1 1 0 1 1 1 1 0 1 0 1 1 1 1 1 1 1 1 1 
438 20 5244 1 1 1 1 1 1 0 1 1 0 1 1 1 1 1 1 1 0 1 1 
439 20 5061 1 0 1 1 1 0 1 1 1 1 1 1 1 1 1 1 1 0 1 1 
440 20 5097 1 1 1 1 1 1 1 1 1 1 1 1 0 1 1 1 0 1 1 1 
441 20 4488 1 1 1 1 1 1 1 1 0 1 1 0 1 0 1 1 1 1 1 1 
442 20 5358 1 1 1 1 0 1 1 1 1 1 1 1 0 1 1 1 1 1 1 0 
443 20 5065 1 1 1 1 0 1 1 1 1 1 1 1 1 1 1 1 1 1 0 1 
444 20 4796 1 1 1 1 1 1 1 1 1 1 1 1 1 1 1 1 1 0 0 1 
445 20 4870 1 1 0 1 1 1 0 1 1 1 0 1 1 1 1 1 1 1 1 1 
446 20 3640 1 0 1 1 1 1 1 1 1 1 1 1 0 1 1 1 1 1 1 1 
447 20 4506 1 0 1 1 1 1 1 1 1 1 1 1 0 0 1 1 1 1 1 1 
448 20 5151 1 0 1 1 0 1 1 1 1 1 1 1 1 1 1 1 1 1 0 1 
449 20 3417 1 1 1 1 0 1 1 1 1 1 1 0 1 1 1 1 1 1 1 1 
450 20 5463 1 1 0 1 1 1 1 0 1 1 1 1 1 1 1 1 1 1 1 0 
451 20 4953 1 0 1 1 0 1 1 1 1 1 1 1 1 1 0 1 1 1 1 1 
452 20 4578 1 1 1 1 1 1 1 1 1 0 1 1 0 1 1 1 1 1 0 0 
453 20 4534 1 1 1 1 1 1 1 1 1 1 0 1 1 1 0 1 1 1 0 1 
454 20 5248 0 1 1 1 1 1 1 1 1 1 1 1 1 0 1 1 1 0 1 1 
455 20 5064 1 1 0 1 0 1 1 1 1 1 1 1 1 1 1 1 1 1 1 1 
456 20 4045 1 1 1 1 0 1 1 1 1 1 1 1 1 1 1 1 1 0 1 1 
457 20 5945 1 1 1 1 1 0 1 1 1 1 1 0 1 1 1 1 1 0 1 1 
458 20 4542 1 0 1 1 1 1 1 1 1 1 1 1 0 1 0 1 1 1 1 1 
459 20 4995 1 1 1 0 0 1 1 1 1 0 1 1 1 1 1 1 1 1 1 1 
460 20 4847 1 1 1 1 1 1 1 1 0 1 1 0 1 1 1 1 1 0 0 1 
461 20 4399 1 1 1 1 1 1 1 1 1 1 1 1 1 1 1 0 0 1 1 1 
462 20 4753 1 1 0 1 1 1 1 0 1 1 1 1 1 1 1 1 1 0 1 1 
463 20 5234 1 1 1 1 1 1 1 0 1 1 1 0 1 1 1 0 1 1 1 1 
464 20 4718 1 1 1 1 1 1 1 1 1 1 1 0 1 1 1 1 1 1 0 1 
465 20 4633 1 1 1 0 0 1 1 1 1 1 1 1 1 1 1 1 1 1 1 1 
466 20 5448 1 1 1 1 1 1 0 1 1 1 1 1 1 1 1 1 1 1 1 0 
467 20 4879 1 1 1 1 1 0 1 1 1 1 1 0 1 1 1 1 0 1 0 1 
468 20 5175 1 1 1 1 1 1 0 1 1 1 1 1 1 1 0 1 0 1 1 1 
469 20 5022 1 1 1 1 1 1 1 1 1 0 1 1 0 1 0 1 1 1 1 1 
470 20 4010 1 0 1 1 1 1 1 1 1 1 1 0 1 1 1 1 1 1 0 1 
471 20 5161 1 1 1 1 1 1 1 1 1 1 0 1 1 1 1 1 1 0 1 1 
472 20 5259 0 1 1 1 1 1 1 1 1 0 1 1 1 1 0 1 1 1 1 1 
473 20 5330 1 1 1 1 1 0 1 1 1 1 1 1 0 0 1 1 1 0 1 1 
474 20 4753 1 1 1 1 1 1 1 1 0 1 1 1 0 1 1 1 1 1 0 1 
475 20 4716 0 1 1 1 1 1 1 1 1 1 1 0 1 1 1 1 1 1 1 1 
476 20 4182 1 0 1 1 1 0 1 1 1 1 1 0 1 1 1 1 0 1 1 1 
477 20 5515 1 1 1 1 1 0 1 1 1 1 1 1 1 1 1 1 0 1 1 1 
478 20 5148 1 1 1 1 1 1 0 0 1 1 1 1 1 1 1 0 1 1 1 1 
479 20 5280 1 1 1 1 1 1 1 1 1 1 1 1 0 1 1 0 1 1 1 1 
480 20 5004 1 1 1 0 1 0 1 1 1 0 1 1 1 1 0 1 1 1 0 1 
481 20 4798 1 1 1 0 1 1 1 1 1 1 1 1 0 1 1 1 1 0 1 1 
482 20 4265 1 1 1 1 0 1 0 1 1 1 1 1 1 1 0 1 1 1 1 1 
483 20 4617 1 1 0 1 1 1 0 1 0 1 1 1 1 1 1 1 1 1 1 1 
484 20 3992 1 1 1 1 1 1 1 1 1 1 0 1 1 1 0 1 1 1 1 0 
485 20 4228 1 1 1 0 1 1 1 1 1 1 1 1 1 1 1 0 1 1 1 1 
486 20 5198 1 1 0 1 1 1 1 1 1 1 1 1 1 1 1 1 1 1 1 0 
487 20 4511 1 1 1 1 0 1 0 1 0 1 1 1 1 1 1 1 1 1 1 1 
488 20 5599 1 1 1 1 0 1 1 1 0 1 1 0 1 1 1 1 1 1 1 1 
489 20 4658 1 1 1 1 1 1 1 1 1 0 1 1 0 1 1 1 1 0 1 1 
490 20 5361 1 1 1 1 1 0 1 1 1 1 1 1 1 1 1 1 1 0 1 1 
491 20 4532 1 1 1 1 1 1 1 0 1 1 1 1 1 0 1 1 1 0 1 1 
492 20 4462 1 1 0 1 1 1 1 1 1 1 1 0 0 1 1 1 1 1 1 1 
493 20 3701 0 1 1 1 1 0 1 1 1 1 1 1 1 1 1 1 1 0 1 1 
494 20 4970 1 1 1 1 1 1 1 1 1 1 1 1 0 1 1 1 1 1 1 0 
495 20 4938 1 1 1 1 1 0 1 1 1 1 1 1 1 1 1 1 0 1 1 1 
496 20 4651 1 1 1 0 0 1 1 0 1 1 1 1 1 1 1 0 1 1 1 1 
497 20 5024 1 1 1 1 1 1 1 1 1 1 1 1 1 0 0 1 1 0 1 1 
498 20 5431 0 1 1 1 1 1 1 1 1 1 1 1 1 1 0 1 1 1 0 1 
499 20 5430 1 1 1 0 1 1 1 1 1 1 1 1 1 1 1 0 1 1 1 1 
500 20 4578 0 1 1 1 1 0 1 1 1 1 1 1 1 0 1 1 1 1 1 1 
