1 20 5354 0 1 1 0 1 1 1 1 1 1 1 1 1 1 1 1 1 1 1 1 
2 20 5663 0 1 0 1 1 1 1 0 1 1 1 1 1 1 1 1 1 1 1 1 
3 20 5157 1 1 1 0 1 1 0 1 1 1 1 1 1 1 1 1 1 1 1 1 
4 20 5677 0 1 1 1 1 1 1 1 1 1 1 1 1 1 1 1 1 1 1 0 
5 20 5239 1 1 0 1 1 1 1 1 1 0 1 1 1 1 1 1 1 0 1 1 
6 20 4918 1 1 1 1 0 1 1 0 1 1 1 0 1 1 1 1 1 1 1 1 
7 20 5085 1 0 1 0 1 1 1 1 1 1 1 1 1 1 1 1 1 1 1 1 
8 20 5905 1 1 1 1 1 0 1 1 0 1 1 1 1 1 1 1 1 1 1 1 
9 20 4387 1 1 1 0 1 1 1 1 1 0 1 0 1 1 1 1 1 1 1 1 
10 20 3346 1 1 0 1 1 1 1 0 1 1 1 1 1 1 1 1 1 1 1 1 
11 20 4272 0 1 1 1 1 1 1 1 1 1 1 1 1 1 0 1 1 1 0 1 
12 20 4150 1 0 1 0 1 1 1 1 1 1 1 1 1 1 1 0 0 1 0 1 
13 20 5384 1 1 1 1 1 1 1 0 1 1 1 1 1 1 1 0 1 1 1 1 
14 20 3602 1 1 1 1 1 1 1 1 1 0 1 1 0 0 1 0 1 1 1 1 
15 20 4681 1 1 1 1 1 1 1 0 1 1 1 1 0 1 1 1 1 1 1 1 
16 20 5198 1 1 1 1 1 1 0 1 1 1 1 1 1 1 1 0 1 1 1 1 
17 20 5379 1 1 1 1 1 1 0 1 0 1 0 1 1 1 1 1 1 1 1 1 
18 20 4279 1 1 1 1 1 1 1 1 1 1 1 1 1 1 1 0 1 1 1 1 
19 20 5525 1 1 1 1 1 1 1 1 0 1 1 1 1 1 1 0 1 1 1 1 
20 20 4678 1 1 1 1 1 1 1 1 1 1 0 1 1 1 1 1 1 1 0 1 
21 20 3942 1 1 1 1 1 1 1 1 1 0 1 1 1 1 0 1 1 0 1 1 
22 20 5148 0 1 1 1 1 1 1 1 1 1 1 1 1 1 1 0 0 1 1 1 
23 20 5638 1 1 1 1 1 1 1 1 1 1 1 0 1 1 1 0 1 1 0 1 
24 20 4727 1 1 1 1 1 1 0 1 1 1 1 1 1 1 1 1 1 1 1 0 
25 20 4257 1 1 1 0 1 1 1 1 1 0 1 1 1 1 1 0 1 1 1 1 
26 20 5585 1 1 1 1 1 1 1 1 1 1 1 1 1 1 1 1 0 1 1 1 
27 20 4633 1 1 1 1 1 1 1 0 1 0 1 1 1 1 1 1 1 0 0 1 
28 20 4032 1 1 0 1 1 1 1 1 1 1 0 1 1 1 1 1 1 1 1 1 
29 20 4068 1 1 1 1 0 1 1 0 1 1 1 1 1 1 1 1 1 1 1 0 
30 20 5015 1 1 0 1 1 1 0 0 1 1 1 1 1 1 1 1 1 1 1 1 
31 20 4554 1 1 1 1 0 0 1 1 1 1 1 1 1 0 1 1 1 1 1 0 
32 20 4530 1 1 1 0 1 1 1 1 1 1 0 1 1 0 1 1 1 1 0 1 
33 20 5384 1 1 1 1 1 1 1 1 1 1 1 1 1 0 1 0 1 1 1 1 
34 20 5272 1 1 1 1 0 1 1 1 0 1 1 1 1 1 1 0 1 1 1 1 
35 20 4461 1 1 1 0 0 1 1 1 1 1 1 1 1 1 1 1 1 1 1 1 
36 20 4172 1 1 1 0 0 1 1 1 1 0 1 1 1 1 1 1 1 1 1 1 
37 20 4411 1 1 0 1 1 1 1 1 0 1 1 1 1 1 1 1 1 1 1 1 
38 20 5170 0 1 1 1 0 1 1 1 1 1 1 1 1 0 1 1 1 1 1 1 
39 20 4846 1 1 0 1 1 1 1 1 1 0 1 1 1 1 1 1 1 1 0 1 
40 20 3342 1 1 1 1 1 1 1 1 0 1 1 1 1 1 0 1 1 1 1 0 
41 20 4725 0 1 1 1 1 1 1 1 1 1 1 1 1 1 0 1 1 1 1 1 
42 20 5255 1 1 1 1 0 0 0 1 1 1 1 1 1 1 1 0 1 1 1 1 
43 20 5249 1 1 1 1 1 0 1 1 1 0 1 1 1 1 1 1 1 0 1 1 
44 20 3884 1 1 1 0 0 1 1 1 1 1 1 1 1 0 1 1 1 1 1 1 
45 20 5276 1 1 1 1 1 0 0 1 1 1 1 1 1 1 1 1 0 1 1 1 
46 20 4535 1 0 1 1 1 1 1 1 1 1 1 1 1 1 1 1 1 0 1 0 
47 20 4423 1 1 1 1 1 1 0 1 1 0 1 1 1 1 1 1 1 1 1 1 
48 20 5111 1 1 1 1 1 1 1 1 1 0 0 0 0 1 1 1 1 1 1 1 
49 20 4647 1 1 1 1 1 1 1 1 0 1 0 1 1 1 1 1 1 1 1 1 
50 20 4549 1 1 1 1 1 1 0 1 1 1 1 1 1 1 0 1 0 1 1 1 
51 20 4455 1 1 0 1 1 1 0 1 1 0 1 1 1 0 1 1 1 1 1 0 
52 20 5545 1 1 1 1 0 0 1 1 1 1 1 1 1 1 1 1 1 0 1 1 
53 20 5221 1 1 0 1 1 1 1 1 1 1 1 1 1 1 1 1 0 1 1 1 
54 20 5585 1 0 1 1 1 1 0 1 1 1 1 1 1 1 1 1 0 1 1 0 
55 20 4607 0 1 1 1 1 1 1 1 1 1 1 1 1 1 1 0 1 1 0 1 
56 20 4010 1 1 1 1 0 0 0 1 1 1 1 1 1 1 1 1 1 1 1 1 
57 20 5018 1 1 0 1 1 1 1 1 1 1 1 0 1 1 1 1 1 1 1 1 
58 20 4757 1 1 1 1 1 1 1 1 0 1 1 1 1 1 1 1 1 1 0 1 
59 20 4173 1 1 1 1 1 1 1 1 1 1 1 1 0 1 1 1 1 1 0 1 
60 20 4700 1 1 0 1 0 1 1 1 0 1 0 1 1 1 1 1 1 1 1 1 
61 20 5372 0 1 1 1 1 1 1 0 1 1 1 1 1 1 1 0 1 1 1 1 
62 20 4963 1 1 0 1 1 1 1 1 1 0 1 1 1 1 0 1 1 1 0 1 
63 20 5558 1 1 1 1 1 1 1 1 1 1 1 0 1 1 0 1 1 1 1 1 
64 20 5057 1 1 1 1 1 1 1 1 1 1 1 1 0 0 1 1 1 1 1 1 
65 20 4238 1 1 1 1 1 1 0 1 1 1 1 1 1 1 1 1 1 1 1 1 
66 20 4965 0 1 1 1 1 1 1 0 1 1 1 1 1 1 1 1 1 0 1 1 
67 20 3930 1 1 1 1 1 1 1 1 1 1 1 1 1 1 1 0 0 1 0 1 
68 20 4836 1 1 1 0 1 1 1 1 1 1 1 0 1 0 1 0 1 1 1 1 
69 20 4663 1 1 0 1 1 1 1 1 1 0 1 1 1 1 1 1 1 1 1 1 
70 20 4772 0 1 1 1 1 0 1 1 0 1 1 1 1 1 1 1 1 1 1 1 
71 20 4948 1 1 1 1 0 1 1 1 1 0 1 1 1 1 1 0 1 1 1 1 
72 20 4859 1 1 1 1 0 1 1 1 1 0 1 1 1 1 1 1 1 1 1 1 
73 20 3088 1 1 1 1 0 1 1 0 1 1 1 1 1 1 1 1 1 1 1 0 
74 20 5029 1 1 1 1 1 1 1 1 0 0 1 0 1 1 1 1 1 1 1 0 
75 20 3504 1 1 1 1 1 1 0 1 1 0 1 1 1 1 0 0 1 1 1 1 
76 20 4630 1 0 1 1 1 1 1 0 1 1 1 1 0 1 1 1 1 0 1 1 
77 20 4745 1 1 1 1 0 1 1 1 1 0 0 1 1 1 1 1 1 1 1 1 
78 20 5442 1 1 1 0 1 1 1 1 1 1 1 1 1 1 1 1 0 1 1 0 
79 20 4551 0 1 1 1 1 1 1 0 1 1 1 1 1 1 1 1 1 1 1 1 
80 20 5679 1 1 1 1 1 1 1 1 1 1 1 1 1 1 0 1 1 0 1 1 
81 20 4684 1 1 0 1 1 1 1 1 0 1 0 1 1 1 0 1 1 1 1 1 
82 20 4504 1 1 1 1 1 1 1 1 1 1 1 1 1 1 0 0 1 1 1 1 
83 20 4768 1 1 1 1 0 1 1 1 1 1 0 1 1 1 1 1 0 1 1 1 
84 20 3389 0 1 1 1 1 1 1 0 1 1 1 0 1 1 1 1 1 1 1 1 
85 20 5072 1 0 1 1 1 1 1 1 1 1 1 0 1 1 1 1 1 1 1 1 
86 20 4503 1 1 0 1 1 1 1 0 1 1 1 1 1 1 1 1 0 1 1 1 
87 20 5452 1 1 1 1 0 1 0 1 1 1 1 1 1 1 1 1 1 1 1 0 
88 20 4946 1 1 1 1 1 0 1 0 1 1 1 1 1 1 1 1 1 0 1 1 
89 20 5167 0 1 1 1 1 1 1 1 1 1 0 1 1 1 1 1 0 1 1 1 
90 20 5080 1 0 1 1 1 1 1 1 0 1 0 1 1 1 1 1 1 1 1 1 
91 20 4291 1 1 0 1 1 1 1 1 0 1 1 1 1 1 1 1 1 0 1 1 
92 20 4536 1 1 1 1 1 1 1 1 1 1 1 1 1 1 1 0 1 1 1 0 
93 20 5144 1 1 1 0 1 1 0 1 1 1 1 1 1 1 1 1 1 1 0 1 
94 20 6009 1 1 1 1 1 1 0 1 1 1 1 1 1 1 1 1 1 1 0 0 
95 20 4592 1 1 0 1 1 1 1 1 0 1 1 1 1 1 1 1 1 1 1 1 
96 20 5115 1 1 1 1 1 1 1 1 1 1 0 1 1 1 1 0 1 1 0 1 
97 20 5665 1 0 1 1 1 1 1 1 1 1 1 1 1 1 1 0 1 1 1 1 
98 20 4978 1 1 1 1 1 0 1 1 1 1 1 1 1 1 1 1 0 1 0 1 
99 20 4866 1 1 1 1 1 1 1 1 1 1 1 1 1 1 1 0 0 1 1 1 
100 20 4914 1 1 1 1 1 1 1 1 1 1 1 0 1 1 1 1 1 1 0 1 
101 20 5237 1 1 0 1 1 1 1 1 1 0 1 1 0 1 1 1 1 1 1 1 
102 20 4493 1 0 1 1 1 1 1 1 1 0 1 1 1 1 1 1 1 1 1 1 
103 20 6007 1 1 1 1 1 1 1 1 0 0 1 1 1 1 1 1 1 1 0 1 
104 20 4601 1 1 1 0 1 1 1 1 0 1 1 1 0 1 1 1 1 1 1 1 
105 20 4848 1 1 1 1 1 0 1 1 1 1 1 1 1 1 0 1 1 1 1 1 
106 20 3905 1 1 1 1 1 1 1 1 0 0 1 1 1 1 1 1 1 1 0 0 
107 20 4275 1 1 1 1 1 1 1 0 1 1 1 0 1 1 1 1 1 1 1 0 
108 20 3180 1 1 1 0 0 1 1 1 1 1 1 1 1 0 1 1 1 1 1 1 
109 20 4630 1 1 1 1 1 1 0 1 1 0 1 1 1 1 1 1 1 0 1 1 
110 20 5534 1 1 1 0 1 1 1 1 1 1 1 1 1 1 1 1 1 1 0 1 
111 20 5300 1 1 1 0 1 0 1 1 1 1 1 1 1 0 1 1 0 1 1 1 
112 20 5547 1 1 1 1 0 1 1 0 1 1 1 0 0 1 1 1 1 1 1 1 
113 20 5218 1 1 1 0 1 1 0 1 1 1 1 1 1 1 1 1 1 1 1 1 
114 20 5309 1 1 0 1 1 1 1 1 1 1 1 1 0 1 1 1 1 1 0 1 
115 20 4391 1 1 1 1 1 0 1 1 1 1 1 0 1 1 0 1 1 1 1 0 
116 20 4670 1 1 1 1 0 1 1 0 1 1 1 1 1 1 0 1 1 1 1 1 
117 20 3965 1 1 1 1 1 1 1 0 1 1 1 1 1 1 1 0 0 1 1 1 
118 20 4353 1 1 0 1 1 1 1 0 1 0 1 1 1 1 1 1 1 1 1 1 
119 20 5895 0 1 1 1 0 1 1 1 1 1 1 1 1 1 1 0 1 1 1 1 
120 20 4788 1 0 1 1 1 1 1 1 0 1 1 1 1 1 1 1 1 1 1 1 
121 20 4978 0 1 1 1 1 1 1 1 1 1 1 1 1 0 1 1 0 1 1 1 
122 20 5467 1 1 1 0 1 1 1 0 1 1 1 1 0 1 1 1 1 1 1 1 
123 20 5257 1 1 1 1 1 1 1 1 1 1 1 1 1 1 1 1 1 1 0 0 
124 20 5174 1 1 1 1 1 0 1 1 1 1 1 1 0 1 1 1 1 1 1 1 
125 20 4930 1 0 1 1 1 1 1 1 1 0 1 0 1 1 1 1 1 1 1 1 
126 20 4703 1 1 1 0 1 0 0 1 1 1 1 1 1 1 1 1 1 1 1 1 
127 20 5044 1 1 0 1 1 1 1 1 1 1 0 1 1 1 1 1 1 1 1 1 
128 20 5327 1 1 1 1 1 1 0 1 1 1 1 0 1 1 1 1 1 1 1 1 
129 20 5008 0 1 1 1 1 1 1 1 1 1 1 0 1 1 1 1 1 1 1 0 
130 20 5406 1 1 1 1 1 1 1 0 1 1 1 1 1 0 1 1 1 1 0 1 
131 20 3919 1 0 1 1 1 1 1 1 1 0 1 1 0 1 1 1 1 1 1 1 
132 20 5105 1 1 1 1 1 0 1 0 1 1 1 1 1 1 1 0 1 1 1 1 
133 20 4882 1 0 1 1 1 1 1 1 1 1 1 1 1 1 0 1 1 1 1 1 
134 20 5070 1 0 1 0 1 1 0 1 1 1 1 1 1 0 1 1 0 1 1 1 
135 20 4913 1 1 1 1 1 0 1 1 1 1 1 1 1 1 1 1 1 0 1 1 
136 20 5852 1 1 1 1 1 1 1 1 1 1 1 1 1 1 0 1 1 1 0 1 
137 20 5851 0 1 1 1 1 1 1 1 1 1 1 1 1 1 1 1 0 1 1 0 
138 20 4616 1 1 1 1 1 1 1 0 1 1 0 1 1 0 1 1 1 1 1 0 
139 20 3849 1 1 0 1 1 1 1 1 1 1 1 1 0 1 1 1 1 0 0 1 
140 20 3622 1 1 0 1 1 1 0 1 1 1 0 1 1 1 1 1 1 1 1 1 
141 20 5262 1 1 1 1 1 1 1 1 1 0 1 1 1 0 1 1 1 1 1 1 
142 20 4464 1 1 1 1 1 1 1 1 1 1 1 1 0 1 0 0 1 1 1 1 
143 20 4210 1 1 1 1 1 1 1 1 1 1 1 1 1 0 1 0 1 1 1 1 
144 20 4752 1 1 1 1 0 1 1 1 0 1 1 1 1 1 1 1 1 1 1 1 
145 20 4236 1 1 1 1 1 0 1 1 1 1 1 1 1 0 1 1 1 1 1 1 
146 20 5380 1 1 1 1 1 1 0 1 0 1 1 1 1 0 1 1 1 1 0 1 
147 20 4675 1 0 1 1 0 1 1 1 1 1 1 1 1 1 1 0 1 1 1 1 
148 20 5618 1 1 1 0 0 1 0 1 1 1 1 1 1 1 1 1 1 1 1 1 
149 20 4693 1 0 1 1 1 0 1 1 1 1 1 1 1 1 1 0 1 1 1 1 
150 20 5169 0 1 1 1 1 1 1 1 1 0 1 1 1 1 1 1 0 1 1 1 
151 20 4310 1 1 1 1 1 1 0 1 0 1 1 1 1 1 1 1 1 1 1 1 
152 20 3868 1 1 1 0 1 1 1 1 1 1 1 1 0 1 1 1 1 1 1 1 
153 20 4222 1 1 1 1 1 1 1 1 1 1 0 1 1 1 1 1 0 1 1 0 
154 20 4713 0 1 1 1 1 1 1 1 1 1 1 1 1 1 1 1 0 1 1 0 
155 20 4468 1 1 1 1 0 0 1 1 1 1 1 1 1 1 1 1 1 0 1 1 
156 20 5208 0 1 1 1 1 1 1 1 1 1 1 0 1 0 1 0 1 1 1 1 
157 20 4370 1 1 1 1 0 0 1 1 1 1 1 1 1 1 1 1 1 1 1 1 
158 20 4309 1 0 1 1 1 0 1 0 1 1 1 1 1 1 1 1 1 1 1 1 
159 20 4272 1 1 1 1 1 1 1 1 1 1 0 1 1 0 0 0 1 1 0 1 
160 20 3721 0 1 1 1 1 1 1 1 1 1 0 1 1 1 1 1 1 1 1 0 
161 20 4706 1 1 1 1 1 1 0 1 1 1 1 1 1 0 1 1 1 1 1 1 
162 20 4636 1 1 1 0 0 1 1 1 1 1 1 1 1 0 1 1 1 1 1 1 
163 20 4770 1 1 1 1 1 1 1 1 0 1 1 1 1 1 1 1 0 1 1 0 
164 20 4636 1 1 1 1 1 1 1 1 0 1 1 0 1 1 0 1 1 1 1 1 
165 20 5524 1 1 1 1 1 0 1 1 1 1 0 1 0 0 1 1 1 1 1 1 
166 20 3345 1 1 1 1 0 1 1 1 1 1 0 1 1 1 1 1 1 1 0 1 
167 20 4776 1 1 1 1 1 1 1 1 1 1 1 1 1 1 0 1 1 1 0 1 
168 20 4352 1 1 1 1 1 1 1 1 0 1 1 1 1 1 1 1 1 1 0 1 
169 20 4760 1 1 1 1 1 1 1 0 1 1 1 1 1 1 1 1 1 0 1 0 
170 20 4871 1 1 1 1 1 1 0 1 1 1 1 0 1 1 1 1 1 1 1 1 
171 20 4767 1 1 1 0 1 1 0 1 1 1 1 1 1 1 1 1 1 1 1 0 
172 20 5232 1 1 1 1 1 1 1 1 1 0 1 1 1 1 1 1 1 0 1 1 
173 20 5521 1 1 1 1 0 1 1 1 0 1 0 1 1 1 1 1 1 1 1 1 
174 20 4773 1 1 0 1 1 1 1 1 1 1 1 1 1 1 1 1 1 1 1 1 
175 20 4785 1 1 1 1 1 1 1 0 1 0 0 1 0 1 1 1 1 1 1 1 
176 20 5252 1 1 1 1 1 1 1 0 1 1 1 1 1 1 0 1 1 1 1 1 
177 20 4907 1 1 1 0 1 1 0 1 1 1 1 1 1 1 1 0 1 1 1 1 
178 20 4312 1 1 1 1 1 1 1 0 1 1 1 1 1 1 1 1 0 1 1 1 
179 20 4864 1 1 1 0 1 1 1 1 1 1 0 1 1 1 1 1 1 1 1 1 
180 20 5144 1 1 1 1 0 1 1 1 1 1 1 1 1 1 1 1 1 1 0 1 
181 20 3974 1 1 1 1 0 1 1 1 1 1 1 1 0 1 1 1 1 1 1 1 
182 20 5145 0 0 1 1 1 1 1 1 1 1 1 1 0 1 1 1 1 1 1 1 
183 20 5028 1 1 1 1 1 0 1 1 0 1 1 1 0 1 1 0 1 1 1 1 
184 20 5177 1 1 1 1 0 1 1 1 1 1 1 1 1 1 1 1 1 1 0 1 
185 20 4699 1 1 1 1 1 1 1 1 1 1 1 1 1 0 1 1 1 1 0 1 
186 20 4845 1 1 1 1 1 1 1 0 1 1 0 1 1 1 1 1 1 1 1 0 
187 20 4127 1 1 1 0 0 1 1 1 1 1 1 1 1 1 1 1 1 1 1 1 
188 20 5240 1 1 1 1 1 1 0 1 1 1 1 0 1 1 1 1 1 1 1 1 
189 20 4640 1 1 0 1 1 1 1 1 1 1 1 1 1 0 0 1 1 1 1 1 
190 20 4854 1 1 1 1 1 1 1 1 1 1 0 1 1 1 1 0 1 1 1 0 
191 20 4926 1 1 0 1 1 1 0 1 1 1 1 1 0 1 1 1 1 1 1 1 
192 20 4985 1 1 1 1 1 1 1 0 1 1 1 0 1 1 1 1 0 1 1 1 
193 20 4558 1 1 1 1 1 1 1 1 1 1 1 0 1 1 1 0 1 1 1 1 
194 20 3902 1 1 1 1 1 1 1 1 1 0 1 0 1 1 1 1 0 1 1 1 
195 20 4047 1 1 1 1 1 0 1 1 1 1 1 1 1 1 1 1 0 1 0 1 
196 20 4457 1 1 1 0 1 1 0 1 1 1 1 1 1 1 0 1 0 1 0 1 
197 20 5075 1 1 1 1 0 1 1 1 1 1 1 1 1 1 1 1 1 1 1 1 
198 20 5695 1 1 0 1 1 1 1 0 1 1 1 1 1 1 1 1 1 1 1 1 
199 20 3750 1 1 1 1 1 1 0 1 1 1 1 0 1 1 1 1 1 1 1 0 
200 20 4878 1 1 1 1 1 1 0 1 1 1 1 1 1 1 1 1 1 1 0 1 
201 20 5800 1 1 0 1 1 1 1 1 1 1 1 0 1 1 1 1 1 1 1 1 
202 20 4728 0 1 1 1 1 1 1 1 0 1 1 1 1 1 1 1 0 1 0 1 
203 20 3962 1 1 1 1 1 1 0 1 1 1 1 0 1 1 1 0 1 1 1 1 
204 20 4979 1 1 1 1 1 1 1 0 1 1 1 1 1 1 1 1 1 0 1 1 
205 20 5129 1 1 1 1 1 1 1 1 1 0 1 0 1 1 1 1 1 1 0 1 
206 20 4346 1 1 1 1 1 1 1 1 0 1 1 1 0 1 0 1 1 1 1 1 
207 20 4570 1 1 0 1 1 1 1 0 1 0 1 1 1 1 0 1 1 1 1 1 
208 20 4307 1 1 0 1 1 1 1 0 1 1 1 1 1 1 1 0 1 1 1 1 
209 20 3621 1 1 0 1 0 1 1 1 0 1 1 1 1 1 1 1 0 1 1 1 
210 20 5723 1 1 1 0 1 1 1 1 1 1 1 1 1 1 0 1 1 0 0 1 
211 20 4728 1 1 0 1 1 1 0 1 1 1 0 1 0 1 1 1 0 1 1 1 
212 20 4586 1 1 1 1 1 1 1 1 0 1 0 1 1 1 1 1 0 1 1 1 
213 20 5467 1 1 1 1 1 1 1 0 1 1 1 0 1 1 1 1 1 1 1 1 
214 20 5004 1 1 1 1 1 1 1 1 1 1 1 1 1 1 1 1 1 0 1 0 
215 20 4723 1 0 1 1 1 1 1 1 1 1 1 1 1 1 1 1 0 1 1 1 
216 20 5546 1 1 1 1 1 0 1 1 1 1 1 0 1 1 0 1 1 1 1 1 
217 20 4279 1 1 1 1 0 1 1 1 1 1 1 1 1 0 1 1 1 1 1 1 
218 20 4883 0 1 1 1 1 1 1 0 1 1 1 1 1 0 1 1 1 1 1 1 
219 20 4297 1 1 1 0 0 1 1 1 1 1 1 1 1 1 1 1 1 1 1 1 
220 20 4873 1 1 1 1 1 1 1 1 1 1 1 1 0 1 1 1 1 1 0 1 
221 20 3655 1 1 1 0 1 1 1 0 1 1 1 1 1 1 1 1 1 1 1 0 
222 20 5038 1 0 1 1 0 1 1 1 1 1 1 1 1 1 1 1 1 1 1 1 
223 20 3946 1 1 1 1 1 1 0 1 1 1 1 0 1 1 0 1 1 1 0 1 
224 20 3215 1 1 1 1 1 1 1 1 1 1 1 1 0 1 1 1 1 0 1 1 
225 20 4591 1 1 1 1 1 1 1 1 1 1 0 1 1 1 1 1 1 0 1 1 
226 20 5138 1 0 1 1 1 1 1 0 1 1 1 1 1 1 1 1 0 1 1 1 
227 20 5013 1 1 0 1 1 1 1 1 1 1 1 1 1 1 1 1 1 1 1 1 
228 20 5006 1 0 1 1 0 1 1 1 1 1 1 1 1 1 1 1 1 1 1 1 
229 20 4456 1 1 1 0 1 1 1 1 1 1 1 0 1 1 1 1 1 0 1 1 
230 20 4549 1 0 1 1 1 1 1 1 1 1 1 1 1 1 1 1 0 1 1 1 
231 20 3818 1 1 1 1 1 1 1 1 0 1 0 1 1 1 0 1 1 1 0 1 
232 20 4387 1 1 1 1 1 1 0 0 1 1 1 1 0 1 1 1 1 1 1 1 
233 20 4875 1 1 1 1 0 1 1 1 1 1 1 1 1 1 1 0 1 1 0 1 
234 20 5174 1 1 1 0 1 0 1 0 1 0 1 1 1 1 1 1 1 1 1 1 
235 20 4555 1 0 1 0 0 1 1 1 1 1 1 1 1 1 1 1 1 1 1 1 
236 20 5239 0 1 1 1 1 1 1 1 0 1 1 1 1 1 1 1 0 1 1 1 
237 20 4895 1 1 1 1 1 1 1 1 1 1 1 1 1 1 0 1 1 1 1 0 
238 20 5020 1 1 1 0 1 1 0 1 1 0 1 1 0 1 1 1 1 1 1 1 
239 20 4698 1 1 0 0 1 0 0 1 1 1 1 1 1 1 1 1 1 1 1 1 
240 20 4559 1 1 1 0 1 1 1 1 0 1 1 1 1 1 1 1 1 1 1 1 
241 20 5605 1 0 1 1 1 1 1 1 1 1 1 1 1 0 1 1 1 1 1 0 
242 20 4482 1 1 1 1 1 1 0 1 1 1 1 1 1 1 1 0 1 0 0 1 
243 20 5430 0 1 1 1 1 0 1 1 1 1 0 1 1 1 1 1 1 1 1 1 
244 20 5057 0 1 1 0 1 1 1 1 1 1 1 1 1 1 1 1 1 1 1 0 
245 20 3986 1 1 1 1 1 0 1 1 1 1 1 1 0 0 1 1 1 1 1 1 
246 20 4730 1 1 1 1 0 1 1 1 1 1 1 1 1 0 1 1 1 0 1 1 
247 20 4614 1 1 1 1 0 1 1 1 1 0 0 1 1 1 1 1 1 1 1 1 
248 20 5488 1 1 1 0 1 1 0 1 1 1 0 1 1 0 1 0 1 1 1 1 
249 20 4578 1 1 0 1 1 1 1 1 1 1 1 1 0 1 1 1 1 1 1 1 
250 20 4645 1 1 1 1 0 1 0 1 1 1 1 1 1 1 1 0 1 0 1 1 
251 20 5910 1 1 1 1 1 1 1 1 0 1 0 1 1 1 1 1 0 0 1 1 
252 20 5110 1 1 0 1 1 1 1 1 1 1 1 1 1 1 1 0 1 1 1 1 
253 20 5257 1 1 1 1 0 1 1 0 1 1 1 1 1 1 1 0 1 1 1 1 
254 20 5747 1 1 1 1 1 1 1 1 1 1 0 1 1 0 1 1 1 1 1 0 
255 20 4779 1 1 1 1 1 1 1 1 1 1 1 1 1 1 1 0 0 1 1 0 
256 20 5052 1 1 0 1 1 1 1 1 1 1 0 1 1 1 1 1 1 1 1 1 
257 20 3471 1 1 1 1 1 1 0 1 0 1 1 1 1 1 1 0 1 1 1 1 
258 20 4533 1 1 1 1 1 1 1 1 1 0 1 1 1 1 1 1 1 1 0 1 
259 20 6371 1 1 1 1 1 1 1 1 0 1 1 1 1 1 1 1 1 1 1 1 
260 20 4324 0 1 1 0 1 1 1 1 1 1 0 1 1 1 1 1 1 1 1 1 
261 20 5058 1 1 1 1 1 1 0 1 1 0 1 1 1 1 1 1 1 1 0 1 
262 20 4341 1 1 1 1 1 1 1 0 1 1 1 1 0 1 0 1 1 1 1 0 
263 20 4932 1 1 1 1 1 1 1 1 1 1 1 1 1 1 0 1 1 1 0 1 
264 20 4450 1 1 1 1 1 0 1 1 1 1 1 1 1 1 1 1 0 1 1 1 
265 20 4551 1 1 0 0 1 1 1 1 1 1 1 1 1 1 1 1 0 1 1 1 
266 20 4450 1 1 1 1 1 1 1 0 1 1 1 1 1 0 1 1 1 1 0 1 
267 20 5315 1 1 1 1 1 0 1 1 1 1 0 1 1 1 1 1 1 1 0 1 
268 20 5385 1 1 1 1 1 1 1 1 1 1 1 1 1 1 1 1 1 0 1 0 
269 20 5302 1 1 1 1 1 1 1 1 0 1 1 1 1 1 1 0 1 1 0 1 
270 20 4736 1 1 1 1 1 0 1 1 0 1 1 1 1 1 1 1 1 1 1 1 
271 20 4137 1 1 0 1 1 1 1 1 1 1 1 1 1 1 0 1 1 1 1 1 
272 20 5358 0 1 1 1 1 1 1 1 1 1 1 1 1 1 1 1 1 1 0 1 
273 20 5109 1 1 1 1 1 1 1 1 0 0 1 1 1 1 1 1 1 1 1 1 
274 20 5234 0 1 0 1 1 1 1 1 1 1 1 1 1 0 1 1 1 1 1 1 
275 20 5038 1 0 1 1 1 1 1 1 1 0 1 1 1 1 1 1 1 1 1 1 
276 20 5075 1 1 1 1 1 1 1 1 1 1 1 1 1 1 1 1 0 1 0 1 
277 20 4942 0 1 0 1 1 1 1 0 1 1 1 0 1 1 0 1 1 1 1 1 
278 20 4501 1 1 1 1 1 1 0 1 1 1 1 1 1 1 1 1 1 1 1 1 
279 20 5083 1 1 1 1 1 1 1 1 1 1 1 0 1 0 1 1 0 1 0 1 
280 20 5115 1 1 1 0 0 1 1 1 1 1 1 1 1 1 1 0 1 1 1 1 
281 20 4118 0 1 1 1 1 1 1 1 1 1 0 1 1 1 1 0 1 1 1 1 
282 20 4889 0 1 1 1 1 1 1 1 1 1 0 0 1 1 1 1 1 1 1 0 
283 20 5092 1 1 1 1 1 1 1 1 1 1 1 1 1 0 1 1 1 0 1 1 
284 20 4591 1 1 1 1 1 1 1 1 1 1 1 1 0 1 1 1 1 1 1 0 
285 20 4301 1 1 1 1 1 1 1 0 1 1 1 1 1 1 1 1 0 1 0 1 
286 20 5427 1 1 0 0 1 1 1 1 1 1 1 1 1 1 1 1 1 1 1 0 
287 20 5021 1 1 1 0 0 1 1 1 1 1 1 1 1 1 1 1 1 1 1 0 
288 20 4819 1 1 1 1 1 0 1 1 0 1 1 1 0 1 1 1 1 1 1 1 
289 20 4578 1 1 1 1 1 1 1 1 1 1 1 0 1 1 1 1 1 0 1 1 
290 20 4376 0 1 1 1 1 1 1 0 1 1 1 1 0 1 1 1 1 1 1 1 
291 20 4966 1 1 1 1 1 1 1 1 1 1 1 1 1 0 1 1 1 1 1 1 
292 20 3879 1 1 1 1 1 0 1 0 1 1 1 1 1 1 1 0 1 0 1 1 
293 20 4797 1 1 1 1 1 1 0 1 1 1 1 0 1 0 1 1 1 1 1 1 
294 20 4137 0 1 1 1 1 1 1 1 0 1 1 1 0 1 1 1 1 1 1 1 
295 20 4794 1 1 1 0 1 1 1 1 1 1 1 1 1 1 1 0 0 1 1 1 
296 20 4305 1 1 1 1 1 1 1 1 1 0 1 0 1 0 1 1 1 1 1 1 
297 20 4749 1 1 1 1 1 1 1 1 0 1 1 1 1 0 1 1 1 1 1 0 
298 20 3950 1 0 1 1 1 1 1 1 1 1 1 1 1 1 1 1 0 1 1 1 
299 20 5519 1 0 1 1 1 1 1 1 1 1 1 1 1 1 1 0 1 1 1 1 
300 20 4983 1 1 1 0 1 0 1 0 1 1 1 1 1 1 1 1 1 1 1 1 
301 20 5456 1 1 1 1 0 1 0 1 1 1 1 1 1 1 1 1 0 1 1 1 
302 20 4457 1 1 1 1 1 1 0 0 1 1 1 1 1 1 0 1 1 0 1 1 
303 20 5660 1 1 1 1 1 1 1 1 1 1 0 1 1 0 1 1 1 0 1 1 
304 20 4023 0 1 0 1 1 1 1 1 1 1 1 1 0 1 1 1 1 1 1 1 
305 20 5310 1 1 1 1 1 1 1 1 1 1 1 1 0 0 1 1 1 1 1 1 
306 20 4359 1 1 1 1 1 0 1 1 0 1 1 1 1 1 1 1 1 1 1 1 
307 20 5449 1 1 1 1 1 1 1 1 0 1 1 1 1 0 1 1 1 1 1 1 
308 20 3853 1 1 1 1 1 1 1 1 1 0 0 1 1 1 1 1 1 0 0 1 
309 20 3960 1 1 1 1 1 1 1 1 1 1 1 0 1 1 1 1 1 0 1 0 
310 20 4432 1 1 1 1 1 1 1 1 0 0 1 1 1 1 0 1 1 1 1 1 
311 20 4410 1 1 1 1 0 0 1 1 1 1 1 1 0 1 1 1 1 1 1 1 
312 20 4744 1 1 1 1 1 1 1 1 1 1 1 0 1 1 1 0 1 1 1 1 
313 20 4916 1 1 1 1 1 1 1 1 0 1 1 1 1 1 0 1 1 1 1 0 
314 20 4100 0 1 1 1 0 1 1 0 1 1 1 1 1 1 1 1 1 0 1 1 
315 20 5008 0 1 1 1 0 1 1 0 1 1 1 1 1 1 1 1 1 1 1 1 
316 20 4678 1 1 0 1 0 1 1 1 0 1 1 1 1 1 1 1 1 1 1 1 
317 20 4161 1 1 1 0 1 1 1 0 1 1 1 1 0 1 0 1 1 1 1 0 
318 20 4543 1 1 0 1 1 1 1 0 1 0 1 1 1 1 1 1 1 1 1 1 
319 20 4496 1 1 1 1 1 1 0 0 1 1 0 1 1 1 1 1 0 1 1 1 
320 20 3952 1 1 1 1 1 0 1 1 1 1 1 1 1 1 1 1 1 1 0 1 
321 20 5493 1 1 1 1 1 1 1 0 1 0 1 1 1 1 1 0 1 1 1 1 
322 20 4303 0 1 1 1 1 1 0 1 1 1 1 1 1 0 1 1 1 1 1 1 
323 20 4475 1 1 1 1 1 1 1 1 1 1 1 1 1 0 1 1 0 1 0 1 
324 20 4732 1 1 1 1 0 1 1 1 1 1 1 1 0 1 1 1 1 1 1 1 
325 20 4691 1 1 1 1 1 1 1 1 1 1 1 1 0 1 0 1 1 1 1 1 
326 20 5130 1 1 0 1 1 1 0 1 1 1 1 1 1 1 1 1 1 1 1 1 
327 20 4687 1 1 1 1 0 1 1 1 1 1 1 1 1 1 1 1 0 1 1 1 
328 20 3890 1 1 1 0 1 1 1 1 1 1 1 1 0 1 1 1 1 1 1 1 
329 20 4256 1 0 1 1 1 1 1 1 1 0 1 1 1 1 1 1 1 1 0 1 
330 20 5621 1 0 0 1 1 1 1 0 1 1 1 1 1 1 1 1 1 1 1 1 
331 20 4514 1 1 0 1 1 1 1 1 1 1 1 0 1 1 1 1 0 1 1 1 
332 20 5156 1 1 1 1 1 1 1 1 1 0 1 0 1 1 1 1 1 1 1 1 
333 20 5489 1 1 1 0 1 1 1 1 1 1 1 1 1 1 1 0 1 0 1 1 
334 20 4046 0 1 1 1 1 1 1 0 1 1 1 1 1 1 1 1 0 1 1 1 
335 20 5268 1 0 1 0 1 1 1 1 1 1 1 1 1 1 1 1 0 1 1 1 
336 20 5853 1 1 1 1 1 0 1 1 1 1 0 0 1 0 1 1 1 1 1 1 
337 20 4378 1 0 1 1 0 0 1 1 1 1 1 1 1 1 1 1 1 1 1 0 
338 20 3925 1 0 1 1 0 1 1 1 1 0 1 1 1 1 1 1 1 1 1 1 
339 20 4784 1 1 1 1 1 1 1 1 1 1 1 1 1 0 1 0 1 1 1 1 
340 20 4014 0 1 1 1 1 1 1 1 1 1 1 0 1 1 1 1 0 1 1 1 
341 20 4516 1 1 1 1 0 0 1 0 1 1 1 1 1 1 1 1 1 1 1 1 
342 20 5327 1 1 1 1 1 1 0 0 1 1 1 1 1 0 1 1 1 1 1 1 
343 20 5387 1 1 1 1 1 1 1 1 0 0 1 1 1 1 1 1 1 1 0 1 
344 20 5590 1 1 1 1 1 0 1 1 1 1 1 1 1 0 1 1 1 0 1 1 
345 20 4713 1 1 1 1 1 1 1 1 0 1 1 1 1 0 0 1 1 1 1 1 
346 20 5564 1 1 1 1 1 1 1 1 0 1 1 1 1 1 1 1 1 0 0 1 
347 20 4438 1 1 1 1 1 1 1 1 0 0 1 1 1 1 1 1 1 0 1 1 
348 20 5672 1 1 1 1 1 1 1 1 1 1 1 0 1 1 1 1 1 0 1 1 
349 20 4582 1 1 1 1 0 1 1 1 1 1 1 1 1 1 1 1 1 1 1 0 
350 20 4207 0 1 1 0 1 1 1 1 1 1 1 1 1 1 1 1 0 1 0 1 
351 20 6146 1 1 1 1 1 1 1 1 1 1 1 1 0 1 1 0 1 1 1 1 
352 20 4461 1 1 1 1 1 1 1 1 1 1 1 1 0 1 1 1 0 1 1 0 
353 20 4417 1 1 1 1 0 1 0 1 0 1 1 1 1 1 1 1 0 1 1 1 
354 20 5014 1 1 1 1 0 1 1 1 1 1 1 1 1 1 0 1 1 0 1 1 
355 20 5772 1 1 1 1 1 1 0 1 1 1 1 1 1 0 1 1 0 1 1 1 
356 20 4307 1 1 1 1 1 1 1 1 1 0 1 1 1 1 1 0 0 1 1 1 
357 20 5343 1 1 1 1 1 1 1 1 1 1 1 0 1 1 1 0 1 1 0 1 
358 20 5257 1 1 1 1 1 1 1 1 1 1 1 0 1 1 0 1 1 1 0 1 
359 20 4772 1 0 1 1 1 1 1 1 1 1 1 1 1 1 1 0 1 1 1 1 
360 20 4513 1 1 1 0 1 1 1 1 1 1 1 1 1 1 1 0 1 0 1 1 
361 20 5363 1 1 1 1 1 1 0 1 0 1 1 1 1 1 1 1 1 1 1 1 
362 20 4012 1 0 1 0 1 1 1 1 1 1 1 1 1 1 1 1 1 1 0 1 
363 20 4991 1 0 1 1 1 1 1 1 0 1 1 1 1 1 1 1 1 1 1 1 
364 20 5414 1 1 1 1 1 1 0 1 1 1 0 1 1 0 1 0 1 1 1 1 
365 20 3593 1 0 1 1 1 0 1 1 1 1 1 1 0 1 1 1 1 1 1 1 
366 20 5966 1 1 0 1 1 0 1 0 1 1 0 1 1 1 1 1 1 1 1 1 
367 20 5666 1 1 1 1 1 1 1 1 1 1 1 1 0 1 1 0 1 1 1 1 
368 20 4228 1 1 1 1 1 0 1 1 0 1 1 1 1 1 1 1 1 1 0 1 
369 20 4712 1 1 1 1 1 0 1 1 1 1 1 1 1 1 1 1 1 1 0 1 
370 20 5160 0 1 1 1 1 1 1 1 1 1 1 1 0 1 1 0 1 1 1 1 
371 20 4036 1 1 0 1 1 0 1 1 1 1 1 1 1 1 1 1 1 1 1 1 
372 20 4400 1 1 1 1 0 1 1 1 1 1 1 1 0 1 1 1 1 0 1 1 
373 20 4863 1 1 1 0 1 1 1 1 0 1 1 1 0 1 1 1 1 1 1 1 
374 20 4425 1 1 1 0 1 1 1 1 1 1 1 1 0 1 1 1 1 1 0 1 
375 20 4499 1 0 1 1 1 1 0 1 1 1 1 1 1 1 0 1 1 1 1 1 
376 20 6079 0 1 1 1 0 1 1 1 1 1 1 1 1 1 1 1 1 1 1 1 
377 20 5354 0 1 1 1 1 1 1 1 1 1 1 1 1 1 1 1 0 1 1 1 
378 20 5432 1 1 1 0 1 1 1 1 1 1 1 1 0 1 0 1 1 1 0 1 
379 20 4083 1 1 1 1 0 1 0 1 1 1 1 1 1 1 1 1 1 1 1 1 
380 20 5443 0 1 1 1 1 1 0 1 1 1 1 1 1 1 1 1 1 0 1 1 
381 20 4507 1 0 1 1 1 1 1 1 1 1 1 1 0 1 1 1 1 1 1 1 
382 20 3613 1 1 1 1 1 1 0 1 1 1 1 1 0 1 1 1 1 1 1 0 
383 20 3525 1 1 1 1 1 1 1 0 1 1 1 1 1 0 1 1 1 1 1 1 
384 20 4641 1 1 1 1 1 1 1 1 1 1 1 1 0 0 1 1 1 1 1 1 
385 20 3750 1 1 1 1 1 1 1 1 0 1 1 1 1 1 0 0 1 1 1 0 
386 20 5531 1 0 1 1 1 1 1 1 1 1 1 1 1 0 1 1 1 1 1 1 
387 20 4681 1 1 0 1 1 1 0 1 1 1 1 1 0 1 1 0 1 0 1 1 
388 20 4624 1 1 0 1 1 1 1 1 1 1 1 1 0 1 1 1 1 1 1 0 
389 20 5225 1 1 1 1 1 1 1 0 1 1 1 1 1 1 1 1 1 1 1 1 
390 20 5168 1 0 1 1 1 1 1 0 1 1 1 1 1 1 1 1 0 1 1 1 
391 20 4506 1 1 1 1 1 1 1 1 0 1 1 1 1 1 1 1 1 1 0 0 
392 20 3916 1 0 1 1 1 1 1 1 1 1 0 1 1 1 1 1 1 1 1 1 
393 20 4568 0 1 1 1 1 1 1 1 1 1 1 1 1 1 1 1 1 1 0 1 
394 20 5355 1 1 1 1 1 0 1 1 1 1 0 1 1 1 1 0 1 1 1 1 
395 20 4317 0 1 0 1 1 1 1 1 1 1 1 1 1 0 1 1 1 1 1 0 
396 20 5690 1 1 1 1 1 1 1 1 1 1 0 1 1 0 1 1 1 1 1 1 
397 20 4861 1 1 1 1 1 1 1 1 0 1 1 1 1 1 1 1 1 0 0 1 
398 20 3759 1 1 1 1 1 0 1 1 1 1 1 1 1 1 0 1 0 1 1 1 
399 20 4280 1 1 1 0 1 1 1 1 1 1 1 1 1 1 0 1 1 1 1 1 
400 20 4983 1 1 1 1 1 1 1 1 1 1 1 1 1 1 1 0 1 0 1 1 
401 20 5217 1 1 1 0 1 1 1 1 1 1 1 1 1 1 1 1 1 1 0 1 
402 20 4376 0 1 1 1 1 1 0 1 1 1 1 1 1 1 1 1 1 1 0 1 
403 20 4306 1 1 1 1 0 1 1 1 1 1 1 1 1 1 1 1 1 1 0 1 
404 20 5227 1 1 1 1 1 0 1 1 1 1 1 1 1 1 0 1 1 0 1 1 
405 20 5534 1 1 1 1 1 1 1 1 1 0 1 1 1 1 0 1 1 1 1 1 
406 20 5766 1 1 1 0 1 1 1 1 1 1 1 1 0 1 1 1 1 1 1 1 
407 20 4402 1 1 1 1 1 1 1 0 1 1 1 1 1 1 1 1 1 1 1 0 
408 20 5059 1 1 1 1 1 1 1 1 1 1 1 1 1 1 1 0 0 1 1 0 
409 20 5152 1 1 1 1 1 1 1 1 1 0 1 0 1 0 0 1 0 0 1 1 
410 20 5384 1 1 1 1 1 1 1 1 1 1 1 1 0 1 1 0 1 1 1 1 
411 20 3477 0 0 1 1 1 1 1 0 1 1 1 0 1 1 1 1 1 1 1 1 
412 20 5309 1 1 1 1 0 1 1 1 1 1 1 1 1 1 1 0 1 1 1 0 
413 20 4672 1 1 1 1 1 0 1 1 1 1 1 1 1 0 1 1 1 1 1 0 
414 20 4092 1 1 1 1 1 1 0 1 1 1 1 1 1 0 1 0 1 1 1 1 
415 20 4617 0 1 1 1 1 1 1 1 1 1 1 1 1 1 1 1 1 1 1 0 
416 20 5069 1 1 0 1 1 1 1 1 1 1 1 0 1 1 1 1 1 0 1 1 
417 20 4496 1 1 1 1 1 0 1 1 1 1 1 1 1 0 1 1 1 1 1 1 
418 20 4155 1 1 1 0 1 1 1 1 1 1 1 0 0 1 1 1 1 1 1 1 
419 20 4593 1 1 1 1 1 1 1 1 1 1 1 0 1 1 0 1 1 1 1 1 
420 20 5313 1 1 1 0 1 1 1 1 1 1 1 1 1 0 1 0 1 1 1 1 
421 20 4138 1 0 1 1 1 1 1 1 1 1 1 0 1 0 1 1 1 1 1 1 
422 20 3958 1 1 1 0 0 1 1 1 0 1 1 1 1 1 1 1 1 1 1 1 
423 20 5135 1 1 1 0 1 1 1 1 1 1 1 1 1 1 0 1 1 1 1 1 
424 20 4214 1 1 1 1 1 0 1 1 1 1 1 1 1 1 1 1 1 0 1 1 
425 20 5240 1 1 1 1 1 0 1 1 1 1 1 1 1 1 1 0 1 1 1 1 
426 20 5346 1 0 1 1 1 0 0 1 1 1 1 1 1 1 1 1 1 1 1 1 
427 20 4642 1 1 1 1 1 1 0 1 1 1 1 1 0 1 1 1 1 1 1 0 
428 20 4505 1 1 1 1 1 1 1 1 1 1 0 1 1 1 1 1 1 1 1 1 
429 20 4699 1 1 1 1 1 1 1 1 1 1 1 1 1 1 1 0 1 0 1 1 
430 20 4652 1 1 1 1 1 0 1 1 1 1 1 1 1 1 1 0 0 1 1 1 
431 20 5187 1 1 1 0 0 1 1 1 1 1 1 1 1 1 1 1 1 1 1 1 
432 20 5075 1 1 1 1 1 1 1 1 1 1 1 1 1 1 1 1 1 0 0 1 
433 20 5081 1 1 1 1 1 1 1 0 1 1 0 1 1 0 1 1 1 1 1 1 
434 20 4297 1 1 1 1 1 1 1 1 0 1 1 0 1 0 1 1 1 1 1 1 
435 20 5237 1 1 1 1 0 0 1 1 0 1 1 1 1 0 1 1 1 1 1 1 
436 20 4476 1 1 1 1 1 1 1 1 0 1 1 1 1 0 1 1 1 1 1 1 
437 20 4015 1 1 0 1 1 1 1 1 1 1 1 1 1 1 0 1 1 1 1 0 
438 20 5264 1 1 1 1 1 1 1 1 1 1 1 0 1 1 1 0 1 1 1 1 
439 20 5631 1 1 1 0 1 1 1 0 1 1 1 1 1 1 1 1 1 1 1 1 
440 20 5285 1 1 1 1 1 1 1 0 1 1 1 1 1 1 0 0 1 1 1 1 
441 20 5089 1 1 1 1 1 1 1 1 1 1 0 1 0 1 1 1 1 1 1 0 
442 20 5440 1 1 1 1 0 1 1 1 1 1 1 1 1 1 1 1 1 1 0 1 
443 20 4393 1 1 1 1 1 1 0 1 1 1 1 0 1 0 1 1 1 1 1 1 
444 20 4477 1 1 1 1 1 1 1 1 0 1 1 1 1 1 1 1 0 1 0 1 
445 20 5630 1 1 1 1 1 1 1 1 1 1 0 1 1 1 1 1 1 1 1 0 
446 20 4289 0 1 1 1 1 1 1 1 1 0 1 1 1 1 1 1 1 1 0 1 
447 20 5192 1 1 1 1 0 1 1 0 0 1 1 1 1 1 1 1 1 1 1 1 
448 20 5164 1 0 1 1 0 0 0 1 1 1 1 1 1 1 1 1 1 1 1 1 
449 20 5222 1 1 0 1 1 0 1 1 1 1 1 1 1 1 1 1 1 1 1 1 
450 20 4295 1 0 1 1 1 1 0 1 1 0 1 1 1 1 1 1 1 1 0 1 
451 20 5362 1 1 1 1 1 1 1 1 1 1 1 1 1 1 1 1 1 0 1 1 
452 20 4256 1 1 1 0 1 1 1 0 1 1 1 1 1 1 1 1 1 1 1 1 
453 20 5465 1 1 0 1 1 1 1 1 0 1 1 1 1 1 1 1 1 1 1 1 
454 20 4190 0 1 1 1 1 1 1 1 0 1 1 1 1 1 1 1 1 1 0 1 
455 20 4594 1 1 1 0 1 1 1 1 1 1 0 1 1 1 1 1 1 1 1 1 
456 20 5056 1 1 0 1 1 1 1 1 1 1 1 1 1 1 1 1 1 1 1 0 
457 20 5107 0 1 1 1 1 1 1 1 1 1 1 1 1 1 1 1 1 1 1 0 
458 20 4689 1 1 1 1 1 1 1 1 1 1 1 1 1 1 1 1 0 1 0 1 
459 20 4868 1 1 1 1 1 0 1 1 1 1 1 1 1 1 1 0 1 1 1 1 
460 20 4863 1 1 0 1 1 1 1 1 1 1 1 1 1 1 1 1 1 1 0 1 
461 20 5583 1 1 1 0 1 1 1 1 1 1 0 1 1 1 1 1 0 1 1 1 
462 20 5316 1 1 0 1 1 1 1 1 1 1 0 1 1 1 0 1 1 1 1 1 
463 20 4405 1 1 1 1 1 1 1 1 1 1 1 0 1 1 1 1 1 1 1 0 
464 20 4924 1 1 1 1 1 1 1 1 1 1 0 1 1 0 1 1 1 1 1 1 
465 20 5324 1 1 0 1 1 1 1 1 1 1 0 1 1 1 1 0 1 0 1 1 
466 20 4632 1 0 1 1 1 1 1 0 1 1 0 1 1 1 1 1 0 1 1 1 
467 20 5200 1 0 1 1 1 1 1 1 1 1 1 1 0 1 1 1 1 1 1 1 
468 20 4645 1 1 0 1 1 1 1 1 1 0 1 1 1 1 1 1 1 1 1 1 
469 20 3619 1 1 1 1 1 1 1 1 1 1 0 1 1 1 0 1 1 1 1 1 
470 20 4787 1 1 1 1 1 1 1 1 1 1 1 1 0 0 1 0 1 1 1 1 
471 20 4064 1 0 1 1 1 1 1 1 0 1 1 1 1 1 1 1 1 1 1 1 
472 20 4018 1 1 1 1 1 1 0 1 1 1 0 1 1 1 1 1 1 1 1 0 
473 20 4525 0 1 1 1 1 1 1 1 1 1 0 1 1 1 1 1 1 1 1 0 
474 20 5239 1 1 0 1 1 1 1 1 1 0 1 1 1 1 1 1 1 1 1 1 
475 20 5016 1 1 1 1 1 1 1 1 0 1 0 1 1 1 1 0 1 1 1 1 
476 20 5204 1 1 1 1 1 1 1 1 1 0 1 1 1 1 1 1 1 1 1 1 
477 20 4277 1 1 1 1 1 1 1 1 1 0 0 1 1 1 1 1 1 1 1 1 
478 20 5175 1 1 1 1 1 0 1 1 1 1 1 1 1 1 1 1 1 0 1 0 
479 20 4528 1 1 1 1 1 1 1 1 1 1 1 0 1 1 1 1 1 1 0 1 
480 20 5105 1 1 1 1 1 1 0 1 1 1 1 1 1 1 0 1 1 1 1 1 
481 20 4555 1 1 1 1 1 1 1 1 1 1 1 1 0 1 1 0 1 1 1 1 
482 20 4597 1 0 1 0 1 1 1 1 1 1 1 1 1 1 1 0 1 1 1 1 
483 20 4925 1 1 1 1 0 1 0 1 1 1 0 1 1 1 0 1 1 1 1 1 
484 20 5769 1 1 1 1 1 0 1 1 1 1 1 1 0 1 1 1 1 1 1 1 
485 20 5443 1 1 1 1 0 1 1 0 1 1 1 1 1 1 0 1 0 1 1 1 
486 20 5238 1 1 1 1 0 1 1 1 1 1 1 0 1 1 1 1 1 1 1 1 
487 20 5350 0 1 1 1 1 1 1 1 1 1 1 1 1 1 0 1 1 1 1 1 
488 20 5515 1 1 1 1 1 1 1 1 0 1 1 0 1 1 1 0 1 1 0 1 
489 20 5146 1 1 1 1 1 0 1 1 1 1 1 1 1 0 1 1 1 1 1 1 
490 20 4323 1 1 1 1 1 1 0 1 1 1 1 1 1 1 1 1 1 0 0 1 
491 20 4603 1 0 1 1 1 1 1 1 1 1 1 1 1 1 1 0 1 1 1 1 
492 20 5382 1 1 1 1 1 1 1 1 1 1 1 1 0 1 1 1 0 1 1 1 
493 20 4984 1 1 1 1 1 1 1 0 1 0 1 0 1 1 1 0 1 1 1 1 
494 20 5598 1 1 1 1 0 1 1 1 1 0 1 0 1 1 1 1 1 1 1 1 
495 20 4859 1 1 1 1 1 0 1 1 1 1 1 1 1 1 0 1 1 0 0 1 
496 20 5881 1 1 1 1 1 1 0 1 1 1 0 1 1 1 1 1 1 1 1 1 
497 20 3931 1 1 1 1 1 0 1 1 1 1 1 1 1 1 1 1 1 1 0 1 
498 20 4600 1 1 1 1 1 1 1 0 1 1 1 1 1 1 1 0 1 1 1 1 
499 20 4682 1 1 1 1 0 1 1 0 1 0 1 1 1 1 1 1 1 1 1 1 
500 20 4525 0 1 1 0 1 1 1 1 1 1 1 1 1 1 1 1 1 1 1 1 
