1 20 5174 1 1 1 0 1 1 1 1 1 1 1 1 1 1 1 1 0 1 1 0 
2 20 5466 1 1 1 1 1 1 1 1 1 1 1 1 0 1 1 0 1 1 1 1 
3 20 4754 0 1 1 0 1 1 1 1 1 1 1 1 1 1 1 1 1 1 1 1 
4 20 5100 1 1 1 0 1 1 1 1 1 1 0 1 0 1 1 1 1 1 1 1 
5 20 5163 1 1 1 1 0 1 1 1 1 1 1 1 1 1 1 1 1 1 1 0 
6 20 5112 1 1 1 1 1 1 1 0 1 1 1 1 1 1 1 1 1 1 1 0 
7 20 4514 1 1 1 1 1 1 1 1 1 1 1 1 1 1 0 1 1 1 1 0 
8 20 4031 0 1 1 1 1 1 1 1 1 1 1 1 1 0 1 0 1 1 1 1 
9 20 4066 0 1 1 1 1 1 1 1 1 1 1 1 1 1 0 1 1 1 0 1 
10 20 4255 1 0 1 0 1 1 1 1 1 0 1 1 1 1 1 1 0 1 1 1 
11 20 5047 1 0 1 1 1 1 0 1 1 0 1 1 1 1 1 0 0 1 1 1 
12 20 4259 1 0 1 1 1 1 1 1 1 1 1 1 0 1 1 1 1 1 1 1 
13 20 4821 1 1 1 1 1 1 1 1 1 0 1 1 1 1 1 1 1 1 1 1 
14 20 5525 1 1 0 1 1 1 1 1 1 1 1 1 1 1 1 1 0 1 0 1 
15 20 5026 1 1 0 1 1 1 1 1 1 1 1 1 1 1 1 1 1 1 0 1 
16 20 4977 1 1 1 1 1 1 1 1 1 1 1 1 0 1 0 1 1 1 0 1 
17 20 3751 0 1 1 1 1 1 1 1 1 1 1 1 1 1 0 0 1 0 1 1 
18 20 5684 0 1 1 1 1 1 1 1 1 1 1 0 1 1 1 1 1 1 1 1 
19 20 3962 1 0 1 1 1 1 1 1 1 1 1 1 1 1 0 1 1 1 1 1 
20 20 4653 1 0 1 1 1 0 1 1 1 1 1 1 1 1 1 1 1 1 1 1 
21 20 5408 0 1 1 1 1 1 1 1 1 1 1 1 1 0 1 1 1 1 1 1 
22 20 5466 1 1 1 1 1 1 1 1 0 1 1 1 1 1 1 1 0 1 1 1 
23 20 3581 1 1 1 1 1 1 1 0 1 1 1 1 1 0 1 1 1 1 1 1 
24 20 4303 1 1 1 1 0 1 1 1 0 0 1 1 0 1 1 1 1 1 1 1 
25 20 4944 1 0 1 1 1 1 1 1 1 1 1 1 1 1 1 1 1 1 1 1 
26 20 4936 1 1 1 1 1 1 0 1 1 1 1 1 0 1 1 1 1 1 0 1 
27 20 5382 0 1 1 1 1 1 1 0 1 1 1 1 1 1 1 1 1 1 1 1 
28 20 5171 1 1 1 1 0 1 1 1 1 1 1 1 1 1 1 1 0 1 1 1 
29 20 4316 1 1 0 1 1 1 1 1 1 1 1 0 1 1 1 1 1 1 1 1 
30 20 4554 1 1 1 1 1 1 1 0 1 1 1 1 1 1 1 1 1 0 1 1 
31 20 4119 1 1 0 1 1 1 1 1 1 1 1 1 1 0 1 1 1 0 1 1 
32 20 5308 1 1 1 1 1 1 1 1 1 1 1 0 1 1 1 1 1 1 0 1 
33 20 4028 1 1 1 1 1 1 1 1 0 1 1 1 1 0 1 0 1 1 1 0 
34 20 4611 1 1 1 1 1 1 1 1 1 1 1 1 1 1 1 0 0 0 1 1 
35 20 5182 1 1 0 1 1 1 1 0 1 0 1 1 1 1 1 1 1 1 1 1 
36 20 4855 1 1 1 1 1 1 1 1 1 1 1 1 1 1 1 0 1 1 1 0 
37 20 5401 1 0 1 1 1 1 1 1 1 0 1 1 0 1 1 1 1 1 1 1 
38 20 5387 1 1 1 1 1 1 1 0 1 1 1 1 1 1 1 1 0 1 1 1 
39 20 4716 1 1 1 0 0 1 1 1 1 1 1 1 0 1 1 1 1 1 1 1 
40 20 4655 1 1 1 1 1 1 1 1 0 1 1 0 1 1 1 1 1 1 1 1 
41 20 5180 1 1 1 0 1 1 1 1 1 1 1 1 0 1 1 1 1 1 1 0 
42 20 4116 1 1 1 1 0 1 1 1 1 1 1 0 1 1 0 1 1 1 0 1 
43 20 5834 1 1 1 1 1 1 1 1 1 1 1 1 0 1 1 1 1 0 1 1 
44 20 5405 1 1 1 0 1 1 1 1 1 0 1 1 1 1 1 0 1 1 1 1 
45 20 5608 1 1 1 1 0 1 1 1 1 1 1 0 1 1 1 1 1 1 1 1 
46 20 4001 1 1 0 1 1 0 1 0 1 1 1 1 1 1 1 1 1 1 1 1 
47 20 4763 1 1 1 1 1 1 1 1 0 1 1 1 0 1 1 1 1 1 1 1 
48 20 5168 1 1 1 1 1 1 1 1 1 1 1 0 0 1 1 0 1 1 1 1 
49 20 4287 1 1 1 1 0 0 1 1 1 1 1 1 1 1 1 1 1 1 1 1 
50 20 5626 0 1 1 1 1 1 1 1 1 1 1 1 1 1 1 1 1 1 1 0 
51 20 5474 1 1 1 1 1 1 1 0 1 1 1 0 1 1 1 1 1 1 0 1 
52 20 5022 1 1 0 1 1 0 1 1 1 1 1 0 1 1 1 1 1 1 1 1 
53 20 4494 1 1 1 0 1 1 1 1 1 1 1 1 1 1 1 1 1 1 1 1 
54 20 5126 0 1 1 1 0 1 1 1 1 1 1 1 1 0 1 1 1 1 1 1 
55 20 4374 1 1 1 1 0 1 0 1 0 1 1 1 1 1 0 1 1 1 1 1 
56 20 3747 1 1 1 1 0 1 0 1 1 1 1 0 1 1 1 1 1 1 1 1 
57 20 5370 1 1 0 1 0 1 1 1 1 1 1 1 1 1 1 1 1 1 0 1 
58 20 4793 1 1 1 1 1 1 1 1 1 0 1 0 1 1 0 1 1 1 1 1 
59 20 4046 1 1 1 1 1 1 1 1 1 1 1 1 1 1 1 1 1 0 0 1 
60 20 4706 1 1 1 1 1 1 0 1 1 1 1 0 1 1 1 1 1 1 1 0 
61 20 3735 1 1 1 1 1 1 0 1 1 1 1 1 1 0 1 1 1 1 1 1 
62 20 4998 1 1 1 0 1 1 1 1 1 0 1 1 0 1 1 1 0 1 1 1 
63 20 4697 1 1 1 1 1 1 0 1 1 1 1 1 1 1 1 1 1 1 0 1 
64 20 5408 1 1 1 1 0 1 1 1 1 1 1 1 0 1 1 1 1 1 1 1 
65 20 4866 1 1 1 1 1 1 1 0 1 1 0 1 1 1 1 1 0 1 1 1 
66 20 4947 1 1 1 0 1 1 1 1 1 1 1 1 1 1 1 1 0 1 1 1 
67 20 4770 1 1 1 1 1 1 0 1 1 1 1 1 0 1 1 1 1 1 0 1 
68 20 3585 1 1 1 1 1 0 1 1 0 1 1 0 1 0 1 1 1 1 1 1 
69 20 4578 1 1 1 1 1 1 1 1 1 1 1 0 1 1 1 1 1 1 0 1 
70 20 4557 1 1 0 1 1 1 0 0 1 1 1 1 1 1 1 1 1 1 1 1 
71 20 6110 1 1 0 1 1 1 1 1 1 1 1 1 1 1 1 0 1 1 1 1 
72 20 5083 1 1 1 1 1 1 1 1 1 1 1 0 1 1 1 1 1 1 1 1 
73 20 5349 1 1 1 1 1 1 0 1 1 1 1 1 1 0 1 1 0 0 1 1 
74 20 4188 1 1 1 1 1 0 1 0 1 1 1 1 1 1 1 1 1 1 1 1 
75 20 4512 1 1 1 1 1 1 1 1 1 1 1 1 1 1 0 1 1 1 0 1 
76 20 4597 1 1 0 1 1 0 1 1 1 1 1 1 1 1 1 0 1 1 1 1 
77 20 5074 1 1 1 1 1 1 0 1 1 1 1 1 1 0 1 1 1 1 1 1 
78 20 5607 1 1 1 1 1 1 0 1 1 1 1 0 1 1 1 1 1 1 1 1 
79 20 5239 1 1 1 1 1 1 1 0 1 1 1 1 0 1 1 1 1 1 0 1 
80 20 4904 1 1 1 1 1 1 1 1 0 1 0 1 1 1 1 1 1 1 1 0 
81 20 5532 1 1 1 1 1 1 1 1 1 1 1 1 0 1 1 1 1 0 1 1 
82 20 5035 0 1 1 1 1 1 1 1 1 1 1 1 1 1 1 1 1 0 1 1 
83 20 4893 1 1 1 1 1 1 1 1 1 1 1 1 1 1 1 1 1 1 0 0 
84 20 5126 1 1 1 1 1 1 1 0 1 1 1 0 1 1 1 1 0 1 1 1 
85 20 5654 1 1 0 1 1 1 1 1 1 1 1 1 1 1 1 1 1 1 0 1 
86 20 3846 1 1 1 1 1 1 1 1 1 0 1 1 1 0 1 1 1 1 1 1 
87 20 3246 1 0 1 1 1 1 1 0 1 1 1 1 1 1 1 1 1 0 1 1 
88 20 4167 0 1 1 1 1 1 1 1 1 1 1 1 1 1 0 1 1 1 1 1 
89 20 5903 1 1 1 1 1 0 1 1 1 1 1 1 1 1 1 1 0 1 1 1 
90 20 5450 1 1 1 1 1 1 1 1 1 1 0 1 1 1 0 1 1 0 1 1 
91 20 4849 1 1 1 1 1 1 1 1 1 1 1 1 1 1 0 1 0 1 1 1 
92 20 5244 1 1 1 1 1 1 1 1 1 1 0 1 0 1 1 1 1 1 1 0 
93 20 4327 1 0 1 1 1 1 1 1 0 1 1 1 1 1 1 0 0 1 1 1 
94 20 3435 1 0 1 1 1 1 1 1 1 1 1 1 1 1 1 1 0 1 1 1 
95 20 4350 1 1 1 1 0 1 1 1 1 1 1 1 1 1 1 1 1 1 0 1 
96 20 5550 1 1 1 1 1 1 1 1 1 0 1 0 1 1 1 1 1 1 1 1 
97 20 4854 0 1 1 1 1 1 1 1 1 1 1 1 1 0 1 1 1 1 1 1 
98 20 4637 1 1 1 1 1 1 1 1 1 1 1 1 1 1 1 1 0 1 1 0 
99 20 5273 1 1 0 1 1 1 1 1 1 1 0 1 1 1 1 1 1 1 1 1 
100 20 5717 1 1 1 0 1 1 1 1 1 1 0 1 1 1 1 1 1 0 1 1 
101 20 5260 0 1 1 1 1 1 1 1 1 0 1 1 1 1 1 1 1 1 1 1 
102 20 4485 0 1 1 1 1 1 1 1 1 1 1 1 1 1 1 1 1 0 0 1 
103 20 5032 1 1 1 1 1 1 1 1 1 0 1 1 1 1 1 1 0 1 1 1 
104 20 5241 1 1 1 0 1 1 1 1 1 0 1 1 1 1 1 1 1 1 1 1 
105 20 4790 1 1 1 0 1 0 1 1 1 1 1 1 1 1 1 1 1 1 1 1 
106 20 4388 1 1 0 1 1 1 0 1 1 1 1 1 0 1 1 1 1 1 1 1 
107 20 4970 1 1 1 1 1 1 1 1 0 1 1 0 1 1 1 1 1 1 1 1 
108 20 4003 1 1 1 1 1 0 1 1 1 1 1 1 1 1 1 1 1 0 1 1 
109 20 4634 1 1 1 1 1 0 1 1 1 0 1 1 1 1 1 1 1 1 1 1 
110 20 6113 1 1 1 1 1 1 1 1 0 1 1 1 1 1 1 0 1 1 1 1 
111 20 5293 1 1 1 1 1 1 1 1 1 1 1 0 1 1 1 0 1 1 1 1 
112 20 4377 1 1 1 1 1 1 0 1 1 1 1 1 1 1 1 0 1 1 1 1 
113 20 4310 1 1 1 1 1 1 1 0 0 1 1 0 1 1 1 1 1 1 1 1 
114 20 5429 1 1 0 1 1 1 1 1 1 1 0 1 1 1 1 1 1 1 1 1 
115 20 4186 1 1 1 1 1 1 1 1 1 0 1 1 1 1 1 1 0 1 1 1 
116 20 5045 1 1 1 1 1 1 1 1 1 1 0 1 0 1 1 1 1 1 1 1 
117 20 4469 1 0 1 1 1 0 1 1 1 1 1 1 1 1 0 1 1 1 1 0 
118 20 4284 1 1 1 1 0 1 1 1 1 1 1 1 1 1 1 1 0 1 1 1 
119 20 5580 1 1 1 1 1 0 1 1 1 1 1 1 0 1 1 1 1 0 1 1 
120 20 5742 1 1 1 0 0 1 1 1 1 1 1 1 1 1 1 0 1 1 1 1 
121 20 5156 1 1 1 1 1 0 1 0 1 1 1 1 1 1 1 1 1 1 1 1 
122 20 4148 1 1 1 0 1 0 1 1 1 1 1 1 1 1 1 1 1 1 1 1 
123 20 4338 1 1 1 1 0 1 1 1 1 1 1 1 1 1 1 1 1 1 1 1 
124 20 4914 1 1 1 0 1 1 0 1 1 1 1 1 1 1 1 1 1 1 1 1 
125 20 5260 1 1 1 1 0 0 1 0 1 1 1 1 1 1 1 1 1 1 1 1 
126 20 4891 1 1 1 1 1 0 1 1 1 1 0 1 1 0 1 1 1 1 1 1 
127 20 3651 1 1 1 1 0 1 0 1 1 1 1 1 1 1 1 1 1 1 1 1 
128 20 4588 1 1 0 1 1 1 1 1 1 1 1 0 1 1 0 0 1 1 1 1 
129 20 3905 1 0 1 1 1 1 0 1 1 1 1 1 1 1 1 1 1 1 0 1 
130 20 5078 1 1 1 1 1 1 1 1 1 1 0 1 1 1 1 1 1 1 1 0 
131 20 4699 1 0 1 1 1 1 1 1 1 1 1 1 1 1 1 1 0 1 1 1 
132 20 4969 1 1 1 1 1 1 1 1 1 1 0 1 1 1 1 0 1 1 1 1 
133 20 5169 0 1 1 1 1 1 1 1 1 0 1 1 1 1 1 1 0 1 1 1 
134 20 4536 1 1 1 1 1 1 0 1 1 1 1 1 1 0 1 1 1 1 1 1 
135 20 5317 1 1 1 1 1 1 1 1 0 0 1 1 1 1 1 1 1 1 1 1 
136 20 4297 1 1 1 1 1 1 1 1 1 1 0 1 1 1 0 1 1 1 1 1 
137 20 4913 1 1 1 1 1 1 1 1 1 1 1 0 1 1 1 1 1 1 0 1 
138 20 5345 1 1 1 1 1 1 1 1 1 1 1 1 1 1 1 0 1 1 0 1 
139 20 5603 1 1 1 1 1 1 1 1 1 0 1 1 1 1 0 1 1 1 1 1 
140 20 5443 1 1 1 1 1 0 1 1 1 1 0 1 1 1 1 1 1 1 1 1 
141 20 4727 1 1 1 1 1 1 1 1 1 1 0 1 1 0 0 1 1 1 1 1 
142 20 5179 0 1 1 1 1 1 1 1 1 1 1 1 1 0 1 1 1 1 0 1 
143 20 5638 0 1 1 1 1 1 0 1 1 1 1 1 1 1 1 1 1 1 1 1 
144 20 4582 1 1 1 1 1 1 0 1 1 1 1 1 1 1 1 1 1 1 1 0 
145 20 4660 1 1 1 1 1 1 1 0 1 1 1 1 1 0 1 1 1 1 1 1 
146 20 4072 1 1 1 1 0 0 1 1 1 1 1 1 1 0 1 1 1 1 1 1 
147 20 5197 1 1 1 1 1 1 1 1 1 0 1 1 1 1 1 1 1 1 0 1 
148 20 4809 1 1 1 1 0 1 1 1 1 1 1 1 1 1 0 1 1 1 1 1 
149 20 4910 0 1 1 1 1 1 1 1 1 1 1 1 1 0 1 1 1 1 1 1 
150 20 4634 1 1 1 1 1 0 1 1 1 1 1 1 1 1 1 1 1 1 1 0 
151 20 4352 1 0 1 1 1 0 1 1 1 1 1 1 1 1 1 1 1 1 0 1 
152 20 4508 1 1 1 1 1 1 1 1 1 0 1 1 0 1 1 1 1 1 1 1 
153 20 4834 0 1 1 1 1 1 1 1 1 1 1 1 1 1 1 1 0 1 1 1 
154 20 5141 1 1 1 1 0 1 1 1 1 1 1 1 1 1 1 0 1 1 1 1 
155 20 5117 0 1 1 1 1 1 0 1 1 1 1 1 1 1 1 1 1 1 1 1 
156 20 3870 1 1 1 1 1 1 1 1 1 1 1 1 0 1 1 1 1 1 0 1 
157 20 4728 1 1 1 1 0 1 1 1 1 1 0 1 0 1 1 1 1 1 1 1 
158 20 4272 0 1 1 1 0 1 1 1 1 1 1 1 1 1 1 1 1 1 1 1 
159 20 6221 1 0 1 1 1 1 1 1 1 1 1 1 1 1 1 1 1 0 1 1 
160 20 4769 1 1 1 0 1 1 0 1 1 1 1 1 1 1 1 1 1 1 1 1 
161 20 4448 1 1 1 0 1 1 1 1 1 0 1 1 0 1 1 1 1 1 1 1 
162 20 5152 1 1 1 1 1 1 1 1 1 1 1 1 0 1 1 1 1 1 0 1 
163 20 4258 1 1 1 1 1 1 1 1 0 1 1 1 1 0 1 1 1 0 1 1 
164 20 4960 1 1 1 1 1 0 1 1 1 1 1 1 1 1 1 1 1 0 1 1 
165 20 4870 1 1 1 1 1 1 1 0 1 1 1 1 1 1 0 1 1 1 1 0 
166 20 3291 1 1 0 1 0 1 1 1 1 1 1 0 1 1 1 1 1 1 1 1 
167 20 5298 0 1 1 1 1 1 0 0 1 1 1 1 1 1 1 1 1 1 1 1 
168 20 3333 1 1 1 1 1 1 1 0 1 1 1 1 1 1 1 1 1 1 1 0 
169 20 5686 1 1 1 1 1 1 1 1 1 1 1 1 0 1 1 1 1 0 0 1 
170 20 3898 1 1 1 1 1 1 1 0 0 1 1 1 1 1 1 0 1 1 1 1 
171 20 4550 1 1 1 1 1 1 1 1 1 1 1 1 1 1 1 1 0 1 1 1 
172 20 5192 1 1 0 1 1 1 1 1 1 1 1 1 1 1 1 1 0 1 1 1 
173 20 3591 1 1 1 0 1 1 1 1 1 1 1 1 1 1 1 1 0 1 1 1 
174 20 5436 1 1 1 1 1 1 0 1 1 0 1 1 1 1 1 1 1 1 1 1 
175 20 4441 1 1 0 1 1 1 1 1 1 1 1 1 1 1 1 1 1 1 0 1 
176 20 4752 1 1 1 1 1 1 1 1 1 1 0 1 1 1 1 1 1 1 1 0 
177 20 4950 1 0 1 1 1 1 1 1 1 1 1 1 1 1 1 1 1 1 0 1 
178 20 3535 1 1 1 1 1 1 0 1 1 1 0 1 1 1 1 1 1 1 1 1 
179 20 4951 1 0 1 1 1 1 1 1 0 1 1 1 1 1 1 1 1 1 1 1 
180 20 3724 1 1 1 1 1 1 1 1 1 0 1 1 1 1 1 1 1 1 0 1 
181 20 4839 1 1 1 1 1 1 0 0 1 0 1 0 1 1 1 1 1 1 1 1 
182 20 5089 1 1 1 1 1 1 1 1 1 1 1 1 0 1 1 1 0 1 1 1 
183 20 5279 1 1 1 1 0 0 1 1 1 1 1 1 1 1 1 1 1 1 1 1 
184 20 4510 1 1 1 1 1 1 1 1 1 1 1 1 1 1 1 1 1 1 0 1 
185 20 3991 1 0 1 1 1 1 0 1 1 1 1 1 1 1 1 1 1 1 1 0 
186 20 4987 1 1 1 1 1 1 1 0 1 1 1 0 1 1 1 0 1 1 1 1 
187 20 4775 1 0 1 1 1 0 1 1 1 1 1 0 1 1 1 1 1 1 1 1 
188 20 4745 1 1 1 1 0 1 0 1 1 1 1 0 1 1 1 1 1 1 1 1 
189 20 3994 1 1 0 1 1 1 1 1 1 1 1 0 1 1 1 1 1 1 1 1 
190 20 4912 1 1 1 1 0 1 0 1 1 1 1 1 1 0 1 1 1 1 1 1 
191 20 5396 0 1 1 1 0 0 1 1 1 1 1 1 1 1 1 1 0 1 1 1 
192 20 4910 1 0 1 1 1 1 1 1 1 1 1 0 1 1 0 1 1 1 1 1 
193 20 4468 1 1 1 0 1 1 1 1 1 1 1 1 1 1 1 0 1 1 1 1 
194 20 6008 0 1 1 1 0 1 1 1 1 1 1 1 1 1 1 1 1 1 1 1 
195 20 3665 1 1 1 1 0 1 1 1 1 0 1 1 1 1 1 1 1 1 1 1 
196 20 4960 1 1 1 1 1 1 1 0 1 1 1 1 1 1 1 0 1 1 1 1 
197 20 3628 1 0 1 1 1 1 0 0 1 1 1 1 1 1 0 1 1 1 1 1 
198 20 5578 1 1 1 1 1 0 1 1 1 1 1 1 1 1 1 1 0 1 1 1 
199 20 5009 1 1 1 1 1 1 1 0 1 1 1 1 0 1 1 1 1 1 0 1 
200 20 4887 1 1 1 1 1 1 1 0 1 1 0 1 1 1 1 1 1 1 0 1 
201 20 4973 1 1 1 1 1 1 1 1 0 1 1 1 1 1 1 1 1 1 0 1 
202 20 5255 1 1 0 1 1 1 1 1 1 1 0 0 1 1 1 1 1 0 1 1 
203 20 5155 1 0 1 1 1 1 1 1 1 0 1 1 1 1 1 1 1 1 1 1 
204 20 4540 1 1 1 1 1 1 1 1 1 1 1 1 1 1 1 0 1 1 0 1 
205 20 4948 1 1 1 1 1 1 1 1 1 0 1 0 1 1 0 1 1 1 1 1 
206 20 3983 1 1 1 1 1 1 1 1 1 1 1 0 1 1 1 1 0 1 1 1 
207 20 5524 1 0 1 1 1 1 0 1 1 1 1 1 1 1 0 1 1 1 1 1 
208 20 5039 1 1 1 1 1 1 1 1 1 0 1 1 1 1 1 0 1 1 1 1 
209 20 5014 1 1 1 1 1 1 1 1 1 1 1 1 1 1 1 1 1 1 0 1 
210 20 4322 1 1 1 1 1 1 1 1 1 1 0 1 1 0 1 1 1 0 0 1 
211 20 5233 1 1 1 1 1 1 1 1 1 1 1 1 1 1 1 1 0 1 1 1 
212 20 4198 0 1 1 1 1 1 1 1 1 1 1 1 1 0 1 1 1 1 1 1 
213 20 4851 1 1 1 1 0 1 1 1 1 1 1 1 1 1 1 1 0 1 1 1 
214 20 4815 1 1 0 1 1 1 1 1 1 0 1 1 1 1 1 1 0 1 1 1 
215 20 5524 1 1 1 1 1 1 1 1 1 1 1 1 1 1 0 1 1 1 0 1 
216 20 3702 1 1 1 1 1 1 1 1 1 0 1 1 1 1 0 1 0 1 1 1 
217 20 5809 1 1 1 1 1 1 1 1 1 1 1 1 1 1 1 0 0 1 1 1 
218 20 5105 1 1 1 1 1 1 1 1 1 1 0 1 1 1 1 1 0 1 1 1 
219 20 5443 1 1 1 1 1 1 1 0 1 1 1 1 1 0 1 1 1 1 1 1 
220 20 5582 1 1 1 0 1 1 1 1 0 1 1 1 1 1 1 0 1 1 0 1 
221 20 4288 1 1 0 0 1 1 1 1 1 1 1 1 1 0 1 1 0 1 1 1 
222 20 5674 1 1 1 1 1 1 1 1 0 1 1 1 1 0 1 1 1 1 1 1 
223 20 5338 1 1 1 1 1 1 0 1 1 1 1 1 0 1 1 1 1 1 1 1 
224 20 4347 1 1 1 1 1 1 1 1 1 0 0 1 1 1 1 1 1 1 1 1 
225 20 4061 1 1 1 1 1 1 1 1 1 1 1 1 1 0 1 0 0 1 1 1 
226 20 4931 1 1 1 1 1 1 1 1 1 1 0 1 1 1 1 0 1 1 1 1 
227 20 4418 0 1 1 1 1 1 1 1 1 1 1 0 1 1 1 1 1 1 1 1 
228 20 4790 1 1 1 1 1 0 0 1 1 1 1 1 1 1 1 1 1 1 0 1 
229 20 4934 1 1 1 1 1 1 0 1 1 1 1 0 1 1 1 1 1 1 1 1 
230 20 4656 1 1 1 1 1 1 0 0 1 1 1 0 1 1 1 1 1 1 1 1 
231 20 4731 1 1 0 1 1 1 1 1 0 1 1 1 1 0 1 1 1 1 1 1 
232 20 4225 1 1 1 1 1 1 1 1 1 1 1 1 0 1 0 0 1 1 1 1 
233 20 5260 0 1 1 1 0 1 1 1 1 1 1 1 1 1 1 1 1 0 1 1 
234 20 4323 1 1 1 1 1 1 1 1 1 1 1 1 1 0 1 0 1 1 1 0 
235 20 4978 1 1 1 0 1 1 1 1 1 1 1 1 1 0 1 1 1 1 1 1 
236 20 4546 1 1 0 1 1 1 1 1 1 1 1 1 1 1 1 1 0 1 1 1 
237 20 4672 1 1 1 1 1 0 1 1 1 1 1 0 1 1 1 1 1 1 0 1 
238 20 4902 1 1 1 1 1 1 1 1 1 1 1 0 1 0 1 1 1 1 1 1 
239 20 3943 1 0 1 1 1 1 1 1 1 1 1 1 1 1 1 1 1 1 1 0 
240 20 6054 1 1 1 0 1 1 1 1 0 1 1 1 1 1 1 1 1 1 1 1 
241 20 3926 0 1 1 1 1 1 1 1 1 1 1 1 1 1 1 1 1 1 0 1 
242 20 5556 1 1 1 1 1 1 1 1 1 0 1 1 1 1 1 1 1 1 1 0 
243 20 4421 1 1 1 1 1 1 1 1 1 1 1 1 1 1 1 1 1 0 0 0 
244 20 4662 1 1 1 1 0 1 1 0 1 1 1 1 1 1 0 1 1 1 1 1 
245 20 4792 1 1 1 1 1 1 1 1 1 1 1 1 1 1 1 0 1 1 1 1 
246 20 4898 1 1 1 1 1 1 1 1 1 1 1 1 1 1 1 0 0 1 1 1 
247 20 4153 1 1 1 1 0 1 1 1 1 1 1 1 1 1 1 1 1 1 0 1 
248 20 4062 1 1 0 0 1 1 1 1 1 1 1 0 1 1 1 1 1 1 1 1 
249 20 3878 1 1 1 1 1 0 1 1 1 1 1 1 1 1 0 1 1 1 1 1 
250 20 4460 1 1 0 1 1 1 1 1 1 1 0 1 1 1 1 1 1 1 1 1 
251 20 5387 1 1 0 1 1 1 1 1 1 1 1 1 1 1 1 1 0 1 1 1 
252 20 4555 0 1 1 1 1 1 1 1 1 1 1 1 1 1 1 1 1 1 0 1 
253 20 4092 1 1 1 1 0 1 1 1 1 1 1 1 1 1 0 1 1 1 1 0 
254 20 5069 0 1 1 1 0 1 1 1 1 1 1 1 1 1 0 1 1 1 1 1 
255 20 4328 1 1 1 1 1 1 1 0 1 0 1 1 1 1 0 1 1 1 1 1 
256 20 4712 1 1 1 1 1 1 1 1 1 0 1 1 1 1 1 1 1 0 1 1 
257 20 4314 1 1 0 1 1 1 1 1 1 1 1 1 0 1 1 1 1 1 1 1 
258 20 4380 1 0 1 1 1 1 1 1 1 1 1 0 0 1 1 1 1 1 1 1 
259 20 4547 1 0 1 1 1 1 1 1 1 1 1 1 1 0 1 1 1 1 0 1 
260 20 4727 1 1 1 1 1 1 1 1 1 1 1 0 1 1 1 1 0 1 1 0 
261 20 4257 1 1 1 1 1 1 1 1 1 1 1 0 1 1 1 1 1 1 0 1 
262 20 5016 1 1 1 1 1 0 1 0 1 1 1 1 1 1 1 1 1 1 1 1 
263 20 4720 1 1 1 1 1 0 1 1 1 1 0 1 1 1 1 1 1 1 0 1 
264 20 4000 1 1 1 0 1 1 1 1 1 1 1 1 1 1 1 1 0 1 1 1 
265 20 4977 1 1 1 1 1 1 1 1 0 1 0 1 1 1 0 1 1 1 1 1 
266 20 5176 1 1 1 1 1 1 1 1 1 1 1 1 1 1 0 0 1 1 1 0 
267 20 4814 1 1 1 1 1 1 1 1 0 1 1 1 1 1 0 1 1 1 1 0 
268 20 4575 1 1 0 1 1 1 1 1 1 1 1 1 0 1 1 1 0 1 1 1 
269 20 4828 0 1 1 1 1 1 1 1 1 1 1 0 1 1 1 1 1 1 1 1 
270 20 5990 1 1 1 1 1 1 1 0 1 1 1 1 0 0 1 1 1 1 1 1 
271 20 4250 1 0 1 1 1 1 1 0 1 1 1 1 1 1 1 0 1 1 1 1 
272 20 4237 1 1 1 1 0 1 1 0 1 1 1 1 1 1 1 1 1 1 1 1 
273 20 4299 0 1 1 1 1 0 1 1 1 1 1 1 1 1 1 1 1 1 1 0 
274 20 4344 1 1 1 1 1 1 1 1 1 1 1 1 1 1 1 0 1 1 0 1 
275 20 4970 1 1 1 1 1 1 1 1 1 1 1 1 1 1 0 1 0 0 1 1 
276 20 5721 1 1 1 1 1 1 1 0 1 1 1 1 1 0 1 1 1 1 1 1 
277 20 4715 1 1 1 1 0 1 1 1 1 1 1 1 1 0 1 1 1 1 1 1 
278 20 5888 1 1 1 1 1 1 1 1 1 1 0 1 1 1 1 1 0 1 1 1 
279 20 5201 1 1 1 1 1 1 1 1 1 0 0 1 1 1 1 1 1 1 1 1 
280 20 4866 1 1 1 0 1 1 0 1 1 1 1 1 1 1 1 1 1 1 1 1 
281 20 4736 1 0 0 1 1 1 1 1 1 1 1 0 1 1 1 1 1 1 1 1 
282 20 4687 1 1 1 1 1 0 1 1 1 1 1 1 1 1 1 1 1 1 1 0 
283 20 4900 1 1 1 1 1 1 0 1 1 1 1 1 0 1 0 1 1 1 1 1 
284 20 5469 1 1 1 1 1 1 1 1 0 1 1 1 1 1 0 1 1 1 1 1 
285 20 4746 0 1 1 1 1 0 1 1 1 1 1 1 1 1 1 1 0 1 1 1 
286 20 5112 1 1 0 1 0 1 1 1 1 1 1 1 1 1 0 1 1 1 1 1 
287 20 5095 1 1 1 1 1 1 1 0 0 1 1 0 0 1 1 1 1 1 1 1 
288 20 4158 1 1 1 1 0 1 1 1 1 1 1 1 1 0 1 1 1 1 1 1 
289 20 5574 0 1 0 1 1 1 1 1 1 1 1 1 1 1 1 1 1 1 1 1 
290 20 5029 1 1 1 0 1 1 1 1 1 1 1 1 0 1 1 1 1 1 1 1 
291 20 5226 1 1 1 1 1 0 1 1 1 1 0 1 0 1 1 1 1 1 1 1 
292 20 5463 1 1 1 1 1 1 1 1 1 0 1 0 1 1 1 1 0 1 1 0 
293 20 5000 0 0 1 1 1 1 0 1 1 1 1 1 0 1 1 1 1 1 1 1 
294 20 5818 1 1 1 1 1 1 1 1 0 1 1 0 1 1 1 1 1 1 1 1 
295 20 4717 1 1 1 1 1 1 1 1 1 0 1 1 1 0 1 1 1 1 1 1 
296 20 4530 0 1 1 1 1 1 1 1 1 1 1 1 1 1 1 0 1 1 1 1 
297 20 4669 1 1 1 1 1 1 1 1 1 1 1 1 1 1 1 1 1 0 1 0 
298 20 4054 1 0 0 1 1 1 1 1 1 1 1 1 1 1 1 1 1 1 1 1 
299 20 4567 1 1 1 0 1 0 1 0 1 1 1 1 1 1 1 1 1 1 1 1 
300 20 4788 1 1 1 1 1 1 1 1 0 1 1 0 1 0 1 1 1 1 1 1 
301 20 5556 1 1 1 1 1 1 1 0 1 1 1 1 1 1 1 1 1 1 0 1 
302 20 5424 1 0 1 1 1 1 1 1 1 1 1 1 1 1 1 1 1 1 1 1 
303 20 5143 1 1 0 1 1 1 1 1 1 1 1 0 1 1 1 1 1 1 1 1 
304 20 5325 0 1 0 1 1 1 0 1 1 1 1 1 1 1 1 1 1 1 1 1 
305 20 5335 1 1 1 1 1 1 1 1 1 1 1 1 1 0 1 1 1 0 1 1 
306 20 4226 1 1 0 1 1 1 1 1 1 1 1 1 1 1 1 0 1 1 1 1 
307 20 3414 1 1 1 1 1 1 1 1 1 1 1 1 1 0 1 1 1 1 1 0 
308 20 4358 1 1 1 0 1 0 1 1 1 1 1 1 1 1 1 1 1 1 1 1 
309 20 3835 1 1 1 1 1 1 0 1 1 1 0 1 1 0 1 1 1 1 1 1 
310 20 5069 1 0 1 1 1 1 1 1 1 1 1 0 1 1 1 1 1 1 1 1 
311 20 4686 0 1 1 1 1 1 1 1 1 0 1 0 1 1 1 1 1 1 1 1 
312 20 4241 1 1 1 1 0 1 1 1 1 1 1 0 1 1 1 1 1 1 1 1 
313 20 5094 1 1 1 1 1 1 1 1 1 1 1 1 0 1 1 1 1 1 0 1 
314 20 4679 1 0 1 1 1 0 1 1 1 1 1 0 1 1 1 1 1 1 1 1 
315 20 4744 1 1 1 0 1 1 1 1 1 1 1 1 0 1 1 1 1 1 1 1 
316 20 5067 1 1 1 1 0 1 1 1 1 0 1 1 1 1 1 1 1 1 1 1 
317 20 4107 1 1 1 1 1 1 0 1 1 1 1 1 0 1 0 1 1 1 1 1 
318 20 5041 1 1 1 1 0 1 1 1 0 1 0 1 1 1 1 1 1 1 1 1 
319 20 5380 1 1 0 1 1 1 1 1 1 1 1 1 1 1 0 1 1 1 1 1 
320 20 3733 0 1 1 1 1 1 1 1 1 0 1 1 1 1 1 1 1 1 1 1 
321 20 5086 1 1 1 1 1 1 1 1 1 1 1 1 1 1 0 1 1 0 1 1 
322 20 5440 1 1 1 1 0 1 1 1 1 1 1 1 1 1 1 1 0 1 1 1 
323 20 5492 1 1 1 1 1 1 1 1 1 0 1 1 1 1 1 0 1 1 1 1 
324 20 4101 0 1 1 1 1 1 1 0 1 1 1 1 1 1 1 1 1 1 1 0 
325 20 5902 1 1 1 1 1 1 1 1 0 1 1 1 1 1 1 1 1 1 0 1 
326 20 4631 1 1 1 1 1 1 1 1 1 1 1 1 1 1 0 1 1 0 1 1 
327 20 5190 0 1 1 1 1 1 1 1 1 1 1 0 1 1 1 1 1 1 1 1 
328 20 4896 1 1 0 1 1 1 1 1 1 1 0 1 1 1 1 1 1 1 1 1 
329 20 5149 1 1 1 1 0 1 0 1 1 1 1 1 1 1 1 1 1 1 1 1 
330 20 5005 0 1 1 1 1 1 1 1 1 1 1 1 1 1 0 1 1 1 0 0 
331 20 4527 1 1 1 1 0 1 1 1 1 1 1 1 1 0 1 1 1 1 1 1 
332 20 4837 1 1 1 1 1 1 1 1 1 0 1 1 1 1 0 1 1 1 1 1 
333 20 4380 1 1 1 1 1 1 1 1 1 1 1 1 1 0 1 1 0 1 0 1 
334 20 4433 1 1 1 1 1 1 1 1 1 1 1 1 1 1 1 0 1 1 1 1 
335 20 3548 1 1 1 1 0 1 1 1 1 0 1 1 1 1 1 1 1 1 1 1 
336 20 4164 1 1 1 1 1 1 1 0 1 1 0 1 1 1 0 1 1 1 1 1 
337 20 5604 1 1 1 1 1 1 1 1 1 0 1 1 0 1 1 1 1 1 1 1 
338 20 4554 1 1 1 1 1 1 1 0 1 1 1 1 1 1 1 1 1 1 0 1 
339 20 5132 1 1 1 1 0 1 1 0 1 1 1 0 1 1 1 1 1 1 1 1 
340 20 5068 1 1 1 1 1 1 0 1 1 1 1 1 1 0 1 1 1 1 1 1 
341 20 4318 1 1 0 1 1 1 1 1 1 1 1 1 1 1 1 0 1 1 1 1 
342 20 5966 1 1 1 1 1 1 1 1 1 1 1 1 0 0 0 1 1 0 1 1 
343 20 4648 1 1 1 1 1 1 1 1 0 1 1 1 1 1 0 1 1 1 1 1 
344 20 4605 1 1 1 1 0 1 1 1 1 1 0 1 1 1 1 1 1 1 1 1 
345 20 3534 1 0 1 1 1 1 1 1 1 1 1 0 1 1 1 1 1 1 1 1 
346 20 5033 1 1 1 1 1 1 1 1 1 1 1 1 0 1 1 0 1 1 1 1 
347 20 4947 1 1 1 1 0 1 1 0 1 1 1 1 1 1 1 1 1 1 1 1 
348 20 4448 1 1 1 0 1 1 0 1 1 1 1 1 1 1 1 1 1 1 1 1 
349 20 4906 1 0 1 1 1 1 1 1 1 1 1 1 1 1 1 0 1 1 1 1 
350 20 5086 1 1 1 1 1 1 1 1 1 1 1 1 1 1 1 1 1 0 0 1 
351 20 4685 1 0 1 1 1 1 0 1 0 0 1 1 1 1 1 1 1 1 1 1 
352 20 5167 1 1 1 1 0 1 0 1 1 1 1 1 1 1 1 1 1 1 1 0 
353 20 5419 1 1 1 1 1 0 1 1 1 1 1 1 0 1 1 1 1 1 1 1 
354 20 4947 1 1 1 1 0 1 1 1 1 1 1 1 0 0 1 1 1 1 1 1 
355 20 4781 1 1 1 1 1 1 1 1 1 1 1 0 1 1 1 1 1 1 1 1 
356 20 5635 1 1 1 1 1 1 0 1 1 1 1 1 1 1 1 1 1 1 0 0 
357 20 5538 1 1 1 1 1 0 1 1 0 1 1 1 1 1 1 1 1 1 1 1 
358 20 4091 1 1 1 1 0 1 1 1 1 1 1 1 1 0 1 1 1 1 1 1 
359 20 5521 1 1 1 1 1 1 1 1 1 1 1 0 1 1 0 1 1 1 1 1 
360 20 4634 1 1 0 1 1 1 1 1 1 1 1 1 1 1 1 0 1 1 1 1 
361 20 4568 1 1 1 1 1 1 1 1 1 1 1 0 1 1 1 1 1 0 1 1 
362 20 5542 1 1 1 1 0 1 0 1 1 0 1 1 1 1 1 1 1 1 1 1 
363 20 4648 1 1 1 1 1 1 1 1 1 1 1 1 0 1 1 1 1 1 1 0 
364 20 4824 1 1 1 1 1 1 1 1 1 1 1 0 1 0 1 1 1 1 1 1 
365 20 4099 1 1 1 1 1 1 1 1 1 1 1 0 1 1 0 1 1 1 1 0 
366 20 5266 1 1 0 1 1 1 1 0 1 1 1 1 1 1 1 1 1 1 1 1 
367 20 4547 1 1 1 1 1 1 1 1 1 1 1 1 1 0 1 1 0 1 1 1 
368 20 4916 1 1 1 1 1 1 1 1 1 1 1 1 1 1 1 1 0 1 0 1 
369 20 5096 1 1 1 1 1 0 1 1 1 1 1 1 1 1 1 1 1 0 1 1 
370 20 5186 1 1 1 1 1 1 1 1 1 0 0 1 1 1 1 1 1 1 1 1 
371 20 4786 1 1 1 1 1 1 0 0 1 1 1 1 1 1 1 1 1 1 1 1 
372 20 4712 1 1 1 1 1 1 1 0 0 1 1 1 1 1 1 1 1 1 1 1 
373 20 4864 1 0 1 1 0 1 1 1 1 1 1 1 1 1 1 1 1 1 1 1 
374 20 4723 1 1 1 1 1 1 1 1 1 1 0 0 1 1 1 1 0 1 1 1 
375 20 4486 0 1 1 1 1 1 1 1 1 1 1 1 1 1 1 1 1 1 1 0 
376 20 3571 1 1 1 0 1 1 1 1 1 1 0 1 0 1 1 1 1 1 1 1 
377 20 4570 1 1 0 1 1 1 1 1 0 1 1 1 1 1 1 1 1 1 1 1 
378 20 4154 1 0 1 1 1 1 1 1 1 1 1 1 1 1 1 1 1 0 1 1 
379 20 4611 1 1 1 1 1 1 1 1 1 0 1 1 1 1 1 1 0 1 1 1 
380 20 4530 0 1 1 1 1 1 1 1 1 1 1 1 1 1 1 1 1 0 1 1 
381 20 5309 1 1 1 1 1 1 1 1 1 1 1 1 1 1 1 1 1 0 1 1 
382 20 3858 1 1 1 1 0 1 1 1 1 1 1 1 1 1 0 1 1 0 0 1 
383 20 4562 1 1 1 1 1 1 1 1 1 1 1 1 1 1 0 1 1 1 1 0 
384 20 5414 1 1 1 1 1 1 1 0 1 1 1 1 1 1 1 1 1 0 1 1 
385 20 5059 1 1 1 1 1 1 1 1 1 1 1 1 1 1 1 1 1 0 1 1 
386 20 4797 1 0 1 1 0 1 1 1 1 1 1 1 1 1 1 1 1 1 1 1 
387 20 4742 1 1 1 0 1 1 1 1 1 1 1 1 1 1 0 1 0 1 1 1 
388 20 5972 1 0 1 1 1 0 1 1 1 0 1 1 1 1 1 1 1 1 1 1 
389 20 4760 1 0 1 1 1 1 1 1 1 1 1 1 1 1 1 0 1 1 1 1 
390 20 5959 1 1 1 1 0 1 1 1 1 1 1 1 1 1 1 1 1 1 1 0 
391 20 5092 0 1 1 0 1 1 1 1 1 1 0 1 1 1 1 1 1 1 1 1 
392 20 4394 1 1 1 1 1 1 1 0 1 1 0 1 1 1 1 1 1 1 1 1 
393 20 5488 1 1 1 0 1 1 1 1 1 1 1 1 1 1 1 1 1 0 0 1 
394 20 4785 1 1 1 1 1 0 1 1 1 1 0 1 1 1 1 1 1 1 1 1 
395 20 4987 1 1 1 1 1 1 1 1 1 1 0 1 1 1 1 1 0 1 1 1 
396 20 5234 1 1 1 1 1 1 1 1 1 1 0 1 1 0 1 1 0 1 1 1 
397 20 5450 1 1 1 1 0 1 1 1 1 1 1 1 1 1 1 1 1 0 1 1 
398 20 4755 0 1 1 1 1 1 1 1 1 1 0 1 1 1 1 1 1 1 1 1 
399 20 4128 1 1 0 0 1 1 1 1 1 1 1 1 1 1 1 1 1 1 0 1 
400 20 3857 1 0 1 1 1 1 1 1 0 1 1 1 1 1 1 1 1 1 1 0 
401 20 4722 1 1 1 1 1 0 1 1 1 1 1 0 1 1 1 1 1 1 1 1 
402 20 4455 0 1 1 1 1 1 1 1 1 1 1 1 1 1 1 1 1 1 0 1 
403 20 4326 1 0 1 1 1 1 1 1 1 1 1 1 1 0 1 1 1 1 1 1 
404 20 4395 1 1 1 1 1 1 1 1 1 1 1 1 1 1 1 0 1 1 1 0 
405 20 4719 1 1 0 1 1 1 1 1 1 1 1 1 1 1 1 1 1 1 1 1 
406 20 4405 1 0 1 1 1 1 1 1 1 1 1 1 0 1 1 1 1 1 1 1 
407 20 4717 1 0 1 1 1 1 1 1 1 1 1 1 0 1 1 1 1 1 0 1 
408 20 5156 0 0 1 1 1 1 1 1 1 1 1 1 1 1 1 1 1 1 1 1 
409 20 4937 1 0 1 1 1 1 1 1 1 1 0 1 0 1 1 1 1 1 1 1 
410 20 6300 1 0 1 1 1 1 1 1 1 0 1 1 1 1 1 1 1 1 1 1 
411 20 4037 1 1 1 1 1 1 1 1 1 1 0 1 1 0 1 1 1 1 1 1 
412 20 5068 1 1 1 1 1 1 1 1 1 0 1 0 1 1 1 1 1 1 1 1 
413 20 4958 1 1 1 1 0 1 1 1 1 1 0 1 1 1 1 1 1 1 1 1 
414 20 4543 1 0 1 1 1 1 1 1 1 1 1 1 1 1 1 0 1 0 1 1 
415 20 4677 1 0 1 1 1 1 0 1 1 1 1 1 1 1 1 1 1 1 1 1 
416 20 4952 1 1 0 1 1 1 1 0 1 1 1 1 1 1 1 1 1 1 1 1 
417 20 4303 1 1 1 1 1 1 1 0 1 1 1 1 1 0 0 1 1 1 1 1 
418 20 4023 1 1 1 0 0 1 1 1 1 1 1 0 1 1 1 1 1 1 1 1 
419 20 4292 1 1 1 1 0 1 1 1 1 1 1 0 1 1 1 1 1 1 1 1 
420 20 4913 1 1 1 1 1 0 1 1 1 1 0 1 1 1 0 1 1 1 1 1 
421 20 4383 1 1 1 1 1 1 1 1 1 0 1 1 1 1 1 1 1 1 1 0 
422 20 4419 1 1 1 0 1 1 1 1 1 1 1 1 1 1 0 0 1 1 1 1 
423 20 4064 1 0 1 1 1 1 1 0 1 0 1 1 1 1 1 1 1 1 1 1 
424 20 4213 1 1 1 1 1 1 1 0 1 1 1 1 1 0 1 1 1 0 1 1 
425 20 4337 1 1 1 1 0 0 1 1 1 1 1 1 1 1 1 1 1 1 0 1 
426 20 5161 0 1 1 1 0 1 1 1 0 1 1 1 1 1 1 1 1 1 1 1 
427 20 4535 1 1 1 1 1 1 1 1 1 1 1 1 0 0 1 1 0 1 1 1 
428 20 4427 1 1 1 0 0 0 1 1 1 1 1 1 1 1 0 1 1 1 1 1 
429 20 3899 1 1 1 1 1 0 1 1 1 1 1 1 0 1 1 1 1 1 1 1 
430 20 4855 0 1 1 1 1 1 1 1 1 1 1 0 1 1 1 1 1 1 1 1 
431 20 5366 1 1 1 1 1 1 1 1 0 1 1 1 1 1 1 1 0 1 1 1 
432 20 4025 1 1 1 1 1 0 1 0 1 0 0 1 1 1 1 1 1 1 1 1 
433 20 4279 1 1 1 0 1 1 0 1 1 1 1 1 1 1 1 1 1 1 1 1 
434 20 4809 1 1 0 1 1 1 1 1 1 1 1 0 1 1 1 1 1 1 1 1 
435 20 4518 1 1 1 0 1 1 1 1 1 0 1 1 1 1 1 1 0 1 1 1 
436 20 3821 1 1 1 1 1 0 1 1 1 1 1 1 1 1 1 1 0 1 1 1 
437 20 4944 1 0 1 1 1 1 1 1 1 1 1 0 1 1 1 1 0 1 1 1 
438 20 4865 1 1 1 0 1 1 1 1 1 1 1 1 1 1 1 0 1 1 1 1 
439 20 4655 0 1 1 1 1 1 1 1 1 1 1 1 1 0 1 1 1 1 1 1 
440 20 3832 1 1 1 0 0 1 1 1 1 1 1 1 1 1 1 0 1 1 1 1 
441 20 4913 1 1 0 1 1 1 1 1 1 1 1 1 1 1 1 0 1 1 0 1 
442 20 4498 1 1 1 1 1 1 1 1 0 1 1 0 1 1 1 1 1 0 1 1 
443 20 4888 0 1 1 1 1 1 1 1 0 1 1 1 1 1 1 1 1 1 0 1 
444 20 4841 1 1 1 1 1 1 0 1 1 1 1 1 1 1 1 1 1 1 0 1 
445 20 3991 1 0 0 1 1 1 1 1 1 0 1 1 1 1 1 1 1 1 1 1 
446 20 4363 1 1 1 1 1 1 1 0 1 1 0 1 1 1 1 1 1 1 1 1 
447 20 3828 1 1 1 1 1 1 1 1 0 1 1 1 1 1 1 1 1 0 0 1 
448 20 4996 1 1 1 1 1 1 1 1 1 0 1 0 1 1 1 1 1 1 1 1 
449 20 4436 1 1 1 1 1 1 1 1 1 1 0 1 1 1 1 1 1 1 1 1 
450 20 4496 1 1 1 1 1 1 1 0 1 1 1 1 1 0 1 1 1 1 1 1 
451 20 4690 1 1 1 0 1 1 1 1 1 0 1 1 1 1 1 1 0 1 1 1 
452 20 4092 1 1 1 1 1 0 0 0 1 1 1 1 1 1 1 1 1 1 1 1 
453 20 5330 1 1 1 1 1 1 1 1 1 0 1 1 1 1 0 0 1 1 1 1 
454 20 5275 1 1 1 1 1 1 1 1 1 1 0 1 1 1 1 0 0 1 1 1 
455 20 4138 1 1 1 1 1 1 1 0 1 1 1 1 1 1 1 1 0 1 1 1 
456 20 5588 1 1 1 1 1 1 0 1 1 1 1 1 1 1 1 1 1 0 1 1 
457 20 4709 1 1 1 1 1 1 1 1 1 1 1 0 1 1 1 0 1 1 1 1 
458 20 3705 1 1 0 1 1 1 1 1 1 1 1 1 1 1 0 1 1 1 1 1 
459 20 5359 1 1 1 0 0 1 1 1 1 1 1 1 1 1 1 1 1 1 1 1 
460 20 4539 1 1 0 0 1 1 1 1 1 1 1 1 1 1 1 1 1 1 1 1 
461 20 5006 1 1 1 1 1 1 1 1 1 1 1 1 0 1 1 1 1 1 0 1 
462 20 3997 1 1 1 1 1 1 1 1 1 1 1 0 0 1 1 1 1 1 1 0 
463 20 5312 1 1 1 0 0 1 1 1 1 1 1 1 1 1 1 1 1 0 1 1 
464 20 5256 1 0 1 1 1 1 0 1 1 1 1 1 1 1 1 1 1 1 1 1 
465 20 3117 0 0 1 1 1 1 1 1 1 1 1 1 1 1 1 1 1 1 0 1 
466 20 4211 1 0 1 1 1 1 1 1 1 1 0 0 1 1 1 1 1 1 1 1 
467 20 4561 0 1 1 0 1 1 1 1 1 0 1 1 1 1 1 1 1 1 1 1 
468 20 4956 1 1 1 1 1 1 1 1 0 1 1 1 0 1 1 1 1 1 1 1 
469 20 3915 1 1 0 1 1 1 1 1 1 1 1 0 1 1 1 1 1 1 0 1 
470 20 5370 1 1 0 1 1 1 1 0 1 1 1 1 1 1 1 1 1 1 1 1 
471 20 4987 1 1 1 1 1 1 1 0 1 1 1 1 1 1 1 1 1 1 1 0 
472 20 5819 1 0 1 0 1 1 1 1 1 1 1 1 1 1 1 1 1 1 1 1 
473 20 3590 1 1 1 1 1 1 0 1 1 1 1 1 0 1 0 1 1 1 1 1 
474 20 5872 1 1 1 1 0 1 1 1 1 1 1 1 1 1 1 1 1 1 1 0 
475 20 4339 1 1 1 1 0 1 1 1 1 0 1 1 0 1 1 1 1 1 1 1 
476 20 5980 1 1 0 1 1 1 1 1 1 1 1 1 1 1 1 1 1 0 1 1 
477 20 5604 0 1 1 1 1 1 1 0 1 1 1 1 1 0 1 1 1 1 1 1 
478 20 4535 1 1 1 1 1 1 1 1 1 1 1 1 1 1 1 1 1 1 0 0 
479 20 5021 1 1 1 1 1 0 1 0 1 1 1 1 1 1 1 1 1 1 1 1 
480 20 5159 1 1 1 1 0 1 1 1 1 1 1 0 1 1 1 1 1 0 1 1 
481 20 4153 1 1 1 1 0 1 1 1 1 1 1 1 1 1 1 1 0 1 1 1 
482 20 4237 1 0 1 1 1 1 1 1 1 1 1 1 1 1 1 1 0 1 1 1 
483 20 5128 1 1 1 0 0 1 1 1 0 1 1 1 0 1 1 1 1 1 1 1 
484 20 4109 1 1 1 1 1 1 1 1 1 1 0 1 1 0 1 0 1 1 1 1 
485 20 5835 1 1 0 1 0 1 1 1 1 1 1 1 1 1 1 1 1 1 1 1 
486 20 5086 1 1 1 0 0 1 1 1 1 1 1 1 1 1 1 1 1 1 1 1 
487 20 3989 1 1 1 1 1 1 1 1 1 1 0 1 1 1 1 0 1 1 1 1 
488 20 5496 1 1 1 1 1 1 1 1 1 1 1 1 1 1 1 1 1 1 0 1 
489 20 4138 1 1 1 1 1 1 1 1 1 1 0 1 1 1 1 1 1 1 0 0 
490 20 5143 0 1 1 1 1 1 1 1 1 1 1 1 1 1 1 1 1 0 1 1 
491 20 5712 1 1 1 1 1 1 1 1 1 1 0 0 1 1 1 1 1 1 0 1 
492 20 4713 1 1 1 1 1 1 1 1 1 0 0 1 1 1 0 1 1 1 1 1 
493 20 5507 1 1 0 1 1 1 1 1 1 1 1 1 1 1 0 1 0 1 1 1 
494 20 5010 1 1 1 0 1 1 0 0 1 1 1 1 1 1 1 1 1 1 1 1 
495 20 4315 1 1 1 1 1 1 0 0 1 1 1 1 1 1 1 1 0 1 1 1 
496 20 5088 1 1 1 1 1 1 1 1 1 1 1 0 1 1 1 1 0 1 1 1 
497 20 4722 0 1 1 1 0 1 1 1 1 1 1 1 1 1 1 1 1 1 1 1 
498 20 5538 1 1 1 1 0 0 1 1 1 0 0 1 1 1 1 1 1 1 1 1 
499 20 4160 1 1 1 1 1 1 1 1 1 1 1 1 1 0 1 1 1 1 1 0 
500 20 4705 1 0 1 1 1 1 1 1 1 1 1 1 1 1 0 1 1 1 1 1 
