828
883
641
827
561
582
664
495
425
484
494
682
432
537
585
646
870
646
408
457
775
524
555
833
474
472
468
558
544
616
576
449
489
494
644
497
478
411
813
461
678
489
557
536
617
478
632
594
629
494
606
579
493
620
772
555
602
581
508
572
536
550
574
586
482
372
392
522
512
595
563
632
519
546
557
321
600
543
748
527
643
511
527
528
757
573
708
1151
585
653
584
612
607
707
539
380
320
541
611
608
625
599
528
514
324
482
789
517
628
608
639
626
613
542
650
495
525
569
549
556
591
678
480
499
460
623
324
570
523
473
552
697
585
501
365
478
538
590
478
523
541
276
516
549
578
599
567
311
608
348
608
620
784
654
517
580
580
553
555
531
518
669
551
509
550
549
529
575
512
590
598
501
540
500
554
580
514
743
560
543
559
540
327
565
354
660
468
481
649
609
538
589
577
570
575
362
511
538
393
555
563
752
508
514
546
516
623
541
630
611
591
592
511
807
503
659
379
407
555
576
545
580
603
602
531
498
576
641
683
613
615
613
493
511
490
540
665
661
400
659
578
581
609
580
584
727
611
535
393
600
561
606
497
666
569
532
376
657
381
512
504
601
475
596
470
598
502
619
536
385
589
547
567
395
498
535
553
522
376
525
530
532
563
499
533
531
537
497
518
533
522
325
659
653
553
620
460
560
751
495
543
493
617
616
561
642
565
575
542
590
480
804
575
526
556
499
661
591
531
645
583
579
729
547
753
808
514
601
572
467
537
549
603
885
573
611
634
565
554
383
360
374
634
502
594
547
556
380
574
621
482
693
819
354
566
703
725
488
579
684
562
565
685
584
544
536
511
604
480
581
367
506
612
542
475
566
562
592
616
512
491
530
619
589
565
383
548
588
457
727
588
676
765
502
581
802
489
518
712
568
647
645
605
729
465
655
493
548
530
707
569
651
506
726
487
557
480
578
414
511
535
502
771
537
572
500
519
526
600
477
655
593
707
801
544
563
813
601
642
630
518
606
485
555
365
614
568
504
444
447
530
480
575
556
534
746
601
497
573
477
529
562
589
381
540
551
513
475
474
508
530
521
643
496
643
348
505
635
399
464
617
542
388
378
565
535
584
514
593
481
567
543
524
626
379
553
646
559
580
503
