1 20 5317 0 1 1 0 1 1 1 1 1 1 1 1 1 1 1 1 1 1 1 1 
2 20 5692 1 1 0 1 1 1 1 1 1 1 1 1 0 1 1 1 1 1 1 0 
3 20 4488 1 0 1 1 1 1 1 1 1 1 1 1 1 0 1 1 1 1 1 1 
4 20 6216 1 1 1 1 1 1 0 1 1 1 1 1 0 1 1 0 1 1 1 1 
5 20 4556 1 0 1 1 1 1 1 1 1 0 1 1 1 1 1 1 1 1 0 1 
6 20 5013 1 1 1 1 1 1 1 1 1 1 0 1 0 1 1 1 1 1 1 1 
7 20 5673 1 1 1 1 1 1 1 1 1 1 1 1 0 1 1 0 1 1 1 1 
8 20 4119 1 1 1 1 1 1 1 1 1 1 1 0 1 1 1 1 0 1 1 1 
9 20 4016 1 1 1 1 1 0 1 1 1 1 0 1 1 1 1 1 1 1 1 1 
10 20 4125 1 0 1 1 1 1 1 1 1 1 1 1 1 1 1 0 1 1 1 1 
11 20 3780 1 1 1 1 0 1 0 1 1 1 1 1 0 1 1 1 1 0 1 0 
12 20 5764 1 1 1 1 1 1 0 0 1 1 1 1 1 1 0 1 1 1 1 1 
13 20 3477 1 1 1 1 1 1 0 1 1 1 0 1 1 1 0 1 1 1 1 1 
14 20 4676 0 1 1 1 1 1 1 1 1 1 1 1 1 1 1 1 1 1 0 1 
15 20 5189 0 1 1 1 1 1 1 1 0 1 1 1 1 1 1 1 1 1 1 1 
16 20 5267 1 0 1 1 1 1 1 1 1 1 1 1 0 1 0 1 1 1 1 1 
17 20 5946 1 1 1 1 1 1 1 1 1 1 1 1 1 1 0 1 1 1 1 1 
18 20 4819 0 1 1 1 1 1 1 1 0 1 1 1 1 1 0 1 1 1 1 1 
19 20 3791 1 1 1 1 1 1 1 1 1 1 1 0 1 1 1 1 0 1 1 0 
20 20 4138 1 1 0 1 1 1 0 1 1 1 1 1 1 1 1 1 1 1 1 1 
21 20 5562 1 1 1 1 1 1 1 0 1 0 1 1 1 1 0 1 1 0 1 1 
22 20 4530 0 1 1 1 1 1 1 1 1 1 1 1 1 0 1 1 1 1 1 1 
23 20 4931 1 1 1 1 1 0 0 1 1 1 1 0 1 1 1 1 1 1 1 1 
24 20 5686 1 1 1 1 1 1 1 1 1 1 1 1 0 1 1 1 1 1 0 1 
25 20 4040 1 1 1 0 1 1 1 1 1 1 1 0 1 1 1 1 1 0 1 1 
26 20 4074 1 0 1 1 0 1 1 1 1 1 1 1 1 1 1 1 1 1 1 1 
27 20 4080 1 1 1 1 1 1 1 1 1 1 1 1 1 0 1 1 1 1 1 1 
28 20 4878 0 0 1 1 1 1 1 1 1 1 1 1 1 1 1 1 1 1 1 1 
29 20 4822 1 1 1 1 1 1 1 1 1 1 1 0 1 1 0 1 1 1 1 1 
30 20 5359 1 1 0 1 0 0 1 1 1 1 1 1 1 1 1 1 1 1 1 1 
31 20 5045 1 0 1 1 1 1 1 1 1 1 1 1 1 1 1 0 1 1 1 1 
32 20 4163 1 0 1 1 1 1 0 1 1 1 1 1 1 1 1 1 1 1 1 1 
33 20 4441 1 1 1 1 1 1 1 1 1 1 1 1 1 1 1 1 1 0 0 1 
34 20 3995 1 1 1 0 1 1 1 1 1 1 1 1 1 1 1 1 1 1 0 1 
35 20 5371 0 1 1 1 1 1 1 1 1 0 1 1 1 1 1 1 0 1 1 1 
36 20 4340 1 1 0 1 1 1 1 1 1 1 1 0 1 1 1 1 1 1 0 1 
37 20 4279 1 1 1 1 1 1 1 1 0 0 1 1 1 1 1 1 1 1 1 1 
38 20 4124 0 0 1 1 1 1 1 1 1 1 1 1 1 1 1 1 1 1 1 1 
39 20 5808 1 1 1 1 1 1 1 1 1 0 1 1 1 0 1 1 1 1 0 1 
40 20 4154 1 1 1 1 1 0 1 1 1 1 1 1 1 1 0 1 1 1 1 1 
41 20 5929 1 1 1 1 1 1 1 1 1 1 0 1 0 1 1 1 1 1 1 1 
42 20 4301 1 1 1 1 1 1 1 1 1 1 0 0 1 1 1 1 1 1 1 0 
43 20 4820 1 1 1 1 1 1 1 0 1 1 1 1 1 1 1 1 1 0 1 0 
44 20 4655 1 1 1 1 1 1 1 1 1 1 1 1 1 1 1 0 1 0 1 1 
45 20 5269 0 1 1 1 1 1 1 1 1 1 1 1 1 1 1 0 1 1 1 0 
46 20 4163 0 1 1 1 1 1 1 1 1 1 1 0 1 1 0 1 1 1 0 1 
47 20 5555 1 1 1 0 1 1 1 1 1 0 1 1 1 1 1 1 0 1 1 1 
48 20 5293 1 1 1 0 1 1 1 0 1 1 1 1 1 1 1 0 1 1 1 1 
49 20 5262 1 1 1 1 1 0 1 1 1 1 0 1 1 1 1 1 1 1 1 1 
50 20 4304 1 1 1 1 1 1 1 1 0 1 1 0 1 1 1 0 1 1 1 1 
51 20 4880 1 1 1 1 0 0 1 1 1 1 1 1 1 1 1 1 1 1 1 1 
52 20 4661 1 0 1 1 1 1 1 1 1 1 1 1 1 1 0 1 1 1 1 1 
53 20 4232 1 1 1 1 1 1 1 1 1 1 1 1 1 1 1 1 0 0 1 1 
54 20 5121 1 1 1 0 0 1 1 1 1 1 1 1 1 1 1 1 1 1 1 1 
55 20 6149 1 1 1 1 1 1 1 1 0 1 1 1 0 1 1 1 1 1 1 1 
56 20 4573 1 0 1 1 1 1 0 1 1 1 1 1 1 1 1 1 1 0 1 1 
57 20 5467 1 1 1 1 1 0 1 1 0 1 1 1 1 1 1 1 1 1 1 1 
58 20 5122 1 1 1 1 1 1 1 0 1 1 1 1 1 1 1 1 1 1 1 1 
59 20 4402 1 1 1 1 1 1 1 0 1 1 1 0 1 1 1 1 0 1 1 1 
60 20 4733 1 1 1 1 1 1 1 1 1 1 1 1 1 1 1 1 1 1 0 1 
61 20 4497 1 1 0 1 1 0 1 1 1 1 1 1 1 1 0 1 0 1 1 1 
62 20 4642 1 1 1 1 1 1 0 1 0 1 1 1 1 0 1 1 1 0 1 1 
63 20 5125 1 1 1 1 0 1 1 0 0 1 1 1 1 1 1 1 1 1 1 1 
64 20 4960 1 1 1 1 1 0 1 1 0 1 1 1 1 1 1 1 1 0 1 1 
65 20 4236 1 0 1 1 1 1 0 1 1 1 1 1 1 1 1 1 1 1 1 1 
66 20 3796 1 1 1 1 0 0 1 1 1 1 1 1 1 1 1 1 1 1 1 0 
67 20 3937 0 1 1 1 1 1 1 1 1 1 1 1 0 1 0 1 1 1 1 1 
68 20 4373 1 1 0 1 1 1 1 1 1 1 1 1 1 1 1 1 0 1 1 1 
69 20 4451 1 1 1 1 1 1 1 1 0 1 1 1 1 1 0 1 1 0 1 1 
70 20 5045 1 1 1 1 1 1 1 0 1 1 0 1 1 1 1 1 1 1 1 1 
71 20 4758 1 1 1 1 1 1 1 1 1 0 1 1 1 1 1 1 1 0 1 1 
72 20 5612 1 1 1 1 1 1 1 1 1 1 1 1 1 1 0 1 1 0 1 1 
73 20 4438 1 1 1 1 0 1 1 1 0 1 0 1 1 1 0 1 1 1 1 1 
74 20 4582 1 1 1 1 1 1 1 1 1 1 1 1 1 1 0 0 1 1 1 1 
75 20 4618 1 1 1 1 0 1 1 1 1 1 0 1 1 1 1 1 0 1 1 1 
76 20 3253 0 1 1 1 1 1 1 1 1 0 1 1 1 1 1 1 1 1 0 1 
77 20 5173 1 1 1 1 1 1 1 0 1 1 1 1 1 1 1 1 1 0 1 1 
78 20 4653 1 0 1 1 1 1 1 1 1 1 0 1 1 1 1 1 1 1 1 0 
79 20 5968 0 1 1 1 1 1 1 1 1 1 1 1 1 0 1 1 1 1 1 1 
80 20 4568 1 0 1 1 1 1 1 1 1 1 1 1 1 1 0 1 1 1 1 1 
81 20 5401 1 0 1 1 1 1 0 1 1 1 1 1 1 1 1 1 0 1 1 1 
82 20 4506 1 1 1 1 1 1 1 0 1 0 1 1 1 1 1 1 1 1 1 1 
83 20 4601 1 1 0 1 1 1 1 1 1 1 1 1 1 1 1 1 0 1 1 1 
84 20 4618 1 0 0 1 1 1 1 1 1 1 1 1 1 1 1 1 1 1 1 0 
85 20 5650 1 0 1 1 1 1 1 1 1 1 1 1 1 1 0 1 1 1 1 1 
86 20 4900 1 1 1 1 0 1 1 1 1 1 1 1 1 1 1 1 1 1 0 1 
87 20 4923 1 0 1 1 1 1 0 1 1 0 1 1 1 1 1 1 1 1 1 1 
88 20 5167 1 1 1 1 1 1 0 1 1 1 1 0 1 1 1 1 1 0 1 1 
89 20 4672 1 1 1 1 0 1 1 0 1 1 1 1 1 1 1 1 1 1 0 1 
90 20 5159 1 1 1 1 1 1 1 1 1 0 1 1 1 0 1 1 1 1 1 1 
91 20 4904 1 1 1 1 1 1 1 1 0 1 0 1 1 1 1 1 1 1 1 1 
92 20 5496 1 1 0 1 1 0 1 1 1 1 1 1 1 1 1 1 1 1 1 1 
93 20 5353 1 1 1 0 1 1 1 1 1 1 1 1 0 1 1 1 1 1 1 1 
94 20 5307 1 1 0 1 1 1 0 0 1 1 1 1 1 1 1 1 1 1 1 1 
95 20 4086 1 1 1 1 1 1 0 1 1 1 1 1 1 1 1 1 0 1 1 1 
96 20 3695 1 0 1 1 1 1 1 1 1 1 1 1 0 1 1 1 1 1 0 1 
97 20 3281 1 1 1 1 1 1 1 1 1 1 1 0 1 1 0 0 1 1 1 1 
98 20 4746 1 0 1 1 1 1 1 1 0 1 1 1 0 1 1 1 1 1 1 1 
99 20 5386 1 1 1 1 1 1 1 0 1 1 0 1 1 1 1 1 1 1 1 1 
100 20 5427 1 1 1 1 0 1 1 1 1 1 1 1 0 1 1 1 1 0 1 1 
101 20 5536 1 1 1 1 1 1 1 1 1 1 1 1 1 1 1 0 1 1 0 1 
102 20 5115 1 1 1 1 0 1 1 1 1 1 1 1 1 1 0 1 0 1 1 1 
103 20 4367 1 1 1 1 1 1 1 0 1 1 1 1 1 1 1 0 0 1 1 1 
104 20 4277 1 1 1 1 1 1 1 1 1 1 1 0 1 1 1 1 1 1 1 1 
105 20 3388 1 1 1 1 1 0 1 1 1 1 1 1 1 0 0 1 1 1 1 1 
106 20 4451 0 1 1 0 1 1 1 0 1 1 1 1 1 1 1 1 1 1 1 1 
107 20 6127 1 1 0 1 1 1 1 1 1 1 0 1 1 1 1 1 1 1 1 1 
108 20 4269 0 1 1 1 1 0 1 1 1 1 1 1 1 1 1 1 1 1 1 1 
109 20 5540 1 1 1 1 1 1 1 1 0 0 1 1 1 1 1 1 1 1 1 1 
110 20 5508 1 1 1 0 1 1 1 1 0 1 1 1 1 1 1 0 1 1 1 1 
111 20 5691 1 1 1 1 1 1 1 1 1 1 1 1 1 1 1 1 0 1 1 0 
112 20 5764 1 1 1 1 1 1 0 1 1 1 0 1 1 1 1 1 1 1 1 1 
113 20 4873 1 1 1 1 1 1 1 1 1 1 1 1 0 0 1 0 1 1 1 1 
114 20 4783 1 1 1 1 0 1 1 1 1 1 1 0 1 1 1 1 1 1 1 1 
115 20 5537 0 1 1 1 1 1 0 1 1 1 1 1 1 1 1 1 1 1 1 1 
116 20 4295 1 1 0 1 0 1 1 1 1 1 1 1 1 1 1 1 1 1 1 1 
117 20 4552 1 0 0 1 1 1 1 0 1 1 1 1 0 1 1 0 1 1 1 1 
118 20 4753 1 0 1 1 1 1 1 1 1 1 0 1 1 1 1 0 1 1 1 1 
119 20 4662 1 1 1 1 1 1 1 1 1 1 0 1 1 1 0 1 1 1 1 1 
120 20 4724 1 1 1 1 0 0 1 1 1 1 1 1 1 1 1 1 0 1 1 1 
121 20 5159 1 1 1 1 1 1 1 0 1 1 0 1 1 1 1 1 1 1 1 0 
122 20 5453 1 1 1 1 0 0 1 1 1 1 1 1 1 1 1 1 1 1 1 1 
123 20 4147 1 0 1 1 1 1 0 1 1 1 1 1 1 1 1 1 1 1 0 1 
124 20 4324 1 1 1 1 1 1 1 1 1 1 1 1 1 1 0 1 1 1 1 0 
125 20 4106 1 1 1 0 1 1 1 0 1 0 1 1 1 1 1 1 1 1 1 0 
126 20 5447 1 1 1 1 1 1 1 1 0 1 1 1 0 1 1 1 1 1 1 1 
127 20 3373 1 1 1 1 1 0 1 1 1 1 1 1 1 1 1 1 1 1 1 0 
128 20 5086 1 1 1 1 1 1 1 1 0 1 0 1 1 1 1 1 1 1 1 1 
129 20 4296 1 0 1 1 1 1 1 0 1 1 1 1 0 1 1 1 1 1 1 1 
130 20 4141 0 1 1 1 1 1 1 1 1 1 1 1 1 1 1 1 1 1 0 1 
131 20 4888 1 1 1 1 1 0 1 1 1 0 1 1 0 1 1 1 1 1 1 1 
132 20 5721 1 1 0 1 1 1 1 1 1 0 0 1 1 1 1 1 1 1 1 1 
133 20 4835 1 1 1 1 1 1 1 1 1 1 1 1 1 1 1 0 1 0 1 1 
134 20 4447 1 1 1 1 1 1 1 1 1 1 1 1 1 1 1 0 1 0 1 1 
135 20 3617 1 0 1 1 1 1 1 1 1 1 1 1 1 1 1 1 0 1 1 1 
136 20 4259 1 1 1 1 1 1 1 1 1 1 1 1 1 0 1 1 1 0 1 1 
137 20 4921 1 0 1 1 1 1 1 1 1 1 1 1 1 1 1 1 1 0 1 1 
138 20 5019 1 1 1 1 1 1 1 1 1 1 1 1 1 1 0 1 1 0 1 1 
139 20 4155 1 1 1 1 1 1 1 1 1 1 1 1 1 1 0 0 1 1 1 1 
140 20 4394 1 1 1 1 1 1 1 0 1 1 1 1 1 1 1 0 1 1 1 1 
141 20 4794 1 1 1 1 1 1 1 0 1 1 1 1 1 1 1 1 1 1 1 0 
142 20 3009 1 0 1 1 1 1 1 1 1 1 1 1 1 1 1 1 0 1 1 1 
143 20 4265 1 0 1 1 1 1 1 1 1 1 1 1 1 1 1 1 1 0 1 1 
144 20 4891 1 1 1 1 1 0 0 1 1 1 1 1 1 1 1 1 1 1 1 1 
145 20 5066 1 1 0 1 1 1 1 1 1 1 1 1 1 1 1 0 1 1 1 1 
146 20 5255 1 1 1 1 1 1 1 0 0 1 1 1 1 1 1 1 1 1 1 1 
147 20 4858 1 1 1 1 0 1 1 1 1 1 1 1 1 0 1 1 1 1 1 1 
148 20 3215 1 1 0 1 1 1 1 0 1 1 0 1 1 1 1 1 1 1 1 1 
149 20 5340 1 1 1 0 1 1 0 1 1 1 1 1 1 1 1 1 1 1 1 1 
150 20 3454 1 1 1 1 1 1 1 1 1 1 1 0 0 1 1 1 1 0 1 1 
151 20 5273 1 1 1 1 1 1 1 1 0 1 1 0 1 1 1 1 1 1 1 1 
152 20 5369 1 1 1 0 1 1 1 1 1 1 0 1 1 1 1 1 1 1 1 1 
153 20 4967 1 1 1 0 1 1 1 1 1 1 1 1 1 1 0 0 1 1 1 1 
154 20 5681 1 0 1 1 1 1 1 0 1 1 1 1 1 1 1 1 1 1 0 1 
155 20 4406 1 0 1 1 1 1 1 1 1 1 1 1 1 1 1 1 1 1 1 1 
156 20 5242 1 1 1 1 0 0 1 0 1 1 1 1 1 1 1 1 1 1 1 1 
157 20 5248 1 1 0 1 1 1 1 1 1 0 1 1 1 1 1 1 0 1 1 1 
158 20 4631 1 1 1 1 1 1 1 1 1 1 1 1 1 1 1 1 1 0 0 1 
159 20 4861 1 1 1 0 1 1 1 1 1 1 1 1 1 1 1 1 1 1 0 1 
160 20 4561 1 1 1 1 1 0 1 1 1 1 1 1 0 1 1 1 1 1 0 1 
161 20 4650 1 1 1 1 1 1 1 0 1 1 1 1 1 1 1 1 0 1 1 1 
162 20 5440 0 0 1 1 1 0 1 1 1 1 1 1 0 1 1 1 1 1 1 1 
163 20 4900 0 1 1 1 1 1 0 1 1 1 0 1 1 0 1 1 1 1 1 1 
164 20 4445 1 1 1 1 0 1 1 1 1 1 1 1 1 1 1 1 1 1 0 1 
165 20 4873 0 1 1 1 1 1 1 1 1 1 1 1 1 0 1 0 1 1 1 1 
166 20 4929 1 1 1 1 1 0 1 1 0 1 1 1 1 1 1 1 1 0 1 1 
167 20 4705 1 0 0 1 1 1 1 1 1 1 1 1 1 1 1 1 1 1 1 1 
168 20 4993 1 1 1 1 1 1 1 1 1 1 1 1 1 0 1 1 0 1 1 1 
169 20 4545 1 1 1 1 1 1 1 1 1 1 1 0 1 1 1 1 0 1 1 1 
170 20 5272 1 1 1 0 1 0 1 1 1 1 1 1 1 1 1 1 1 1 1 1 
171 20 5025 1 1 1 1 1 1 0 1 1 1 1 0 1 1 1 1 1 1 1 1 
172 20 4302 0 1 1 1 0 1 1 1 1 1 1 1 1 1 1 1 1 1 1 0 
173 20 4597 0 1 1 1 1 1 1 1 1 1 1 1 1 0 1 1 1 1 1 1 
174 20 4307 1 0 1 1 1 1 1 0 0 1 1 1 1 1 1 1 0 1 1 1 
175 20 4691 1 1 1 1 1 1 1 1 1 1 1 1 0 1 1 1 1 0 1 1 
176 20 5190 1 1 1 1 1 1 1 1 1 1 1 1 0 1 1 1 1 1 1 0 
177 20 4531 1 1 1 0 1 1 1 1 1 1 1 1 1 0 1 1 1 1 1 1 
178 20 5784 1 1 1 1 0 0 1 0 1 1 1 1 1 1 1 1 1 1 1 1 
179 20 4734 1 0 1 1 1 1 1 1 1 0 1 1 1 1 1 1 1 0 1 0 
180 20 3871 1 0 1 1 1 1 1 1 1 1 1 1 1 1 0 1 1 1 1 1 
181 20 4969 1 1 1 1 1 1 1 1 1 1 1 1 0 1 1 1 0 1 1 1 
182 20 4442 1 1 1 1 1 1 0 1 1 1 1 0 1 1 1 0 1 1 1 1 
183 20 3295 1 1 1 1 1 1 1 1 1 1 0 1 1 1 1 0 0 1 1 1 
184 20 5137 1 0 1 1 1 1 1 1 0 1 1 1 1 1 0 1 1 1 1 1 
185 20 3647 1 1 1 1 1 1 1 0 1 1 0 1 1 1 1 1 1 1 1 1 
186 20 5786 1 0 1 1 1 1 1 1 0 1 1 1 1 1 1 1 1 1 1 1 
187 20 4190 1 1 1 1 1 1 0 1 1 1 0 1 0 1 0 1 0 1 1 1 
188 20 4193 0 1 1 1 1 1 1 1 1 1 1 1 1 1 1 1 1 1 0 1 
189 20 5962 1 1 1 1 1 1 1 0 1 1 1 0 1 1 1 1 1 1 1 1 
190 20 4701 1 1 1 1 1 1 1 1 1 1 0 1 1 1 1 1 1 1 0 1 
191 20 4473 1 1 1 1 0 1 1 1 0 1 1 1 1 1 0 1 1 1 1 1 
192 20 4907 1 1 1 1 1 1 1 0 1 1 1 1 1 1 1 1 1 1 1 0 
193 20 5268 1 1 1 1 1 0 1 0 1 1 1 1 1 1 1 1 1 1 1 1 
194 20 4955 1 1 1 1 1 0 1 1 1 1 1 1 0 1 1 1 1 1 1 1 
195 20 5043 1 1 0 0 1 1 1 1 1 1 1 1 1 1 1 1 1 1 1 1 
196 20 3710 1 1 1 1 1 1 1 1 0 1 0 1 1 1 1 1 1 1 1 1 
197 20 4595 1 1 0 1 1 0 1 1 1 1 1 1 1 1 1 1 1 1 0 1 
198 20 4587 1 1 1 0 1 1 1 1 1 1 0 1 1 1 1 1 1 1 1 0 
199 20 3883 1 1 1 1 1 1 1 1 1 1 1 1 1 0 1 1 1 1 0 1 
200 20 4826 1 1 1 1 0 1 1 1 1 1 0 1 1 1 0 1 1 1 1 1 
201 20 4579 1 1 1 1 1 1 1 1 1 0 1 1 1 0 1 1 1 1 1 1 
202 20 4867 1 0 1 1 1 1 1 0 1 1 1 1 1 1 1 1 1 1 1 1 
203 20 4516 1 1 1 1 1 1 1 1 1 1 1 1 1 1 1 1 1 0 1 1 
204 20 4349 0 0 1 1 1 0 1 1 1 1 1 1 1 1 1 1 1 1 1 1 
205 20 4628 1 1 1 1 1 1 1 1 1 1 0 1 0 1 1 1 0 1 0 1 
206 20 4562 1 1 1 0 1 1 1 1 0 1 1 1 0 1 1 1 1 1 1 1 
207 20 5359 1 1 1 1 0 1 0 1 1 1 1 1 1 0 1 1 1 1 1 1 
208 20 4483 0 0 1 1 1 1 1 1 1 1 1 1 1 0 1 1 1 1 1 1 
209 20 4958 1 0 1 1 1 1 1 1 1 0 1 1 1 1 1 1 1 0 1 1 
210 20 4713 1 1 1 1 1 1 1 1 1 1 1 1 1 0 1 1 1 0 1 0 
211 20 5043 1 1 0 0 1 1 1 1 1 1 1 1 1 1 1 1 1 0 0 1 
212 20 4970 0 0 1 1 1 1 1 1 1 1 1 1 1 1 1 1 1 1 1 0 
213 20 4508 1 1 1 1 1 0 1 1 1 1 1 1 1 0 1 1 1 1 1 1 
214 20 6520 1 1 1 1 0 1 1 1 0 1 1 1 1 1 1 1 1 1 1 1 
215 20 4417 1 1 1 1 1 1 0 1 1 1 1 0 1 1 1 1 1 1 1 1 
216 20 5768 1 1 1 1 1 0 1 1 1 1 1 1 1 1 1 1 1 0 1 1 
217 20 3797 1 1 1 1 1 1 0 1 1 1 1 1 1 1 1 1 0 0 1 1 
218 20 3994 1 1 1 0 1 1 1 1 1 1 1 1 1 1 1 0 1 1 1 0 
219 20 4377 1 1 1 1 1 1 0 0 1 1 0 1 1 1 1 1 1 1 1 1 
220 20 5135 1 1 1 0 1 1 1 1 1 1 1 1 1 0 1 1 1 1 0 0 
221 20 4645 1 1 1 1 1 1 1 1 0 1 1 1 0 1 1 1 1 1 1 1 
222 20 5030 1 0 1 1 1 1 1 1 1 1 1 0 1 1 1 1 1 1 1 1 
223 20 5381 0 1 0 1 1 1 1 0 1 1 1 1 1 1 1 1 0 1 1 1 
224 20 5272 1 1 1 1 1 1 1 1 0 1 1 1 1 1 1 1 0 1 1 1 
225 20 4492 1 1 1 1 1 1 1 1 1 1 1 1 1 1 1 0 1 1 0 1 
226 20 4472 1 1 1 0 1 0 1 1 1 1 1 1 1 1 1 1 1 1 0 1 
227 20 5180 1 0 1 1 1 1 1 1 1 1 1 0 1 1 1 1 1 1 1 1 
228 20 4233 1 1 1 1 1 1 1 1 1 0 1 0 1 1 1 1 1 1 0 1 
229 20 5044 1 0 1 1 1 1 0 1 1 1 1 1 1 1 0 1 1 1 1 1 
230 20 5179 1 1 1 1 1 0 1 1 1 1 1 1 1 0 1 1 1 1 1 1 
231 20 5326 0 1 1 0 1 1 1 1 1 1 1 1 1 0 1 1 1 1 1 1 
232 20 5372 1 1 1 1 0 1 1 1 1 1 1 1 1 1 1 1 0 1 0 1 
233 20 4402 1 1 1 0 0 0 1 1 1 1 1 1 1 1 1 1 1 1 0 1 
234 20 4588 1 1 1 0 1 1 1 1 1 1 1 1 1 1 1 1 1 1 1 1 
235 20 4217 1 1 1 1 1 1 0 1 1 1 1 1 1 1 1 1 1 1 0 1 
236 20 4745 1 1 1 1 1 1 1 1 1 0 1 0 1 1 0 1 1 1 1 1 
237 20 4688 1 1 0 0 1 1 1 0 0 1 1 1 1 1 1 1 1 1 1 1 
238 20 5754 1 1 1 1 1 1 1 1 1 0 1 0 1 1 1 1 1 1 1 1 
239 20 3868 1 1 1 1 1 1 1 1 0 1 1 1 1 1 1 1 0 1 1 1 
240 20 5713 1 1 1 1 1 1 1 1 1 1 1 1 1 1 1 1 1 0 1 0 
241 20 5017 1 1 1 1 1 1 1 1 1 1 1 1 0 1 1 1 0 1 1 1 
242 20 5138 1 1 1 1 1 1 1 0 0 1 1 1 1 1 1 1 1 1 1 1 
243 20 5008 1 1 1 1 1 1 1 1 1 1 0 0 1 1 1 1 1 1 1 1 
244 20 5026 1 1 1 1 0 1 1 1 0 1 1 1 1 1 1 1 1 1 1 1 
245 20 5084 1 1 1 1 1 1 1 1 1 1 1 0 1 0 1 1 1 1 1 1 
246 20 5374 1 1 1 1 0 1 1 1 1 1 1 1 1 1 1 1 1 1 0 1 
247 20 5004 1 1 1 1 0 1 1 1 1 1 1 1 1 1 1 1 1 1 0 0 
248 20 4595 1 1 1 1 1 1 1 1 1 0 0 1 1 1 1 1 1 1 1 1 
249 20 3929 1 1 1 1 1 1 0 1 1 1 1 1 1 0 1 1 1 1 1 0 
250 20 5452 1 1 0 1 1 1 1 1 1 1 1 1 1 1 1 1 0 0 1 1 
251 20 4690 1 0 1 1 1 1 1 1 1 1 1 1 1 1 1 0 1 0 1 1 
252 20 5149 0 1 1 1 1 1 1 1 1 1 1 1 1 1 0 1 1 1 1 1 
253 20 4318 1 1 1 1 1 1 1 1 1 0 1 1 1 1 1 1 1 1 0 1 
254 20 5339 1 1 0 1 1 1 1 1 0 1 1 1 1 0 1 1 1 1 1 1 
255 20 4751 0 1 1 1 0 1 1 1 1 1 1 1 1 1 0 1 0 1 1 1 
256 20 4771 1 0 0 1 1 1 0 1 1 1 1 1 1 1 1 1 1 1 1 1 
257 20 3607 1 1 1 1 1 0 1 1 1 0 1 1 1 1 1 0 0 1 1 1 
258 20 5642 1 1 1 1 1 1 1 1 1 1 1 1 1 1 0 1 1 1 1 1 
259 20 3866 1 0 1 1 1 1 1 1 1 1 1 1 1 1 1 1 1 1 0 1 
260 20 4443 1 1 1 1 1 0 1 1 1 1 0 1 1 1 0 1 1 0 1 1 
261 20 4422 1 1 1 1 1 0 1 1 1 1 1 1 1 1 1 1 1 1 1 0 
262 20 5145 1 1 1 1 0 1 1 1 1 1 0 1 1 1 1 1 1 1 0 1 
263 20 4270 1 1 1 1 0 1 0 1 1 1 1 1 1 0 1 1 1 1 1 1 
264 20 4866 1 0 1 1 1 0 1 1 1 1 0 1 1 1 1 1 1 1 1 1 
265 20 4075 1 1 1 1 1 1 1 0 1 1 1 0 1 0 1 1 1 1 1 1 
266 20 5277 1 1 1 1 1 1 1 1 1 1 1 1 1 0 1 1 0 1 1 1 
267 20 4463 1 1 1 1 1 1 1 1 1 1 0 1 0 1 1 1 1 1 1 1 
268 20 5379 1 1 1 1 1 1 1 1 1 1 1 1 1 0 1 0 1 1 1 1 
269 20 4244 1 1 0 1 1 1 1 1 1 1 1 1 1 1 1 0 1 1 1 1 
270 20 4013 0 1 0 1 1 0 1 1 1 1 1 1 1 1 1 1 1 1 1 1 
271 20 5198 1 1 1 1 1 1 1 1 1 1 1 1 1 1 1 0 1 1 1 1 
272 20 4759 1 0 1 1 0 1 1 1 1 1 1 1 1 1 1 1 0 1 1 1 
273 20 4153 1 1 1 1 0 1 1 1 1 1 1 1 1 1 1 1 1 1 0 1 
274 20 3923 1 1 1 0 0 1 1 1 1 1 1 0 0 1 1 1 1 1 1 1 
275 20 4328 1 1 1 1 1 1 1 0 1 1 1 1 1 1 1 1 1 1 0 1 
276 20 4632 1 1 1 1 0 1 1 1 1 1 1 1 1 1 0 1 1 1 1 0 
277 20 4624 1 1 1 1 1 1 1 1 0 1 1 1 1 0 1 1 1 1 1 1 
278 20 4660 1 0 1 1 1 1 1 1 1 1 1 1 1 1 1 1 1 1 1 1 
279 20 3907 1 0 1 1 1 1 1 0 1 1 1 1 0 1 1 1 1 1 1 1 
280 20 4773 1 1 1 1 1 1 1 1 0 1 1 1 0 1 1 1 1 1 1 1 
281 20 4701 1 1 1 0 1 1 1 0 1 1 1 1 1 1 1 1 1 1 1 0 
282 20 4449 1 1 1 1 0 1 0 1 1 1 1 1 1 1 1 1 0 1 1 1 
283 20 4426 1 1 1 1 0 1 1 1 1 1 1 1 1 1 1 1 1 1 0 1 
284 20 4414 1 1 1 1 1 1 1 1 1 0 1 1 1 1 1 0 1 1 1 0 
285 20 4692 1 1 1 1 1 1 1 1 0 1 1 1 1 1 1 1 1 1 1 0 
286 20 4631 0 1 1 1 1 1 1 1 0 1 1 1 1 1 1 1 1 1 1 0 
287 20 4613 0 1 1 1 1 1 1 1 1 1 1 1 0 1 1 1 1 1 1 1 
288 20 4397 1 1 1 1 1 1 1 1 1 1 0 1 1 1 1 1 1 1 0 1 
289 20 4720 1 1 1 1 1 1 1 1 1 1 1 1 1 1 1 1 0 1 0 1 
290 20 4736 1 1 1 1 1 1 1 1 1 1 1 1 1 1 1 1 1 1 1 0 
291 20 4360 1 0 1 1 1 1 1 1 0 1 1 1 1 1 1 1 0 0 1 1 
292 20 3377 1 1 1 0 1 1 1 1 1 1 1 1 1 1 1 1 1 1 0 1 
293 20 5245 1 1 1 1 1 1 1 1 1 1 0 1 0 1 1 1 0 1 1 1 
294 20 5515 1 1 1 1 0 1 1 1 1 1 1 1 1 1 1 0 1 1 1 1 
295 20 4865 0 1 1 1 0 1 1 1 1 1 1 1 1 1 1 1 0 1 1 1 
296 20 5240 1 1 1 0 1 1 1 1 0 1 1 1 0 1 1 1 1 1 1 1 
297 20 4095 0 1 1 0 1 1 1 1 1 1 1 1 1 1 1 1 1 1 1 1 
298 20 5149 0 0 1 1 0 1 1 1 1 1 1 1 1 1 1 1 1 1 1 1 
299 20 6079 1 1 1 1 1 1 1 1 1 0 1 1 1 1 1 1 1 0 1 0 
300 20 4226 1 1 1 1 0 1 1 1 1 1 1 1 1 1 0 1 0 1 1 1 
301 20 4634 0 1 1 1 1 1 0 1 1 1 1 1 1 1 1 1 1 1 1 1 
302 20 4284 1 1 0 1 1 1 1 1 0 1 1 1 1 1 1 0 1 1 1 1 
303 20 5058 1 1 1 0 1 0 0 1 1 1 1 1 1 1 1 1 1 1 1 1 
304 20 5275 1 0 1 1 0 1 1 1 1 1 1 1 1 1 1 1 1 1 1 1 
305 20 4929 1 1 1 1 0 1 1 1 1 1 1 1 1 1 0 1 1 1 1 1 
306 20 5202 1 1 0 1 1 1 1 1 1 1 1 1 1 0 1 1 1 1 1 1 
307 20 5142 1 1 0 1 1 1 1 0 1 1 1 1 1 1 1 1 1 1 1 1 
308 20 4946 0 1 1 1 1 1 1 1 1 1 1 1 1 1 1 1 1 0 1 1 
309 20 4802 1 1 1 0 1 0 1 1 1 1 0 1 1 1 1 1 1 1 1 1 
310 20 4824 1 1 1 0 1 1 1 1 1 1 1 1 1 1 1 1 0 1 0 1 
311 20 4226 1 1 1 0 1 1 0 1 1 1 1 1 1 1 1 1 1 0 1 0 
312 20 6568 1 1 1 1 1 1 1 1 1 1 1 1 1 0 1 1 0 1 1 1 
313 20 5085 1 1 1 1 1 1 0 1 1 1 1 1 1 1 0 1 1 1 1 1 
314 20 4579 0 1 1 1 1 1 1 1 1 1 1 1 1 0 0 1 1 1 1 1 
315 20 4858 1 0 1 1 1 1 1 1 1 1 1 1 1 1 0 1 1 1 1 1 
316 20 4364 0 1 1 1 1 1 1 1 1 1 1 1 1 0 1 1 1 0 1 1 
317 20 5728 0 1 1 1 1 1 1 1 1 0 1 1 1 1 1 1 1 1 1 1 
318 20 5099 1 1 1 1 0 0 1 1 0 0 1 1 1 1 1 1 1 1 1 1 
319 20 4329 1 1 1 1 1 1 1 1 1 1 1 1 1 1 1 1 0 1 1 1 
320 20 5431 0 0 1 0 1 1 1 1 1 1 1 1 1 1 1 1 1 1 1 1 
321 20 4656 1 1 0 1 1 1 0 1 1 1 1 1 1 1 1 1 1 1 1 1 
322 20 4911 1 1 1 0 0 1 1 1 1 1 1 1 1 1 1 0 1 1 1 1 
323 20 5861 1 1 1 1 1 1 1 1 1 1 0 0 1 1 1 1 1 1 0 1 
324 20 3926 1 1 0 1 1 1 0 1 1 1 1 1 1 0 1 1 1 1 1 1 
325 20 6083 0 1 1 0 1 1 1 1 1 1 1 1 1 1 1 1 1 1 1 1 
326 20 5802 0 1 1 0 1 1 1 1 1 1 1 1 1 1 1 1 1 1 1 1 
327 20 4439 1 1 0 1 1 0 1 1 1 1 1 1 1 0 1 1 1 1 1 1 
328 20 5326 1 1 1 1 1 1 1 1 0 1 1 0 1 1 0 1 1 1 1 1 
329 20 4974 1 1 1 1 1 1 1 1 1 1 1 1 1 1 1 1 0 1 1 0 
330 20 4127 0 1 1 1 0 1 1 1 1 1 1 1 1 1 1 1 1 1 1 1 
331 20 4671 1 1 1 1 1 1 1 0 1 1 1 1 1 1 1 1 0 1 1 1 
332 20 4684 1 1 1 1 1 1 1 0 1 1 1 1 1 1 1 1 1 0 1 0 
333 20 5079 1 0 1 1 1 1 0 1 1 1 1 1 1 1 1 1 0 1 1 0 
334 20 6669 1 1 1 1 1 1 1 1 1 1 1 1 1 1 1 1 1 0 1 1 
335 20 4661 0 1 1 1 1 1 1 1 1 1 1 1 0 1 0 1 1 1 0 1 
336 20 5382 1 1 1 0 1 1 1 1 1 1 0 1 1 1 1 1 1 1 1 1 
337 20 5540 1 0 1 0 1 1 1 0 1 1 1 1 1 1 1 1 1 1 1 1 
338 20 4876 1 1 1 1 1 1 1 1 1 1 1 1 0 1 1 1 0 1 1 1 
339 20 4730 1 1 1 1 1 0 1 1 1 1 1 1 1 1 1 1 1 1 0 0 
340 20 3769 1 1 1 1 1 0 1 1 1 1 1 1 1 1 0 1 1 1 1 1 
341 20 3627 1 0 1 1 0 1 0 1 1 1 1 1 1 1 1 1 1 1 1 1 
342 20 3634 1 1 1 1 1 1 1 1 1 1 1 1 1 1 0 0 1 1 1 1 
343 20 5389 1 1 0 1 1 1 1 1 1 1 1 1 0 1 1 1 1 1 1 1 
344 20 4121 0 1 1 1 1 1 1 1 1 1 1 1 1 1 1 1 1 1 1 1 
345 20 4708 1 1 1 1 1 1 1 0 1 1 1 1 1 1 0 1 1 1 1 1 
346 20 4790 0 1 1 1 1 1 1 1 1 1 1 1 1 1 1 1 1 0 1 1 
347 20 5015 1 1 0 1 1 1 1 1 1 0 1 1 1 1 1 1 1 1 0 1 
348 20 3711 1 1 1 1 1 1 1 1 1 1 1 1 1 1 0 1 0 1 1 1 
349 20 5025 1 1 1 0 1 1 1 1 1 1 1 1 1 1 1 1 1 0 1 1 
350 20 5460 1 0 1 1 1 1 1 0 1 1 1 1 0 1 1 1 1 1 1 1 
351 20 4292 1 1 0 1 0 1 1 1 1 1 1 1 1 1 1 0 1 1 1 0 
352 20 6057 1 1 0 1 1 1 1 1 1 1 1 1 1 1 1 0 1 1 1 1 
353 20 5143 1 1 1 1 1 1 1 1 0 1 1 1 1 1 1 1 1 1 1 0 
354 20 3510 1 1 1 1 1 1 1 0 1 1 1 1 1 1 0 1 0 1 1 1 
355 20 4923 1 1 1 1 1 1 1 1 1 1 1 1 0 1 1 0 1 1 1 1 
356 20 5740 1 1 1 1 1 1 1 1 1 1 1 1 1 1 0 1 1 1 0 1 
357 20 5268 1 1 1 1 1 1 1 1 1 0 1 1 1 1 1 0 1 1 1 1 
358 20 4214 0 1 1 0 1 1 1 1 1 1 1 1 1 1 1 1 1 1 1 1 
359 20 5013 1 1 0 1 1 1 1 1 1 1 1 1 0 1 1 1 0 1 1 1 
360 20 5520 1 1 1 1 1 0 1 1 1 1 1 1 1 1 1 1 0 1 1 1 
361 20 4865 1 1 1 1 1 1 0 1 1 1 0 1 1 1 1 1 1 1 1 1 
362 20 4463 1 1 1 0 1 1 1 1 1 1 1 1 0 1 1 1 1 1 1 1 
363 20 4989 1 1 1 1 1 1 1 1 1 1 1 1 1 1 1 1 0 1 0 1 
364 20 5026 1 1 1 1 1 1 0 1 1 0 1 1 0 1 0 1 1 1 1 1 
365 20 4744 0 1 1 1 1 1 1 0 1 1 1 1 1 0 1 1 1 1 1 1 
366 20 4660 1 1 1 1 0 1 1 1 1 1 1 1 0 1 1 1 1 1 1 1 
367 20 3868 1 1 1 1 1 1 0 1 1 1 0 1 1 1 1 1 1 1 1 1 
368 20 5288 0 1 1 1 1 1 1 1 1 1 1 1 0 1 1 1 1 1 1 1 
369 20 4276 1 0 0 1 1 1 1 1 1 1 1 1 0 1 1 1 1 1 1 1 
370 20 4215 1 1 1 0 1 1 1 1 1 1 1 1 1 1 1 1 1 1 1 1 
371 20 3768 1 1 1 1 1 1 1 1 1 0 1 1 1 1 1 1 1 0 1 1 
372 20 4340 1 1 1 1 1 0 1 1 1 1 1 0 1 1 1 1 1 1 1 1 
373 20 5264 1 1 1 1 1 1 1 1 1 0 1 1 0 1 1 1 1 1 1 1 
374 20 4548 1 1 1 1 1 1 1 0 1 1 1 0 1 1 1 1 1 1 1 1 
375 20 4225 1 1 1 1 1 1 1 1 1 1 1 0 1 1 1 0 1 1 1 0 
376 20 4818 1 1 1 1 1 1 1 1 0 1 1 1 1 1 1 1 1 0 1 1 
377 20 4999 1 1 0 1 1 1 1 1 1 1 0 1 1 1 1 1 1 1 1 1 
378 20 5353 1 1 1 1 0 1 1 1 1 1 1 1 1 1 0 1 1 1 1 1 
379 20 5084 0 1 1 1 1 0 1 1 1 1 1 1 1 1 1 1 1 1 1 0 
380 20 4551 1 1 1 1 1 0 1 1 1 1 1 1 1 1 1 1 0 1 1 1 
381 20 4332 1 1 1 1 1 1 1 1 1 1 1 1 1 1 1 0 1 0 1 1 
382 20 4558 1 1 1 1 0 1 0 1 1 1 1 1 1 1 1 0 1 1 1 1 
383 20 5540 1 1 1 1 1 1 1 1 1 1 1 0 1 1 0 1 1 1 1 1 
384 20 5048 1 1 1 1 1 1 1 1 1 0 1 1 1 1 1 1 0 1 1 1 
385 20 4845 1 1 1 1 1 1 1 1 1 1 1 0 1 1 0 1 1 0 1 1 
386 20 3751 1 1 1 1 1 1 1 1 1 1 1 1 0 1 1 1 0 1 1 1 
387 20 5101 1 1 1 1 0 0 1 1 1 1 1 0 1 1 1 1 1 1 1 1 
388 20 4878 1 1 1 1 1 1 0 1 1 1 1 0 1 1 1 1 1 1 1 1 
389 20 3968 1 1 1 0 1 1 1 1 0 1 1 1 0 0 1 1 1 1 1 1 
390 20 5485 1 1 1 1 1 1 1 1 1 1 1 1 0 1 0 1 1 1 1 1 
391 20 5021 0 1 0 1 1 1 1 1 1 1 1 1 0 1 1 1 1 1 1 1 
392 20 5342 1 0 1 1 1 1 1 0 1 1 1 1 1 1 1 1 1 1 0 1 
393 20 5449 1 1 1 1 1 0 1 1 1 1 1 1 1 1 1 1 1 1 1 0 
394 20 4288 1 1 0 1 1 1 1 1 1 1 1 1 1 1 1 1 1 1 1 1 
395 20 5192 1 1 1 1 1 1 1 1 1 0 0 1 1 1 1 1 1 0 1 1 
396 20 5839 1 1 1 1 1 1 1 1 1 1 1 1 1 1 0 1 0 1 1 1 
397 20 4273 1 1 1 0 1 0 0 1 1 1 1 1 1 1 1 1 1 1 1 1 
398 20 4463 1 1 1 1 0 1 1 1 1 1 1 1 1 1 1 1 1 1 0 0 
399 20 5218 1 0 1 1 1 1 1 1 1 1 1 1 0 1 1 1 1 1 1 1 
400 20 4890 1 1 1 1 1 1 1 1 0 1 1 1 1 1 0 1 1 1 1 1 
401 20 5544 1 1 1 0 1 0 1 1 1 1 1 1 1 1 1 1 1 1 1 1 
402 20 4871 1 1 1 1 1 1 1 0 1 1 1 0 1 1 1 1 1 1 1 1 
403 20 4980 1 1 1 1 1 1 0 1 1 1 1 1 0 1 1 1 1 1 1 1 
404 20 4720 1 1 1 1 1 1 0 1 1 1 1 1 1 1 1 1 1 1 1 0 
405 20 4092 1 1 1 1 1 1 1 0 1 1 1 1 0 1 1 1 1 1 1 1 
406 20 5165 1 1 1 1 1 1 1 1 1 1 1 1 0 1 1 1 1 0 1 1 
407 20 4165 1 1 1 1 1 1 1 0 1 1 0 1 1 1 1 1 1 1 1 1 
408 20 4750 1 1 1 1 1 1 1 1 1 1 1 1 0 1 0 1 1 1 1 1 
409 20 4580 1 0 1 1 1 1 1 1 1 1 1 1 1 1 1 1 1 1 1 0 
410 20 5173 1 1 1 1 1 1 1 1 0 1 1 1 1 1 1 0 0 1 1 1 
411 20 4820 1 1 1 1 1 1 1 1 1 1 1 1 0 1 1 1 1 0 1 1 
412 20 5321 1 1 1 1 1 1 0 1 1 1 1 1 1 1 1 0 1 0 1 1 
413 20 4359 1 1 1 0 1 1 1 1 1 1 1 1 1 1 1 1 1 0 1 1 
414 20 5109 1 1 1 1 1 1 1 1 0 1 1 1 1 1 1 1 1 1 0 1 
415 20 4216 1 1 0 1 1 1 1 1 1 1 0 1 1 0 0 1 1 1 1 1 
416 20 4718 1 1 1 1 0 0 1 1 1 1 1 1 1 1 1 1 1 1 1 1 
417 20 4234 1 0 1 1 1 1 0 1 1 1 1 1 1 1 1 1 1 1 1 1 
418 20 5110 1 1 1 1 1 1 0 1 1 1 1 0 1 1 1 1 1 1 1 1 
419 20 3908 1 1 1 1 1 1 1 1 1 1 0 1 0 1 1 1 1 1 1 0 
420 20 4510 1 1 1 1 1 1 1 0 1 1 1 1 1 1 1 1 1 0 1 1 
421 20 4820 1 0 1 1 1 1 1 1 1 1 0 1 1 1 1 1 1 1 1 1 
422 20 4338 1 1 1 1 1 1 1 1 1 1 1 1 1 1 0 1 1 1 0 1 
423 20 5712 1 1 1 1 0 1 1 1 1 1 1 1 1 1 1 1 1 0 1 1 
424 20 4671 1 1 1 1 1 1 1 1 1 1 1 1 1 1 1 1 1 1 1 0 
425 20 4952 1 1 1 1 1 1 1 1 1 1 1 1 0 1 1 1 1 1 1 1 
426 20 4470 1 1 1 1 1 1 1 1 1 0 1 1 1 1 1 0 1 1 1 1 
427 20 4454 1 1 1 1 1 1 1 1 1 1 0 0 1 1 1 1 1 1 1 0 
428 20 4624 0 1 0 1 1 1 1 1 1 1 1 1 1 1 1 1 1 1 1 1 
429 20 5333 1 1 1 1 1 1 1 1 1 1 1 1 1 1 1 1 0 1 1 1 
430 20 4221 0 1 1 1 1 1 1 1 1 1 1 0 1 1 1 1 1 1 1 1 
431 20 5497 1 1 0 1 1 1 0 1 1 1 1 1 1 1 1 1 0 1 1 1 
432 20 5151 1 1 1 1 0 1 0 1 1 1 1 1 1 1 1 1 1 1 1 1 
433 20 5800 1 1 1 1 0 1 0 1 1 1 1 0 1 0 1 1 1 1 1 1 
434 20 6044 1 1 1 1 1 1 1 1 1 0 1 1 0 1 1 1 1 1 1 1 
435 20 4742 1 1 0 1 1 0 1 1 1 1 1 1 1 1 1 1 0 1 1 1 
436 20 4599 1 1 1 1 1 1 1 1 0 1 1 1 1 1 1 1 1 1 1 1 
437 20 5359 1 0 1 1 1 1 1 1 1 1 1 1 1 1 1 0 0 1 1 1 
438 20 5128 1 1 1 1 1 1 1 0 0 1 0 1 0 1 1 1 1 1 1 1 
439 20 4987 1 1 1 1 1 1 1 1 1 1 0 1 1 1 1 1 0 1 1 1 
440 20 5487 1 1 1 1 1 1 1 1 1 1 0 1 1 0 1 1 1 1 1 1 
441 20 4538 1 1 1 1 1 1 1 1 1 1 1 1 1 1 1 1 0 0 1 1 
442 20 5358 1 1 1 1 0 1 1 1 1 1 1 1 1 1 1 1 0 1 1 1 
443 20 4044 1 0 1 1 1 1 1 1 1 1 1 1 0 1 1 1 1 1 1 1 
444 20 4813 1 1 1 1 1 1 1 1 1 1 1 0 1 0 1 1 1 1 1 1 
445 20 3424 1 0 1 1 1 1 1 0 1 1 1 1 0 1 1 1 1 1 1 1 
446 20 5137 1 1 1 1 1 1 0 1 1 1 1 1 0 0 1 1 1 1 0 1 
447 20 4729 1 1 0 1 0 1 1 0 1 1 1 1 1 1 1 1 1 1 1 0 
448 20 4037 0 1 1 1 1 1 1 1 1 0 1 1 1 1 1 1 0 1 1 1 
449 20 3971 1 1 1 1 0 1 1 1 1 1 1 1 1 1 1 0 1 1 0 1 
450 20 3390 1 1 1 1 1 1 1 1 1 1 1 1 1 1 1 1 0 1 1 1 
451 20 4581 1 1 1 1 1 1 1 1 0 1 1 1 1 1 1 1 1 1 1 0 
452 20 4149 0 1 1 1 1 1 1 1 1 1 0 1 1 0 1 1 1 1 1 1 
453 20 4983 1 1 1 1 1 1 1 1 1 1 1 1 1 1 0 1 1 1 1 0 
454 20 5068 1 1 0 1 0 1 1 1 1 1 1 1 1 1 1 1 1 1 1 1 
455 20 4497 1 1 1 1 1 1 1 1 1 1 0 1 1 1 0 1 0 1 1 1 
456 20 6132 1 1 1 0 1 1 1 1 1 1 1 0 1 1 1 1 1 1 1 1 
457 20 4330 1 1 1 1 0 1 1 1 1 1 1 1 0 1 1 1 1 1 1 1 
458 20 4199 1 1 0 1 1 1 1 1 1 1 1 1 1 1 0 1 1 1 1 1 
459 20 5145 1 1 1 1 1 1 1 1 1 1 1 0 1 1 1 1 1 1 0 1 
460 20 4270 1 1 1 1 0 1 1 0 0 1 1 1 1 1 1 1 1 1 1 1 
461 20 4669 1 1 1 1 1 1 0 1 1 1 1 0 1 1 1 1 1 1 1 1 
462 20 5012 1 1 1 1 1 1 1 1 1 1 1 1 0 1 1 1 1 0 1 1 
463 20 4852 0 1 1 1 1 1 1 1 1 1 1 1 1 1 1 1 0 0 1 1 
464 20 3608 1 1 1 0 1 1 1 1 1 1 1 1 1 0 0 1 1 1 1 1 
465 20 4555 1 1 0 1 1 1 1 1 0 1 1 1 1 1 0 1 1 1 1 1 
466 20 4046 1 0 1 1 1 1 1 1 1 1 0 1 1 1 1 0 1 1 0 1 
467 20 4075 0 1 1 1 1 1 1 0 1 1 1 1 1 1 0 1 1 1 1 1 
468 20 4255 0 1 1 1 1 1 1 1 1 0 1 1 1 1 1 1 1 0 1 1 
469 20 4029 1 1 1 1 1 1 1 1 1 1 1 0 0 1 1 1 1 0 1 1 
470 20 4499 1 1 0 0 0 1 1 0 1 1 1 1 1 1 1 1 1 1 1 1 
471 20 4592 1 1 0 1 1 1 1 1 1 1 1 1 1 1 1 1 0 1 1 1 
472 20 4441 1 1 1 1 1 0 0 1 1 1 1 1 1 1 1 1 1 0 1 1 
473 20 5310 1 0 0 1 1 1 1 1 1 1 1 0 1 1 1 1 1 1 1 1 
474 20 4185 1 1 1 0 1 1 1 1 1 1 1 1 1 1 1 0 0 1 1 0 
475 20 4701 1 1 1 1 1 1 0 1 0 1 1 1 1 1 1 1 0 0 1 1 
476 20 3479 1 1 1 1 1 1 1 1 1 1 1 1 0 1 1 1 1 1 1 0 
477 20 4556 1 0 1 1 1 1 1 0 1 1 1 0 1 1 1 1 1 1 1 1 
478 20 5386 0 0 0 1 1 1 1 1 1 1 1 1 1 1 1 1 1 1 1 0 
479 20 3970 1 1 1 0 1 1 1 1 1 1 1 1 1 1 1 0 1 1 1 1 
480 20 3970 1 1 0 1 1 1 1 1 1 1 0 1 1 1 1 1 1 1 1 0 
481 20 5335 1 1 1 1 1 0 1 1 1 1 1 1 1 1 1 0 1 1 1 1 
482 20 4650 1 1 1 0 1 1 1 1 1 1 1 1 1 1 1 1 0 1 1 1 
483 20 3852 1 1 1 1 1 1 1 1 0 1 0 1 1 0 1 1 0 1 1 1 
484 20 3826 1 1 1 1 1 1 0 1 1 1 1 1 1 1 1 1 1 0 1 1 
485 20 4891 0 1 1 1 1 1 1 1 0 1 1 1 1 1 1 1 1 1 1 1 
486 20 4190 1 1 1 1 1 1 1 0 1 0 1 1 1 1 1 1 1 1 1 1 
487 20 5196 1 1 1 0 1 1 1 1 1 0 1 1 1 1 1 1 1 1 1 1 
488 20 4370 1 1 0 1 1 1 1 0 1 1 1 0 1 1 1 1 1 1 1 0 
489 20 5217 1 1 0 1 1 1 1 1 1 1 1 1 1 0 1 1 1 0 1 1 
490 20 4069 1 0 1 1 1 1 1 1 0 1 1 1 1 1 1 1 1 1 1 1 
491 20 4799 0 1 1 1 0 1 1 1 1 1 1 1 1 1 0 1 1 1 1 1 
492 20 4551 1 1 1 1 1 0 1 1 1 1 1 1 1 1 1 1 1 1 0 1 
493 20 4578 1 1 1 1 1 1 1 1 1 1 1 0 1 1 1 0 1 1 1 1 
494 20 5459 1 1 0 1 1 1 1 1 1 0 1 1 1 1 1 1 1 1 1 1 
495 20 3853 1 1 0 1 1 1 1 1 1 1 0 1 1 1 1 1 1 1 1 1 
496 20 4430 1 1 1 1 1 1 1 0 1 1 1 1 1 1 1 0 0 1 0 1 
497 20 5510 1 1 1 1 1 1 1 1 1 0 0 1 1 1 1 0 1 1 1 1 
498 20 4690 1 1 1 1 1 1 1 1 1 1 1 0 1 0 1 1 1 1 1 1 
499 20 5113 1 1 1 1 1 1 1 1 1 1 1 1 0 1 1 1 1 1 1 0 
500 20 4413 1 0 1 1 1 1 1 0 1 1 1 1 1 1 1 1 1 1 0 0 
