1 20 3079 193 298 167 130 145 135 435 45 270 243 391 201 311 329 65 167 23 395 172 177 260 439 58 477 45 294 139 417 50 296 39 304 257 69 233 165 261 475 335 161
2 20 2973 270 420 97 392 53 63 325 445 82 318 341 288 152 290 68 495 21 496 126 212 58 455 300 92 647 34 194 280 20 225 212 62 216 245 179 234 156 495 200 360
3 20 2371 501 330 7 159 56 321 184 29 25 196 402 138 1 3 103 130 19 1 399 387 126 193 28 441 97 151 46 500 40 77 233 408 80 317 124 480 203 376 290 207
4 20 2813 406 100 134 430 222 452 214 99 22 377 250 369 34 307 138 431 425 67 76 59 233 17 277 263 433 489 70 38 132 425 88 392 88 115 95 279 152 124 28 210
5 20 2230 389 62 402 326 119 147 34 483 226 410 33 327 31 59 10 184 57 368 233 265 22 388 230 408 25 247 406 50 254 397 68 84 35 185 162 165 29 419 23 182
6 20 2687 239 224 611 399 59 436 544 268 245 197 144 383 18 229 167 424 150 339 50 27 87 369 55 436 36 178 423 111 137 479 80 252 12 466 214 488 33 211 55 57
7 20 2455 145 57 1 3 221 26 600 318 82 392 82 245 89 90 331 257 33 497 3 158 122 279 106 26 95 272 121 198 326 94 363 197 32 459 85 180 54 185 178 352
8 20 1847 264 302 347 245 252 453 5 82 28 488 43 78 37 245 189 35 63 315 188 27 124 401 40 21 41 316 88 273 49 19 133 21 152 436 122 346 61 210 83 271
9 20 3233 117 138 275 274 192 204 326 285 115 76 363 249 268 106 19 403 586 279 50 101 60 499 226 185 136 25 177 191 275 237 94 471 339 101 161 193 62 12 201 71
10 20 2866 138 215 238 425 348 171 103 11 175 134 136 31 37 3 97 256 10 105 364 448 158 364 12 380 40 351 132 447 221 41 376 225 288 359 451 272 138 373 121 30
11 20 3422 152 174 202 445 463 480 327 16 9 324 394 420 375 336 203 465 20 165 139 62 186 101 49 432 312 25 206 75 283 169 117 487 383 53 153 101 257 87 48 170
12 20 3160 143 110 5 414 83 224 190 422 623 78 208 285 146 91 82 140 287 324 5 358 113 376 105 51 157 328 180 447 113 168 284 453 18 145 466 152 724 45 19 390
13 20 2496 143 198 142 175 55 116 53 495 194 223 4 120 336 21 43 91 121 333 150 497 21 431 395 281 96 387 99 341 383 338 99 180 272 409 73 216 118 189 324 467
14 20 1905 87 5 316 499 143 69 7 450 200 66 30 148 41 90 40 158 186 310 127 221 125 425 102 381 45 94 181 345 67 53 138 292 200 372 40 352 259 486 48 212
15 20 2527 115 190 95 319 548 385 36 251 635 268 60 336 238 407 39 93 36 321 24 347 144 118 211 105 66 67 60 452 177 308 381 349 54 350 5 314 71 405 164 40
16 20 3164 47 12 215 368 32 140 69 470 338 51 305 380 275 200 177 423 41 40 211 151 89 230 271 171 45 139 43 236 361 198 753 300 241 393 51 266 27 21 365 71
17 20 2628 209 500 172 30 224 247 16 206 62 142 1 199 136 289 253 405 222 109 5 488 307 458 236 192 163 5 177 284 241 311 17 465 321 233 193 483 203 357 128 408
18 20 2429 366 228 144 80 108 43 19 38 64 351 404 329 57 146 234 339 50 24 174 231 263 419 102 100 149 128 383 218 88 56 172 253 41 120 53 146 102 331 64 183
19 20 1680 118 481 132 424 73 350 27 137 130 436 71 2 62 162 39 118 92 137 287 366 252 401 155 110 48 5 119 471 101 400 67 164 60 400 35 217 3 206 229 379
20 20 2426 184 247 107 439 97 342 120 239 82 383 205 137 229 139 112 356 262 344 156 431 28 127 95 411 47 413 52 95 26 126 1 267 77 252 166 469 515 278 472 437
21 20 2470 36 153 118 366 41 38 188 41 84 307 446 306 214 343 158 222 233 452 131 226 161 246 146 279 379 283 114 489 49 26 258 55 54 144 62 127 180 38 36 183
22 20 2670 58 188 68 43 312 422 151 262 82 149 169 341 385 189 5 230 441 212 100 302 379 217 239 291 56 5 173 35 184 298 99 429 164 19 2 419 196 61 75 193
23 20 2716 17 231 68 432 30 253 723 89 82 234 14 328 209 489 75 7 670 86 44 341 113 394 219 416 123 270 156 423 53 378 335 457 20 126 254 162 160 261 31 164
24 20 3392 128 496 11 209 24 73 28 266 115 266 418 458 357 141 52 73 370 399 352 253 602 396 159 401 220 42 69 291 43 59 239 483 507 333 480 101 15 297 52 339
25 20 2517 212 41 24 309 568 436 26 342 147 101 269 34 382 276 336 162 143 417 40 32 78 416 89 301 43 460 44 353 42 408 135 421 242 378 141 340 99 298 87 219
26 20 2196 73 441 6 334 48 24 17 323 384 372 78 28 110 210 65 383 82 483 155 391 109 133 36 81 514 9 340 494 43 60 298 152 23 265 51 453 8 29 306 5
27 20 2588 309 298 165 484 34 182 149 161 294 469 55 101 31 315 166 488 181 15 284 137 278 451 65 255 69 234 342 283 107 266 44 23 106 313 237 198 284 387 35 15
28 20 2891 55 411 10 61 381 265 118 297 381 168 479 80 31 166 51 190 272 72 84 246 78 121 179 418 6 264 144 294 355 375 531 57 2 497 252 267 133 72 72 460
29 20 2860 202 69 200 246 270 392 22 111 41 208 120 228 315 225 110 382 226 218 33 22 105 82 194 119 154 118 339 36 19 233 263 315 131 352 43 398 330 201 459 366
30 20 2759 219 500 42 488 60 317 28 47 313 82 36 153 232 304 60 404 472 367 446 155 79 299 114 313 74 81 82 475 55 487 166 230 444 15 407 296 15 250 105 190
31 20 2700 217 475 315 87 75 96 73 307 184 25 2 183 261 434 43 58 582 287 147 24 130 310 331 47 268 410 52 193 110 102 52 328 127 267 89 112 250 208 68 446
32 20 3175 31 423 363 452 82 120 429 230 314 77 430 316 237 414 39 93 11 417 193 317 40 129 340 88 199 17 354 1 122 140 1 278 85 301 291 221 336 435 72 174
33 20 1941 323 427 8 172 360 448 169 7 42 25 148 16 61 89 60 246 25 244 139 288 21 370 50 187 182 483 103 442 59 498 216 450 104 175 34 254 246 489 77 355
34 20 3716 157 118 34 382 128 49 40 294 221 466 157 70 118 261 349 49 281 289 201 233 200 96 726 39 212 3 21 68 312 254 723 207 121 48 76 320 551 60 17 493
35 20 1830 45 6 7 358 73 364 25 415 82 433 286 495 41 233 47 356 1 76 57 433 227 479 32 205 433 222 111 399 213 35 101 424 19 460 35 116 256 274 197 445
36 20 2281 191 82 67 395 372 112 211 109 88 57 95 285 23 304 273 281 57 441 256 54 55 60 157 419 96 165 228 391 78 321 56 282 17 115 379 9 110 6 43 56
37 20 2950 61 206 649 483 140 226 62 489 12 399 150 3 63 260 115 416 55 264 11 420 102 100 102 342 117 123 333 21 249 127 3 474 590 162 302 186 108 304 464 367
38 20 3201 224 461 349 117 26 106 25 305 338 289 252 129 196 493 338 345 400 50 99 78 227 246 98 411 97 132 181 378 144 139 67 415 224 427 300 187 233 297 184 230
39 20 3148 199 428 93 357 82 412 83 38 328 247 533 409 68 291 353 72 77 38 70 105 34 20 272 423 273 61 142 373 185 389 83 31 297 203 157 431 357 480 250 99
40 20 3384 307 449 81 186 14 229 461 451 97 362 357 234 206 213 313 499 143 321 14 468 118 412 375 155 221 279 70 444 200 192 135 381 525 171 353 366 73 209 167 310
41 20 1992 14 375 78 315 330 115 180 271 60 211 224 309 53 247 85 250 334 100 60 494 60 153 175 498 17 427 48 149 192 127 174 129 102 347 118 460 144 118 43 475
42 20 2756 20 1 164 24 31 259 496 484 33 414 35 92 445 136 98 58 70 340 391 498 138 427 183 458 272 374 201 138 68 25 57 341 31 220 24 107 299 42 389 89
43 20 3484 204 225 448 465 323 15 62 53 463 86 50 348 175 338 705 359 543 461 15 497 104 32 17 33 317 122 538 209 110 346 30 155 22 122 20 332 11 464 198 168
44 20 3341 164 197 263 314 43 372 6 94 101 420 689 425 127 392 94 103 145 126 385 206 85 238 368 394 190 482 172 132 253 230 192 337 92 140 490 344 184 261 134 259
45 20 2995 182 166 483 330 19 28 84 226 12 211 356 396 423 500 89 387 273 312 15 353 97 26 328 144 570 383 46 187 360 199 69 386 6 251 36 357 169 341 127 147
46 20 2375 455 306 18 14 27 397 92 136 152 96 206 213 222 14 5 108 247 76 38 262 131 69 197 491 316 303 120 438 161 60 100 130 260 414 56 185 44 499 122 160
47 20 2546 148 160 375 381 336 357 92 198 90 281 101 260 65 86 30 457 77 352 251 22 312 499 25 264 183 443 240 305 46 424 40 395 236 369 36 66 141 217 359 441
48 20 2971 27 211 220 256 238 458 280 465 12 437 451 412 64 257 8 96 414 151 175 408 161 470 63 246 108 32 493 402 161 393 16 213 109 314 359 374 74 85 281 48
49 20 2803 125 291 237 431 316 121 255 72 222 432 559 335 89 498 193 254 219 235 30 288 391 85 130 144 117 346 66 207 149 282 27 248 180 164 17 237 26 37 156 221
50 20 1804 185 386 47 424 462 197 363 251 7 14 76 223 68 475 26 311 42 474 173 400 23 167 54 91 59 22 49 289 126 173 20 121 197 295 24 121 133 41 121 79
51 20 3183 133 333 289 488 30 411 304 21 334 409 149 287 231 337 109 407 131 432 355 297 183 386 99 62 101 407 26 155 280 492 31 52 189 284 789 302 81 204 135 227
52 20 2655 516 477 105 14 567 372 327 196 117 281 62 245 22 163 218 73 323 460 158 15 35 111 246 368 37 123 24 367 38 409 8 200 74 131 253 430 167 43 22 204
53 20 2692 173 289 332 413 160 60 29 226 325 101 18 119 340 146 134 166 113 84 67 333 39 110 3 282 91 231 79 117 300 25 455 310 295 163 93 178 125 306 195 371
54 20 2716 460 420 70 409 15 286 200 493 174 398 69 292 142 26 233 48 19 387 359 216 441 396 15 433 178 125 11 78 86 439 57 463 5 353 268 490 301 240 293 129
55 20 2143 235 336 166 325 198 222 239 81 69 114 167 228 111 119 121 57 167 351 60 225 116 287 196 395 7 483 46 334 150 227 240 350 204 91 24 58 96 36 67 272
56 20 2095 29 100 351 162 30 125 40 83 211 14 28 343 271 414 206 282 239 242 24 129 4 57 51 257 139 7 179 414 24 478 370 105 109 300 206 42 76 206 32 149
57 20 2693 262 411 48 63 431 78 2 50 28 235 104 144 57 156 120 10 35 456 286 330 168 296 457 268 223 66 10 250 188 175 383 67 35 2 110 359 14 406 406 192
58 20 2565 124 379 156 203 227 367 16 126 59 425 152 38 391 259 42 119 175 457 100 383 73 54 38 108 49 321 287 496 330 72 195 341 140 245 144 301 124 19 385 379
59 20 1747 28 394 59 190 4 266 43 414 8 112 221 306 298 427 110 278 313 179 28 271 72 40 24 171 71 469 146 164 326 140 30 327 257 215 68 355 14 257 64 479
60 20 2627 59 195 8 149 430 158 208 236 43 306 147 479 165 61 55 126 3 457 266 111 519 211 158 498 212 322 33 482 325 476 270 343 41 244 10 67 65 42 267 415
61 20 3398 106 29 113 264 268 37 66 335 162 239 420 142 39 473 414 222 299 84 41 345 131 41 335 350 296 45 262 200 277 353 168 359 327 106 262 198 79 366 183 275
62 20 2758 279 121 92 244 187 84 55 121 49 353 10 247 164 325 428 201 45 293 75 388 327 279 202 226 301 225 108 224 32 11 183 311 195 353 202 130 288 262 226 442
63 20 2500 129 225 190 396 210 121 63 310 528 487 87 307 98 318 61 330 351 175 40 293 115 348 62 202 23 175 152 181 185 83 293 378 93 341 148 25 227 396 70 120
64 20 2457 127 380 183 50 7 92 60 28 341 398 217 139 206 285 1 21 5 132 72 64 195 155 7 306 69 222 303 271 110 5 27 156 172 284 265 387 416 408 289 187
65 20 3488 11 9 263 293 376 200 56 127 451 346 60 439 521 228 173 227 433 328 482 132 29 170 15 334 179 273 289 112 150 34 26 28 44 157 431 278 299 498 72 153
66 20 1832 51 313 181 356 230 382 253 285 107 238 120 202 1 287 21 182 25 353 136 436 41 240 133 266 55 460 42 216 155 57 2 89 602 100 30 490 78 495 27 424
67 20 2167 39 146 5 364 24 190 251 174 224 317 209 367 366 410 128 361 90 12 100 109 73 288 93 74 7 353 528 100 239 428 26 348 78 259 76 82 24 171 129 349
68 20 2436 110 83 16 148 192 423 247 14 11 87 33 429 109 190 138 451 308 458 173 243 101 47 177 197 37 294 256 113 182 339 21 462 10 183 65 491 267 255 592 61
69 20 2701 321 8 49 63 84 357 172 254 191 169 274 415 203 165 76 16 65 176 105 479 258 111 101 131 173 404 625 269 10 49 55 395 9 237 336 189 232 154 38 442
70 20 2359 111 498 65 227 150 372 464 15 38 394 104 48 205 250 475 40 346 64 58 495 19 328 163 486 174 297 149 67 149 260 9 112 67 350 59 281 101 13 43 131
71 20 2628 195 115 490 450 148 190 603 391 31 390 107 180 124 500 94 172 7 264 10 152 394 303 171 442 5 353 197 254 139 303 57 10 179 128 155 91 141 104 38 274
72 20 2722 41 313 142 137 28 457 139 292 376 437 196 300 138 475 24 396 431 153 162 346 85 389 236 252 8 175 223 303 108 391 47 221 440 387 91 184 444 165 44 309
73 20 2993 51 432 44 427 22 459 2 117 461 411 7 124 137 72 202 145 343 385 169 336 117 483 492 36 123 460 126 488 115 361 154 210 300 169 398 377 157 183 322 282
74 20 2820 190 310 415 133 382 483 197 435 99 186 412 438 341 334 156 165 199 324 118 264 54 17 116 139 243 205 124 469 45 107 159 382 39 173 108 286 41 340 87 65
75 20 2324 336 254 161 216 252 482 67 349 165 438 20 71 158 421 130 380 17 464 104 342 270 495 289 343 38 300 89 182 285 167 5 72 28 389 215 263 26 69 250 151
76 20 2064 7 363 90 289 146 240 170 356 133 465 297 474 181 436 100 161 25 227 10 338 91 214 72 324 154 497 187 127 105 141 224 201 145 163 399 12 15 368 29 166
77 20 2767 276 298 18 285 24 134 238 427 247 38 98 353 7 462 221 153 17 119 262 460 224 403 61 386 115 70 308 453 29 287 149 212 397 102 437 76 282 477 49 252
78 20 3027 142 169 76 430 132 237 354 26 409 362 77 114 268 451 169 270 51 99 29 463 149 97 460 233 155 28 53 193 159 244 130 316 336 354 82 18 100 451 453 176
79 20 2204 31 101 325 377 5 422 73 491 37 207 16 55 126 399 18 478 145 350 161 491 76 265 274 360 12 183 535 487 194 44 46 247 167 122 107 146 388 351 19 81
80 20 3016 132 374 167 104 65 288 185 435 174 317 461 175 92 345 27 106 249 131 375 130 460 200 66 113 331 266 190 114 378 414 98 131 149 459 40 357 105 1 27 2
81 20 2588 90 286 215 81 375 228 400 202 57 213 204 271 106 248 24 459 198 99 76 162 87 125 317 30 37 193 46 129 292 2 191 351 137 62 37 239 205 335 142 67
82 20 3556 200 364 336 296 267 121 363 319 450 344 83 82 6 237 356 242 370 77 3 74 122 448 182 433 90 338 468 342 251 11 171 312 58 264 365 447 238 291 66 81
83 20 2237 22 192 84 119 113 392 156 133 526 448 46 238 11 271 45 210 78 292 154 205 108 79 74 414 273 466 110 386 127 489 232 136 178 345 221 238 119 382 120 63
84 20 2807 90 225 309 499 32 330 33 95 126 240 380 87 262 75 283 322 273 21 158 145 387 234 66 102 313 482 27 97 217 188 53 175 25 216 203 402 268 438 4 482
85 20 3594 320 343 411 380 257 422 105 219 760 191 38 16 453 111 182 422 352 209 222 162 63 226 203 110 83 91 20 406 29 489 58 483 371 296 103 202 26 223 437 139
86 20 3080 204 344 237 454 205 46 140 330 218 382 32 90 177 285 126 160 166 444 244 93 62 200 360 402 125 62 430 480 162 117 204 460 371 428 70 373 219 226 98 99
87 20 2043 50 21 65 288 39 77 71 165 93 220 124 3 226 12 219 299 57 82 192 262 18 492 210 78 31 29 132 9 45 447 175 327 377 340 112 431 109 283 209 157
88 20 2424 217 414 102 279 122 28 177 59 79 63 120 63 317 162 111 248 46 148 28 258 276 58 342 61 58 383 245 451 257 84 103 177 181 238 64 145 2 447 183 413
89 20 1837 173 29 216 427 69 19 34 399 238 6 39 229 37 204 126 52 80 95 153 316 146 243 1 267 129 339 61 354 266 80 15 500 105 352 98 484 87 296 224 399
90 20 2733 299 188 623 192 368 458 53 460 142 67 102 124 4 389 628 315 138 385 16 336 76 459 69 153 395 227 64 128 33 312 79 189 117 385 156 105 21 4 34 261
91 20 2546 67 313 62 244 311 304 67 327 258 283 310 201 43 183 80 492 182 141 174 337 416 100 11 47 14 285 27 420 142 319 179 479 267 93 22 68 453 41 98 159
92 20 3006 561 429 150 374 233 3 58 290 85 355 341 422 9 324 332 359 367 375 322 113 76 375 22 194 195 464 189 384 231 245 120 437 216 78 118 485 34 227 99 138
93 20 3244 361 302 230 95 231 469 147 490 562 48 152 308 231 271 327 82 87 311 62 295 10 396 54 459 107 72 226 8 32 362 361 448 102 438 226 90 235 104 312 335
94 20 3128 71 476 91 472 155 294 349 491 201 105 108 42 83 50 554 313 48 391 153 374 249 458 80 48 250 243 214 145 103 119 335 81 362 136 7 218 142 347 356 210
95 20 3152 129 346 33 490 131 203 81 223 58 327 130 173 153 442 494 60 270 115 30 366 283 387 24 2 231 122 265 251 808 120 5 366 197 329 364 191 210 314 44 366
96 20 2844 16 270 408 289 208 188 16 323 235 361 90 457 24 333 474 187 262 192 240 244 240 350 144 281 7 380 71 107 13 316 243 353 99 49 131 421 37 227 597 384
97 20 3035 449 342 326 367 9 48 429 86 4 311 95 60 41 1 154 330 392 369 299 197 30 489 299 33 129 228 182 311 105 200 191 312 104 261 228 269 258 231 70 449
98 20 3004 153 417 71 165 279 67 72 17 412 145 46 448 192 22 125 409 47 115 210 137 216 468 151 388 331 48 65 59 121 51 350 228 613 485 50 305 55 170 196 381
99 20 2596 233 214 102 160 86 54 173 93 116 177 280 489 57 190 184 287 405 192 139 304 198 160 294 206 294 418 123 401 5 471 51 291 128 137 217 278 127 122 33 458
100 20 2677 129 73 433 146 92 208 27 58 273 140 558 153 341 468 324 27 5 326 34 422 166 31 30 131 25 401 39 321 408 266 187 20 76 186 119 203 69 50 12 312
101 20 2906 32 471 121 191 20 132 27 231 214 95 278 29 2 452 433 356 31 79 451 191 224 237 117 220 118 356 230 352 129 77 26 455 97 281 328 122 498 281 257 405
102 20 2063 216 123 44 156 131 474 50 438 13 197 224 268 63 300 446 398 294 43 3 286 117 445 175 344 6 432 138 123 35 354 215 350 54 321 87 304 35 190 233 445
103 20 2113 17 201 268 499 405 493 107 219 16 75 4 288 21 104 131 336 28 455 10 211 121 481 300 174 144 366 193 136 34 368 326 101 2 25 259 317 101 359 155 360
104 20 2621 27 474 25 51 85 66 230 41 608 204 400 403 366 223 165 161 76 264 68 229 107 381 8 32 10 417 102 10 67 477 71 88 237 185 159 477 456 150 10 495
105 20 3858 2 146 90 429 104 216 399 15 335 95 275 363 362 491 175 7 7 41 186 200 321 274 165 439 451 311 107 9 152 148 92 76 351 239 422 438 480 203 347 4
106 20 2311 436 105 240 199 62 446 65 340 366 48 47 286 67 239 230 384 93 125 255 457 7 415 175 342 86 209 28 288 248 228 112 305 68 367 50 402 249 473 5 299
107 20 2446 300 206 21 93 26 106 231 27 139 130 64 418 59 301 47 17 259 125 313 94 433 132 5 256 335 199 78 109 30 419 22 103 15 198 358 258 75 148 248 288
108 20 3732 238 260 252 73 299 406 216 354 225 409 431 165 406 72 183 393 126 385 339 70 13 475 98 407 23 251 42 268 327 50 583 459 90 126 130 117 188 217 457 364
109 20 2273 91 302 195 126 88 285 7 215 64 23 14 496 127 29 367 466 247 330 26 52 194 79 215 11 61 311 108 115 129 147 99 47 73 154 449 89 110 265 178 274
110 20 3525 314 372 446 248 190 466 338 487 217 129 78 427 88 144 13 258 656 268 24 33 222 289 175 254 70 137 59 312 346 387 374 444 99 48 181 423 308 11 209 457
111 20 2421 76 370 21 216 78 489 168 312 134 488 243 491 307 91 216 151 50 254 68 324 119 455 191 55 36 208 202 121 171 122 385 477 188 19 131 301 94 301 149 455
112 20 2388 8 202 34 464 9 484 150 49 233 196 160 353 41 48 93 111 132 151 13 186 212 302 405 286 446 211 164 280 104 174 527 306 23 488 21 484 138 428 73 299
113 20 2411 108 301 97 393 71 440 45 219 52 27 230 210 110 159 331 269 630 127 121 294 376 9 238 432 36 7 6 340 20 166 238 246 14 160 9 277 90 479 192 188
114 20 2780 58 141 508 192 261 100 344 113 42 175 76 189 93 191 267 172 152 286 3 221 220 446 351 177 8 43 234 468 256 367 29 19 113 230 110 9 92 186 259 199
115 20 2163 169 288 87 160 32 375 214 287 44 47 136 311 61 312 77 177 16 487 247 15 431 240 172 199 145 120 84 399 100 137 49 167 144 114 280 342 139 266 77 356
116 20 2833 451 191 123 434 370 381 24 136 139 78 121 490 187 347 79 356 31 65 5 491 64 97 129 147 549 464 373 301 103 176 223 480 26 482 86 279 172 177 287 472
117 20 3602 474 473 549 478 61 118 491 335 395 181 116 463 99 210 382 224 29 228 239 73 159 78 256 190 346 3 128 167 92 364 27 93 238 328 114 336 251 466 57 456
118 20 2058 73 46 493 137 260 262 160 85 100 82 112 69 89 89 84 202 12 242 184 133 230 340 105 305 103 153 14 91 75 126 37 87 237 427 98 74 91 456 16 500
119 20 2796 58 474 86 79 362 402 179 373 153 473 103 270 73 346 283 415 190 27 412 227 337 407 79 13 130 9 226 88 152 85 1 133 21 9 376 201 128 73 146 11
120 20 2468 299 127 17 309 151 80 65 447 114 292 311 63 221 154 139 268 61 288 158 429 97 71 180 94 319 71 15 355 130 98 267 10 5 194 67 366 468 494 1 66
121 20 3538 282 248 34 336 171 260 16 38 70 111 85 159 193 454 564 177 476 439 124 299 133 7 3 289 53 425 357 444 384 88 645 22 327 382 73 45 265 410 168 146
122 20 2563 157 28 117 269 53 190 165 344 265 169 138 36 426 339 41 291 278 159 321 389 413 280 103 430 163 152 58 281 122 238 61 456 71 349 124 469 48 50 80 364
123 20 2454 53 45 48 294 193 327 52 149 108 277 46 25 184 342 159 174 220 22 548 290 133 113 206 342 13 472 192 124 186 458 218 264 159 433 216 72 71 432 63 440
124 20 2434 79 160 60 66 24 467 267 16 307 153 207 135 149 500 193 215 39 478 198 392 3 110 99 463 472 195 60 203 320 25 58 68 20 284 24 294 279 496 185 187
125 20 2032 6 42 297 250 332 70 83 163 10 54 19 449 146 469 178 116 420 272 15 103 168 459 97 451 81 425 85 117 61 367 153 58 70 440 43 408 107 443 170 423
126 20 3066 98 191 439 264 218 47 148 494 178 285 128 114 72 447 209 317 127 19 173 116 145 315 73 16 415 85 255 175 43 487 42 7 373 29 276 169 256 168 165 415
127 20 2034 180 163 251 392 19 410 92 432 13 179 13 306 63 465 11 198 330 462 15 45 202 430 38 366 306 188 85 154 413 89 141 54 74 330 33 300 37 384 227 273
128 20 2153 42 155 246 487 163 288 227 109 180 250 188 225 8 404 34 477 84 309 154 352 233 236 328 302 22 74 122 429 67 260 10 456 226 183 79 9 237 314 42 436
129 20 2814 42 325 73 447 122 12 311 4 220 498 5 472 419 160 54 36 732 192 272 339 276 77 159 443 87 474 92 371 110 429 49 404 189 275 149 202 50 340 107 453
130 20 2636 156 269 408 461 589 216 88 271 177 172 66 431 39 442 66 184 147 452 3 201 13 193 7 202 70 96 320 192 29 171 449 445 185 113 102 417 163 160 219 311
131 20 1600 93 383 36 269 48 61 8 416 7 463 122 17 98 17 65 70 283 75 87 468 117 355 31 343 74 229 207 161 186 315 109 292 106 170 181 333 107 311 36 295
132 20 2694 17 124 368 328 85 282 459 49 84 399 42 290 135 296 242 305 413 127 35 95 233 3 62 409 156 102 265 272 45 261 187 6 191 112 222 386 14 478 113 460
133 20 3267 187 142 241 331 98 402 310 446 320 189 55 239 115 325 104 161 159 160 362 449 69 72 149 29 373 424 17 29 291 183 362 68 34 74 419 494 36 385 383 359
134 20 4041 175 111 14 59 214 64 336 467 155 380 464 476 113 295 38 149 307 194 840 93 448 239 40 117 118 345 143 375 97 273 276 65 627 292 406 346 137 370 104 106
135 20 2904 69 91 111 77 3 284 36 345 156 195 114 428 62 104 235 417 178 73 520 21 458 33 415 54 164 339 7 242 374 214 91 294 167 159 113 256 354 4 3 438
136 20 2956 30 190 200 23 110 36 187 380 143 447 144 58 11 92 95 351 249 257 192 431 399 175 31 254 324 423 142 460 57 433 148 283 329 297 545 300 76 190 284 397
137 20 3223 82 433 71 165 368 25 173 473 227 414 142 4 176 387 380 305 123 188 186 1 311 464 221 146 13 406 187 444 111 76 256 192 4 319 768 148 181 72 49 227
138 20 3120 126 266 181 211 311 189 131 427 38 271 629 199 297 76 349 243 101 60 40 482 279 115 176 317 56 160 137 408 129 434 52 124 316 59 152 426 156 53 244 345
139 20 2528 439 154 61 219 112 27 18 499 113 459 17 458 279 7 82 46 208 396 173 118 16 473 107 257 5 495 210 50 169 98 50 51 44 303 305 80 562 85 191 394
140 20 2480 124 319 41 10 98 334 91 354 126 96 12 493 265 119 252 346 20 273 269 236 159 173 80 293 186 335 22 317 576 406 87 48 268 310 75 120 61 310 289 100
141 20 2949 85 20 27 263 506 365 176 269 152 349 75 203 327 284 67 389 105 265 8 377 30 406 356 185 425 69 264 126 18 194 297 151 107 297 422 357 148 64 92 269
142 20 2765 150 94 108 81 198 466 119 198 350 457 150 80 162 83 60 237 128 441 11 278 146 437 88 39 177 213 33 495 232 381 343 42 50 247 544 106 138 122 270 26
143 20 2756 546 332 38 440 10 491 152 245 276 438 187 316 47 223 117 198 48 426 489 291 32 387 68 172 183 350 43 223 84 62 29 159 11 134 607 430 450 43 29 405
144 20 2352 251 41 424 466 273 153 16 432 99 422 65 352 20 194 61 25 132 405 35 494 42 203 152 121 248 214 367 459 255 458 23 22 245 478 68 146 18 50 146 107
145 20 2112 45 113 220 337 80 11 109 476 32 489 154 486 280 316 65 124 188 169 257 11 44 31 235 233 194 428 75 57 102 29 26 229 268 449 232 250 9 469 26 118
146 20 2412 213 171 101 412 182 204 187 95 322 475 124 28 136 483 107 222 42 411 24 1 230 150 347 195 62 32 351 78 7 188 87 249 13 108 10 461 229 297 242 177
147 20 1694 21 213 57 35 51 393 222 292 24 336 71 247 11 293 457 394 22 419 43 232 56 120 41 301 179 134 30 266 10 78 109 121 74 105 513 143 25 413 102 250
148 20 2204 117 152 161 91 98 382 116 308 88 280 113 445 111 100 19 453 27 144 16 139 8 490 136 486 500 31 40 326 292 407 88 44 14 500 504 261 171 453 137 74
149 20 2577 386 465 267 47 30 310 170 180 42 3 316 242 93 72 62 368 187 421 206 385 251 193 50 370 184 182 10 461 138 148 75 7 211 65 269 305 189 368 86 459
150 20 2460 242 40 123 48 154 369 430 353 185 173 89 386 351 444 7 293 214 367 37 366 121 330 78 280 172 94 63 199 213 290 155 318 153 76 116 400 27 323 145 306
151 20 2631 6 147 342 407 540 489 84 134 81 402 35 474 192 179 18 393 353 240 112 192 348 321 42 114 77 2 22 160 59 97 166 93 144 126 259 339 8 445 401 154
152 20 2380 100 295 101 482 131 298 249 207 41 247 394 258 36 240 261 209 82 323 87 358 29 13 248 114 340 307 165 341 5 39 244 304 5 179 290 113 130 279 38 467
153 20 2739 117 238 5 482 38 252 4 478 170 324 248 192 152 354 260 154 27 149 151 47 242 414 227 281 253 99 206 162 317 229 48 153 139 490 239 34 215 319 366 116
154 20 3007 276 117 76 120 300 59 91 64 108 20 337 327 295 248 113 260 94 287 202 9 12 371 238 172 156 86 154 245 181 51 55 272 465 371 339 118 95 199 172 12
155 20 2624 343 425 631 154 230 440 219 421 511 23 39 389 57 349 4 383 362 367 20 368 5 135 3 268 1 272 196 474 172 350 15 351 318 32 72 19 57 23 25 230
156 20 2294 174 1 70 23 264 175 122 298 26 181 374 68 44 228 121 43 91 454 64 4 3 69 26 144 37 167 388 154 24 182 250 154 18 342 538 157 125 491 109 320
157 20 2553 56 405 172 259 139 334 113 149 109 298 127 379 78 428 114 62 150 70 130 365 36 394 47 479 499 471 341 488 205 174 15 108 382 344 244 252 211 1 24 384
158 20 1723 99 234 75 8 56 311 82 7 16 306 161 8 127 444 62 368 444 466 76 219 341 234 51 48 101 185 23 287 90 62 51 185 78 159 83 103 126 17 12 408
159 20 1865 103 450 42 358 87 397 74 179 118 500 48 292 22 368 15 235 26 407 284 6 146 320 39 344 74 108 65 175 267 217 81 409 247 356 137 440 37 300 420 80
160 20 2126 155 104 74 391 192 436 58 130 466 92 104 346 252 308 82 243 82 176 218 112 119 174 244 130 11 161 118 67 195 432 118 98 54 390 51 7 1 492 64 135
161 20 2516 102 113 117 346 439 20 74 243 158 156 33 171 170 306 168 434 147 57 284 444 18 109 454 475 325 237 114 275 37 472 22 272 305 431 85 262 14 195 80 105
162 20 2616 6 10 160 476 350 209 87 231 98 337 23 32 163 84 322 415 78 472 71 479 132 11 248 203 163 214 127 354 77 303 45 351 273 233 421 26 424 385 2 72
163 20 2095 305 97 69 443 35 429 35 385 29 19 9 244 96 165 442 110 89 163 59 303 337 353 98 68 56 395 22 84 85 380 5 377 344 60 168 349 287 354 49 186
164 20 2744 367 251 65 244 162 496 112 32 184 425 36 368 114 46 395 239 169 389 174 12 287 364 123 133 42 303 397 163 166 266 390 194 41 32 151 63 47 90 8 440
165 20 2646 150 482 70 24 55 63 348 7 10 95 78 168 223 382 38 183 93 497 134 69 11 231 228 395 105 442 94 296 182 156 519 236 546 240 322 380 11 295 91 341
166 20 3478 329 229 16 424 177 403 291 130 29 114 218 138 453 287 320 296 192 210 102 20 401 148 36 326 299 281 149 80 143 313 261 230 48 272 366 109 38 99 480 209
167 20 2831 104 75 349 182 390 413 101 140 26 474 598 85 346 315 214 158 10 479 19 81 73 351 259 270 79 18 284 163 51 481 43 256 56 88 103 155 101 188 333 354
168 20 2297 392 400 120 474 145 45 247 150 25 287 142 460 47 231 228 274 236 317 109 435 502 270 61 54 16 402 98 464 1 263 97 305 80 488 34 34 8 46 284 360
169 20 2474 112 278 17 426 384 38 267 27 226 266 119 459 346 152 2 483 200 317 224 108 215 230 205 425 218 232 93 357 129 357 67 421 155 361 16 235 82 197 16 28
170 20 2283 95 190 173 269 271 220 151 107 164 38 141 495 46 479 62 470 1 167 101 41 7 343 67 187 690 390 66 333 45 180 149 120 181 28 281 201 14 106 149 51
171 20 3529 165 205 128 118 102 441 309 445 36 114 149 113 94 392 286 277 107 78 163 182 42 90 372 134 80 223 516 456 355 373 487 250 83 402 417 425 387 492 134 86
172 20 2888 170 111 49 52 16 359 61 418 118 145 207 14 145 61 493 66 120 288 431 371 74 182 127 18 351 38 296 213 21 92 53 477 149 374 134 231 310 105 286 466
173 20 1432 36 413 10 157 31 443 155 425 23 192 34 411 150 54 159 244 101 307 225 195 8 190 65 32 79 131 57 386 245 480 54 445 98 28 38 142 179 116 43 172
174 20 2575 222 298 136 95 290 277 277 376 192 490 99 151 108 489 39 261 139 46 260 24 4 43 293 366 179 180 62 150 94 359 274 216 139 255 23 331 357 220 32 378
175 20 1896 162 493 96 242 110 189 38 91 185 352 181 384 37 137 77 14 89 337 46 59 22 47 177 454 321 495 209 190 1 391 138 379 208 355 1 196 74 118 199 210
176 20 2825 97 93 205 187 4 381 91 99 108 255 214 61 23 391 72 410 199 458 248 73 197 16 227 395 585 345 263 477 299 443 38 256 3 65 333 479 53 497 273 39
177 20 3185 68 249 361 437 263 7 45 298 286 417 300 264 351 262 221 332 200 404 282 240 244 227 37 283 239 164 25 27 353 345 281 181 80 21 182 425 32 261 132 286
178 20 2799 24 392 172 219 498 18 52 442 172 210 8 214 37 87 5 319 561 354 246 241 159 19 85 192 64 195 209 261 439 74 100 186 122 46 463 485 50 218 33 275
179 20 2078 172 359 86 437 124 341 57 349 356 406 163 329 125 500 90 296 219 444 136 428 28 389 225 18 123 474 37 186 15 123 357 290 49 204 180 396 27 74 29 198
180 20 3018 17 160 81 11 61 30 760 352 546 119 206 57 55 476 492 352 111 61 194 412 66 96 291 68 23 278 25 371 9 469 110 442 41 330 199 249 361 474 125 470
181 20 3611 235 184 260 171 218 393 10 471 390 164 290 235 177 191 130 120 56 36 241 32 583 204 403 479 79 148 305 373 309 28 178 1 84 67 108 46 7 474 451 172
182 20 2712 127 126 184 37 17 235 19 153 303 65 591 190 169 116 35 239 304 361 354 336 148 420 374 18 14 411 30 371 345 391 16 110 14 134 33 164 20 350 294 407
183 20 2194 185 276 215 266 129 307 395 291 46 148 21 273 16 411 13 99 10 495 139 418 158 12 93 420 93 318 13 215 298 488 299 291 82 450 280 487 232 171 26 10
184 20 2515 257 352 327 359 167 59 117 331 43 221 55 446 97 159 65 406 141 484 90 120 145 14 116 142 158 405 70 129 533 227 125 99 223 429 219 411 33 2 163 195
185 20 2496 50 239 42 183 119 154 341 207 275 90 339 439 30 457 156 362 211 209 17 306 238 10 112 324 175 47 121 455 31 421 164 337 93 487 119 50 55 450 433 273
186 20 2590 49 65 183 351 257 321 158 482 400 325 239 67 46 268 137 302 119 343 54 136 73 500 165 43 84 351 28 428 47 354 51 275 327 237 296 158 241 229 284 364
187 20 2561 48 484 248 333 25 459 270 368 16 9 180 76 260 164 35 10 374 491 20 473 9 425 142 66 111 89 70 375 120 62 179 272 493 485 106 256 445 153 51 49
188 20 3335 180 420 478 5 339 171 346 407 7 122 175 195 168 267 159 360 343 353 2 416 46 365 295 384 347 57 156 186 335 25 62 338 252 58 218 42 233 297 28 485
189 20 2540 25 371 208 52 95 224 75 31 151 68 55 419 144 189 657 351 31 131 241 82 42 124 5 467 6 122 531 285 64 322 232 16 204 409 105 54 133 88 172 97
190 20 2213 117 145 337 146 188 470 25 115 37 405 254 364 310 434 11 148 116 368 285 153 215 199 95 410 144 480 155 477 170 412 86 480 26 431 11 314 169 209 16 249
191 20 2079 5 242 109 158 108 120 45 407 67 422 41 79 189 44 9 475 150 134 138 420 239 229 9 105 243 114 23 388 172 468 112 28 276 403 99 419 520 473 45 4
192 20 3367 109 281 108 125 359 183 51 249 134 463 214 380 55 412 349 198 330 380 8 58 53 410 251 105 432 126 895 271 17 484 31 22 218 434 450 229 70 175 75 473
193 20 2021 94 220 79 472 21 481 145 28 368 187 244 323 73 223 87 25 140 79 9 27 80 268 129 335 321 398 70 357 4 8 118 444 284 456 187 441 72 10 2 436
194 20 3059 376 151 87 18 38 291 715 91 195 41 8 457 298 175 42 21 151 474 138 56 42 105 78 303 75 61 114 19 542 361 99 492 276 190 42 412 321 369 187 52
195 20 1896 29 206 21 40 54 120 35 274 130 201 96 396 161 362 116 368 374 170 321 345 152 376 30 134 27 121 323 80 105 222 92 375 52 48 93 377 108 285 51 62
196 20 2060 35 161 214 66 38 81 200 302 92 3 167 168 157 490 21 176 49 488 81 475 209 236 204 142 3 86 261 256 112 402 111 113 178 150 80 61 329 301 35 272
197 20 2172 178 320 254 364 231 366 332 304 84 487 98 237 119 236 76 427 146 212 33 449 84 93 68 220 46 452 10 58 190 426 73 281 402 133 34 350 122 384 136 439
198 20 2413 135 163 243 322 6 334 68 255 27 95 96 90 137 460 335 289 176 73 257 402 7 382 30 207 141 129 117 109 84 147 324 304 180 2 199 326 35 3 420 97
199 20 2021 39 459 161 250 97 141 22 123 6 451 5 408 291 288 135 364 446 489 17 432 101 373 152 339 1 236 173 475 17 353 37 257 40 219 523 352 207 365 57 214
200 20 1904 25 288 46 250 41 370 50 37 102 239 153 377 242 242 61 72 51 464 113 31 85 90 247 489 83 206 234 121 211 373 222 416 299 171 47 237 34 369 34 300
201 20 2672 77 280 275 463 113 34 104 472 301 118 105 426 321 453 415 40 7 356 128 436 27 238 166 446 73 13 300 363 224 36 49 81 149 250 72 489 146 463 288 363
202 20 3433 94 70 400 97 193 274 325 315 170 21 315 364 347 297 244 478 84 366 376 185 533 439 32 396 308 98 257 66 76 411 75 6 72 29 102 103 115 197 174 176
203 20 2483 127 184 210 310 37 117 64 194 210 289 154 298 116 270 91 67 151 252 50 360 291 82 45 304 322 469 96 267 332 297 114 35 167 377 76 484 12 76 439 119
204 20 2036 160 248 189 446 58 313 732 454 205 299 45 453 96 138 113 389 100 300 7 115 67 134 78 270 29 294 7 353 22 49 113 245 91 216 286 274 141 250 7 22
205 20 2729 211 304 271 486 334 422 121 362 24 327 58 391 291 448 19 408 25 67 99 167 268 307 342 240 58 339 382 232 162 121 43 273 30 12 365 294 307 421 2 210
206 20 3026 497 429 111 43 709 180 305 334 85 117 110 337 47 185 23 53 15 304 188 215 149 308 196 92 123 429 379 491 227 230 141 454 78 14 69 324 188 145 143 72
207 20 2932 22 139 310 37 29 462 138 201 293 215 122 353 461 143 83 386 401 428 126 335 53 473 98 108 79 495 528 19 169 11 165 256 46 417 272 500 122 313 148 350
208 20 3164 89 74 589 145 388 402 61 158 82 474 105 115 316 99 97 258 141 51 181 356 320 8 1 152 496 255 203 305 183 303 114 346 110 322 88 371 31 232 361 426
209 20 2800 41 36 166 172 91 28 390 68 190 378 159 400 11 68 115 269 451 181 75 334 48 183 405 301 194 194 235 198 244 491 386 64 25 443 58 86 170 498 47 459
210 20 2369 113 56 87 349 165 187 129 25 69 377 426 488 220 79 77 259 65 300 23 43 304 252 159 434 313 372 41 433 147 379 103 74 26 316 144 133 350 325 1 122
211 20 3264 100 422 226 28 410 28 572 430 53 196 172 268 162 43 226 317 14 5 179 336 52 150 152 354 498 444 134 465 14 75 277 166 243 25 15 391 186 72 396 497
212 20 2406 345 394 178 497 467 183 51 167 256 51 51 103 150 189 182 446 6 19 126 171 21 224 52 183 46 444 209 347 229 439 29 206 163 186 19 40 199 445 229 230
213 20 3040 218 20 39 172 346 322 73 13 250 225 125 26 492 366 187 51 345 491 14 129 67 91 71 266 43 59 256 150 330 268 369 500 254 435 5 496 44 119 273 245
214 20 1633 1 402 260 375 39 326 77 238 14 212 359 416 159 92 59 310 206 388 57 266 6 72 15 376 140 460 93 177 64 152 126 461 37 98 34 88 239 415 57 40
215 20 3471 79 144 122 394 81 2 173 463 171 1 638 287 304 31 29 294 409 29 408 297 67 495 577 290 355 460 151 455 322 233 66 494 2 82 32 316 231 253 122 33
216 20 2398 32 257 393 321 293 43 12 349 339 405 18 303 8 440 246 69 126 114 44 493 276 290 17 492 55 343 35 171 104 96 275 437 246 62 35 40 80 310 364 161
217 20 2986 205 310 274 329 47 416 304 92 77 179 133 170 264 443 496 23 61 107 85 383 4 71 370 143 307 301 118 95 17 330 311 480 124 253 142 3 142 459 252 141
218 20 2968 228 460 407 471 105 285 318 42 135 127 298 7 207 397 21 172 44 270 299 355 353 272 239 397 121 153 5 479 39 162 47 336 11 103 299 47 395 473 140 416
219 20 2151 89 318 103 437 37 82 92 315 19 47 598 258 196 286 166 457 94 260 10 58 14 148 51 270 262 351 171 139 43 376 62 252 164 103 140 319 220 438 158 18
220 20 3038 291 58 58 315 151 485 10 358 392 280 91 190 143 410 55 295 255 306 124 469 76 193 48 170 76 279 112 500 557 458 383 389 43 498 684 21 57 272 192 8
221 20 2162 303 482 113 185 22 400 67 321 79 256 42 263 30 400 280 145 144 64 98 274 96 136 167 81 119 202 323 269 242 15 3 54 64 391 193 122 21 401 297 444
222 20 2786 341 451 263 70 40 458 538 195 631 360 29 429 228 445 188 454 134 74 119 151 84 227 60 482 57 8 253 21 64 174 67 407 53 376 73 161 149 119 112 260
223 20 2836 124 122 75 73 9 411 283 423 141 231 450 392 39 29 254 179 127 92 370 60 43 101 257 119 29 336 214 365 113 291 532 53 33 362 40 415 321 5 92 134
224 20 2391 65 43 22 357 183 90 77 63 122 171 151 93 418 92 200 194 548 460 180 249 28 217 54 438 213 309 146 22 12 413 207 233 154 211 118 16 2 358 89 475
225 20 2370 87 403 36 475 87 304 95 396 102 354 77 181 281 288 109 10 12 415 260 148 72 472 336 241 97 327 225 284 123 222 190 47 22 424 14 457 389 159 349 124
226 20 2444 76 226 234 134 324 329 69 370 56 329 183 150 162 252 82 262 76 141 462 77 150 31 29 338 285 120 93 376 322 89 61 373 99 245 1 287 103 175 189 139
227 20 2900 5 62 309 230 309 45 190 254 105 409 6 150 174 482 329 150 270 31 143 24 299 374 48 382 25 22 414 310 368 179 225 175 102 173 78 228 123 310 103 446
228 20 2355 41 381 237 398 85 345 290 232 18 8 188 109 205 36 64 61 63 22 140 64 6 74 82 62 405 95 39 296 460 274 44 111 76 184 68 345 376 440 57 379
229 20 3028 43 355 349 356 377 195 61 125 156 325 222 60 153 499 373 185 53 344 119 358 3 23 323 275 40 476 304 163 271 157 519 50 132 312 215 263 60 62 13 433
230 20 2772 101 246 112 17 8 63 12 23 395 266 414 323 1 405 217 47 404 451 83 331 285 95 5 102 248 374 202 178 447 478 76 253 40 336 376 416 27 126 13 162
231 20 2512 139 224 271 416 144 20 301 307 78 382 257 122 27 17 134 283 136 181 30 66 288 226 168 317 113 477 111 66 153 245 150 367 92 142 126 10 148 221 275 380
232 20 2691 133 46 24 292 360 12 137 102 153 84 183 181 90 92 166 24 428 381 19 165 59 110 197 433 175 241 225 211 70 424 113 5 107 381 231 49 380 335 114 422
233 20 2595 268 452 417 127 124 434 129 206 18 54 68 133 16 319 26 127 241 387 331 352 287 271 313 78 15 56 30 460 116 410 206 107 149 179 225 348 130 394 135 182
234 20 3135 368 381 174 480 298 407 96 148 235 65 19 448 188 119 69 366 172 239 104 32 100 198 169 165 147 117 69 80 408 137 327 279 129 418 310 451 498 315 39 10
235 20 3152 437 103 3 349 278 413 100 379 145 242 156 406 189 118 33 457 39 64 417 341 485 104 176 44 20 183 36 499 303 107 85 263 369 38 342 82 325 445 2 428
236 20 2244 516 484 66 310 176 161 116 1 253 425 230 213 122 250 48 125 49 129 6 254 105 400 5 36 117 270 330 213 156 33 263 211 99 256 17 333 40 203 91 212
237 20 2800 242 247 115 446 99 456 249 84 42 291 379 306 59 227 106 468 13 301 89 229 259 205 121 4 147 161 27 125 237 215 256 32 105 216 503 357 351 121 102 109
238 20 2521 250 179 25 299 20 258 120 339 121 309 215 196 63 473 319 378 5 166 108 256 202 166 172 62 374 412 203 236 3 353 183 169 250 62 183 241 118 416 218 60
239 20 2391 66 423 405 63 34 80 61 186 86 465 502 230 22 486 126 66 44 331 318 110 71 380 16 200 187 222 43 238 222 16 362 213 55 233 167 221 180 492 22 456
240 20 2620 121 368 155 457 229 194 424 28 106 97 156 203 92 478 157 256 30 391 152 479 131 30 49 58 44 461 61 283 7 232 17 243 632 190 38 256 75 373 600 471
241 20 2917 217 241 165 64 50 174 147 170 230 200 221 231 284 167 111 492 138 344 37 384 48 68 138 85 337 316 388 423 41 76 50 378 598 9 176 322 129 80 142 107
242 20 2721 131 243 18 68 245 150 102 159 283 74 52 252 7 340 17 430 193 422 20 174 196 494 554 159 196 444 301 304 75 279 218 450 92 6 9 153 499 477 194 21
243 20 3920 270 213 53 308 525 89 57 384 248 79 181 436 561 357 553 489 189 387 252 124 305 347 632 267 153 158 86 72 6 328 154 243 76 134 170 185 178 365 251 359
244 20 3257 131 432 182 233 345 192 408 369 216 37 475 128 236 288 34 390 306 426 353 41 40 81 264 391 90 287 108 402 56 264 110 212 26 322 112 242 85 180 495 67
245 20 3208 124 448 123 349 56 26 287 408 235 343 257 159 168 226 63 468 73 251 263 42 77 250 428 413 64 92 425 323 514 457 233 452 303 291 157 121 10 281 151 484
246 20 2439 121 431 16 212 283 17 93 191 70 126 77 335 208 80 30 168 132 146 318 275 32 9 256 54 64 353 15 38 101 352 159 328 300 35 193 219 576 38 5 10
247 20 2121 111 460 71 6 97 380 2 180 460 452 134 475 151 314 58 289 225 435 77 168 11 244 40 86 5 400 109 335 124 442 93 341 200 187 95 447 355 420 234 464
248 20 2509 173 21 409 221 249 474 240 375 125 320 71 480 174 488 135 209 151 97 391 351 3 121 52 59 374 174 29 101 23 458 45 326 126 209 164 335 100 275 103 138
249 20 3152 160 234 138 411 151 198 99 3 139 24 166 316 173 141 515 62 283 32 53 154 363 36 458 236 75 280 80 75 34 239 283 371 7 316 188 410 525 410 51 231
250 20 2195 92 41 223 173 147 257 107 259 260 44 225 184 42 211 174 240 55 301 96 6 214 279 107 78 8 406 60 76 99 425 134 483 138 75 152 348 265 194 146 173
251 20 2462 79 41 127 17 202 243 290 407 136 180 109 406 133 274 76 135 273 350 29 245 188 256 162 302 396 405 137 152 3 326 130 347 69 269 5 86 304 416 230 468
252 20 3359 390 171 473 359 165 98 25 435 310 446 451 474 293 244 8 356 53 293 373 177 125 107 370 217 255 45 50 228 61 297 287 305 10 493 86 241 213 185 201 439
253 20 2472 315 295 188 365 500 160 307 260 28 171 140 472 300 166 93 35 289 18 179 426 17 351 25 492 69 351 118 243 61 220 235 211 27 463 38 493 91 2 70 313
254 20 2099 6 70 80 311 74 291 350 59 629 181 15 302 66 288 213 254 69 323 119 55 33 144 27 127 11 65 111 298 252 375 185 299 109 52 132 469 50 345 93 412
255 20 2777 290 221 371 22 228 105 14 344 128 452 94 343 212 495 71 39 111 173 198 379 122 292 152 48 49 139 268 351 42 433 180 416 161 492 375 19 368 335 38 444
256 20 2120 135 330 50 137 253 419 123 206 38 468 186 100 52 20 114 281 28 463 239 78 515 337 121 350 44 279 119 254 47 306 9 122 222 93 98 56 66 54 192 381
257 20 2893 374 438 503 37 70 5 86 58 122 396 218 385 18 15 275 197 165 57 133 433 88 468 66 29 101 486 330 483 488 130 149 329 87 131 61 334 278 443 5 206
258 20 2296 76 361 320 394 185 112 117 252 24 84 6 374 30 143 409 122 141 318 253 366 90 29 76 191 311 497 124 470 65 368 67 212 8 281 391 336 71 431 106 59
259 20 3398 38 98 261 380 521 109 190 211 210 45 58 450 666 321 155 179 171 83 233 248 226 86 205 252 167 226 292 244 212 370 88 464 23 387 178 311 7 341 347 96
260 20 3282 33 404 269 406 122 84 138 289 155 173 413 369 398 320 10 171 137 324 69 301 205 266 124 443 35 420 508 6 64 271 224 416 433 189 229 353 385 58 152 374
261 20 2928 145 33 477 307 47 335 437 308 86 159 147 281 69 368 206 350 361 132 232 271 299 30 107 292 49 42 1 265 6 155 304 91 24 3 333 109 135 364 195 380
262 20 2712 107 177 81 295 156 88 17 350 148 61 324 494 59 448 97 208 179 352 176 343 217 335 43 455 300 347 272 315 52 186 188 391 605 417 57 482 131 6 181 64
263 20 2468 278 155 353 16 180 24 26 411 33 405 211 423 10 120 163 326 48 15 76 231 13 481 210 498 203 255 96 196 49 393 544 30 7 24 161 62 332 156 92 270
264 20 2036 123 163 97 32 36 264 80 453 164 397 37 267 214 479 481 144 295 112 67 425 22 225 124 401 197 415 31 399 16 252 29 386 1 29 98 242 315 446 118 198
265 20 3058 300 314 249 351 237 252 199 189 437 54 48 339 160 57 208 107 38 136 305 300 14 409 210 245 149 368 214 326 282 401 201 433 74 462 89 136 230 86 179 487
266 20 2221 284 488 188 329 264 114 162 136 43 205 222 369 137 320 351 19 87 255 52 40 12 70 138 241 10 383 17 91 445 372 82 251 32 223 133 425 98 495 20 27
267 20 3198 392 427 585 306 81 39 178 308 337 29 47 352 180 43 67 401 16 252 345 196 162 418 234 39 66 310 398 465 65 14 244 53 1 120 98 164 131 162 371 410
268 20 2592 101 150 358 281 378 378 84 250 271 195 71 438 154 434 49 14 124 451 215 200 100 463 104 466 82 81 293 438 263 350 217 269 23 489 210 407 46 168 97 459
269 20 2617 103 178 327 33 178 441 148 106 424 159 12 398 110 466 92 289 363 372 486 446 139 429 57 187 163 398 227 74 203 494 82 484 104 307 25 34 19 376 10 294
270 20 2804 452 194 169 28 57 62 23 428 304 50 200 446 42 234 83 41 236 287 511 347 244 295 11 256 35 460 35 40 52 230 5 469 299 161 181 470 31 289 536 336
271 20 1602 11 200 77 7 199 265 63 173 211 144 1 415 96 255 142 47 184 157 108 480 7 232 4 51 285 358 62 341 152 93 37 170 54 472 45 413 36 84 229 360
272 20 2582 205 147 269 378 281 287 29 355 76 155 61 262 333 229 113 5 532 496 75 7 148 430 142 308 128 65 29 230 281 238 253 122 40 44 95 52 97 262 41 401
273 20 3763 70 74 105 360 239 363 369 30 17 305 352 78 277 185 434 151 119 92 200 402 85 149 109 415 288 349 462 271 303 156 141 473 102 230 355 216 371 24 306 272
274 20 3281 10 424 271 216 31 89 487 371 402 249 111 20 34 72 158 78 74 158 227 78 456 484 87 399 227 396 31 392 265 227 302 410 198 104 124 112 595 10 12 446
275 20 2261 13 136 202 308 198 427 421 170 160 359 75 48 350 273 62 399 55 374 49 429 43 436 55 396 160 337 46 17 419 116 88 492 38 417 311 378 19 355 63 369
276 20 2168 25 137 297 475 189 470 2 273 71 472 226 212 37 152 15 494 246 286 142 12 56 142 3 496 276 395 106 29 136 182 148 95 78 271 127 4 11 334 519 157
277 20 3011 267 447 57 495 214 445 192 73 273 398 733 76 69 320 67 37 188 491 112 380 146 254 7 31 341 462 42 44 182 207 270 63 45 167 17 449 96 186 446 118
278 20 2377 534 252 307 272 12 300 199 473 7 375 1 464 132 99 23 395 66 251 239 351 59 257 51 195 230 134 12 341 53 146 7 460 63 487 41 66 526 78 410 276
279 20 3435 52 454 156 181 95 469 313 13 326 130 131 496 358 442 84 33 97 215 202 179 673 312 66 189 356 346 52 66 381 421 85 241 180 230 340 3 252 103 95 256
280 20 2663 184 92 101 247 207 105 154 68 349 335 257 103 215 298 439 280 3 459 51 191 201 85 7 321 193 213 216 168 249 348 92 284 282 207 105 90 16 55 8 107
281 20 2642 127 27 297 36 155 392 123 199 195 13 18 59 451 151 84 401 57 483 124 326 5 111 325 491 506 335 49 244 54 5 76 91 177 480 70 76 207 420 203 233
282 20 2187 86 337 58 149 49 175 33 330 255 177 208 119 6 109 79 9 10 111 133 70 111 5 116 223 181 210 250 274 61 41 141 125 80 480 360 358 516 365 1 61
283 20 2008 20 230 252 204 80 464 217 68 265 216 185 5 142 235 23 80 235 113 139 233 85 29 23 193 33 497 215 378 75 197 1 56 142 78 251 236 3 223 125 64
284 20 2446 115 3 91 421 277 194 196 288 84 4 30 137 54 192 184 451 262 376 101 273 2 354 31 68 9 344 68 65 504 49 82 76 219 271 506 415 65 205 178 143
285 20 2503 342 33 39 150 154 446 265 48 58 425 129 437 57 333 135 5 389 500 51 17 98 173 46 207 117 225 247 326 23 447 376 309 130 195 77 470 138 98 258 318
286 20 2584 4 156 59 485 78 398 67 343 63 219 312 189 52 438 277 216 296 250 169 314 370 447 66 187 291 429 494 61 14 500 267 456 164 122 40 176 41 53 106 85
287 20 4980 457 219 434 277 107 168 477 388 60 190 258 124 57 21 599 123 457 443 309 149 93 407 14 398 260 455 648 155 581 22 463 319 469 318 80 141 395 378 8 73
288 20 2792 60 37 44 352 279 387 107 359 119 355 191 404 120 87 81 288 374 13 218 348 329 119 113 59 133 137 490 41 155 414 8 154 14 295 8 304 121 125 526 445
289 20 2480 32 61 89 51 267 369 85 345 146 233 9 500 425 205 188 137 535 377 86 69 183 10 7 135 112 26 80 173 263 445 143 381 252 327 105 83 33 29 60 348
290 20 1969 46 108 137 467 74 27 104 443 288 56 159 207 193 5 90 281 162 181 34 287 283 148 69 454 99 425 142 273 21 478 46 477 15 121 92 392 78 469 330 66
291 20 2252 71 411 11 132 298 267 81 343 128 247 192 226 155 423 375 410 279 92 27 133 10 112 115 431 178 350 63 401 215 303 90 10 118 322 187 320 209 189 13 117
292 20 2958 197 60 192 3 51 59 182 40 538 497 75 254 27 304 50 254 249 6 73 70 367 12 206 105 46 66 274 272 134 437 399 261 97 76 58 470 49 115 434 320
293 20 2686 405 98 195 237 19 199 139 153 297 372 15 356 70 370 121 135 288 41 139 397 148 124 552 128 58 484 6 368 147 315 8 345 78 126 307 473 5 81 361 191
294 20 1669 56 266 78 327 22 416 87 372 58 395 111 282 7 91 87 379 127 475 49 214 81 481 49 141 365 159 168 451 195 436 240 280 83 447 10 476 89 92 125 287
295 20 2912 242 186 715 188 191 359 271 270 99 153 33 304 263 420 309 50 138 214 256 212 85 157 110 414 83 309 27 413 389 93 64 49 77 375 10 97 56 51 223 179
296 20 2484 93 104 255 138 27 269 166 76 1 4 553 173 4 274 101 8 145 207 51 448 144 189 183 279 75 463 93 421 623 333 200 450 23 284 54 14 296 254 18 419
297 20 2822 143 291 73 365 625 298 166 163 310 376 24 177 135 438 10 249 62 442 92 435 48 263 72 427 281 383 177 383 688 168 91 4 114 83 236 9 155 140 26 332
298 20 3481 233 342 46 420 277 235 345 9 257 369 34 405 248 178 413 455 65 432 526 418 102 201 210 499 260 175 148 146 590 230 22 323 84 422 369 84 75 137 48 323
299 20 2688 132 439 130 320 35 17 120 286 200 295 15 269 81 323 432 84 32 235 354 424 47 135 20 34 142 412 412 133 110 424 2 66 262 350 424 205 333 180 78 491
300 20 1916 118 162 21 454 36 444 53 226 78 100 405 91 103 53 308 68 142 379 123 147 22 440 7 481 59 50 373 429 47 14 29 271 193 81 227 469 28 15 24 5
301 20 2339 156 373 227 48 79 336 227 120 380 308 71 285 40 327 389 349 288 299 27 140 97 192 54 319 14 12 205 374 72 340 178 23 160 417 33 279 43 495 184 4
302 20 2684 134 177 106 43 360 440 284 186 164 355 150 299 150 68 406 192 235 168 86 135 259 467 38 318 169 99 42 464 82 376 274 442 88 378 87 85 96 58 146 148
303 20 2891 93 411 67 483 5 459 11 459 237 85 157 378 197 38 7 174 208 107 48 11 534 180 229 78 360 494 11 167 271 372 251 53 321 214 184 433 129 260 294 325
304 20 2992 229 102 118 324 349 245 106 359 63 237 244 108 60 226 188 479 8 401 103 332 4 42 19 331 441 106 81 230 407 110 275 15 373 204 216 7 295 216 162 174
305 20 1832 14 441 175 267 245 356 44 498 46 214 125 101 33 7 37 292 463 375 40 41 10 237 51 131 122 205 5 105 2 258 51 397 162 275 113 208 50 134 502 436
306 20 2992 14 307 215 272 390 82 145 316 194 115 32 1 223 103 21 9 200 94 21 368 121 449 169 93 502 375 56 9 469 496 25 394 261 114 270 221 48 77 365 26
307 20 2927 46 130 259 77 344 448 146 451 90 409 285 110 68 129 248 280 117 242 35 53 137 126 345 270 255 341 258 480 31 356 123 323 21 219 342 393 5 64 504 489
308 20 1912 193 246 268 435 80 141 472 164 78 231 23 375 192 462 61 233 86 200 87 225 40 458 14 322 85 192 38 86 150 122 72 386 306 268 104 361 23 475 19 242
309 20 3694 155 94 47 281 329 372 466 402 513 214 93 339 219 149 177 2 46 63 303 462 28 327 317 216 329 117 78 180 187 106 466 71 119 256 50 379 312 462 384 18
310 20 3141 40 377 3 374 201 284 80 353 134 336 124 316 196 424 305 149 212 177 86 257 485 121 363 201 48 185 55 247 57 258 87 231 355 32 499 93 163 321 434 308
311 20 2500 313 288 42 296 11 288 56 255 37 388 190 394 22 424 457 195 605 35 24 367 3 276 169 107 44 170 202 207 464 337 11 126 109 425 246 367 83 134 38 352
312 20 2856 293 89 130 78 400 22 259 318 75 169 59 238 135 462 156 355 364 300 75 399 99 407 316 355 39 219 290 289 143 199 124 423 291 365 31 483 47 30 244 146
313 20 2507 7 345 99 335 225 124 344 454 269 443 61 180 96 476 20 195 39 467 108 115 312 198 6 465 599 196 17 64 89 310 243 361 9 482 261 106 63 404 267 124
314 20 2244 8 448 56 301 42 28 116 340 140 235 143 314 364 55 515 345 44 293 6 66 72 378 129 465 429 187 77 397 83 6 9 34 154 388 21 211 98 367 299 139
315 20 2486 61 414 219 18 69 82 280 116 159 144 243 343 441 202 160 437 124 17 520 89 10 322 38 118 133 108 154 316 29 359 101 129 36 33 34 263 217 1 80 186
316 20 3295 304 257 354 384 258 168 86 445 106 236 330 134 58 294 93 19 223 479 90 193 439 24 62 414 128 20 683 19 138 302 289 401 178 406 162 422 102 113 36 401
317 20 2199 161 382 127 444 98 11 135 151 46 332 41 306 17 236 335 480 119 201 185 370 33 177 234 440 203 238 49 243 101 470 34 390 156 29 104 472 64 446 507 158
318 20 3142 164 467 15 86 96 209 257 189 43 23 61 29 76 91 362 195 90 373 251 74 232 432 233 205 628 9 73 16 190 46 83 41 468 285 121 382 219 262 266 390
319 20 2756 254 228 261 327 102 496 264 67 178 68 210 6 26 481 331 2 27 489 366 498 94 302 71 315 524 264 165 200 150 468 299 499 77 251 1 416 40 102 6 27
320 20 2330 506 26 22 429 93 476 66 312 38 472 33 347 4 89 103 132 253 342 70 221 113 216 475 269 167 45 127 219 90 12 94 59 80 291 340 422 40 304 199 4
321 20 2563 83 31 157 158 352 79 344 77 334 314 362 382 176 299 49 27 62 465 126 474 39 20 62 196 90 360 44 65 124 31 64 399 392 499 285 60 48 482 11 313
322 20 3832 580 265 776 250 339 386 132 263 232 268 2 346 120 188 208 434 196 233 252 80 165 241 54 375 50 480 84 178 514 262 248 182 332 336 146 365 104 480 257 94
323 20 3060 82 435 342 453 126 475 172 258 54 172 74 278 119 411 130 187 405 401 21 119 24 43 115 452 433 356 125 144 175 289 466 52 359 102 130 113 166 313 307 360
324 20 3220 360 325 265 386 242 159 62 343 350 438 117 344 10 244 54 225 458 17 99 419 576 364 71 58 51 349 167 396 763 220 137 98 120 62 48 226 40 318 35 82
325 20 2206 14 43 32 142 139 32 60 18 38 361 18 345 47 467 280 134 561 224 153 5 23 486 89 489 74 393 72 75 141 254 175 324 31 266 167 319 541 474 103 134
326 20 2710 46 228 317 335 159 285 183 164 464 302 351 443 139 380 37 125 82 289 30 243 223 500 216 459 334 335 123 367 27 461 18 131 199 184 354 399 63 427 23 364
327 20 3216 177 77 14 298 35 35 747 176 50 454 585 124 480 306 484 480 200 58 93 225 53 125 170 89 7 52 550 315 17 177 4 237 8 165 212 392 22 294 113 321
328 20 2622 44 500 63 317 86 49 122 445 99 204 125 346 46 131 319 290 240 360 338 324 261 39 34 337 264 453 438 201 301 329 109 417 168 257 135 307 67 353 19 212
329 20 2664 88 108 291 37 367 321 363 47 29 13 304 435 47 468 112 277 52 491 278 429 219 144 118 286 614 170 145 390 28 18 90 53 39 356 18 89 50 358 78 194
330 20 1993 32 416 69 464 34 68 345 465 89 138 96 63 272 181 79 36 45 343 97 473 16 30 161 195 196 325 69 164 82 310 138 73 356 490 117 162 105 324 94 181
331 20 2560 185 269 369 138 152 234 314 15 291 341 72 200 300 214 137 485 232 220 16 393 83 355 80 410 249 491 379 298 61 481 28 307 73 170 72 169 50 29 57 127
332 20 2527 127 375 107 245 125 290 42 241 111 126 311 498 449 279 139 323 146 129 242 498 38 143 37 392 148 138 119 411 268 227 100 381 434 178 17 425 147 206 52 92
333 20 2772 92 374 61 133 55 195 11 243 89 472 106 226 49 75 110 449 532 128 149 351 558 260 159 327 121 458 147 93 240 227 64 397 24 235 207 214 240 146 451 151
334 20 2964 110 301 31 189 95 51 99 252 33 429 84 254 346 108 302 243 265 384 480 156 82 232 35 128 75 44 421 300 140 20 200 436 64 323 273 310 462 81 109 381
335 20 3025 166 271 146 362 81 387 130 202 26 216 226 111 277 275 554 281 146 459 195 452 175 337 132 196 57 123 646 315 23 163 237 280 192 39 204 20 44 455 125 359
336 20 3052 247 477 205 425 218 227 26 218 255 91 67 353 252 86 44 245 20 43 591 183 122 412 414 142 78 354 66 224 12 171 157 72 577 361 188 434 57 460 219 298
337 20 3524 47 230 267 73 140 320 377 209 111 450 604 85 94 428 221 221 369 483 29 6 201 499 607 133 89 461 66 27 465 486 70 368 13 90 106 476 330 204 199 171
338 20 2779 75 441 26 415 59 210 512 383 303 29 37 261 426 337 113 186 385 412 128 154 125 350 14 460 148 42 110 260 76 437 8 228 167 228 406 111 223 491 133 434
339 20 2136 185 203 75 32 204 147 54 425 6 439 41 98 338 138 132 89 244 472 159 265 143 6 90 247 142 306 170 317 44 287 3 91 193 465 172 56 163 97 113 376
340 20 2360 147 167 257 233 61 392 5 467 189 290 455 132 90 435 387 172 11 179 32 207 7 355 431 9 22 314 291 74 129 31 134 349 48 427 67 2 97 74 90 263
341 20 2758 224 486 614 41 124 110 253 357 500 14 85 53 45 421 45 34 148 300 25 382 192 497 257 430 63 79 177 274 118 365 136 58 148 393 202 406 72 14 20 421
342 20 2732 264 433 78 248 93 44 112 39 164 256 265 250 198 30 355 92 77 151 318 318 288 311 5 462 265 113 114 451 88 402 224 259 249 186 146 54 22 166 90 191
343 20 3585 231 195 212 493 562 438 67 429 44 19 23 340 20 66 182 189 336 125 192 276 286 223 150 285 487 467 307 466 215 430 510 322 314 244 27 292 182 164 135 25
344 20 2464 17 250 81 109 222 32 151 189 27 15 25 58 44 19 541 367 19 480 306 500 92 284 291 109 184 283 43 56 217 263 51 73 76 321 383 193 48 276 263 492
345 20 2472 349 399 21 415 80 379 77 154 208 193 58 451 206 244 381 224 40 178 10 31 337 35 356 206 252 32 70 69 95 213 121 354 42 466 123 372 102 155 163 15
346 20 2292 15 87 102 133 16 298 72 4 192 381 81 480 121 27 397 138 69 284 15 75 63 388 47 407 318 136 315 316 57 384 71 207 484 44 152 330 272 419 7 90
347 20 2696 28 218 45 422 495 13 8 314 366 46 514 186 277 225 112 465 135 201 60 493 161 196 159 306 50 91 287 324 77 48 121 345 130 239 107 343 72 140 167 313
348 20 2498 188 29 527 102 11 469 86 315 66 426 9 379 344 404 443 89 68 395 76 11 215 297 170 360 170 326 294 425 3 285 63 227 122 311 243 394 1 4 24 116
349 20 1936 111 429 92 20 60 482 44 323 193 79 103 152 148 166 198 63 91 386 109 480 45 96 334 251 245 466 77 345 31 31 209 153 2 80 129 33 80 182 120 361
350 20 1896 135 446 139 34 164 67 103 384 61 312 34 22 159 477 69 142 224 289 167 314 76 428 40 454 238 317 122 164 223 432 60 304 60 43 38 453 113 211 145 411
351 20 2844 9 84 187 102 13 447 116 312 261 280 326 342 60 280 42 488 552 71 159 452 120 365 97 77 234 285 268 395 221 200 396 392 84 446 45 94 195 123 170 264
352 20 2356 5 316 418 224 276 218 71 344 38 184 3 428 140 244 310 139 139 13 179 400 48 83 20 249 115 342 159 319 4 297 70 396 152 401 222 237 137 308 439 24
353 20 2012 92 74 153 51 74 309 10 132 195 202 61 392 15 282 45 346 24 495 77 340 210 494 29 236 7 363 287 195 12 141 328 254 192 95 580 152 61 469 64 403
354 20 2239 140 127 41 8 134 136 419 82 106 132 255 487 55 341 177 217 6 464 145 1 214 418 152 357 39 60 9 374 305 415 4 234 85 370 338 82 159 237 16 250
355 20 3151 557 483 57 181 315 98 101 449 74 461 237 405 168 465 193 472 4 87 186 406 37 473 253 290 152 316 694 198 27 131 281 48 147 338 18 37 279 493 159 389
356 20 2949 18 355 172 354 444 365 14 345 136 79 109 339 187 14 45 96 42 321 232 67 565 366 229 145 342 487 95 379 106 295 122 258 241 23 127 104 69 303 392 405
357 20 2251 6 54 66 392 68 321 37 262 166 445 30 273 152 311 437 465 45 327 269 454 317 243 112 496 112 14 86 370 171 289 245 189 30 312 103 358 322 13 40 258
358 20 1407 127 389 44 427 48 219 90 151 123 31 54 448 24 77 23 435 64 371 259 477 175 191 16 94 108 312 132 71 59 241 12 345 67 155 297 43 22 452 15 127
359 20 2632 103 279 172 9 63 429 418 329 68 315 85 68 307 259 142 392 56 379 79 58 459 84 116 228 17 453 207 173 174 428 79 489 136 499 144 144 191 240 275 337
360 20 1902 91 466 39 425 110 312 117 408 19 351 214 206 207 63 152 125 113 1 80 318 138 179 151 114 6 425 517 374 26 211 27 276 82 79 116 24 164 25 9 301
361 20 2701 63 288 356 267 114 400 248 331 260 480 25 483 90 125 50 187 99 389 90 267 30 446 427 140 89 144 100 93 400 263 484 269 122 389 10 126 155 17 165 487
362 20 2904 131 420 47 422 40 164 657 242 65 41 33 436 56 208 250 287 8 409 40 69 190 110 46 356 330 325 187 335 450 351 376 406 269 88 25 407 16 410 415 98
363 20 2840 230 98 51 434 122 324 205 62 289 355 715 290 13 337 102 337 221 337 9 365 384 81 73 39 48 336 13 25 446 423 82 481 176 72 141 142 203 402 27 481
364 20 2664 43 54 156 213 62 470 114 83 42 497 97 383 168 271 664 180 193 357 103 388 386 16 10 118 60 217 23 8 436 258 21 101 437 270 22 20 193 326 101 500
365 20 2415 121 9 71 11 7 307 379 141 9 174 206 92 284 86 305 457 2 388 187 426 116 51 48 47 267 464 32 493 335 47 96 500 56 183 27 246 62 125 409 42
366 20 2735 215 8 127 489 31 46 440 192 34 291 11 115 167 228 34 40 346 227 318 252 179 203 308 399 440 207 241 432 130 290 19 475 5 210 9 353 126 32 239 470
367 20 2134 109 269 46 299 97 392 56 99 3 343 253 222 126 382 299 44 109 343 88 71 109 97 3 232 18 328 12 475 211 1 138 411 293 77 185 61 331 446 182 41
368 20 2970 477 229 8 191 218 320 2 418 28 427 166 485 134 16 89 166 24 224 4 245 213 210 111 396 60 467 102 11 580 380 140 122 468 461 216 75 531 154 142 32
369 20 2095 69 199 60 183 206 129 77 82 69 398 94 300 131 467 331 370 196 116 12 119 42 89 238 438 97 280 60 153 167 55 84 433 214 139 33 142 408 192 31 323
370 20 2090 208 176 132 37 109 273 30 41 17 178 604 151 237 480 27 165 1 119 238 8 47 430 49 205 93 113 85 398 138 11 349 497 40 157 1 480 186 129 22 248
371 20 2160 239 218 106 459 1 275 150 326 289 37 57 90 67 140 129 471 86 89 167 158 77 500 27 83 96 129 332 456 231 65 373 74 12 335 101 12 17 322 143 149
372 20 2440 29 106 377 280 93 348 26 287 265 254 69 375 177 36 223 344 71 427 17 91 80 242 44 185 61 339 330 258 277 207 169 117 40 249 312 113 263 369 128 186
373 20 2997 48 444 133 472 261 114 355 156 220 498 563 38 205 38 158 373 156 103 41 232 256 495 92 162 307 200 13 349 123 130 23 277 36 345 233 309 198 493 326 301
374 20 2824 16 378 75 314 7 370 230 326 170 69 64 308 442 120 68 93 8 475 242 489 85 23 382 408 46 59 39 409 416 347 246 64 654 475 239 63 7 70 94 141
375 20 2548 327 276 171 466 100 200 93 364 54 216 180 486 697 136 57 438 283 245 20 351 47 356 51 436 75 468 102 440 369 47 148 340 107 38 26 121 173 500 106 323
376 20 2826 390 295 455 418 163 239 369 426 95 53 256 419 53 167 201 241 215 210 161 463 73 61 58 59 2 386 5 187 178 173 303 446 250 215 54 164 63 184 189 380
377 20 2553 228 123 41 109 167 184 16 170 114 209 25 56 142 91 18 166 182 309 312 431 273 116 320 405 529 447 23 341 31 156 94 343 127 467 29 390 217 293 304 350
378 20 2919 180 402 300 375 344 365 224 22 269 111 242 390 36 303 301 24 121 184 59 277 78 81 232 314 242 446 199 367 104 344 62 480 255 321 180 237 111 266 110 280
379 20 2400 11 407 233 395 140 5 14 17 153 212 11 211 131 83 79 328 436 364 9 327 62 209 256 339 14 403 49 451 321 119 72 103 314 2 106 11 111 485 479 157
380 20 2048 7 417 226 475 192 257 48 434 241 134 62 141 7 93 15 46 133 79 86 230 87 256 22 492 70 475 22 332 221 190 106 89 199 385 174 144 462 286 181 420
381 20 2557 70 276 74 182 5 367 17 314 53 380 20 209 302 428 221 231 630 496 28 173 350 291 168 287 260 457 549 299 77 456 17 28 102 220 40 32 169 152 45 3
382 20 3065 147 107 194 84 82 323 164 71 336 170 202 240 149 314 303 49 250 18 44 27 109 246 164 151 182 220 458 138 188 171 395 399 91 129 48 295 20 106 306 91
383 20 2710 427 39 147 78 176 172 28 240 267 354 12 22 202 24 286 374 350 344 3 278 26 406 474 319 69 97 23 62 135 239 421 202 127 320 40 431 29 324 146 26
384 20 2995 18 413 102 302 201 219 268 442 492 282 257 208 583 120 55 377 185 204 9 390 392 24 315 99 150 256 91 460 13 121 198 7 54 119 31 413 19 432 311 421
385 20 2326 54 60 186 85 198 359 230 3 239 305 74 51 6 141 26 169 138 371 19 405 36 486 5 310 356 422 411 77 128 426 328 369 69 63 111 34 252 8 42 396
386 20 2632 77 297 12 491 141 374 373 337 44 117 120 326 165 289 20 103 260 93 228 15 654 336 247 400 3 45 128 169 165 88 195 141 1 77 29 291 267 24 161 64
387 20 2333 512 321 304 447 288 78 1 228 135 408 210 406 204 319 14 289 84 73 86 367 17 250 32 250 10 213 269 243 94 132 133 64 155 111 28 301 241 477 100 322
388 20 2709 12 298 260 278 16 71 109 47 77 419 81 156 150 450 231 7 45 323 10 9 114 475 94 466 448 311 273 23 587 144 26 248 469 193 81 141 164 116 140 433
389 20 4790 364 253 63 376 338 100 152 172 182 304 699 291 204 23 96 190 181 339 189 159 161 150 410 483 622 382 582 61 374 461 174 143 146 192 249 309 473 325 329 362
390 20 3474 76 495 27 459 371 353 90 68 184 231 289 84 119 394 298 350 52 191 216 377 375 206 593 179 263 369 329 345 111 281 96 86 2 171 465 47 371 407 16 144
391 20 3609 524 259 49 387 591 396 165 212 94 9 321 101 123 312 142 278 202 102 12 144 561 299 713 495 57 46 242 253 284 266 14 25 119 198 57 487 133 17 109 106
392 20 2476 120 145 263 91 78 26 119 88 35 455 370 130 337 315 327 9 73 258 12 89 185 10 114 192 65 314 12 305 403 454 121 440 380 42 3 4 59 401 19 203
393 20 3684 74 459 248 161 466 252 294 177 428 215 221 322 293 185 111 338 462 449 216 441 496 413 65 341 140 353 49 142 197 136 29 141 42 421 150 267 418 337 206 414
394 20 2350 162 262 11 478 96 343 314 124 47 363 101 112 83 428 503 480 19 495 208 64 205 208 31 82 50 278 244 406 17 90 235 495 85 209 166 22 75 19 286 12
395 20 2536 9 198 181 389 215 159 341 87 24 356 75 419 514 315 529 228 175 131 62 445 126 275 38 147 326 372 20 65 109 455 108 105 68 234 151 153 50 364 49 221
396 20 2045 231 320 135 153 121 66 26 436 567 20 62 302 32 55 68 329 172 399 112 358 78 116 86 143 92 352 215 265 80 460 16 144 168 244 53 266 135 252 108 490
397 20 2925 214 264 40 175 99 490 441 183 2 117 183 396 41 337 89 401 19 57 84 451 226 454 31 155 50 81 486 486 553 423 304 311 193 34 237 102 76 17 289 202
398 20 2233 64 203 72 161 526 364 72 132 141 400 233 9 23 131 129 337 197 185 21 79 17 122 116 429 331 220 322 122 30 125 14 207 410 105 3 97 13 314 58 193
399 20 1923 33 280 244 194 15 341 615 335 442 486 156 160 7 261 131 430 16 175 213 100 120 272 40 351 21 327 167 405 57 12 5 475 9 207 67 103 13 247 33 430
400 20 3394 101 120 261 80 154 462 103 194 105 50 312 372 199 457 108 227 237 348 173 388 318 223 455 79 44 55 43 150 109 305 397 46 258 63 240 176 165 65 461 485
401 20 2365 246 409 81 331 14 402 6 347 187 303 52 271 83 483 466 65 91 68 318 465 143 33 40 135 372 121 18 476 165 337 74 193 38 71 303 297 75 2 185 10
402 20 3045 185 44 124 284 139 38 9 324 152 199 70 137 101 500 22 188 301 234 137 68 436 344 493 166 238 434 185 302 124 188 299 83 104 246 104 85 196 284 388 131
403 20 3270 15 468 347 155 190 123 53 292 370 305 448 412 413 224 273 434 76 451 232 88 220 423 10 491 222 90 15 43 63 45 223 127 229 198 151 289 129 313 409 379
404 20 3292 101 348 320 75 335 339 125 67 135 164 17 224 30 245 310 217 139 402 361 53 102 345 106 318 52 91 397 355 126 179 296 497 299 335 303 295 255 146 306 297
405 20 2374 27 375 106 154 62 132 41 197 158 330 262 395 334 211 46 337 312 146 200 180 116 132 102 191 119 355 165 239 125 439 40 59 179 267 316 3 255 396 3 461
406 20 2656 197 320 42 46 64 130 164 346 215 477 182 43 18 247 188 398 26 310 266 244 536 94 76 231 42 74 215 70 47 143 19 106 567 407 22 43 217 112 217 192
407 20 2165 199 485 180 132 114 405 153 379 397 142 127 211 156 45 68 138 29 369 11 393 8 397 205 450 26 76 177 407 82 51 32 87 307 371 177 30 140 184 119 153
408 20 2222 60 35 226 461 284 210 214 68 30 380 3 140 143 477 3 476 20 74 115 222 499 404 141 119 68 98 92 497 3 386 406 114 21 299 52 281 214 150 184 307
409 20 2503 308 497 77 93 170 69 31 6 20 325 96 84 84 409 352 315 103 362 154 337 197 331 172 338 39 313 102 23 236 136 481 406 341 279 123 257 23 311 20 286
410 20 1917 70 344 90 125 53 282 39 461 357 333 152 252 290 50 157 419 273 124 43 135 42 212 29 363 177 381 34 231 148 477 96 450 69 105 98 239 110 185 70 44
411 20 2704 31 176 50 48 18 303 60 200 387 409 150 185 193 169 268 434 32 433 468 254 225 406 294 153 24 489 357 108 67 30 86 40 105 66 146 470 339 64 80 479
412 20 1792 99 189 98 479 264 8 101 281 471 456 140 199 35 359 48 365 154 3 87 24 17 409 66 258 155 356 93 4 77 94 243 137 33 155 4 218 3 22 52 149
413 20 3004 145 366 6 112 273 37 201 53 315 57 37 496 50 310 65 368 327 237 12 352 24 195 313 462 310 236 670 208 224 233 178 105 294 411 142 73 153 105 16 429
414 20 3159 41 482 369 400 277 327 38 236 337 47 451 415 600 437 162 383 575 135 160 288 67 437 21 59 187 437 64 117 70 251 104 221 158 354 60 315 30 22 178 484
415 20 2951 120 492 161 58 30 369 24 370 25 201 378 451 167 167 209 194 11 467 144 199 260 433 101 424 79 357 239 216 570 296 311 441 90 104 423 88 156 73 191 453
416 20 2824 78 94 298 111 74 288 450 23 130 367 19 68 189 445 158 307 279 377 7 321 88 265 240 268 210 325 281 470 104 389 117 252 216 471 262 195 303 328 27 352
417 20 1698 83 403 97 414 170 119 131 123 89 261 36 407 31 369 10 48 43 239 145 376 442 487 41 420 9 205 60 3 33 356 210 350 14 95 180 11 201 397 98 125
418 20 3285 300 70 1 350 651 132 139 205 512 251 167 289 124 39 444 481 337 116 250 147 156 53 169 152 486 159 5 121 12 197 4 235 170 53 88 499 50 33 42 463
419 20 2760 80 451 452 174 273 58 190 326 105 32 55 276 189 455 226 139 125 243 106 476 158 124 106 32 159 29 157 456 161 210 78 183 304 373 219 266 38 55 270 211
420 20 2138 249 412 218 26 192 366 82 205 119 173 144 90 138 172 205 433 110 406 34 396 187 311 44 45 78 149 76 418 39 47 255 169 9 299 314 158 98 331 82 63
421 20 3288 191 104 76 468 124 296 113 442 410 32 423 325 229 272 44 188 63 435 294 130 410 56 68 360 195 209 75 483 400 417 89 120 79 240 361 212 79 172 388 353
422 20 4098 379 462 342 173 446 82 86 422 156 330 196 103 439 307 55 135 451 459 255 62 235 463 226 291 271 273 236 419 292 24 609 207 176 441 69 356 22 407 182 135
423 20 3180 623 331 384 406 11 316 592 387 239 434 160 125 76 234 316 198 240 345 71 109 301 151 75 394 94 388 4 167 241 21 39 226 46 38 147 489 31 27 285 178
424 20 1830 60 427 61 345 139 279 24 291 311 468 176 113 233 38 121 428 44 189 1 474 61 390 18 475 100 4 53 291 106 414 315 287 247 135 113 209 88 184 17 157
425 20 3253 23 275 63 106 3 44 130 123 151 8 241 24 399 143 319 135 49 466 3 27 2 28 156 364 271 486 202 330 155 62 391 114 217 21 489 458 249 235 554 304
426 20 2274 279 105 135 436 19 21 28 123 275 139 114 196 254 253 164 356 103 189 60 165 194 30 79 389 81 186 306 297 126 470 212 68 116 483 133 64 142 27 23 377
427 20 1375 130 62 45 290 30 123 44 353 138 399 91 12 86 152 42 31 107 368 240 105 52 440 52 126 65 204 180 492 68 45 121 462 101 192 82 171 21 152 24 259
428 20 4280 325 133 142 1 464 291 14 224 423 226 251 332 76 50 199 154 360 64 132 248 136 11 226 152 137 462 80 390 574 484 641 121 333 454 186 353 479 229 172 340
429 20 1944 93 243 166 212 93 121 227 117 232 78 57 237 20 412 47 267 32 161 116 330 6 97 273 299 241 173 1 396 95 493 50 188 82 396 414 169 158 423 28 447
430 20 2689 84 319 383 227 286 391 29 127 573 283 211 400 156 140 115 253 107 442 68 269 330 364 83 289 49 259 222 397 111 111 52 304 182 103 119 207 44 488 158 316
431 20 2626 29 181 64 45 453 164 139 361 367 84 379 435 259 223 386 463 75 223 34 450 332 370 47 263 89 167 162 221 88 420 51 378 142 265 122 106 17 123 48 135
432 20 3560 336 488 465 97 119 176 269 265 16 339 350 22 107 36 252 11 678 194 367 335 62 196 92 281 136 130 7 433 200 498 97 411 376 66 13 203 298 401 211 458
433 20 2329 57 45 27 299 92 253 182 129 36 53 189 375 49 318 69 327 238 242 197 500 61 120 9 413 292 417 266 343 332 36 64 161 85 428 366 212 29 125 272 457
434 20 2256 155 441 65 6 104 251 33 174 166 413 170 78 174 55 28 358 87 123 96 311 494 484 319 333 59 432 135 182 83 63 29 371 114 411 143 438 24 401 343 382
435 20 3200 25 19 293 491 36 210 352 361 369 123 182 439 247 393 189 173 431 187 259 449 150 241 42 201 104 457 89 205 67 307 364 207 216 415 128 136 447 447 11 159
436 20 2833 378 207 56 489 206 300 16 7 176 449 388 339 24 408 306 351 3 10 184 104 402 460 413 45 36 297 59 311 126 131 244 484 68 20 46 409 157 440 254 334
437 20 1996 123 357 112 6 215 199 339 24 13 332 21 273 160 3 188 235 397 417 198 98 25 190 85 178 43 317 155 341 62 143 27 21 34 332 228 411 40 243 31 277
438 20 3083 38 272 145 437 12 322 18 463 80 24 273 180 33 353 90 83 213 173 642 362 176 105 582 384 395 452 135 445 187 375 255 33 243 199 15 366 254 184 68 160
439 20 1879 87 5 43 190 98 123 87 53 197 332 48 176 53 171 38 168 59 210 161 87 60 143 119 181 233 155 51 173 46 468 290 44 404 388 81 166 193 43 1 321
440 20 2324 17 37 7 63 99 190 9 409 46 243 53 354 483 19 506 249 86 282 27 152 389 459 124 302 36 304 33 155 201 70 168 63 271 202 77 209 72 452 202 37
441 20 1729 128 161 34 215 10 482 202 413 233 160 31 91 8 400 271 336 171 118 145 216 22 81 152 107 41 22 28 370 10 190 153 138 34 476 142 45 316 353 31 116
442 20 3181 242 272 128 27 129 453 43 48 89 164 241 196 318 300 704 367 55 476 335 85 21 57 215 324 204 368 10 260 150 39 69 397 337 426 215 377 31 149 441 484
443 20 2168 69 461 174 14 62 179 34 491 94 278 261 228 43 414 148 131 277 388 435 58 156 156 67 130 10 241 177 469 62 161 169 184 54 489 193 433 3 422 222 416
444 20 2211 4 67 106 263 187 159 294 82 42 469 71 77 220 346 70 256 168 457 258 184 194 186 76 354 13 235 109 124 45 145 346 189 38 370 25 347 178 107 320 306
445 20 1768 66 113 57 44 170 263 162 227 242 340 41 234 54 481 42 225 1 174 108 130 96 196 96 373 294 367 265 448 16 482 21 407 125 61 184 39 134 165 37 393
446 20 3410 664 428 52 381 224 228 430 180 432 246 370 113 33 320 160 55 155 397 76 368 383 118 1 416 39 413 271 20 46 397 141 249 157 82 129 114 195 130 305 233
447 20 3145 396 63 156 12 87 25 296 214 54 119 91 205 23 256 276 405 217 494 479 348 43 228 53 367 76 74 389 387 74 432 278 464 174 367 199 151 550 52 21 265
448 20 2732 50 492 151 235 7 450 70 398 164 392 58 15 361 405 180 322 128 377 164 445 163 200 184 6 150 18 107 243 116 450 9 243 247 451 498 364 102 252 507 369
449 20 3146 18 5 115 368 50 265 104 300 219 434 267 491 228 321 468 178 146 113 388 279 133 497 338 156 103 296 35 184 86 343 298 161 1 144 261 385 429 144 246 209
450 20 2720 168 65 104 70 47 225 102 430 542 387 220 434 80 263 85 427 10 412 59 11 174 212 85 231 184 361 267 410 41 461 374 144 66 76 110 360 158 457 524 37
451 20 3213 86 380 103 300 356 494 105 94 185 115 401 275 121 325 454 175 39 340 267 230 30 278 370 242 231 362 198 351 156 288 22 283 122 113 114 304 80 311 577 265
452 20 3270 379 444 408 400 245 61 33 295 170 270 289 240 229 320 155 72 30 430 21 229 56 455 430 463 305 246 225 186 31 163 133 389 261 37 463 198 89 197 136 362
453 20 2885 352 151 7 435 162 367 5 419 85 446 588 131 29 26 126 215 76 469 445 480 6 430 12 195 670 6 336 71 86 240 296 41 72 245 151 2 9 104 94 98
454 20 2589 173 422 315 225 200 423 11 185 53 198 134 101 255 498 38 374 144 97 233 159 241 225 48 195 169 331 158 38 243 112 126 330 76 303 431 433 144 424 45 483
455 20 2848 222 319 48 323 356 320 166 319 105 23 103 122 226 130 122 285 365 139 35 41 124 422 345 456 329 496 196 326 178 489 6 474 176 204 337 6 76 93 45 10
456 20 2608 87 262 311 27 74 283 95 140 780 110 69 35 47 157 221 255 171 277 89 258 84 494 246 278 161 230 42 192 161 483 208 166 65 387 236 71 103 196 11 135
457 20 2900 94 473 370 90 391 310 59 257 18 311 373 124 193 379 3 463 279 287 203 151 319 349 144 125 107 120 115 85 336 462 122 63 102 488 134 116 40 178 224 272
458 20 3711 256 269 256 90 272 432 63 496 185 253 515 63 264 494 65 399 30 38 194 345 606 457 9 402 346 352 656 294 79 93 237 451 293 209 178 493 83 190 52 209
459 20 2228 160 347 231 278 104 1 91 317 111 237 397 115 35 383 119 24 85 283 349 274 110 166 37 215 115 4 167 290 87 99 20 226 205 310 6 149 75 255 281 7
460 20 2327 120 392 254 86 1 235 143 170 1 488 20 198 408 285 459 80 45 253 51 425 66 344 118 245 41 137 41 16 473 85 132 305 179 140 34 359 127 42 196 365
461 20 2200 219 184 45 58 123 66 261 142 133 237 12 256 245 97 111 215 25 224 278 132 159 391 40 374 28 457 23 169 346 406 163 100 52 329 80 286 207 210 200 12
462 20 2932 414 187 73 205 261 185 193 25 10 150 232 200 325 387 197 334 64 406 1 95 196 394 29 151 404 20 102 89 382 15 251 488 31 88 81 83 315 331 104 221
463 20 1720 17 398 327 85 65 279 149 85 1 146 377 393 162 286 79 222 1 366 67 430 129 496 81 80 88 491 52 172 79 162 150 394 158 376 4 450 67 344 98 337
464 20 2538 110 187 489 218 57 445 145 480 31 138 68 26 187 302 222 17 217 165 110 385 21 351 169 336 312 495 112 81 269 271 26 367 203 183 88 418 228 199 109 469
465 20 2757 30 136 79 64 499 203 529 79 26 73 30 406 37 186 89 67 83 289 320 110 248 79 50 87 87 226 161 480 194 116 9 283 446 317 30 352 382 34 118 156
466 20 2704 11 467 84 156 238 487 205 349 83 297 132 321 268 239 260 34 268 294 177 23 65 329 11 251 112 362 22 271 162 221 97 47 501 266 69 116 481 194 134 307
467 20 2356 33 365 20 77 520 456 180 214 191 272 64 218 70 314 35 17 130 137 294 396 28 29 19 220 293 250 157 175 202 4 187 60 211 300 139 49 86 34 86 303
468 20 2448 2 432 239 44 155 53 133 488 45 64 135 16 276 385 77 481 14 216 274 141 328 482 231 81 105 214 63 295 277 298 249 466 145 230 280 113 16 444 17 211
469 20 2670 767 121 210 129 123 32 200 102 170 234 115 72 107 232 141 304 300 82 263 300 5 389 41 56 82 449 136 212 61 77 22 111 108 192 180 395 17 166 290 27
470 20 2577 116 401 310 63 88 195 59 61 414 111 179 106 68 162 25 160 274 132 49 469 8 181 197 183 91 373 5 96 381 246 304 448 167 244 100 418 110 457 277 149
471 20 2583 143 182 335 260 103 428 133 332 22 419 70 189 123 446 341 42 195 174 286 181 131 160 125 301 181 175 26 101 68 23 131 494 422 227 64 66 78 493 252 17
472 20 2658 35 372 56 384 137 150 695 405 77 184 75 326 3 368 435 51 364 467 23 212 46 438 175 452 150 398 45 417 34 32 89 398 242 141 308 111 119 243 215 215
473 20 2544 153 369 212 484 218 150 4 45 201 164 221 218 10 298 134 46 376 121 144 470 581 308 144 133 120 483 302 372 109 116 125 495 39 376 33 465 35 9 20 11
474 20 3805 327 399 194 150 521 226 216 184 136 357 28 199 24 106 17 417 233 337 136 353 246 449 183 62 321 130 148 287 286 454 546 105 404 197 33 462 558 212 200 369
475 20 2928 64 459 206 479 427 359 43 104 404 57 21 464 148 315 76 220 52 337 184 5 170 312 295 436 58 169 91 161 613 259 89 150 92 76 414 15 35 172 178 182
476 20 3945 234 135 590 201 236 184 591 262 79 68 123 275 101 31 101 434 372 21 238 495 41 284 16 24 86 67 489 157 306 347 512 356 219 108 292 291 274 165 32 487
477 20 2620 381 189 386 310 235 414 189 402 3 214 21 480 251 142 177 60 155 55 69 243 227 442 91 293 145 254 131 167 273 283 151 63 8 455 31 395 69 326 283 442
478 20 2971 124 368 113 97 133 368 302 104 452 55 29 445 386 456 428 318 72 39 61 160 59 254 215 498 217 17 357 294 6 276 221 96 209 315 130 211 57 15 143 263
479 20 2384 256 74 368 251 15 330 60 381 162 39 3 496 89 22 50 446 297 325 180 173 108 255 88 425 283 94 71 122 52 208 119 123 349 228 150 400 100 75 181 157
480 20 2302 408 165 43 165 162 222 18 370 135 425 12 449 358 438 411 107 34 76 70 407 161 179 99 155 74 401 137 239 65 489 105 436 20 216 264 211 85 388 217 454
481 20 2740 36 128 11 241 389 155 87 361 442 88 332 157 36 83 18 293 409 241 177 260 510 89 86 494 191 26 50 113 147 160 51 233 3 228 153 447 286 399 12 108
482 20 2262 279 440 81 21 53 230 155 202 211 16 100 65 197 465 86 462 166 159 457 89 5 100 25 185 23 397 8 302 86 463 149 22 103 137 307 266 262 345 75 65
483 20 2761 88 330 35 163 43 105 530 423 246 243 328 181 489 155 44 222 137 203 113 2 124 202 18 39 185 394 246 345 116 86 154 250 232 274 28 259 239 221 57 346
484 20 2715 315 345 28 289 29 417 24 80 136 227 116 176 108 229 105 173 705 390 190 270 39 426 634 324 5 270 67 7 58 353 142 41 41 246 141 292 266 163 245 59
485 20 2932 164 490 168 269 236 5 396 261 39 378 460 383 185 142 224 181 149 163 18 259 164 218 476 50 32 105 52 361 93 418 205 388 35 487 31 422 275 187 264 390
486 20 2573 417 372 233 351 267 254 78 91 605 299 292 52 162 73 48 421 134 217 36 195 148 219 16 360 67 64 24 69 376 338 105 26 73 423 53 410 45 365 38 290
487 20 3092 226 287 256 453 50 474 91 236 125 131 186 156 181 420 411 92 14 434 13 425 9 151 391 266 167 338 434 429 237 372 86 325 462 492 60 182 414 303 53 33
488 20 2840 153 489 156 448 115 2 89 495 268 413 131 453 65 71 10 460 142 164 250 95 226 497 352 170 266 236 215 426 148 55 124 166 570 187 65 39 16 150 190 85
489 20 2053 245 116 189 100 39 169 40 361 22 429 115 140 234 162 36 115 274 439 21 192 204 292 100 88 279 353 218 280 72 267 290 150 91 427 14 364 75 169 9 128
490 20 2154 66 245 296 71 236 122 571 175 23 327 56 44 116 457 22 4 100 228 15 51 314 499 114 72 6 356 17 414 223 401 34 458 183 179 192 7 48 225 61 285
491 20 3096 236 354 198 244 6 223 10 210 225 111 444 379 133 293 208 78 299 345 481 58 103 160 252 346 20 194 87 109 464 384 36 238 45 123 375 496 36 248 212 431
492 20 2348 79 253 266 256 66 315 363 156 150 212 173 321 57 444 65 239 171 160 231 37 132 370 47 319 144 22 306 478 17 345 65 280 249 248 47 432 1 148 307 442
493 20 2529 39 308 135 155 31 229 72 407 130 156 47 93 158 56 314 276 5 43 460 442 29 204 291 111 13 160 73 383 86 208 87 329 37 139 386 437 121 102 648 398
494 20 2769 81 375 161 4 172 483 296 269 194 490 410 326 498 477 337 114 206 317 41 494 136 170 53 123 52 129 74 409 95 141 263 372 43 456 72 213 169 483 109 441
495 20 3396 312 224 79 17 157 97 190 338 351 217 469 336 26 273 258 172 11 444 264 246 147 73 427 236 53 85 624 425 103 97 482 341 69 245 122 29 79 255 22 362
496 20 2293 31 74 96 495 314 400 111 284 104 422 199 11 131 125 162 369 114 289 245 374 38 281 118 171 6 41 22 390 183 332 163 153 172 428 274 402 331 147 53 296
497 20 2620 89 268 25 342 194 166 112 452 93 292 122 417 388 327 87 154 102 8 25 34 323 79 104 440 325 253 254 237 206 372 74 93 369 197 48 306 124 217 211 125
498 20 2893 303 186 341 412 324 137 493 490 153 137 339 451 229 428 27 242 138 221 159 94 105 273 91 255 323 101 257 109 39 477 58 359 24 400 190 201 2 127 22 257
499 20 3121 100 277 115 446 61 190 258 123 479 379 92 243 84 447 27 320 26 417 101 489 397 83 665 176 102 75 29 430 94 97 686 245 235 353 88 11 27 448 236 281
500 20 3082 169 389 204 389 396 331 167 401 404 69 1 306 161 153 272 374 237 61 393 362 193 29 152 231 138 56 223 212 58 117 26 216 201 179 104 297 26 225 328 139
