103
102
173
108
68
210
209
97
133
76
95
377
102
104
129
199
120
198
63
128
92
87
84
223
110
75
83
80
80
76
107
159
86
296
205
497
129
186
268
101
99
62
67
78
97
94
113
134
67
116
180
187
174
119
65
73
82
70
125
78
234
142
275
126
118
229
157
86
81
97
107
171
111
79
75
110
52
107
148
90
368
393
76
89
73
146
95
127
134
61
190
80
57
106
120
111
482
104
409
172
192
122
123
189
92
84
160
91
73
57
82
141
122
79
78
117
219
143
94
90
132
108
75
110
109
70
297
207
120
61
76
151
76
75
65
101
84
74
139
180
82
61
310
117
84
142
209
92
89
101
278
209
75
75
212
93
80
348
93
172
148
118
159
166
122
119
127
89
90
83
131
735
179
115
84
98
97
112
98
217
340
85
110
101
115
72
149
160
111
105
95
177
282
231
74
125
105
175
94
161
137
85
94
100
96
100
125
120
131
73
97
75
80
94
81
83
74
95
46
109
113
103
90
179
114
125
146
111
120
91
77
94
129
195
183
95
159
238
107
76
158
125
115
65
105
149
73
87
175
122
118
151
271
64
193
106
149
76
104
156
72
275
124
89
113
77
131
210
89
231
167
92
66
99
105
122
157
204
200
100
77
54
78
170
98
127
99
92
74
86
75
77
128
99
151
141
63
113
73
97
69
134
131
126
152
110
122
86
185
74
150
104
76
85
97
103
188
141
59
94
136
334
77
105
116
136
96
377
111
111
135
77
130
43
105
112
109
91
139
188
132
115
212
136
77
161
96
103
89
133
98
100
200
146
64
75
79
215
97
138
61
118
84
83
137
79
108
71
170
82
83
120
82
115
139
58
106
108
62
78
140
167
97
118
206
113
94
130
124
185
121
63
112
82
97
111
109
214
114
92
97
74
116
229
77
93
207
75
89
114
216
163
106
201
461
163
115
155
98
97
61
211
113
114
423
64
96
190
109
137
99
146
290
131
134
74
120
120
101
99
65
56
125
90
83
136
118
71
71
174
87
72
117
183
107
95
169
187
96
84
116
195
86
134
93
116
103
128
228
147
177
107
232
169
198
109
57
150
90
135
71
163
135
296
70
70
134
87
104
177
94
96
173
71
120
87
72
100
122
163
