1 20 5522 1 1 1 0 1 1 1 1 1 1 1 1 1 1 0 1 1 1 1 1 
2 20 5863 1 1 1 1 1 1 1 1 1 1 1 0 1 1 1 0 1 1 1 1 
3 20 4848 1 0 1 0 1 1 1 1 1 1 1 1 1 1 1 1 1 1 1 1 
4 20 4714 1 1 0 1 1 1 1 1 1 1 1 1 1 1 1 1 1 1 1 1 
5 20 4987 1 1 1 1 1 0 1 1 1 1 1 1 0 1 1 1 1 1 1 1 
6 20 4171 1 1 1 1 1 1 1 1 1 1 1 0 1 1 1 1 1 1 1 0 
7 20 4382 1 1 1 1 0 1 1 1 1 1 1 1 1 1 0 1 1 1 1 1 
8 20 4737 1 1 1 1 1 1 1 0 1 1 1 0 0 1 1 1 1 0 1 1 
9 20 4802 1 1 1 1 0 1 1 1 1 1 1 0 1 1 1 1 1 1 1 1 
10 20 4414 0 1 1 1 1 1 1 1 1 1 1 1 1 1 1 1 1 1 1 1 
11 20 4637 1 1 1 1 1 0 1 1 1 1 1 1 1 0 1 1 1 1 1 1 
12 20 4146 1 1 0 1 1 1 1 1 1 1 1 1 1 1 1 1 1 0 1 1 
13 20 4168 1 1 0 1 1 0 1 1 1 1 1 1 1 1 0 1 1 1 1 1 
14 20 4560 0 1 1 1 1 1 1 1 1 1 1 1 1 1 1 1 0 1 1 1 
15 20 5124 1 1 1 1 0 1 1 0 1 1 1 1 1 1 1 1 1 1 1 1 
16 20 3431 1 1 1 1 1 1 1 1 1 1 1 0 1 1 1 1 1 1 0 1 
17 20 5565 0 1 1 0 1 1 1 1 1 1 1 1 1 1 1 1 1 1 1 1 
18 20 5781 0 0 1 1 1 1 1 1 1 1 1 1 1 1 1 1 1 1 1 1 
19 20 5415 1 1 1 1 1 1 1 1 1 1 1 1 1 0 1 1 1 1 1 1 
20 20 4423 1 1 1 1 1 1 1 1 1 1 1 1 1 1 1 1 0 1 0 1 
21 20 4865 1 1 1 1 1 0 1 1 1 1 1 1 1 1 1 0 0 1 1 1 
22 20 4746 1 1 1 1 1 1 1 1 1 1 0 1 1 1 1 0 1 1 0 1 
23 20 4259 1 0 1 1 1 1 1 1 0 1 1 1 1 1 1 1 1 1 1 1 
24 20 4862 1 1 0 1 0 1 1 1 1 1 1 1 1 1 1 1 1 1 0 1 
25 20 5263 1 1 1 1 1 1 1 1 1 1 1 0 1 1 1 1 1 1 1 1 
26 20 4775 1 1 1 1 1 1 1 1 1 1 0 1 1 0 1 1 1 1 1 1 
27 20 4552 1 1 1 1 1 0 1 1 1 1 1 0 1 1 1 1 1 1 1 1 
28 20 4021 1 1 1 1 1 1 1 1 1 1 1 1 0 1 1 1 1 1 0 0 
29 20 5464 1 0 0 1 1 1 1 1 1 1 1 1 1 1 1 1 1 1 1 1 
30 20 4838 1 0 1 1 1 1 1 0 1 1 1 1 1 1 1 1 1 1 1 1 
31 20 3892 1 1 1 1 0 1 1 1 1 1 1 1 1 1 1 1 1 1 1 1 
32 20 4669 1 1 1 1 1 1 1 0 1 1 1 1 1 1 1 1 0 1 1 1 
33 20 4411 1 1 0 1 1 1 1 1 1 1 1 0 1 1 1 0 1 1 1 1 
34 20 5555 1 1 1 1 1 1 0 1 1 1 1 1 1 1 1 1 1 0 1 1 
35 20 5144 1 1 1 1 1 1 1 1 1 1 0 1 1 1 1 1 0 1 1 1 
36 20 4238 1 1 1 1 0 1 1 1 1 1 1 1 1 1 1 1 1 1 1 1 
37 20 4534 1 1 1 0 1 1 1 1 1 0 1 1 1 1 1 1 1 1 0 1 
38 20 3918 1 0 1 1 1 0 1 1 1 1 1 1 0 1 1 1 1 1 1 1 
39 20 5714 1 1 0 1 1 1 1 1 1 1 1 1 0 1 1 1 1 1 1 1 
40 20 4682 1 1 1 1 1 0 1 1 1 1 1 0 1 1 1 1 1 1 1 1 
41 20 3873 1 1 0 1 1 1 1 1 1 1 1 1 1 1 1 1 0 1 1 1 
42 20 3617 1 1 1 0 1 1 1 1 0 1 1 1 1 0 1 1 1 1 1 1 
43 20 4727 1 1 1 1 1 0 1 0 1 1 1 1 1 1 1 1 1 1 1 1 
44 20 5576 1 1 1 1 1 0 1 1 1 1 1 1 1 1 1 1 1 0 1 1 
45 20 5167 1 0 1 1 1 1 0 1 1 1 1 1 1 1 1 1 1 1 1 1 
46 20 4961 0 1 1 1 1 1 1 1 1 1 1 0 1 1 1 1 1 1 0 1 
47 20 3371 1 1 0 1 1 1 0 1 1 1 1 0 1 1 1 0 1 1 1 1 
48 20 4667 1 0 1 1 1 1 1 0 1 1 1 1 1 1 1 1 1 1 1 1 
49 20 4707 1 1 1 0 1 1 1 1 1 1 1 1 1 1 1 0 1 1 1 0 
50 20 4820 1 1 1 1 1 0 1 1 1 1 1 1 1 1 1 1 1 0 1 1 
51 20 4750 1 1 1 1 1 1 0 1 1 1 0 1 1 1 1 1 1 1 1 1 
52 20 4308 1 1 1 0 1 1 1 1 1 1 1 1 1 1 0 0 1 1 1 1 
53 20 5805 1 1 1 1 1 1 1 1 1 1 1 1 1 0 1 1 1 1 0 1 
54 20 4713 0 1 1 1 1 1 1 1 1 0 1 1 1 1 1 1 1 1 1 1 
55 20 5295 1 1 0 1 1 1 1 1 1 1 1 1 1 0 1 1 1 1 1 1 
56 20 4812 1 1 1 1 1 1 1 1 1 1 1 0 1 0 1 1 1 1 1 1 
57 20 4702 1 1 1 0 1 1 1 1 1 1 0 1 1 1 1 1 1 1 1 1 
58 20 4189 1 1 1 0 1 1 1 1 1 1 1 1 1 1 1 1 1 0 1 1 
59 20 4909 1 0 1 1 1 1 1 1 1 1 1 1 1 1 1 0 1 1 1 1 
60 20 4872 1 1 1 1 1 1 1 1 1 0 0 1 1 1 1 1 1 1 1 1 
61 20 5508 1 1 0 1 1 1 1 0 1 1 1 1 1 1 1 1 1 0 1 1 
62 20 4874 1 1 1 0 1 1 1 1 1 0 1 1 0 1 1 1 1 1 1 1 
63 20 4395 1 1 1 1 1 1 1 1 1 1 1 0 0 1 1 1 1 0 1 1 
64 20 4365 1 1 1 1 1 1 1 1 1 1 0 0 1 1 1 1 1 1 1 1 
65 20 5720 1 1 0 1 1 1 0 1 1 1 1 1 1 1 1 1 1 1 1 0 
66 20 4694 1 1 1 1 1 1 0 1 1 1 1 1 1 1 1 1 1 1 1 1 
67 20 4730 1 1 0 1 1 1 1 1 1 1 1 1 1 0 1 1 1 1 1 1 
68 20 5111 1 1 1 1 1 1 0 1 1 1 1 1 1 1 1 1 1 0 0 1 
69 20 4738 0 0 1 1 1 1 0 1 1 1 1 1 1 1 1 1 1 1 1 1 
70 20 5719 1 1 1 1 0 0 1 1 1 1 1 1 1 1 1 1 1 1 1 1 
71 20 4976 1 1 0 1 1 1 0 1 1 1 1 1 1 1 1 1 0 1 1 1 
72 20 4624 1 1 1 1 0 1 1 1 1 1 0 1 1 1 1 1 1 1 1 1 
73 20 4482 0 1 1 1 1 1 1 0 1 1 0 1 1 1 1 1 1 1 1 1 
74 20 5475 1 1 0 1 1 1 1 1 1 1 1 1 1 1 1 1 1 0 1 1 
75 20 4861 1 1 1 1 1 0 1 0 1 1 1 1 1 1 1 1 1 1 1 1 
76 20 4470 1 1 1 1 1 1 1 1 1 1 1 1 1 1 0 1 0 1 1 1 
77 20 5449 1 1 1 1 1 1 1 1 1 1 1 1 0 1 1 1 1 1 1 0 
78 20 5204 1 0 1 1 0 1 1 1 1 1 1 1 1 1 1 1 1 1 1 1 
79 20 4561 1 1 1 1 1 1 0 1 1 0 1 1 1 1 1 1 1 1 1 1 
80 20 5214 1 1 1 1 0 1 1 1 1 1 1 1 1 1 0 1 1 1 1 0 
81 20 5585 1 1 1 1 1 1 1 1 0 0 1 1 1 0 1 1 1 1 1 1 
82 20 4487 1 1 1 1 1 1 0 1 1 1 1 1 1 1 1 1 1 1 1 0 
83 20 4520 1 1 1 1 1 1 1 1 1 0 0 1 1 1 1 1 1 1 1 1 
84 20 4609 1 1 1 1 1 1 1 1 1 1 1 1 1 1 0 1 1 1 0 1 
85 20 4115 1 1 1 1 1 1 0 1 0 1 1 1 1 1 1 1 1 1 1 1 
86 20 3990 1 1 1 1 1 1 1 1 1 0 1 1 1 1 0 1 1 1 1 0 
87 20 4538 1 1 1 1 1 1 1 1 1 1 1 1 1 1 1 1 1 0 1 1 
88 20 5949 1 1 1 1 1 1 0 1 0 1 1 1 0 0 1 1 1 1 1 1 
89 20 4465 1 1 1 1 1 1 0 1 1 1 0 1 1 1 1 1 1 1 1 1 
90 20 5187 1 1 1 0 1 1 1 1 1 1 1 1 1 1 0 1 1 1 1 1 
91 20 5017 1 1 1 1 1 1 1 1 1 1 1 1 1 0 1 1 1 1 0 0 
92 20 4844 1 1 1 1 1 1 1 1 1 1 1 1 1 1 1 1 1 0 1 1 
93 20 6212 1 1 1 1 1 1 0 1 1 1 1 0 1 1 1 1 1 1 0 1 
94 20 5374 1 1 1 1 1 1 1 1 1 1 1 1 1 1 1 0 1 1 0 1 
95 20 5431 1 1 1 1 1 1 1 0 1 1 1 1 1 1 1 1 1 1 0 1 
96 20 4834 1 1 1 1 1 1 1 1 1 1 0 1 1 1 1 1 1 1 1 1 
97 20 3425 1 1 1 1 0 1 1 0 1 1 1 1 1 1 1 1 1 1 1 1 
98 20 4151 1 0 1 1 1 1 1 1 1 1 1 1 1 1 1 0 1 1 1 1 
99 20 5396 1 1 1 1 1 1 1 1 1 1 1 1 1 1 1 1 1 0 0 0 
100 20 4842 1 1 1 1 1 1 1 1 1 1 1 1 1 0 1 1 1 1 1 1 
101 20 5300 1 1 1 1 1 1 0 1 1 1 1 1 1 1 1 0 1 1 1 1 
102 20 5299 1 1 1 1 1 1 1 1 0 1 1 0 1 1 1 1 1 1 1 1 
103 20 5376 1 0 1 1 1 1 1 1 1 1 1 1 0 1 1 1 1 1 1 1 
104 20 4610 1 1 1 1 1 1 1 1 1 1 1 1 1 1 0 1 1 1 1 1 
105 20 5005 1 1 1 1 1 1 1 1 1 1 1 1 1 1 1 1 0 1 1 0 
106 20 4182 1 0 1 1 1 0 1 1 1 1 1 0 1 0 0 1 1 1 1 1 
107 20 4735 1 1 1 1 1 1 1 1 0 1 1 1 1 1 1 1 0 1 1 1 
108 20 5935 0 1 1 1 1 1 1 0 1 0 1 1 1 0 1 1 1 1 1 1 
109 20 4697 1 0 0 1 1 1 1 0 1 1 1 1 1 1 1 1 1 1 1 1 
110 20 4327 1 1 1 1 1 1 1 1 1 1 1 1 1 1 0 0 1 0 1 1 
111 20 4115 0 1 1 1 1 1 1 1 1 1 1 1 1 1 1 1 1 0 1 1 
112 20 5310 0 1 1 1 1 0 1 1 1 0 1 1 1 1 1 1 1 1 1 1 
113 20 3413 1 1 1 1 1 1 1 1 0 1 1 1 0 1 1 1 1 1 1 1 
114 20 4434 1 1 1 1 1 1 1 1 1 1 1 1 1 0 1 0 1 0 1 0 
115 20 5470 1 1 1 1 0 1 0 0 1 1 1 1 1 1 1 1 1 1 1 1 
116 20 4360 1 1 1 1 1 1 1 0 1 0 1 1 1 0 1 1 1 0 1 1 
117 20 5212 1 1 1 1 1 1 1 1 1 0 1 1 1 1 1 1 1 0 1 1 
118 20 4420 1 1 1 1 1 1 1 1 1 1 0 1 1 1 1 1 1 1 1 0 
119 20 4607 1 1 1 1 0 1 1 1 0 1 1 0 1 1 1 1 1 1 1 1 
120 20 4369 1 1 1 1 0 1 1 1 1 1 1 1 1 1 1 1 1 0 1 1 
121 20 5328 1 1 1 1 1 1 1 1 1 0 1 1 1 1 0 1 1 1 1 1 
122 20 5962 1 1 1 1 1 1 1 1 1 1 0 0 1 1 1 1 1 1 1 1 
123 20 3794 1 1 1 1 1 1 1 1 1 1 1 1 0 1 1 1 0 0 1 1 
124 20 3859 1 1 1 1 1 1 1 1 0 1 1 1 1 0 0 1 1 1 1 1 
125 20 5605 1 1 1 0 1 1 1 1 1 1 0 1 1 1 1 1 1 1 1 1 
126 20 4598 1 1 1 1 0 1 1 1 1 1 1 1 1 1 0 1 1 1 1 1 
127 20 4661 1 1 1 1 1 0 1 1 1 1 1 1 1 1 1 1 0 1 1 1 
128 20 5573 1 0 1 1 1 1 1 1 1 0 1 1 1 0 1 1 1 1 1 1 
129 20 5164 1 1 1 1 1 1 1 0 1 1 1 1 1 1 1 1 1 1 1 1 
130 20 4298 1 1 1 1 1 1 1 0 1 0 1 1 1 1 1 1 0 1 1 1 
131 20 3955 1 1 1 1 1 1 1 0 1 0 1 1 0 1 1 1 1 1 1 1 
132 20 4828 1 1 1 1 1 1 1 1 1 1 1 1 1 1 1 1 1 1 1 0 
133 20 4225 0 0 1 1 1 1 1 1 1 1 1 1 1 1 1 0 1 1 1 1 
134 20 5518 0 1 1 1 1 0 1 1 1 1 0 1 1 1 1 1 1 0 1 1 
135 20 5266 1 1 0 1 1 1 1 1 0 1 1 1 1 1 1 0 1 1 1 1 
136 20 5348 1 0 1 1 1 0 1 1 1 1 1 1 1 1 1 1 0 0 1 1 
137 20 4517 1 0 1 0 1 1 1 1 1 1 1 1 1 1 1 1 0 1 1 1 
138 20 5667 1 1 1 1 1 1 0 1 1 1 1 1 1 1 1 1 1 0 1 1 
139 20 5103 1 1 1 1 1 1 1 1 1 1 1 1 1 1 0 1 1 1 1 0 
140 20 4488 1 0 1 1 1 1 1 1 1 1 1 1 1 0 1 0 1 1 1 1 
141 20 4194 1 1 1 1 1 1 0 1 1 1 1 1 0 0 1 1 1 1 1 1 
142 20 5703 1 0 1 1 1 1 1 1 1 1 1 1 1 1 1 0 1 1 1 1 
143 20 5723 1 1 1 1 1 1 1 1 1 1 1 1 1 1 0 1 1 1 0 1 
144 20 4323 1 1 1 1 1 0 1 1 1 1 1 1 1 1 0 1 0 1 1 1 
145 20 4846 1 1 1 1 1 1 1 1 1 1 1 1 1 1 0 1 1 1 0 1 
146 20 5244 1 1 1 1 1 0 1 1 1 1 1 1 0 1 1 1 1 1 1 1 
147 20 4610 1 1 0 1 1 1 0 0 0 1 1 1 1 1 1 0 1 1 1 1 
148 20 5266 1 1 1 1 1 1 0 1 1 1 1 1 1 1 1 1 1 1 1 0 
149 20 3716 1 1 1 1 1 1 1 0 1 0 1 1 1 1 1 1 1 1 1 1 
150 20 5432 1 0 1 1 1 1 0 1 1 1 1 1 1 1 1 0 1 1 1 1 
151 20 5337 1 1 1 1 1 1 1 1 1 0 1 1 1 0 1 1 1 1 1 1 
152 20 4709 1 1 1 1 1 1 1 1 0 1 0 1 1 1 1 1 1 1 1 1 
153 20 4194 1 0 1 1 1 1 1 1 1 1 1 0 1 1 1 1 0 1 1 1 
154 20 3883 1 1 1 0 1 1 1 1 1 1 1 1 1 1 1 1 1 1 1 1 
155 20 4728 1 1 1 0 1 1 1 1 1 1 1 0 1 1 1 1 1 1 1 1 
156 20 4626 1 1 1 1 1 1 1 1 1 0 1 0 1 0 1 1 1 1 1 1 
157 20 4757 1 1 1 0 1 0 1 0 1 1 1 1 1 1 1 1 1 1 1 1 
158 20 4668 1 1 0 1 1 1 1 1 1 1 1 0 1 0 1 1 1 1 1 1 
159 20 4780 1 1 1 1 1 1 1 1 1 1 1 0 1 1 1 1 1 1 1 1 
160 20 5831 1 1 1 1 1 1 1 1 1 1 1 0 1 1 1 1 1 1 1 1 
161 20 4973 1 1 1 1 1 0 1 1 1 1 1 1 1 1 0 1 1 1 1 1 
162 20 4335 1 1 1 1 1 1 0 1 1 1 1 1 1 1 0 1 0 1 1 1 
163 20 5047 1 1 0 1 0 0 1 1 1 1 1 1 1 1 1 1 1 1 1 1 
164 20 5580 1 1 1 1 0 1 0 1 1 1 1 1 1 1 1 1 1 1 0 1 
165 20 4931 1 1 1 1 1 1 1 0 0 1 1 1 1 1 1 1 1 1 1 1 
166 20 3733 1 1 1 1 1 1 1 1 1 1 1 0 1 1 0 1 1 1 1 1 
167 20 4332 0 1 1 1 1 1 1 1 1 1 1 0 1 1 1 1 1 1 1 1 
168 20 3749 1 1 1 1 1 1 1 1 1 1 0 1 1 1 0 1 0 1 1 1 
169 20 4737 1 1 0 1 1 1 1 1 1 1 0 1 1 1 1 0 1 1 1 1 
170 20 5172 0 1 1 1 1 1 1 1 0 1 1 1 1 1 1 1 1 1 0 1 
171 20 4220 1 1 1 1 1 0 1 1 1 0 1 1 1 1 1 1 1 1 1 1 
172 20 4816 1 1 1 1 1 1 1 1 1 1 0 1 1 1 1 1 1 1 1 1 
173 20 4796 1 1 1 0 1 1 1 1 1 1 1 1 1 0 1 1 0 1 1 1 
174 20 4934 1 1 1 1 1 1 1 1 1 1 0 0 1 1 1 1 0 1 1 1 
175 20 5463 0 1 1 1 1 1 1 1 1 1 1 1 1 1 1 1 1 1 1 0 
176 20 4152 1 1 1 0 1 1 1 1 1 1 1 1 1 1 0 1 1 1 1 1 
177 20 4538 1 1 0 1 1 0 1 1 0 1 1 1 1 0 1 1 1 1 1 1 
178 20 5163 1 1 1 1 1 1 0 1 0 1 1 0 1 1 1 1 1 1 1 1 
179 20 5176 1 1 1 1 1 0 1 1 1 0 1 1 1 1 1 1 1 1 1 1 
180 20 3372 1 1 1 1 1 1 1 1 1 0 1 1 1 1 0 1 1 1 1 1 
181 20 6138 1 1 1 1 0 1 1 1 1 1 0 1 1 0 1 1 1 1 1 0 
182 20 5094 1 1 0 1 1 1 1 1 1 1 1 1 0 1 1 1 1 1 1 1 
183 20 4435 1 0 1 0 1 1 1 1 0 1 1 1 0 1 1 1 1 1 1 1 
184 20 4424 0 1 1 1 1 1 1 1 1 1 1 1 1 0 1 1 1 1 1 1 
185 20 5520 1 1 0 1 1 1 1 0 1 1 1 1 1 1 1 1 1 1 1 1 
186 20 5193 1 1 1 1 1 1 1 0 1 0 1 1 1 1 1 1 1 1 0 1 
187 20 5222 1 1 1 0 1 1 1 1 1 1 1 1 1 1 1 1 1 0 1 1 
188 20 4831 1 0 0 1 1 1 0 1 1 1 1 1 1 1 1 1 1 1 1 1 
189 20 5015 1 0 1 1 1 1 1 1 1 1 0 1 1 1 0 1 1 0 1 1 
190 20 5258 1 1 1 1 1 1 1 1 1 0 1 1 1 1 1 1 1 0 1 1 
191 20 5869 1 1 1 0 1 1 1 0 1 0 1 1 1 1 1 1 1 1 1 1 
192 20 5079 0 1 1 1 1 1 1 1 1 1 1 1 1 1 1 0 1 1 1 1 
193 20 5680 1 1 1 1 1 1 1 1 1 1 1 0 1 0 1 1 1 1 1 1 
194 20 4405 1 0 1 1 1 1 1 1 1 1 1 1 1 0 1 1 1 1 1 0 
195 20 4696 1 1 1 0 1 1 0 0 1 1 1 1 1 1 1 1 1 1 1 1 
196 20 5287 1 1 1 0 1 1 1 1 0 1 1 1 1 1 1 1 0 1 1 1 
197 20 5151 1 1 1 1 1 1 1 1 0 1 1 1 1 1 1 1 1 1 1 1 
198 20 4589 1 0 1 1 1 1 1 1 1 0 1 1 1 1 1 1 0 1 1 1 
199 20 4191 1 1 0 1 0 1 1 0 1 1 0 1 1 1 1 1 1 1 1 1 
200 20 4788 0 1 1 0 0 1 1 1 1 1 1 1 1 1 1 1 1 1 1 1 
201 20 6263 1 1 1 1 1 1 1 1 1 1 1 1 0 1 1 1 1 1 1 1 
202 20 4767 1 1 1 0 1 1 1 1 1 1 1 1 1 1 1 1 0 1 1 1 
203 20 5427 1 1 1 0 1 1 1 1 1 1 1 1 1 1 1 0 1 1 1 0 
204 20 4115 1 1 1 1 1 1 1 1 1 0 1 0 1 1 1 1 0 1 1 1 
205 20 3889 1 0 1 1 0 1 1 1 1 1 1 1 1 1 1 1 1 1 1 1 
206 20 4091 1 1 1 1 0 0 1 1 1 1 0 1 1 1 1 1 1 1 1 1 
207 20 4292 0 1 0 1 1 1 1 1 1 0 1 1 1 1 1 1 1 1 1 1 
208 20 5319 1 0 1 1 0 1 1 1 1 1 1 1 1 1 1 1 1 1 1 1 
209 20 4038 1 0 1 1 0 1 1 1 1 1 1 1 1 1 1 1 1 1 1 1 
210 20 4781 1 1 1 1 1 1 1 1 0 0 1 0 1 1 1 1 1 1 1 1 
211 20 4587 1 1 1 1 1 1 1 1 1 1 1 1 1 1 0 0 1 1 1 1 
212 20 4838 1 1 1 1 1 1 1 1 0 1 1 1 1 1 1 0 1 1 1 1 
213 20 4519 1 1 1 1 1 0 1 1 1 0 1 1 1 0 1 1 1 1 1 1 
214 20 5337 1 1 0 1 1 1 1 1 1 1 1 1 1 1 1 1 1 1 0 1 
215 20 4277 1 1 1 0 1 1 1 1 1 1 1 1 1 1 1 1 0 1 1 1 
216 20 6222 1 1 1 1 1 1 1 1 1 1 1 1 1 1 1 0 1 0 1 1 
217 20 4740 0 1 1 1 1 1 1 1 1 1 1 1 0 1 1 1 1 1 1 1 
218 20 5017 1 1 1 1 1 1 1 1 1 1 1 0 1 0 1 1 1 1 1 1 
219 20 4486 1 1 1 1 1 1 1 1 1 1 1 1 1 0 1 1 1 1 1 0 
220 20 4438 0 1 1 1 1 1 1 1 1 1 1 1 1 1 1 1 1 0 1 1 
221 20 4949 1 1 1 1 1 1 1 1 1 1 1 0 0 1 1 1 1 1 1 1 
222 20 2763 1 1 1 0 1 1 1 1 1 1 1 1 1 1 0 1 1 1 1 1 
223 20 4525 1 1 1 0 1 1 1 1 0 1 1 1 1 1 1 1 1 1 1 1 
224 20 5152 1 1 1 1 0 1 1 1 1 1 1 1 1 1 1 1 1 1 1 1 
225 20 5300 1 1 1 1 1 1 1 1 1 1 0 1 1 1 1 0 1 1 1 1 
226 20 4721 0 1 1 1 0 1 1 1 1 1 0 1 1 1 1 1 1 1 1 1 
227 20 4550 1 1 1 1 1 1 1 1 1 1 1 1 1 1 1 1 0 1 1 1 
228 20 4730 0 1 1 1 1 1 1 1 0 1 1 1 1 1 0 1 1 1 1 1 
229 20 4052 1 1 1 1 1 0 1 1 1 1 1 1 1 1 0 1 1 1 1 1 
230 20 5353 1 1 0 1 1 1 1 1 0 1 1 0 0 1 1 1 1 1 1 1 
231 20 4398 1 1 1 1 1 1 1 0 1 1 1 1 1 1 1 1 0 1 1 1 
232 20 4835 0 1 1 1 1 1 1 1 1 1 1 1 1 1 1 1 1 1 0 1 
233 20 4136 1 1 0 1 0 1 1 1 1 1 1 1 1 1 1 1 1 1 1 1 
234 20 5002 1 1 1 1 1 1 1 0 1 1 1 1 1 1 1 1 0 1 1 1 
235 20 4699 1 1 1 1 1 0 1 1 1 1 1 1 1 1 1 1 1 1 1 1 
236 20 5309 1 1 1 1 1 1 1 1 1 1 1 0 0 1 1 1 1 1 1 1 
237 20 4604 1 1 1 1 1 1 1 1 1 1 1 0 1 1 1 1 1 1 1 1 
238 20 5061 0 1 1 1 1 1 0 1 1 1 1 1 1 1 0 0 1 1 1 1 
239 20 3961 1 1 0 1 1 0 1 1 1 1 1 1 1 1 1 0 1 1 1 1 
240 20 4760 1 1 0 1 1 1 1 1 0 1 1 1 1 1 1 1 1 1 1 1 
241 20 5587 1 1 1 1 1 1 1 1 1 0 1 1 1 1 1 1 1 1 0 1 
242 20 4887 1 1 1 1 1 1 1 1 0 1 1 1 1 1 1 0 1 1 1 1 
243 20 4669 1 0 1 1 1 1 1 1 1 1 1 1 1 1 1 1 1 0 1 1 
244 20 4780 1 0 1 1 1 1 1 1 1 1 1 1 0 1 1 1 1 1 1 1 
245 20 4922 1 1 1 1 1 1 0 1 1 1 1 1 1 0 1 1 1 1 1 1 
246 20 6157 1 1 1 1 0 1 1 1 1 1 1 1 1 1 1 1 1 1 1 0 
247 20 4598 1 1 1 1 1 1 1 1 0 1 1 1 1 1 1 1 0 1 1 1 
248 20 5982 1 1 1 1 1 1 0 1 1 0 1 1 1 1 1 1 1 0 1 1 
249 20 3469 1 1 1 1 0 1 1 1 1 1 1 1 1 0 1 1 1 1 1 1 
250 20 4227 1 1 1 0 1 1 1 1 1 0 1 1 1 1 1 1 1 1 1 1 
251 20 4897 1 1 1 0 1 1 1 1 1 1 1 0 1 1 1 1 1 1 1 1 
252 20 5555 1 1 0 0 1 1 1 1 1 1 1 1 1 0 1 1 1 1 1 1 
253 20 3934 1 1 1 0 1 1 1 1 1 1 1 1 1 1 1 1 1 0 0 1 
254 20 5086 1 1 1 1 1 1 1 1 1 1 1 1 1 1 1 1 0 1 0 1 
255 20 4513 1 1 1 1 1 1 0 1 1 0 1 1 1 1 1 1 1 1 1 1 
256 20 5198 1 1 1 1 0 1 1 1 1 1 1 1 1 1 1 1 0 1 1 1 
257 20 5492 1 1 1 1 0 0 1 1 1 1 1 1 0 1 1 1 1 1 1 1 
258 20 4842 1 1 1 1 0 1 1 1 1 1 0 1 1 0 1 1 1 1 1 1 
259 20 5610 1 1 1 1 1 1 1 0 1 1 1 1 1 1 0 1 1 1 1 1 
260 20 5121 1 1 1 1 1 1 1 1 1 1 1 1 1 1 1 1 0 1 1 1 
261 20 5391 1 1 1 0 1 1 1 1 1 1 1 1 1 1 0 1 1 1 0 1 
262 20 5324 1 1 1 1 1 1 1 1 1 1 1 1 1 1 1 0 1 0 1 1 
263 20 4691 1 1 1 1 1 1 1 1 1 1 1 0 1 1 0 1 1 1 1 1 
264 20 5698 1 1 1 1 1 1 1 0 1 1 1 1 1 1 1 1 1 1 1 1 
265 20 4681 1 1 1 1 1 1 1 1 1 1 0 0 1 0 1 1 1 1 0 1 
266 20 3982 1 1 1 1 1 1 1 1 1 1 1 1 1 1 1 1 1 0 1 1 
267 20 5464 1 1 1 0 1 1 1 1 1 1 1 1 1 1 1 0 1 1 1 1 
268 20 4459 1 1 1 1 1 1 1 0 1 1 1 1 0 1 1 1 1 1 1 1 
269 20 4017 1 1 1 1 1 1 1 1 1 1 0 1 1 1 1 1 1 1 1 1 
270 20 4896 1 1 1 1 0 1 1 1 1 1 1 1 1 1 1 1 1 0 1 1 
271 20 5483 1 1 0 1 0 1 1 1 1 1 1 1 1 1 1 1 1 1 1 1 
272 20 4600 1 1 1 1 1 1 1 1 1 1 0 1 1 1 1 1 1 1 1 0 
273 20 4393 1 1 0 1 0 1 1 1 1 1 1 1 1 0 1 1 1 1 1 1 
274 20 4975 1 1 1 1 1 1 1 1 1 1 1 1 1 1 0 0 1 1 1 1 
275 20 5708 1 1 1 1 1 1 1 1 1 1 0 1 1 1 0 0 1 1 1 1 
276 20 4965 1 1 1 1 1 1 0 1 1 1 1 1 1 1 1 1 1 1 1 1 
277 20 3114 1 1 1 1 1 1 0 1 0 1 0 1 1 1 1 1 1 1 1 1 
278 20 4091 1 1 1 1 1 0 1 1 1 1 1 1 1 1 0 1 1 1 1 1 
279 20 5312 1 1 1 1 0 1 1 1 1 0 1 0 1 1 1 1 1 1 1 1 
280 20 5116 1 0 1 1 1 1 1 1 1 1 1 1 1 1 1 1 1 0 1 1 
281 20 4868 1 1 1 1 1 1 1 0 0 1 1 1 1 1 1 1 1 1 0 1 
282 20 4817 0 1 1 1 1 1 1 1 1 1 1 1 1 1 1 1 1 1 1 0 
283 20 5254 1 1 1 0 1 1 1 1 1 0 1 1 1 1 1 1 1 1 1 1 
284 20 3523 1 1 1 1 1 1 1 1 1 1 1 1 1 1 0 1 1 1 0 1 
285 20 5350 1 1 1 0 1 1 1 1 0 1 1 1 1 1 1 1 1 1 1 1 
286 20 4176 1 1 1 1 1 1 0 1 1 1 1 1 1 0 1 1 0 1 1 1 
287 20 4859 1 1 1 0 1 1 1 1 1 0 1 1 1 1 1 1 1 1 1 1 
288 20 5215 1 1 1 1 1 1 1 1 0 1 1 1 1 1 1 1 1 1 1 1 
289 20 3575 1 1 1 1 1 1 1 1 1 1 1 1 0 1 1 0 1 1 1 1 
290 20 5273 1 1 1 1 1 1 1 1 1 1 1 0 1 1 1 1 0 1 1 1 
291 20 4964 1 0 1 1 1 1 1 1 1 0 1 1 0 1 1 1 1 1 1 1 
292 20 4992 0 1 0 1 1 1 1 1 1 1 1 1 1 1 1 1 1 0 1 1 
293 20 4542 1 1 1 1 1 1 0 1 1 1 1 1 1 0 1 1 1 1 1 1 
294 20 4716 1 0 1 0 1 1 0 1 1 1 1 1 1 1 1 1 1 1 1 1 
295 20 3501 1 1 1 1 1 0 1 0 1 1 0 1 1 1 1 1 1 1 1 1 
296 20 5134 1 1 1 1 1 1 1 1 1 1 1 1 1 1 0 0 1 1 1 1 
297 20 4827 1 1 1 1 1 1 1 1 1 1 1 1 1 1 1 1 1 0 1 0 
298 20 4289 0 1 1 1 1 1 1 1 0 1 1 1 1 1 1 1 1 1 1 1 
299 20 4341 1 1 1 1 1 1 1 1 1 1 1 1 1 1 1 0 1 1 1 1 
300 20 6021 1 0 1 1 1 1 1 1 1 1 1 1 1 1 1 1 0 1 1 1 
301 20 5472 1 1 1 1 1 1 1 1 1 1 0 1 1 1 1 1 1 1 0 1 
302 20 5216 1 1 1 1 1 1 1 1 1 1 1 1 1 1 0 1 0 1 1 1 
303 20 4809 1 0 1 1 1 1 1 0 1 1 1 1 1 1 0 1 1 1 1 1 
304 20 4161 1 0 1 1 1 0 1 1 1 1 1 0 1 1 1 1 1 1 1 1 
305 20 4827 1 1 1 1 1 1 0 1 1 1 1 1 1 1 1 1 1 0 1 1 
306 20 4711 1 1 1 0 1 1 0 1 1 1 1 1 1 1 1 1 1 1 1 0 
307 20 5749 1 0 1 1 1 1 1 1 1 1 1 1 1 0 1 1 1 0 1 1 
308 20 3999 1 1 1 1 1 1 0 1 1 1 1 1 1 1 1 1 0 1 1 1 
309 20 4181 1 1 1 0 1 1 1 1 0 0 1 1 1 1 1 1 1 1 1 1 
310 20 5070 1 1 1 1 1 0 1 1 1 0 1 1 1 1 1 1 1 1 0 1 
311 20 5157 1 1 1 1 1 1 1 1 1 1 1 1 0 0 1 1 1 1 1 1 
312 20 4325 1 1 0 0 0 1 1 1 1 1 1 1 1 1 1 1 1 1 1 1 
313 20 4885 1 1 1 1 0 1 1 1 1 1 1 0 1 1 1 1 1 1 1 1 
314 20 4033 1 1 1 1 1 0 1 1 1 1 1 1 1 1 0 1 1 1 1 1 
315 20 6060 1 1 1 1 1 0 0 1 1 1 1 1 1 1 1 1 1 1 1 1 
316 20 4648 1 1 1 1 1 1 1 0 1 1 1 1 1 1 1 1 0 1 1 0 
317 20 5196 1 0 1 1 1 1 1 1 1 1 1 1 1 1 1 1 1 1 0 1 
318 20 4112 1 1 0 0 1 1 1 1 1 1 1 1 1 1 1 1 1 1 0 1 
319 20 5027 1 1 1 1 1 1 0 1 1 1 1 1 1 1 1 1 1 1 1 1 
320 20 3948 1 0 1 1 1 0 1 1 1 1 1 1 1 1 1 1 1 1 0 1 
321 20 4116 1 1 1 1 1 1 1 1 0 1 1 1 1 1 1 0 1 1 1 1 
322 20 4904 1 1 0 1 1 1 1 1 1 1 0 1 1 1 1 1 1 1 1 1 
323 20 4496 1 1 1 1 1 1 1 1 1 1 1 1 1 1 1 1 1 1 0 0 
324 20 4098 0 1 1 1 1 0 0 1 1 1 1 1 1 1 1 1 1 1 1 1 
325 20 5821 1 1 1 1 1 1 1 1 1 1 1 1 0 1 1 1 1 1 1 0 
326 20 5076 1 0 1 1 1 1 0 1 1 1 1 1 1 1 1 1 1 1 1 1 
327 20 5134 1 1 1 0 1 1 1 1 1 1 1 1 1 0 1 1 1 1 1 1 
328 20 4272 0 1 1 1 1 1 1 1 1 1 1 1 1 1 1 1 1 1 1 1 
329 20 4742 1 1 1 1 0 0 1 1 1 1 1 1 1 1 0 1 1 1 1 1 
330 20 4266 0 1 1 1 0 1 1 1 1 1 1 1 1 1 1 1 1 1 1 1 
331 20 4430 1 1 1 0 0 1 1 1 1 1 1 1 1 1 1 1 1 1 1 1 
332 20 5023 1 1 1 1 1 1 1 1 1 1 1 1 1 0 0 1 0 1 1 1 
333 20 4207 1 1 1 1 1 0 1 1 1 1 1 1 1 1 1 0 1 1 1 1 
334 20 4419 1 1 1 1 1 0 1 1 0 1 1 1 1 1 1 0 1 1 1 1 
335 20 4794 1 1 1 1 1 1 1 0 1 1 1 0 1 1 1 1 1 1 1 1 
336 20 5445 1 1 1 1 1 1 1 0 1 0 0 1 1 1 1 0 1 1 1 1 
337 20 3661 1 1 1 1 1 1 1 1 1 1 0 1 1 1 1 1 1 1 0 1 
338 20 4918 1 1 1 1 1 1 1 1 1 1 0 1 1 1 1 1 1 1 1 1 
339 20 3713 1 1 1 1 0 1 0 1 1 1 0 1 1 1 1 1 1 1 1 1 
340 20 3974 0 1 1 1 1 1 1 1 1 1 1 1 1 1 1 1 1 0 1 1 
341 20 4753 1 0 1 1 1 1 1 1 1 1 0 1 1 1 1 1 1 1 1 1 
342 20 4257 1 1 0 1 1 1 1 1 1 1 0 1 1 1 1 1 1 1 1 1 
343 20 5009 0 1 1 1 1 1 1 1 1 1 1 1 1 1 1 1 1 1 1 1 
344 20 4893 1 1 1 1 0 1 1 1 1 1 1 1 1 1 0 1 1 1 1 1 
345 20 4235 1 1 1 1 1 1 1 1 1 0 1 1 1 1 0 1 1 1 1 1 
346 20 5410 1 1 1 1 1 0 0 0 1 1 1 1 1 1 1 1 1 1 1 1 
347 20 5313 1 1 1 1 1 1 1 1 1 0 1 1 1 1 1 1 0 1 1 1 
348 20 4104 1 0 1 1 1 1 1 1 1 1 1 1 1 1 1 1 1 0 1 1 
349 20 4592 1 1 1 1 1 1 1 1 1 0 1 1 1 1 1 1 1 1 1 1 
350 20 4877 1 1 1 1 0 0 1 1 1 1 1 1 1 1 1 1 1 1 1 1 
351 20 4990 1 1 0 1 0 1 1 1 1 1 1 1 1 1 1 0 1 1 1 1 
352 20 5149 1 1 1 1 1 1 0 1 1 1 1 1 1 1 1 1 1 1 1 1 
353 20 5565 1 1 1 1 1 1 1 0 1 1 1 1 1 1 1 1 1 0 1 1 
354 20 4708 1 1 1 1 0 1 1 1 1 1 0 1 1 1 1 1 1 1 1 1 
355 20 4262 1 1 1 1 1 1 0 1 0 1 1 1 0 1 1 1 1 1 1 1 
356 20 4556 1 1 1 1 1 1 1 1 1 0 0 1 0 1 1 1 1 1 1 1 
357 20 5218 1 1 1 0 1 1 1 1 1 1 1 1 1 0 1 1 0 1 1 1 
358 20 5275 1 1 1 0 1 1 1 0 1 1 1 1 1 1 1 1 1 1 1 1 
359 20 4585 1 1 1 1 1 0 1 1 1 1 1 1 1 1 1 1 0 1 1 1 
360 20 5090 1 1 0 1 1 1 1 1 1 0 1 1 1 1 1 1 1 1 1 1 
361 20 5756 1 0 1 1 1 1 1 1 1 1 1 0 1 1 1 1 1 1 1 1 
362 20 4659 1 1 1 1 1 1 1 1 1 1 0 1 0 1 1 1 1 1 1 1 
363 20 4733 1 1 0 1 1 1 1 1 1 1 1 1 1 1 0 0 1 1 1 1 
364 20 5293 1 1 1 0 1 1 1 0 1 1 1 1 1 1 1 1 1 1 1 1 
365 20 4270 0 0 1 1 1 1 1 1 1 1 0 1 1 1 1 1 0 1 1 1 
366 20 4658 1 1 1 1 1 1 1 1 1 1 0 1 1 1 1 0 1 1 1 1 
367 20 5803 1 1 1 1 1 1 1 1 1 1 0 1 1 1 0 1 1 1 1 1 
368 20 4822 1 1 1 1 1 1 1 1 1 1 1 1 1 1 0 1 1 1 1 1 
369 20 4706 1 1 1 1 1 1 1 1 0 1 1 0 1 1 1 1 1 1 0 1 
370 20 4464 1 1 0 1 1 1 1 1 1 1 1 1 0 1 1 1 1 1 0 1 
371 20 4583 1 1 1 1 1 1 1 1 1 1 1 1 1 1 1 1 0 0 1 1 
372 20 4842 1 1 0 1 1 1 1 1 1 1 1 1 1 1 1 1 1 1 0 1 
373 20 3662 1 1 1 1 1 1 1 1 1 0 1 1 1 1 1 1 1 1 1 0 
374 20 3775 0 1 1 1 1 1 1 1 1 1 1 1 0 1 0 1 1 1 1 1 
375 20 4996 0 0 1 1 1 1 1 1 1 1 1 1 1 1 1 1 1 1 1 1 
376 20 3992 1 1 1 1 1 1 0 1 0 1 1 1 1 1 1 1 1 1 1 1 
377 20 4871 1 1 1 0 1 1 0 0 1 1 1 1 1 1 1 1 1 1 1 1 
378 20 4833 0 1 1 1 1 1 1 1 1 1 1 1 0 1 1 1 1 1 1 1 
379 20 4601 0 1 1 1 1 1 1 1 1 1 1 1 1 1 1 1 1 1 1 1 
380 20 3724 1 1 0 1 1 1 1 1 1 1 0 1 1 1 1 1 1 1 0 1 
381 20 3948 1 1 0 1 1 1 1 1 1 1 1 1 1 1 1 1 1 0 1 0 
382 20 3927 1 1 1 1 1 1 1 1 1 1 0 1 1 0 1 1 1 1 1 1 
383 20 4523 1 1 1 1 1 1 1 1 1 1 1 1 1 1 0 1 1 1 1 1 
384 20 4252 1 1 1 0 1 1 1 1 1 0 1 1 1 1 1 0 1 1 1 1 
385 20 5169 1 1 0 1 1 0 1 1 1 1 1 1 1 1 1 1 1 1 0 1 
386 20 4690 1 1 1 1 1 1 1 1 0 1 1 1 1 1 0 1 1 1 1 1 
387 20 4135 1 1 1 1 1 1 1 0 1 1 1 1 1 1 1 1 1 1 1 1 
388 20 4863 1 1 1 1 1 0 1 1 1 1 1 1 1 1 1 1 1 1 1 0 
389 20 4855 1 1 1 1 1 1 1 1 1 1 0 0 1 1 1 1 1 1 1 1 
390 20 5171 0 1 1 1 1 1 1 1 1 1 1 0 1 0 1 1 1 1 0 1 
391 20 3723 1 1 1 0 1 1 0 1 1 1 1 1 1 1 1 0 1 1 1 1 
392 20 5217 1 1 0 1 1 1 1 1 1 1 1 1 1 1 1 1 1 1 0 0 
393 20 4495 1 1 1 1 1 1 1 0 1 1 1 1 1 1 0 1 1 1 1 1 
394 20 4837 1 1 1 1 1 1 1 1 0 0 1 1 1 1 1 0 1 1 1 1 
395 20 4927 1 1 1 1 1 1 1 1 1 1 1 1 1 0 1 1 1 1 0 1 
396 20 5058 1 0 1 1 1 1 1 1 0 1 1 1 1 1 1 1 1 1 1 1 
397 20 4616 1 1 1 1 1 1 1 1 1 1 1 1 1 1 0 1 1 0 0 1 
398 20 3992 1 1 1 1 1 1 1 1 0 1 1 0 1 1 1 1 1 1 1 1 
399 20 4800 1 1 1 1 1 1 1 1 1 1 1 1 1 1 1 1 1 1 0 0 
400 20 5418 1 1 1 1 1 1 1 0 1 1 1 1 1 1 1 1 1 1 1 1 
401 20 4276 1 1 0 1 1 1 1 0 1 1 1 1 1 1 0 1 1 1 1 1 
402 20 5075 1 1 1 1 0 1 1 1 1 1 1 0 0 1 1 1 1 1 1 1 
403 20 4316 1 0 1 1 1 1 1 1 0 1 0 1 1 1 1 1 1 0 1 1 
404 20 3833 1 0 1 1 0 1 1 1 1 1 1 1 1 1 0 1 1 1 1 1 
405 20 4015 0 1 1 0 1 0 1 1 1 1 1 1 1 1 1 1 1 1 1 1 
406 20 4281 1 1 1 1 1 0 1 1 1 1 1 1 1 1 0 0 1 1 1 1 
407 20 5674 1 1 1 1 1 1 1 1 1 1 0 1 1 1 1 1 1 1 1 1 
408 20 3598 1 1 1 1 1 1 1 1 1 1 1 1 1 0 1 1 1 1 0 0 
409 20 4455 1 1 0 1 0 1 1 1 1 1 1 1 1 1 1 1 1 1 1 1 
410 20 4163 1 1 1 1 1 1 1 1 1 1 1 1 1 1 1 1 0 1 1 1 
411 20 5629 1 1 1 1 0 1 1 1 1 1 1 1 1 1 1 1 1 1 1 1 
412 20 4802 1 1 1 1 1 1 1 1 1 1 1 1 1 1 1 0 1 0 1 1 
413 20 5081 1 1 1 1 1 1 1 1 1 1 1 1 0 1 1 1 1 1 0 1 
414 20 4339 1 1 1 1 1 1 1 1 0 1 1 0 1 1 1 1 1 1 1 1 
415 20 4009 0 1 1 0 1 1 1 1 1 1 1 1 1 1 1 1 1 1 1 1 
416 20 4606 0 1 0 1 1 1 1 1 1 1 0 1 1 1 1 1 1 1 1 1 
417 20 4281 1 1 1 1 1 1 1 1 1 1 0 1 1 1 1 1 1 0 1 1 
418 20 3813 1 1 0 1 1 1 1 1 1 1 1 1 1 1 1 0 1 1 1 1 
419 20 6313 1 1 1 1 1 0 1 1 1 1 1 1 0 1 1 1 1 1 1 1 
420 20 4507 1 1 1 1 1 1 1 1 1 1 1 1 0 1 1 0 1 1 1 1 
421 20 4575 1 1 1 1 1 1 0 1 1 0 1 1 1 1 1 1 1 1 1 1 
422 20 4320 0 1 1 1 1 1 1 1 1 0 1 1 1 1 1 1 1 1 1 1 
423 20 4221 1 1 1 1 1 1 1 0 1 1 1 0 1 1 1 1 1 0 1 1 
424 20 4248 0 1 1 1 1 1 1 1 1 1 1 1 1 1 1 1 0 1 0 1 
425 20 4570 1 1 1 1 1 1 1 1 1 1 0 1 1 1 1 1 1 1 1 1 
426 20 4417 1 1 1 1 1 1 1 1 1 1 1 1 1 1 1 0 1 1 0 1 
427 20 4968 1 1 1 1 1 1 1 1 1 1 1 0 1 1 1 0 1 1 1 1 
428 20 5558 1 1 1 1 1 1 1 1 1 1 1 1 1 1 1 0 1 1 0 1 
429 20 4809 0 1 1 1 1 1 1 1 1 1 1 1 1 1 1 1 1 1 1 1 
430 20 4786 0 1 1 1 1 0 1 1 1 1 1 1 1 1 1 1 1 1 1 1 
431 20 5181 1 1 1 1 1 1 1 1 1 1 1 1 0 1 1 1 1 1 0 1 
432 20 4462 1 1 1 1 1 1 1 1 1 1 1 0 1 1 1 1 1 1 0 1 
433 20 4353 0 1 1 1 1 1 1 1 1 1 1 1 1 1 1 0 0 1 1 1 
434 20 5153 0 1 1 0 1 1 1 1 1 1 1 1 1 1 1 1 1 1 1 1 
435 20 5101 0 1 1 1 1 1 1 1 1 1 1 0 1 1 1 1 1 1 0 1 
436 20 4686 1 1 1 1 1 1 0 1 1 1 1 1 1 1 1 0 1 0 1 1 
437 20 4662 1 0 1 1 1 1 1 1 1 1 1 0 1 1 0 1 1 1 1 1 
438 20 4683 1 0 1 1 1 1 1 0 1 1 1 1 0 1 1 1 1 1 1 0 
439 20 5023 1 1 1 1 0 1 1 1 1 1 1 0 0 1 1 1 1 1 1 1 
440 20 5471 1 1 0 1 1 1 1 1 1 1 1 1 1 1 1 1 1 1 0 1 
441 20 5826 1 0 1 1 1 0 1 1 1 1 1 1 1 1 1 1 1 1 1 1 
442 20 5604 1 1 1 1 1 0 1 0 1 1 1 1 1 1 1 1 0 1 1 1 
443 20 5032 1 1 1 1 1 0 1 1 1 1 1 1 0 1 1 1 1 1 1 1 
444 20 4903 1 1 1 1 1 1 1 1 0 1 1 1 1 1 1 1 1 0 1 1 
445 20 3787 1 1 0 1 1 1 1 1 1 1 1 1 1 0 1 1 1 1 1 1 
446 20 4725 1 1 0 1 1 1 1 0 1 1 1 1 1 1 1 1 1 1 1 1 
447 20 5068 1 1 1 1 0 1 1 1 1 1 1 1 1 0 1 1 1 1 1 1 
448 20 5704 1 1 1 1 1 1 1 1 1 0 1 1 1 1 1 1 1 0 1 1 
449 20 5657 1 1 1 1 0 1 1 1 1 1 1 1 1 1 0 1 1 1 1 1 
450 20 4463 1 1 1 1 0 1 1 0 1 1 1 1 1 1 1 1 1 1 1 1 
451 20 4877 1 1 1 1 1 1 1 1 1 0 1 1 1 1 1 1 1 1 1 1 
452 20 4879 1 1 1 1 1 1 0 1 1 1 1 0 0 1 1 1 1 1 1 1 
453 20 5183 1 1 1 1 1 1 1 1 1 1 1 0 1 1 1 0 1 1 1 1 
454 20 3620 0 1 1 1 1 1 1 1 0 1 1 1 1 1 1 1 1 1 1 1 
455 20 4462 1 1 1 1 1 0 1 1 1 0 1 1 1 1 1 1 1 0 0 1 
456 20 5014 1 1 1 1 1 1 0 1 0 1 1 1 1 1 1 1 0 1 1 1 
457 20 4820 1 0 1 1 0 1 1 1 1 1 1 1 1 1 1 1 1 1 1 1 
458 20 4422 1 1 1 0 1 1 1 1 1 1 1 1 1 1 1 1 1 0 1 1 
459 20 5199 1 1 1 1 1 1 1 1 1 1 0 1 1 1 1 1 1 0 1 1 
460 20 4765 1 1 1 1 1 1 1 0 1 1 1 1 1 1 1 1 1 1 1 0 
461 20 3924 1 0 1 1 1 1 1 1 1 1 1 1 1 1 1 1 1 1 1 1 
462 20 4231 1 1 1 1 1 0 1 1 1 1 1 1 1 1 1 1 0 1 1 1 
463 20 5258 1 1 1 1 1 1 1 1 1 1 1 1 0 1 1 0 1 1 0 1 
464 20 4146 1 1 1 1 1 1 1 1 0 1 1 1 1 1 1 1 1 1 1 0 
465 20 5925 1 1 1 1 1 0 1 0 1 1 1 1 1 1 1 1 1 1 1 1 
466 20 3608 1 1 1 1 1 1 1 0 0 1 1 1 1 1 1 1 1 1 1 1 
467 20 5273 1 1 1 1 1 0 1 1 1 0 1 1 1 1 1 1 1 1 1 1 
468 20 4019 1 1 1 1 1 0 1 1 1 0 1 1 1 1 1 1 1 1 1 1 
469 20 5667 0 1 0 1 1 0 1 1 1 0 1 1 1 1 1 1 1 1 1 1 
470 20 4789 1 0 1 1 0 1 1 1 1 1 1 1 1 1 1 1 1 1 1 1 
471 20 3981 1 1 1 1 1 1 1 0 1 0 1 1 1 1 1 0 1 1 1 0 
472 20 5316 1 1 1 1 0 1 1 1 0 1 1 1 1 1 1 1 1 1 1 1 
473 20 4939 1 1 1 0 1 1 1 1 0 0 1 1 1 1 1 1 1 1 1 1 
474 20 4877 1 1 1 1 1 1 1 1 0 0 1 1 1 1 1 1 1 1 1 1 
475 20 4634 1 1 1 1 1 1 1 1 1 1 0 1 1 1 1 1 1 1 0 1 
476 20 4292 1 1 1 0 1 1 0 1 1 1 1 1 1 1 1 1 0 1 1 1 
477 20 5418 0 1 1 1 1 1 1 1 1 0 1 1 1 1 1 1 1 1 1 1 
478 20 5329 1 1 1 1 1 1 1 1 1 1 1 1 1 1 1 0 1 1 1 1 
479 20 5079 0 1 1 1 1 1 1 1 1 1 1 0 1 1 0 1 1 1 1 1 
480 20 4112 0 1 1 1 1 1 0 0 1 1 1 1 1 1 1 1 1 1 1 1 
481 20 4056 1 1 1 1 1 1 1 1 1 1 1 1 1 1 1 0 1 1 1 1 
482 20 5368 0 1 1 1 0 1 1 1 1 1 1 1 1 1 1 1 1 0 1 1 
483 20 5415 1 1 1 1 0 1 1 1 1 1 1 1 1 1 1 1 0 1 1 1 
484 20 5174 1 1 1 1 1 1 1 1 0 1 1 1 1 1 1 1 1 0 0 1 
485 20 4757 1 1 1 1 1 1 1 1 1 1 1 1 1 1 1 1 0 1 0 1 
486 20 5719 1 1 1 1 1 1 1 0 1 1 1 1 1 1 1 1 1 0 1 1 
487 20 4693 1 1 1 0 1 1 0 1 1 1 1 1 1 1 1 1 1 1 0 1 
488 20 5134 0 1 0 1 1 1 1 1 1 1 1 1 1 1 1 0 1 1 1 1 
489 20 4132 0 1 1 1 1 1 1 1 1 1 1 1 1 0 1 1 1 1 1 0 
490 20 4652 1 1 1 1 1 1 1 1 1 1 1 1 1 0 1 0 0 1 1 1 
491 20 4439 1 1 1 1 1 0 1 1 1 1 1 1 1 0 1 1 1 0 1 1 
492 20 4923 1 1 1 1 0 1 1 1 1 1 1 1 1 0 1 1 1 1 1 1 
493 20 5527 1 1 0 1 1 1 0 1 1 1 1 1 1 1 0 1 1 1 1 1 
494 20 5141 1 1 1 1 0 1 1 1 1 1 1 0 1 1 1 1 1 1 1 1 
495 20 5304 1 1 0 1 1 1 1 1 1 1 1 0 1 1 0 1 1 1 1 1 
496 20 4587 1 1 1 1 1 1 1 1 1 0 1 1 1 1 1 1 1 0 1 1 
497 20 4705 1 0 1 1 1 1 1 1 1 1 1 1 1 1 1 1 1 1 1 1 
498 20 4568 1 0 1 1 1 1 1 1 1 1 1 1 1 1 1 1 1 1 1 1 
499 20 5319 1 1 0 1 1 1 1 1 1 1 1 1 1 1 1 1 1 0 1 1 
500 20 4031 0 1 1 1 1 1 1 1 1 0 1 1 0 1 1 1 1 1 1 1 
