1 25 688 0 1 0 1 1 1 0 0 1 0 1 0 0 1 1 0 0 0 1 1 0 1 0 0 1 
2 25 922 0 1 0 0 0 1 1 1 1 0 0 1 1 0 1 0 0 0 0 1 0 0 1 1 1 
3 25 777 1 0 0 1 1 0 0 0 1 1 0 1 1 1 0 0 0 0 1 0 1 0 1 0 0 
4 25 710 1 1 0 0 1 0 0 0 0 1 1 1 1 0 0 0 1 0 0 0 0 1 1 0 0 
5 25 653 1 0 0 1 0 0 1 0 0 0 1 0 1 0 0 1 1 0 0 1 1 1 0 0 0 
6 25 749 0 0 0 1 0 0 1 0 0 0 0 1 1 0 0 1 0 0 1 0 0 1 0 1 1 
7 25 809 1 1 1 0 0 0 0 1 0 0 1 0 0 1 0 0 1 1 0 1 1 1 0 1 1 
8 25 599 0 0 1 1 1 0 0 1 0 0 0 0 0 0 0 0 1 0 1 0 0 0 1 1 1 
9 25 834 1 1 1 0 1 1 1 0 0 0 0 0 1 0 1 0 0 0 0 0 1 1 0 1 0 
10 25 743 1 1 0 0 1 1 0 0 0 1 0 0 0 1 0 1 0 1 0 0 1 0 0 1 0 
11 25 872 0 1 0 1 0 0 1 0 1 0 1 1 0 0 0 1 1 0 0 1 0 1 0 1 1 
12 25 838 0 0 0 1 0 1 1 0 0 1 1 0 1 1 0 0 1 1 0 1 0 0 0 0 1 
13 25 859 1 0 0 1 1 1 0 1 1 1 0 0 0 0 1 1 0 1 1 0 0 0 0 1 0 
14 25 792 1 1 0 0 1 1 1 0 1 1 0 0 0 1 1 0 1 0 1 0 0 0 0 0 0 
15 25 797 0 0 0 0 1 0 0 0 0 1 0 1 1 1 1 0 1 1 0 1 0 1 1 1 0 
16 25 833 1 1 0 0 1 1 0 1 0 0 0 0 0 1 1 1 1 1 1 1 0 0 0 1 0 
17 25 916 1 0 1 1 0 1 0 1 0 1 1 0 1 0 1 0 0 0 0 0 1 1 1 1 1 
18 25 794 1 1 0 0 0 0 0 1 0 0 0 1 0 1 0 1 1 1 0 0 1 0 1 1 0 
19 25 856 1 1 0 1 1 1 1 1 0 0 1 0 0 1 0 0 0 1 1 0 0 0 1 0 0 
20 25 832 1 0 0 0 1 0 1 0 1 1 1 1 0 0 0 0 0 1 1 1 1 0 1 0 0 
21 25 768 0 1 0 1 1 1 0 0 1 0 0 0 0 0 1 1 0 0 0 1 0 0 1 1 1 
22 25 846 0 1 1 0 0 0 0 1 1 1 0 1 0 0 1 0 0 1 1 1 0 0 1 1 0 
23 25 870 1 0 0 0 0 0 1 1 0 1 1 1 0 0 0 0 1 0 0 1 0 0 1 1 1 
24 25 742 0 0 1 0 0 0 1 0 1 1 0 1 1 1 1 0 1 0 1 1 1 0 0 0 0 
25 25 710 1 0 0 0 0 1 0 1 1 1 1 1 1 0 0 0 1 1 1 0 0 0 0 0 0 
26 25 734 0 0 1 1 1 1 0 0 0 0 1 0 1 0 0 0 1 1 1 0 1 0 0 0 1 
27 25 772 1 0 1 0 1 1 0 1 1 0 1 1 0 0 1 1 0 0 0 0 0 1 0 1 0 
28 25 713 1 1 0 1 1 0 1 1 0 1 0 0 1 0 0 0 0 0 1 0 0 1 0 1 0 
29 25 810 1 1 1 1 0 1 1 0 0 1 1 0 1 0 0 0 1 0 1 1 1 0 0 0 1 
30 25 716 1 1 0 0 1 1 0 0 1 0 1 1 1 1 1 0 0 0 0 0 1 0 0 0 0 
31 25 1048 1 1 1 0 1 0 0 1 1 0 1 0 1 0 1 1 0 1 1 0 1 0 1 0 1 
32 25 732 0 1 0 0 1 1 0 1 0 0 1 0 0 1 1 1 0 1 0 0 1 1 0 0 1 
33 25 730 0 0 1 0 1 0 1 1 1 1 0 1 0 1 0 0 0 0 1 1 0 0 0 1 1 
34 25 844 0 0 0 0 1 1 0 1 1 0 1 0 1 0 1 0 0 0 0 1 1 1 1 0 1 
35 25 829 1 0 1 1 0 0 1 0 0 0 0 0 0 0 0 0 1 1 1 0 1 1 1 1 1 
36 25 626 1 0 0 1 0 0 1 0 0 0 1 0 0 1 1 1 1 0 0 1 1 0 0 0 0 
37 25 681 1 0 0 1 0 1 1 1 0 0 0 1 1 1 1 0 1 0 0 1 0 1 0 0 1 
38 25 923 1 1 0 0 1 1 0 1 1 0 1 0 1 1 0 1 0 0 1 1 0 1 0 1 0 
39 25 855 0 0 0 0 1 0 0 1 1 1 1 0 0 0 1 1 0 1 1 1 1 1 0 0 0 
40 25 685 0 1 1 1 0 0 1 0 1 0 1 0 0 1 0 0 0 0 1 1 1 1 0 0 0 
41 25 764 0 1 0 0 1 1 1 0 0 1 0 0 1 0 0 1 0 1 1 0 0 0 1 1 1 
42 25 734 0 0 1 1 1 1 0 0 0 1 1 1 0 1 0 0 1 0 0 0 0 1 0 0 1 
43 25 760 1 0 1 0 1 0 0 1 0 1 1 1 0 0 1 0 1 1 0 1 0 0 0 0 0 
44 25 688 1 0 0 0 0 0 0 0 1 1 0 0 1 0 0 1 1 0 0 1 0 1 0 0 1 
45 25 787 0 1 0 0 1 1 1 1 1 0 0 0 0 1 0 0 1 1 1 1 0 1 1 0 0 
46 25 724 0 0 0 0 0 1 1 1 1 1 0 1 0 0 0 0 1 0 0 1 0 1 1 1 0 
47 25 652 1 0 0 0 0 1 0 1 1 0 1 1 0 0 1 0 1 1 0 0 1 1 0 1 0 
48 25 754 1 1 0 0 0 0 0 1 0 1 1 0 1 1 0 0 0 1 0 0 1 0 1 0 1 
49 25 717 0 1 1 0 1 1 0 0 1 0 0 1 1 1 0 0 0 1 0 0 0 1 0 1 1 
50 25 779 0 1 1 0 0 1 0 1 1 0 0 1 0 1 0 1 1 1 1 1 1 0 0 1 0 
51 25 666 1 0 1 0 1 1 0 0 1 1 0 0 0 0 1 0 0 0 0 0 1 1 1 1 0 
52 25 726 0 0 1 0 1 1 1 0 0 1 0 1 1 0 0 0 0 1 1 1 0 0 0 0 0 
53 25 645 1 0 0 1 0 1 0 1 1 0 0 1 0 1 0 0 1 1 0 0 1 0 1 0 0 
54 25 927 0 1 1 0 1 0 0 1 1 1 0 0 0 1 0 1 1 0 0 1 0 1 1 1 0 
55 25 701 1 0 0 1 0 1 0 0 1 0 0 1 1 0 0 0 1 0 1 1 0 1 0 0 1 
56 25 811 1 0 0 1 1 1 1 0 0 0 0 0 0 0 1 1 0 1 1 1 1 0 0 1 0 
57 25 848 0 0 0 1 1 0 0 1 0 1 1 1 1 1 1 1 0 1 0 0 0 1 0 0 0 
58 25 716 1 1 1 1 0 0 0 0 1 1 0 1 1 0 0 0 0 0 0 0 1 1 1 0 1 
59 25 624 1 1 1 0 0 0 1 0 1 0 0 1 0 0 1 1 0 0 0 0 1 1 0 1 0 
60 25 613 0 1 0 0 1 0 0 1 0 1 0 1 0 0 1 0 0 0 1 0 1 0 0 1 0 
61 25 658 0 0 0 0 1 0 0 1 0 0 0 0 1 0 1 1 0 0 1 0 0 1 1 1 1 
62 25 947 1 0 0 1 0 1 0 1 0 0 1 1 0 1 1 0 0 0 1 1 0 1 0 1 1 
63 25 545 0 0 0 0 0 0 0 1 0 1 0 0 0 0 1 0 0 0 1 1 1 1 1 0 1 
64 25 772 1 0 0 0 1 0 1 0 1 1 1 1 1 1 1 0 1 0 0 0 0 0 1 0 0 
65 25 736 0 1 1 1 0 0 0 1 1 1 0 1 1 1 0 1 0 0 0 0 0 1 0 0 0 
66 25 878 0 1 1 0 1 0 0 1 1 0 1 0 1 0 1 1 0 1 1 0 1 0 0 1 0 
67 25 745 0 0 0 1 1 1 0 1 1 0 0 1 0 1 0 1 1 1 1 1 0 0 1 1 0 
68 25 758 1 0 0 1 0 1 1 0 0 1 0 0 0 1 0 1 1 0 0 0 0 1 1 1 0 
69 25 759 0 0 0 1 0 0 1 0 0 1 0 1 1 1 1 1 0 0 0 1 1 0 0 0 0 
70 25 902 0 0 1 0 0 1 0 0 1 1 0 1 1 0 0 1 1 0 1 1 1 0 1 0 0 
71 25 773 0 0 0 0 1 0 0 1 0 0 0 1 0 1 1 1 1 0 1 1 1 0 0 1 0 
72 25 721 1 1 1 1 0 0 1 0 1 1 0 0 1 0 0 0 1 1 0 0 1 0 1 1 0 
73 25 918 0 0 1 1 1 1 1 1 1 0 1 1 0 0 0 0 0 1 1 1 0 0 0 1 0 
74 25 846 0 0 0 1 1 0 1 0 1 1 0 1 0 0 0 1 0 0 1 0 0 0 1 1 1 
75 25 880 0 0 1 1 0 1 0 0 1 1 0 1 1 1 1 1 0 0 0 1 0 1 0 1 0 
76 25 827 0 1 0 1 1 1 1 0 0 0 0 0 1 1 1 0 1 0 1 0 1 1 0 1 0 
77 25 703 0 0 1 0 1 0 1 0 0 0 0 1 0 1 0 0 0 1 1 1 1 1 0 1 0 
78 25 842 0 1 1 0 1 0 0 0 0 1 0 0 0 0 1 0 0 1 0 0 1 1 1 1 1 
79 25 748 0 1 0 1 0 0 0 0 1 0 1 0 0 0 1 1 1 0 0 0 0 1 1 1 1 
80 25 797 1 0 0 0 0 0 0 0 1 1 1 1 0 0 1 0 1 1 0 1 1 1 0 1 0 
81 25 884 0 0 1 1 0 0 1 0 1 0 0 1 1 1 0 0 0 0 0 1 1 1 1 1 0 
82 25 801 0 0 1 1 0 0 1 1 1 0 0 0 0 0 0 1 0 0 1 1 1 1 0 1 1 
83 25 706 0 1 0 1 0 0 1 0 0 0 0 1 1 0 1 0 1 0 1 0 0 1 1 0 0 
84 25 662 1 1 1 0 1 0 0 1 1 0 1 0 0 1 1 0 0 0 0 0 0 0 0 0 1 
85 25 835 0 1 0 0 1 0 0 0 0 0 1 0 1 1 0 0 1 1 1 0 1 1 0 0 1 
86 25 745 0 1 0 1 1 1 0 0 0 0 1 1 0 0 0 1 1 0 1 0 0 1 0 1 1 
87 25 652 1 0 1 0 0 0 0 1 1 0 1 1 0 1 1 0 0 0 0 0 1 1 1 1 0 
88 25 746 0 0 0 1 0 1 1 1 1 0 1 1 1 0 1 0 0 0 0 0 0 1 1 0 1 
89 25 733 1 0 1 0 0 1 1 0 0 0 1 0 0 0 0 1 0 1 0 0 1 0 1 1 0 
90 25 688 0 1 1 1 0 0 1 0 0 0 0 1 0 0 0 1 1 1 0 1 0 1 1 0 0 
91 25 631 0 0 1 0 1 0 1 1 0 0 0 0 1 0 0 0 1 0 1 0 0 1 1 0 1 
92 25 749 0 1 1 0 0 0 0 1 1 0 0 0 0 1 1 1 1 0 1 0 0 1 0 0 0 
93 25 895 0 1 0 0 0 1 1 0 1 0 0 1 1 1 1 1 1 0 1 0 1 0 0 0 0 
94 25 800 1 0 1 1 1 1 0 1 0 0 0 0 1 1 1 0 1 1 0 0 0 1 1 0 0 
95 25 790 0 1 1 0 1 1 1 0 0 1 0 0 0 0 1 1 0 0 1 0 1 0 0 1 0 
96 25 744 0 0 1 1 0 0 1 0 1 0 1 0 0 0 0 1 0 1 1 0 1 0 1 0 1 
97 25 890 0 0 1 0 1 0 0 0 0 1 0 1 0 1 1 0 1 0 1 1 1 1 1 0 1 
98 25 772 0 1 0 1 0 0 0 0 0 0 0 1 1 1 1 1 1 0 1 1 0 0 1 0 0 
99 25 817 1 1 1 1 0 0 0 1 1 0 0 0 1 0 1 0 0 0 0 1 1 1 0 0 0 
100 25 679 1 0 0 1 0 0 0 1 1 0 0 1 1 0 0 0 1 1 0 0 1 1 0 0 0 
101 25 613 0 0 0 1 0 1 1 0 0 0 1 1 1 1 1 0 1 1 1 0 1 0 1 1 0 
102 25 833 0 1 0 0 0 1 0 1 1 0 0 1 1 0 0 0 0 1 0 0 1 1 1 0 0 
103 25 803 0 1 0 0 1 1 0 1 0 1 0 0 1 0 1 0 0 1 0 1 1 1 0 0 0 
104 25 771 1 1 1 1 0 0 1 1 0 1 0 0 1 0 0 1 0 1 0 1 1 0 1 0 0 
105 25 665 1 0 1 0 1 0 0 0 0 0 0 0 0 1 0 1 0 0 1 1 0 1 1 0 1 
106 25 772 0 0 0 1 0 1 0 1 1 1 0 1 1 1 0 1 1 0 0 0 1 0 0 1 0 
107 25 743 1 0 0 0 0 1 0 1 0 0 0 0 1 1 0 0 0 0 1 1 0 1 1 0 1 
108 25 676 0 1 0 0 1 0 0 0 0 1 1 0 1 0 1 0 0 0 1 1 1 1 0 0 1 
109 25 668 0 0 0 1 1 0 0 1 1 0 0 0 0 1 1 1 0 0 0 0 0 1 1 1 0 
110 25 745 1 0 0 1 0 1 0 0 1 0 1 1 1 0 0 0 0 0 1 0 1 1 0 0 0 
111 25 740 1 1 1 1 1 0 0 0 0 0 0 1 1 0 0 0 0 0 1 0 1 0 0 1 1 
112 25 719 1 1 0 0 1 0 1 1 1 0 0 0 0 0 1 1 1 0 1 0 0 0 1 0 1 
113 25 553 0 1 0 1 1 0 0 0 0 0 1 1 1 1 0 1 0 0 1 1 1 0 0 0 0 
114 25 791 1 0 0 0 1 0 0 1 0 0 0 1 0 0 0 1 0 1 1 1 0 1 1 0 1 
115 25 683 0 0 1 1 1 0 1 0 0 1 1 0 1 1 0 0 0 1 0 0 1 1 0 0 0 
116 25 786 0 1 0 1 1 0 0 1 0 1 0 1 0 0 0 0 0 1 1 1 1 0 1 1 1 
117 25 751 0 1 1 1 1 1 0 0 1 0 0 0 0 0 0 1 1 0 1 1 0 1 0 1 0 
118 25 719 0 0 1 1 0 0 0 1 1 0 0 1 0 1 0 0 1 1 1 1 0 1 0 0 0 
119 25 754 0 1 0 0 1 0 1 0 1 1 1 1 1 0 1 1 1 0 1 1 0 0 0 0 1 
120 25 731 1 0 1 0 0 1 0 1 0 1 0 0 1 1 1 0 0 0 1 0 1 1 1 0 0 
121 25 663 0 1 1 0 0 0 1 1 0 1 0 0 0 1 0 0 1 0 1 0 1 0 0 1 0 
122 25 827 0 0 1 1 0 1 1 1 1 1 0 1 1 0 0 0 1 0 0 0 0 1 0 0 1 
123 25 622 0 0 0 1 0 1 1 1 1 0 0 1 0 0 0 0 0 1 0 0 0 1 0 0 1 
124 25 734 1 0 1 1 0 0 0 1 0 1 0 1 0 0 1 1 0 1 1 0 0 1 0 0 1 
125 25 758 1 1 0 0 0 1 0 0 0 0 1 0 0 0 1 0 1 1 0 1 1 1 1 1 1 
126 25 867 1 1 1 0 1 0 0 0 0 1 0 0 1 1 0 0 1 1 1 1 1 0 0 1 1 
127 25 760 0 1 1 0 0 0 1 1 0 1 0 1 1 0 1 1 1 1 0 0 1 0 1 0 1 
128 25 865 0 1 0 0 0 0 1 1 1 1 0 0 0 0 0 0 1 1 0 0 1 1 1 1 1 
129 25 854 1 0 0 0 0 0 1 0 0 0 0 1 1 1 1 1 1 1 1 0 1 0 1 0 1 
130 25 839 0 1 0 1 0 1 1 0 1 1 0 1 1 0 0 1 0 1 0 0 1 0 0 1 0 
131 25 912 0 0 1 0 1 0 0 1 1 1 1 0 0 1 0 0 1 1 0 1 0 0 1 1 0 
132 25 628 1 1 0 0 1 0 1 0 0 0 1 0 0 1 1 0 1 1 0 1 0 1 0 0 1 
133 25 773 0 0 0 1 1 1 1 0 1 0 0 0 1 1 1 1 0 1 1 0 1 1 0 1 0 
134 25 884 1 0 0 1 1 1 0 1 0 1 0 1 1 0 1 0 1 1 0 1 0 0 0 1 0 
135 25 920 0 0 0 0 1 0 1 1 0 1 1 0 0 1 1 0 0 1 0 1 1 0 0 1 1 
136 25 730 1 1 1 0 0 1 0 0 1 0 0 1 0 0 0 0 1 0 0 0 1 0 0 1 1 
137 25 732 1 0 0 0 0 0 0 0 0 0 0 1 1 1 0 1 0 0 1 0 1 1 1 0 0 
138 25 715 0 0 0 0 1 0 0 0 0 0 1 1 0 1 1 1 1 0 0 0 1 0 1 1 1 
139 25 830 1 1 1 1 0 1 1 1 1 0 0 0 1 1 0 1 0 1 0 0 0 0 1 0 0 
140 25 746 0 1 1 0 0 0 0 0 0 0 0 0 1 1 1 0 0 0 1 0 1 1 1 1 1 
141 25 780 0 1 0 0 0 0 1 0 1 1 1 0 0 0 1 0 1 0 1 0 0 1 1 0 0 
142 25 826 0 0 1 1 1 0 0 1 1 1 1 1 1 1 0 0 1 0 1 0 0 0 0 1 0 
143 25 677 0 0 0 0 1 0 1 1 0 0 1 0 0 0 0 1 1 1 1 1 1 0 0 0 0 
144 25 608 1 1 1 0 1 0 0 1 1 1 1 0 1 1 0 0 1 0 0 0 1 0 0 1 0 
145 25 715 0 1 0 0 0 0 0 1 1 1 1 1 1 1 0 1 0 0 1 0 0 0 0 1 1 
146 25 781 0 1 1 0 0 1 0 1 1 0 1 0 1 0 1 1 1 0 0 0 1 0 0 0 1 
147 25 694 0 0 0 0 1 1 0 0 1 1 0 1 1 1 0 1 0 0 1 1 1 0 0 0 0 
148 25 683 1 1 1 0 1 1 0 1 0 0 1 1 0 0 1 0 1 0 0 0 0 0 0 0 1 
149 25 619 1 0 1 1 1 0 1 1 1 0 1 0 0 1 0 1 0 1 0 0 0 0 0 0 1 
150 25 1033 0 0 1 1 1 1 0 1 1 1 1 0 1 0 0 1 1 0 0 1 1 1 0 1 0 
151 25 843 1 1 0 0 0 0 1 1 0 1 0 0 1 1 0 0 0 1 1 1 0 0 1 1 0 
152 25 911 0 1 1 0 1 1 0 1 1 0 1 0 0 0 1 0 0 1 1 1 0 0 1 1 0 
153 25 675 0 0 0 1 1 0 0 1 1 0 0 0 0 1 0 1 1 0 0 1 0 0 1 1 0 
154 25 819 0 0 0 1 0 0 1 0 0 0 1 1 1 0 1 1 1 0 1 1 0 1 1 1 1 
155 25 779 1 1 1 1 1 0 1 0 0 0 0 0 1 0 1 0 1 1 0 0 0 0 1 0 1 
156 25 757 1 0 1 1 1 0 0 1 1 1 0 1 1 1 0 1 0 0 0 1 0 0 0 0 0 
157 25 672 1 0 1 1 0 1 1 0 1 1 0 1 0 1 0 0 0 0 0 1 0 0 0 0 1 
158 25 682 1 0 0 1 0 0 0 1 0 0 1 1 1 0 0 1 0 1 1 0 0 1 1 1 0 
159 25 783 0 0 1 1 1 1 0 1 1 0 1 0 1 0 0 1 0 1 1 0 0 1 0 1 0 
160 25 817 1 0 0 0 1 1 1 0 0 1 1 0 0 0 1 1 0 1 0 1 0 0 1 0 0 
161 25 634 1 1 0 1 0 1 1 1 1 1 0 0 0 0 0 0 0 1 1 1 0 1 0 0 0 
162 25 810 1 1 0 0 0 1 1 0 1 1 0 0 1 1 1 1 0 0 0 1 1 0 0 0 1 
163 25 826 1 0 1 0 0 0 1 1 1 0 1 0 1 1 0 1 0 0 0 1 1 1 0 1 0 
164 25 802 0 1 0 0 0 0 0 1 1 1 1 1 0 1 0 0 1 1 0 1 1 1 0 0 0 
165 25 830 1 1 1 1 0 1 0 0 1 0 1 0 0 1 0 0 0 0 0 1 1 1 0 1 1 
166 25 865 1 0 1 1 0 1 0 1 0 1 1 0 0 1 0 0 0 1 1 0 0 0 0 1 1 
167 25 755 1 1 1 1 0 0 1 0 1 0 0 0 0 0 1 1 0 1 1 0 1 0 1 0 0 
168 25 837 1 1 1 1 0 1 1 1 0 1 0 0 0 1 0 1 1 0 1 0 0 0 1 0 0 
169 25 740 0 1 0 1 1 0 1 0 0 0 1 1 0 0 0 0 0 1 0 1 1 1 1 1 0 
170 25 1040 0 1 1 1 0 1 0 0 0 0 0 0 1 0 1 1 1 1 1 1 1 1 0 1 0 
171 25 833 1 0 1 1 0 0 1 1 0 1 1 1 1 0 1 0 0 1 0 0 0 0 1 0 1 
172 25 791 1 1 0 1 0 1 1 1 1 0 0 0 1 1 0 0 0 0 0 0 0 0 1 1 0 
173 25 807 0 1 1 0 0 0 1 0 0 1 1 1 0 1 1 1 1 0 0 1 1 0 0 0 0 
174 25 813 1 1 1 0 0 0 0 1 1 0 0 1 1 0 1 1 1 0 1 1 0 0 0 1 0 
175 25 890 0 1 1 1 1 1 0 1 1 0 1 0 0 0 0 1 0 1 0 1 1 1 0 0 0 
176 25 761 0 0 0 0 0 1 0 0 0 0 1 1 0 1 0 1 1 1 0 1 1 0 1 1 1 
177 25 675 0 0 0 1 0 1 1 0 0 0 0 1 0 0 1 0 1 1 0 0 1 0 1 1 1 
178 25 668 1 0 0 0 0 1 0 1 1 0 0 0 1 0 0 0 1 1 1 1 0 0 0 1 0 
179 25 860 0 1 0 0 1 0 0 1 0 0 1 0 1 0 1 1 1 1 0 1 0 0 0 1 1 
180 25 657 1 0 1 1 0 0 0 1 0 0 0 1 0 1 1 0 0 0 0 0 1 0 1 0 0 
181 25 859 0 1 1 0 1 0 1 1 0 1 0 1 1 0 0 0 0 1 0 0 1 1 0 0 1 
182 25 724 1 0 0 0 1 1 1 1 0 0 1 0 0 0 0 0 0 1 1 1 0 1 1 1 1 
183 25 572 0 0 1 1 1 1 0 0 1 0 1 1 1 0 0 0 0 1 0 0 0 0 1 0 1 
184 25 792 1 0 0 0 1 0 0 0 0 0 1 0 1 1 1 0 0 1 1 0 0 0 1 1 0 
185 25 858 1 0 1 1 1 0 0 0 0 0 0 0 0 1 1 1 0 0 0 0 1 0 1 1 1 
186 25 795 0 1 0 1 1 0 0 0 0 1 0 1 0 0 0 0 1 0 1 1 1 1 0 1 0 
187 25 694 1 1 1 0 0 0 0 1 1 1 0 0 1 1 1 0 0 1 0 0 1 0 0 0 1 
188 25 771 1 1 1 1 0 0 0 1 0 1 0 1 0 0 0 1 1 0 1 1 0 0 0 0 1 
189 25 768 0 0 1 0 0 0 0 0 1 0 0 0 1 1 1 0 1 0 1 1 1 0 0 1 1 
190 25 900 1 0 1 1 0 1 1 0 0 0 0 0 1 0 1 0 1 0 0 1 1 1 1 1 1 
191 25 915 0 0 1 0 0 1 1 1 1 0 1 1 0 0 0 0 1 0 1 1 1 1 0 0 0 
192 25 723 1 0 0 0 1 0 1 0 0 0 1 0 0 1 0 0 0 0 1 1 0 0 1 1 0 
193 25 725 0 0 0 1 0 0 1 1 0 0 1 1 0 0 0 1 1 0 1 0 0 1 0 1 0 
194 25 927 1 0 0 0 1 0 1 0 1 1 0 1 1 1 1 1 0 1 0 0 0 1 1 0 1 
195 25 550 0 1 0 0 1 0 1 0 0 0 1 0 1 0 0 1 0 1 1 0 1 1 0 0 0 
196 25 751 1 0 0 1 1 0 0 0 0 1 1 1 0 1 1 0 1 1 0 1 1 1 0 1 0 
197 25 822 1 0 1 1 0 1 1 1 0 0 0 1 0 1 0 1 0 1 1 0 0 0 0 1 0 
198 25 898 0 1 0 1 1 1 0 1 0 0 1 0 0 1 0 1 0 0 1 0 1 0 1 1 1 
199 25 699 0 1 0 0 1 1 0 0 0 0 0 1 0 0 0 0 1 0 0 1 1 1 1 1 0 
200 25 744 0 1 1 0 1 1 0 1 1 0 0 0 0 0 0 0 1 0 0 1 1 0 0 1 1 
201 25 748 1 1 1 0 1 0 0 0 1 1 1 0 0 0 0 0 0 0 0 1 0 1 1 1 0 
202 25 710 0 0 1 0 1 1 0 1 1 0 1 1 0 0 0 0 0 1 0 1 1 1 0 0 0 
203 25 795 1 1 1 1 0 0 1 1 0 1 0 1 0 0 0 1 1 0 1 0 1 0 1 0 0 
204 25 758 1 1 0 1 1 0 0 0 1 0 0 0 0 0 1 1 0 0 0 1 1 1 0 1 0 
205 25 736 0 0 1 0 0 0 1 0 0 1 1 1 1 1 0 1 0 0 1 0 0 0 0 1 1 
206 25 743 1 1 0 1 0 0 0 0 1 0 0 0 1 0 0 0 0 1 0 0 0 1 1 1 1 
207 25 680 0 0 0 1 0 0 0 0 1 0 1 1 1 0 1 0 0 1 1 0 1 1 1 0 1 
208 25 574 0 1 1 1 0 1 0 1 0 0 1 0 0 0 0 1 0 0 1 1 1 0 0 0 0 
209 25 778 0 1 0 0 1 1 1 0 0 0 0 1 0 1 0 1 0 0 1 1 0 0 0 0 1 
210 25 690 0 1 0 0 0 1 0 1 1 0 0 1 0 1 1 0 0 0 0 1 1 0 0 1 1 
211 25 789 1 1 0 1 0 1 0 1 0 1 0 1 0 0 1 0 1 0 0 0 0 1 0 0 1 
212 25 745 1 0 1 0 1 1 0 0 0 0 0 1 0 0 1 1 1 1 1 0 0 0 0 1 1 
213 25 756 0 1 1 1 1 1 1 1 0 0 0 0 0 1 0 0 0 0 0 0 0 1 0 1 1 
214 25 787 0 1 1 0 1 1 1 0 0 0 0 1 0 1 0 0 1 1 0 0 0 0 1 1 0 
215 25 810 0 1 1 1 1 0 0 1 1 0 0 0 1 1 0 1 0 1 0 1 0 0 0 0 1 
216 25 639 1 1 0 0 0 1 0 1 0 1 0 0 1 0 0 0 1 1 0 0 0 0 0 0 1 
217 25 815 0 0 1 0 1 0 0 0 0 1 0 1 0 1 1 1 0 0 0 1 1 1 1 0 0 
218 25 653 1 0 0 0 0 1 0 0 0 0 0 0 1 1 1 1 0 0 0 1 0 1 0 0 1 
219 25 769 0 0 0 0 0 1 1 0 0 0 1 1 1 0 1 1 1 0 0 1 0 0 1 0 0 
220 25 679 0 0 1 1 0 1 0 1 1 0 0 0 0 0 1 0 0 1 1 1 0 1 0 0 0 
221 25 916 0 0 0 1 0 1 1 0 0 1 1 1 1 0 1 1 0 1 0 0 1 1 0 1 0 
222 25 799 0 0 1 0 0 1 1 0 0 0 1 0 1 1 1 1 1 0 1 0 0 0 1 1 0 
223 25 728 1 0 0 0 1 0 0 1 1 1 1 0 0 1 0 1 1 0 1 0 0 0 0 1 0 
224 25 698 1 0 1 1 1 0 0 1 1 1 1 1 0 1 0 0 0 1 0 0 1 1 0 0 0 
225 25 662 1 0 0 1 0 1 1 0 0 0 1 1 0 0 0 1 1 0 0 1 0 0 0 0 1 
226 25 639 1 1 0 0 0 1 1 0 1 1 1 0 0 0 0 1 0 1 0 0 1 1 0 0 0 
227 25 756 1 0 1 0 0 1 0 1 1 1 1 0 0 1 1 0 0 0 1 1 0 1 0 1 0 
228 25 767 1 1 0 1 0 0 1 1 0 1 0 0 1 0 1 1 0 0 0 0 1 0 0 1 0 
229 25 807 0 0 0 1 0 0 1 0 0 1 0 0 1 1 0 0 0 1 1 1 1 1 0 1 0 
230 25 861 1 0 0 0 1 0 1 1 1 0 0 1 1 1 0 1 0 1 0 0 0 1 1 1 0 
231 25 914 0 0 0 0 1 1 1 1 0 0 1 1 1 0 1 1 1 0 0 1 0 1 1 0 0 
232 25 676 0 0 1 0 1 0 1 1 0 1 1 1 0 0 0 0 1 0 1 1 0 0 1 0 1 
233 25 851 1 0 0 1 0 0 1 0 0 1 0 0 0 0 1 0 0 0 0 1 1 1 1 1 1 
234 25 784 1 0 1 0 1 1 0 0 0 1 0 1 0 1 0 1 1 0 1 0 0 1 1 1 0 
235 25 727 1 0 0 0 0 0 1 1 0 1 0 0 1 1 0 1 0 1 0 0 1 0 1 0 1 
236 25 817 0 1 1 1 1 1 0 0 0 0 1 1 0 0 0 0 1 0 1 0 1 1 1 1 0 
237 25 787 1 1 0 0 0 0 0 1 1 1 1 1 0 1 0 1 1 0 0 0 0 1 1 0 0 
238 25 841 1 1 1 0 0 0 1 0 1 0 1 0 1 0 1 1 0 0 0 1 1 0 0 0 1 
239 25 771 0 1 0 0 1 0 1 0 1 1 0 0 1 0 1 1 1 1 1 0 0 0 0 0 0 
240 25 722 1 1 0 1 0 1 1 0 0 0 0 0 0 0 0 0 1 0 1 0 0 1 1 1 1 
241 25 688 0 0 0 1 0 1 1 1 0 0 0 1 0 0 1 0 1 0 1 0 1 0 0 0 1 
242 25 567 1 1 0 0 1 1 1 0 0 1 0 0 1 0 0 0 0 0 1 0 0 0 0 0 1 
243 25 682 0 0 0 0 1 1 1 0 1 1 1 0 0 0 0 1 1 1 0 0 1 0 1 1 0 
244 25 860 1 0 1 0 0 0 1 1 1 1 0 0 0 0 0 1 1 1 1 0 0 0 1 1 0 
245 25 802 1 0 1 0 0 0 1 1 0 0 0 1 1 0 0 1 0 1 1 1 0 1 0 0 1 
246 25 775 0 1 0 1 0 1 0 1 0 0 0 0 0 0 1 0 1 0 1 1 0 0 1 1 0 
247 25 658 0 0 1 0 1 1 0 0 0 1 0 1 1 0 0 0 0 1 1 1 0 1 1 1 0 
248 25 865 1 0 0 0 1 0 1 0 0 1 0 0 0 0 1 1 1 1 0 0 1 1 0 0 1 
249 25 717 0 0 0 1 1 0 1 1 1 1 0 1 0 1 0 1 0 0 0 1 1 0 0 1 0 
250 25 940 0 0 0 1 1 0 1 0 1 0 1 0 1 1 1 0 0 1 0 0 1 1 1 1 0 
251 25 849 0 1 1 0 1 0 1 0 0 0 0 1 1 1 1 0 1 0 1 0 0 1 1 1 1 
252 25 686 1 0 0 0 1 0 0 0 1 0 1 0 1 1 1 1 1 0 1 0 0 0 0 0 0 
253 25 720 0 1 0 1 0 1 1 1 0 0 0 0 1 0 0 0 0 1 0 0 1 1 1 1 0 
254 25 790 0 0 0 1 0 1 1 1 0 1 0 0 1 0 0 1 0 1 1 0 0 0 1 0 0 
255 25 748 0 1 0 0 0 1 1 1 0 0 0 0 1 1 0 0 1 0 1 0 0 1 0 1 1 
256 25 753 1 1 0 0 1 1 0 0 1 0 0 0 1 0 1 1 0 1 1 1 0 0 1 0 0 
257 25 704 0 1 0 1 0 0 0 0 1 1 1 0 0 1 1 1 1 0 0 1 1 0 1 0 0 
258 25 755 1 0 0 1 0 1 1 0 0 1 0 1 0 1 0 0 0 1 0 0 0 0 1 1 0 
259 25 887 0 0 1 1 1 1 0 0 1 0 0 0 0 1 1 1 1 0 0 1 0 0 1 0 1 
260 25 610 0 1 0 0 0 0 0 0 1 1 0 1 0 1 0 0 1 0 0 1 1 0 0 1 0 
261 25 587 1 1 0 0 1 0 1 1 1 0 0 0 1 0 1 0 1 0 1 0 0 0 0 0 0 
262 25 841 0 1 0 1 0 1 1 1 0 1 1 0 0 1 1 0 0 0 0 1 0 1 1 0 1 
263 25 931 1 1 0 0 1 1 0 0 1 1 1 0 1 0 1 0 1 0 0 1 0 1 0 1 1 
264 25 722 0 0 0 1 0 0 0 0 1 0 1 1 0 1 0 0 1 0 0 1 1 1 1 0 0 
265 25 677 0 0 1 0 1 0 0 0 0 0 0 0 0 0 1 1 1 1 0 0 1 0 1 0 1 
266 25 768 1 1 0 1 1 0 1 1 1 1 0 1 0 0 0 0 1 1 1 0 0 0 0 0 0 
267 25 783 1 0 0 0 1 1 0 0 1 0 1 1 1 0 1 1 1 1 0 0 1 0 1 0 1 
268 25 807 1 1 0 0 0 0 1 1 0 0 0 1 1 1 1 1 0 0 1 0 0 0 0 1 1 
269 25 922 1 0 0 0 0 1 1 0 1 1 1 0 1 1 0 1 1 1 1 1 0 0 1 0 0 
270 25 811 0 0 0 1 0 0 1 0 0 1 1 0 1 1 1 1 0 1 0 0 0 1 0 0 1 
271 25 849 1 1 1 0 0 0 0 0 0 0 1 1 0 1 1 1 0 0 1 1 0 1 0 1 1 
272 25 660 0 0 1 0 0 0 0 1 1 1 0 0 0 1 1 0 0 0 1 0 1 1 0 0 1 
273 25 843 1 0 0 1 1 1 0 0 1 0 0 0 0 1 1 1 0 0 1 1 0 0 1 1 0 
274 25 817 1 0 1 0 1 1 1 1 0 1 1 1 0 0 0 0 0 0 0 0 1 1 0 0 0 
275 25 755 0 0 1 1 0 0 0 0 1 1 1 0 1 0 1 0 0 1 1 0 0 1 1 0 0 
276 25 901 0 1 1 0 0 0 0 0 0 1 0 1 1 1 0 1 0 1 1 1 0 1 0 0 0 
277 25 747 0 0 1 0 0 1 1 0 0 0 1 1 1 1 0 0 1 0 0 1 0 1 0 1 0 
278 25 755 1 0 1 1 0 0 0 1 1 0 0 0 1 0 1 0 0 0 1 1 0 0 0 0 1 
279 25 575 1 1 0 0 0 1 0 0 1 0 1 1 1 0 1 1 0 1 0 0 0 0 0 1 0 
280 25 644 0 0 0 1 1 1 0 0 0 1 1 1 0 1 0 0 0 0 0 0 0 0 1 1 0 
281 25 842 1 1 0 1 0 1 1 1 0 0 1 0 0 0 1 0 0 0 0 0 1 0 0 1 1 
282 25 763 1 0 0 1 1 0 0 0 0 0 0 0 0 1 1 0 0 1 1 1 0 0 1 1 1 
283 25 735 1 0 0 0 1 1 0 1 0 0 0 0 1 0 0 1 1 0 1 1 0 1 0 1 1 
284 25 727 1 0 1 0 0 1 1 0 1 0 1 0 1 0 0 1 1 1 0 0 0 0 0 1 1 
285 25 753 0 0 1 1 0 0 1 0 1 1 1 0 0 1 1 1 0 0 0 1 0 0 1 0 0 
286 25 661 0 0 1 0 0 0 1 0 0 1 0 0 0 1 0 1 0 1 1 1 0 1 1 0 0 
287 25 841 0 0 0 1 0 0 0 0 1 1 0 0 0 1 1 0 1 0 1 1 1 1 1 0 0 
288 25 811 0 0 0 1 1 1 1 1 1 0 1 0 0 1 1 0 1 1 0 1 1 0 0 0 0 
289 25 805 1 0 1 1 0 1 0 0 0 1 1 0 0 1 0 0 0 1 0 1 1 0 1 1 0 
290 25 846 0 1 0 1 1 1 0 0 0 1 0 1 0 0 1 1 1 1 0 1 1 0 0 0 0 
291 25 771 0 1 1 0 1 0 0 0 1 1 0 1 0 0 0 1 0 0 1 0 1 1 1 0 1 
292 25 796 0 1 0 0 0 1 1 1 1 0 1 0 0 0 1 0 1 0 0 1 0 1 1 1 0 
293 25 790 1 0 0 1 1 1 0 0 0 1 1 1 0 0 1 1 0 0 0 0 1 0 1 1 0 
294 25 832 1 1 1 0 0 0 1 1 0 0 0 0 1 0 0 1 0 1 1 1 0 0 1 1 0 
295 25 734 0 0 0 1 0 1 0 0 1 0 0 1 1 1 1 0 0 1 1 1 0 0 1 1 0 
296 25 701 0 0 1 1 1 1 0 0 1 0 1 0 0 0 0 0 1 0 0 0 0 0 1 1 1 
297 25 661 0 0 0 0 0 1 1 0 1 0 1 0 1 1 0 1 0 0 0 0 0 0 1 1 1 
298 25 653 1 1 1 0 0 0 1 0 0 0 0 1 0 0 1 0 1 0 0 0 1 1 0 1 0 
299 25 615 0 0 0 1 0 1 1 0 1 1 1 0 0 1 0 1 0 1 1 0 0 1 0 0 0 
300 25 703 0 1 1 1 0 0 0 0 1 0 1 1 1 1 1 0 0 0 0 1 0 1 1 0 1 
301 25 719 0 0 0 0 0 1 0 1 1 0 1 1 0 0 1 0 0 1 1 0 1 1 0 0 0 
302 25 705 1 1 1 1 0 0 0 0 0 0 0 1 0 0 0 1 0 1 1 0 1 1 0 0 1 
303 25 888 0 1 0 1 0 0 1 0 0 0 1 1 1 0 1 0 0 0 0 0 1 1 1 0 1 
304 25 844 0 1 1 0 0 0 0 0 0 0 0 0 0 1 1 1 0 1 1 1 1 1 1 0 0 
305 25 636 1 1 0 0 0 0 0 1 1 0 1 1 1 1 0 0 0 0 1 0 1 0 0 1 0 
306 25 684 0 0 1 1 0 0 0 0 0 0 1 1 1 1 0 0 1 0 1 0 1 0 0 0 1 
307 25 655 0 0 0 0 1 1 1 1 1 0 0 1 0 0 0 1 0 0 1 0 1 0 1 1 0 
308 25 766 1 1 0 0 1 1 0 0 1 0 1 1 0 0 0 1 1 1 1 1 1 1 0 1 0 
309 25 758 0 1 0 0 0 0 1 0 0 0 0 0 1 1 1 0 1 1 1 1 0 0 0 1 0 
310 25 702 1 0 1 0 0 1 0 1 0 0 0 1 1 0 1 0 1 0 1 0 1 1 0 0 0 
311 25 756 1 0 0 0 0 0 1 0 0 0 1 0 1 1 1 0 0 1 0 1 1 0 1 0 1 
312 25 819 1 0 1 0 0 1 0 0 1 1 0 0 1 0 1 0 0 0 1 0 1 1 1 0 0 
313 25 773 0 1 0 0 0 0 1 1 1 0 0 0 0 0 1 1 0 1 1 1 1 1 1 0 0 
314 25 950 0 1 1 1 1 0 1 0 0 0 0 1 1 0 0 1 0 0 1 1 0 0 0 1 0 
315 25 612 1 0 0 0 0 0 0 1 1 0 1 1 0 1 1 0 0 1 0 0 0 0 0 1 1 
316 25 765 1 1 0 0 0 0 1 0 0 0 1 0 1 0 0 1 0 1 1 1 0 1 0 0 0 
317 25 837 1 0 1 0 0 1 1 1 1 1 0 0 1 0 0 0 0 1 0 1 0 1 1 0 1 
318 25 1023 0 1 1 0 1 0 1 0 0 0 1 1 1 1 1 1 1 0 1 1 0 0 1 0 0 
319 25 745 0 0 0 1 0 1 0 0 1 1 0 1 0 0 0 1 0 1 1 1 1 1 0 1 0 
320 25 851 1 1 0 0 0 0 0 0 0 1 0 0 0 1 1 1 1 1 1 1 0 1 1 0 1 
321 25 687 1 1 0 1 1 0 0 1 1 0 0 1 0 0 0 1 1 0 1 0 0 0 1 0 1 
322 25 633 1 0 0 1 1 1 0 1 1 1 0 1 0 0 0 0 1 0 0 1 0 1 0 0 0 
323 25 762 1 0 0 0 1 1 0 1 1 0 1 1 1 0 0 0 0 1 0 0 0 1 1 1 0 
324 25 615 0 1 0 0 1 0 1 0 1 1 0 0 0 0 1 1 0 0 1 0 1 1 0 1 0 
325 25 788 1 1 1 0 0 0 1 0 0 0 1 0 1 0 0 0 1 0 0 1 0 1 0 1 1 
326 25 675 1 1 0 1 1 1 0 0 0 1 0 0 0 0 1 0 1 1 0 0 1 0 0 1 0 
327 25 774 1 1 1 0 1 0 0 0 1 0 0 0 0 0 1 1 1 0 1 1 1 0 0 0 0 
328 25 713 1 1 0 1 1 1 1 1 0 0 0 1 1 0 0 0 1 1 0 0 1 0 0 0 0 
329 25 847 1 0 1 0 0 1 0 1 0 1 1 1 1 0 0 0 1 1 0 0 1 1 0 0 0 
330 25 718 0 1 1 1 0 0 0 0 1 0 1 0 0 1 0 1 1 0 0 1 1 1 0 0 0 
331 25 907 0 0 0 0 1 0 1 1 1 1 1 0 1 1 0 0 1 1 0 1 0 0 0 0 0 
332 25 848 1 1 0 0 0 0 1 0 1 1 1 1 0 0 0 1 1 0 0 0 1 0 1 0 1 
333 25 714 0 1 1 0 0 0 0 1 0 1 0 0 0 1 0 0 1 1 1 0 1 0 0 0 1 
334 25 781 1 1 1 0 0 0 1 0 0 0 0 0 0 1 1 1 1 0 0 1 1 0 0 1 0 
335 25 744 0 0 1 0 1 1 0 0 1 0 0 1 1 0 1 0 1 0 0 0 1 1 0 1 1 
336 25 645 1 0 1 0 0 1 0 1 1 1 1 0 0 1 0 0 0 0 0 1 0 0 1 0 0 
337 25 838 1 0 0 0 1 0 1 0 1 1 1 1 0 0 0 1 0 0 0 1 0 1 0 1 0 
338 25 600 0 0 1 1 0 1 1 1 0 1 0 1 1 1 0 0 0 0 0 0 0 0 0 0 1 
339 25 649 1 0 0 1 1 1 1 0 0 0 1 1 1 1 1 1 0 0 1 0 0 0 0 1 0 
340 25 727 1 1 0 1 1 1 0 0 0 0 1 0 0 0 0 1 0 0 0 1 1 0 0 1 1 
341 25 853 0 1 0 0 0 0 1 1 1 1 1 1 0 1 0 1 0 1 0 0 1 1 0 0 0 
342 25 819 0 1 0 1 0 0 1 0 1 0 1 1 1 0 0 1 1 0 1 1 0 1 0 0 1 
343 25 776 1 1 0 0 0 0 1 0 0 1 1 1 1 0 0 1 1 0 1 0 0 1 0 1 1 
344 25 787 1 0 1 1 0 0 0 1 1 0 1 0 1 0 1 1 0 1 0 0 1 0 1 0 1 
345 25 771 1 0 1 0 0 0 0 0 0 1 1 0 0 0 1 1 1 1 1 0 1 0 0 1 1 
346 25 911 1 0 1 0 1 0 0 0 1 1 1 1 0 1 0 0 1 0 0 0 0 1 1 1 0 
347 25 752 1 1 0 0 0 1 1 1 0 0 0 0 1 1 0 0 1 0 0 1 0 0 1 0 1 
348 25 768 0 1 1 0 0 1 0 0 0 0 1 1 0 1 1 0 1 1 0 0 0 1 1 0 0 
349 25 790 1 1 1 1 0 0 1 1 0 0 1 1 1 0 0 0 0 0 1 1 0 0 0 0 1 
350 25 620 1 0 0 1 1 0 1 0 1 1 1 1 0 0 1 0 1 0 0 0 1 0 0 0 0 
351 25 698 1 0 0 1 0 0 0 1 0 1 0 1 0 0 1 1 0 0 0 0 0 1 1 1 0 
352 25 801 0 0 1 0 1 1 0 1 1 1 0 1 0 1 0 0 0 1 0 0 1 0 1 1 0 
353 25 729 0 0 1 1 0 1 0 0 1 1 0 0 0 1 1 1 1 0 0 1 1 1 1 0 0 
354 25 828 1 1 1 0 1 0 1 0 0 0 0 0 1 1 0 1 0 1 0 0 1 0 0 1 0 
355 25 817 0 0 0 0 0 1 0 1 0 1 1 0 1 1 1 0 0 1 1 0 1 0 0 1 1 
356 25 686 0 0 1 1 1 0 0 0 1 0 1 0 0 0 1 0 1 0 1 1 0 1 0 1 0 
357 25 733 0 0 0 0 1 0 0 0 0 0 1 0 1 1 0 0 1 0 1 0 1 1 1 1 1 
358 25 707 1 1 1 1 1 0 0 1 1 1 0 0 1 0 1 0 1 0 0 1 1 1 1 0 0 
359 25 789 0 1 0 0 0 1 1 0 1 1 1 1 0 1 0 0 0 1 0 1 0 0 0 0 1 
360 25 688 0 0 0 0 1 0 0 1 0 1 0 1 0 1 1 1 0 0 0 0 1 0 1 1 0 
361 25 677 0 0 0 0 1 1 1 0 1 1 1 1 1 0 1 0 0 0 0 1 1 0 0 0 0 
362 25 697 0 0 0 0 0 1 0 0 0 1 1 1 0 0 1 0 1 1 1 0 1 1 1 0 0 
363 25 719 1 0 0 1 1 0 0 1 0 1 0 1 0 1 0 0 0 0 1 1 0 0 0 0 1 
364 25 802 1 1 0 1 0 0 0 1 0 1 1 1 0 0 1 1 0 0 0 0 1 1 0 0 0 
365 25 943 1 0 1 1 0 1 0 0 0 1 1 0 0 0 0 1 1 0 1 0 1 1 1 0 1 
366 25 787 1 0 0 0 1 1 1 0 1 0 0 0 0 0 0 0 1 0 0 0 1 1 0 1 1 
367 25 798 0 1 0 0 1 1 0 1 0 0 1 1 0 0 0 0 0 1 1 1 1 1 0 0 1 
368 25 738 0 0 1 0 0 0 0 1 1 0 0 1 1 1 0 1 0 1 1 0 0 0 0 1 0 
369 25 716 0 1 0 1 1 0 0 1 0 0 0 0 0 1 0 1 1 1 1 1 0 1 1 0 1 
370 25 830 1 0 0 0 0 0 0 1 1 1 0 0 1 1 0 0 1 1 1 0 0 1 0 1 1 
371 25 791 0 0 1 0 1 1 1 0 0 1 0 0 1 0 0 0 1 1 1 0 1 1 0 0 1 
372 25 780 0 0 1 1 1 0 1 0 1 1 0 0 1 0 1 0 0 0 1 0 0 1 0 1 0 
373 25 836 1 1 1 1 1 0 1 0 0 0 0 0 1 0 1 1 0 0 0 1 0 0 0 0 1 
374 25 656 1 1 0 0 0 0 0 1 0 0 0 0 0 0 1 1 1 0 1 1 0 0 1 1 1 
375 25 760 0 0 0 1 1 1 1 1 0 0 0 0 1 1 1 1 0 0 1 0 0 0 0 1 0 
376 25 822 0 0 0 1 1 1 0 0 1 0 1 0 1 1 0 0 0 1 1 1 0 0 1 0 1 
377 25 878 1 1 1 0 0 1 0 0 1 0 0 0 1 1 0 1 1 0 0 1 0 1 0 1 1 
378 25 914 1 1 1 0 0 0 0 1 0 1 1 1 0 1 0 0 0 0 1 1 1 1 0 1 0 
379 25 814 1 0 0 1 1 1 0 0 0 1 1 0 1 0 1 0 0 0 1 1 1 1 1 0 0 
380 25 787 0 1 1 0 1 1 0 0 0 0 0 1 1 1 1 1 1 1 0 0 0 0 1 0 0 
381 25 656 1 1 1 0 0 1 1 0 0 0 1 0 0 0 0 0 1 0 1 0 1 0 0 1 0 
382 25 689 0 1 1 1 1 0 1 1 0 0 0 0 1 0 0 1 1 1 0 0 0 1 0 0 0 
383 25 822 0 0 1 0 1 1 0 1 0 1 0 1 0 1 1 1 1 1 0 0 0 0 0 0 0 
384 25 815 1 1 1 1 0 0 1 0 0 1 1 0 1 0 0 1 0 0 1 0 0 1 1 0 0 
385 25 741 1 1 0 0 0 0 1 0 0 1 1 0 0 1 1 1 0 0 0 0 1 1 1 0 0 
386 25 817 1 1 1 0 0 0 1 0 1 0 1 1 0 0 0 0 0 1 0 0 1 0 0 1 0 
387 25 657 0 0 1 0 1 0 1 0 1 0 0 0 0 1 0 1 1 0 0 0 0 0 1 1 0 
388 25 764 1 0 0 1 1 1 0 0 1 0 1 0 0 1 1 0 0 0 1 1 1 1 0 0 1 
389 25 752 1 0 0 1 0 1 0 1 0 1 1 1 0 1 0 0 1 0 0 1 0 1 0 0 0 
390 25 722 1 0 0 1 0 1 1 1 0 0 0 1 0 1 0 0 0 0 0 0 0 1 1 1 0 
391 25 937 1 1 1 1 1 0 0 0 0 0 1 0 0 1 0 1 1 1 1 0 0 1 0 0 1 
392 25 716 0 1 0 1 0 1 1 0 0 1 1 1 0 1 0 0 1 1 0 1 1 0 0 0 0 
393 25 742 1 1 1 0 0 0 1 1 1 1 0 0 0 1 1 1 1 0 0 0 0 1 0 1 1 
394 25 830 0 1 0 1 1 0 0 0 1 1 0 0 0 0 1 1 1 0 0 0 0 1 1 1 1 
395 25 734 1 1 1 1 0 0 1 0 1 0 0 0 0 0 1 1 0 0 0 0 0 1 1 1 1 
396 25 826 1 1 0 1 0 1 0 0 1 0 1 0 0 0 1 1 1 0 0 1 1 0 1 0 0 
397 25 651 0 1 1 1 0 0 1 0 1 1 0 0 0 0 1 0 1 0 1 0 1 0 1 1 0 
398 25 700 0 0 1 1 1 0 0 0 1 1 1 1 1 1 0 0 0 1 0 1 0 0 0 1 0 
399 25 732 0 0 1 0 0 0 1 1 1 0 0 0 0 0 1 1 1 1 0 0 1 1 1 0 0 
400 25 626 1 0 1 0 0 1 1 1 0 0 0 0 1 0 0 1 0 0 1 1 0 0 0 1 0 
401 25 717 1 1 0 1 1 0 1 0 0 0 0 0 1 1 0 1 1 1 0 0 0 0 1 0 0 
402 25 713 0 0 0 0 0 1 1 1 1 0 0 0 0 0 1 0 1 0 1 1 1 0 0 0 0 
403 25 663 0 0 1 1 1 1 0 0 0 0 1 0 0 1 0 1 0 0 1 1 0 0 0 0 1 
404 25 731 0 0 1 0 1 0 0 0 0 1 0 1 1 1 1 1 1 1 0 0 1 1 0 1 0 
405 25 803 1 0 1 0 1 0 0 0 1 0 0 1 1 0 1 1 0 1 1 0 0 0 1 1 0 
406 25 854 0 1 0 0 1 0 0 1 0 0 1 0 1 0 0 1 1 1 0 1 1 0 0 1 0 
407 25 683 1 1 0 0 0 0 0 1 1 0 1 1 1 0 0 0 0 0 0 1 0 1 1 0 0 
408 25 792 1 0 0 0 0 0 1 0 1 1 0 0 1 0 1 1 1 0 0 1 1 1 0 0 0 
409 25 792 1 0 0 0 0 0 1 1 0 1 0 0 1 1 0 0 0 0 0 1 1 1 1 0 1 
410 25 674 0 0 1 0 1 1 1 0 0 1 0 0 0 1 0 0 0 1 1 0 1 0 1 0 1 
411 25 792 0 0 1 0 1 0 0 1 1 1 0 1 0 1 0 0 1 1 1 0 0 1 1 0 0 
412 25 718 0 0 0 0 1 1 1 1 0 0 1 1 0 0 0 1 0 1 1 0 1 1 1 0 0 
413 25 801 1 0 1 0 0 0 0 1 0 0 1 1 1 1 1 1 0 0 0 1 0 0 0 1 0 
414 25 682 1 0 0 0 0 0 0 0 0 1 0 1 0 1 1 1 1 0 1 1 1 1 1 1 0 
415 25 744 1 1 0 0 0 0 1 1 0 0 1 0 0 0 0 0 0 0 0 1 0 1 1 1 1 
416 25 750 1 0 0 0 0 1 1 1 1 0 0 1 0 1 0 1 0 0 1 0 0 1 0 0 0 
417 25 670 1 1 1 1 0 1 0 1 1 1 0 1 0 0 0 1 0 0 0 1 0 0 0 0 0 
418 25 586 0 0 0 1 0 0 0 0 0 0 1 1 1 0 0 0 1 0 1 1 0 1 1 0 1 
419 25 751 1 0 1 0 0 1 0 1 1 1 0 0 0 0 1 1 1 0 0 0 1 0 0 0 1 
420 25 677 0 0 1 1 0 1 0 1 0 0 0 0 1 1 1 0 0 1 0 0 1 0 0 0 1 
421 25 780 1 0 0 1 0 0 1 0 1 0 0 1 0 1 0 0 1 1 1 0 0 1 0 0 1 
422 25 811 1 0 0 1 0 0 1 0 0 0 0 0 1 1 0 1 0 0 1 1 0 1 0 1 1 
423 25 775 1 1 0 1 1 0 0 1 0 0 1 0 0 1 0 0 1 0 1 0 1 0 1 1 1 
424 25 812 0 1 1 0 0 0 1 1 0 1 1 0 0 0 0 0 1 1 1 1 1 0 1 0 1 
425 25 945 0 1 1 0 1 1 0 1 0 0 1 1 1 0 0 0 1 0 0 1 0 0 1 0 1 
426 25 703 1 0 1 0 0 0 0 0 0 0 0 1 1 1 0 1 0 1 0 1 0 1 1 1 1 
427 25 778 0 0 1 0 0 0 0 1 1 0 0 0 1 1 1 1 1 0 0 0 1 1 0 1 0 
428 25 709 0 1 0 0 1 1 1 1 1 1 1 1 0 0 0 0 0 0 0 0 0 1 1 0 0 
429 25 798 0 1 0 0 0 1 1 0 0 0 1 1 0 0 0 0 1 1 1 0 1 1 1 0 0 
430 25 692 0 1 1 1 1 0 1 1 0 0 0 0 0 1 0 0 0 1 0 1 1 0 0 0 0 
431 25 757 1 0 1 0 0 0 1 1 0 0 0 1 1 0 0 1 0 0 0 0 1 0 1 1 1 
432 25 884 0 1 0 1 0 0 0 0 0 1 0 1 0 1 1 1 1 1 0 0 0 0 0 1 1 
433 25 785 0 1 1 0 1 1 1 0 1 0 1 0 0 0 1 0 0 0 1 1 1 0 0 1 1 
434 25 889 0 0 0 1 0 0 0 0 1 0 1 1 1 1 1 1 0 0 1 0 0 1 0 1 1 
435 25 705 1 1 0 1 0 0 1 0 0 0 1 0 0 0 1 0 0 1 0 1 0 1 0 1 1 
436 25 719 0 0 1 0 0 0 0 0 1 0 1 1 0 0 0 1 1 1 0 1 1 0 1 1 1 
437 25 813 0 1 1 1 0 0 0 0 1 0 1 1 1 1 0 1 0 0 1 1 0 0 1 0 0 
438 25 772 0 0 1 0 1 0 1 0 0 0 1 0 1 1 0 0 0 0 1 0 1 1 0 1 0 
439 25 790 0 1 0 0 0 0 1 1 1 1 0 0 1 1 0 0 0 1 0 0 1 1 0 1 0 
440 25 846 0 1 1 0 1 0 1 1 1 0 1 0 1 0 0 1 1 1 0 1 0 1 1 0 0 
441 25 598 0 0 0 0 0 1 0 1 0 1 1 0 0 1 0 0 1 0 1 0 1 0 0 1 0 
442 25 767 0 0 0 0 0 0 1 0 0 1 1 0 1 1 0 0 1 1 1 1 1 0 0 0 1 
443 25 733 0 1 1 1 0 0 0 0 0 0 1 0 1 0 0 0 0 1 0 0 1 1 1 0 1 
444 25 788 1 1 0 0 0 0 0 0 1 0 1 0 1 0 0 1 1 0 0 1 1 1 0 1 0 
445 25 762 1 0 1 1 0 0 0 0 1 0 0 1 1 1 1 0 1 0 0 0 0 0 1 1 0 
446 25 860 0 0 0 0 0 0 0 1 1 0 1 1 1 1 1 1 0 0 0 1 0 1 1 0 0 
447 25 630 1 0 0 0 0 0 0 0 1 0 0 1 1 0 1 0 0 0 0 0 1 1 1 1 1 
448 25 630 0 0 1 0 1 0 0 1 0 1 1 0 0 1 0 1 1 0 1 0 0 0 1 1 1 
449 25 620 1 0 0 1 0 0 0 0 0 0 0 1 0 1 1 0 1 1 0 0 0 1 1 1 1 
450 25 560 1 1 0 0 1 0 0 0 0 1 1 0 0 1 0 1 0 0 0 1 1 1 0 0 0 
451 25 637 1 0 1 0 1 1 0 0 1 0 0 0 1 0 0 0 0 1 0 0 1 0 1 1 0 
452 25 774 0 1 0 0 1 1 0 0 1 0 1 1 0 0 1 1 1 1 0 1 0 0 0 1 0 
453 25 688 0 1 1 1 1 0 1 0 0 0 1 0 0 1 0 0 0 1 0 0 1 1 0 0 0 
454 25 715 0 0 1 1 1 1 1 1 0 0 0 0 1 1 0 0 0 0 0 0 0 1 1 1 0 
455 25 745 1 0 0 1 0 0 1 0 0 1 1 0 1 1 0 1 0 1 1 0 0 1 1 0 0 
456 25 815 0 1 0 1 1 0 1 0 1 0 1 1 0 1 1 0 0 1 0 0 0 0 0 1 0 
457 25 616 0 1 1 0 0 1 0 1 0 0 1 0 1 0 1 1 1 1 0 1 0 0 0 0 0 
458 25 1001 0 0 1 0 0 0 1 1 0 1 1 0 0 1 1 1 1 0 1 1 0 1 0 0 1 
459 25 842 1 0 1 0 0 0 1 1 0 1 0 1 1 0 1 0 0 0 1 1 0 1 1 0 0 
460 25 826 1 0 0 0 1 1 0 1 1 0 0 0 0 1 1 1 0 1 1 1 1 0 0 0 0 
461 25 835 0 1 0 0 0 0 0 0 0 1 0 1 0 1 0 0 1 1 1 1 0 1 1 1 1 
462 25 821 0 0 0 1 0 1 1 1 1 0 0 0 0 0 1 0 0 1 1 0 1 1 1 0 0 
463 25 853 0 1 1 0 1 0 0 1 0 0 1 0 1 1 1 1 0 0 0 1 1 0 1 1 0 
464 25 605 1 1 0 1 1 1 0 1 1 0 1 0 0 0 0 1 0 0 0 0 1 1 1 0 0 
465 25 839 0 0 1 0 1 1 0 0 0 0 1 1 1 0 1 1 0 0 1 1 0 1 1 0 0 
466 25 779 0 0 1 0 0 1 0 1 1 1 0 0 0 0 0 0 1 0 1 1 1 1 0 0 1 
467 25 797 0 0 1 1 1 0 1 1 0 0 0 1 0 0 0 0 1 1 0 1 0 0 0 1 1 
468 25 932 0 0 1 0 1 0 1 1 1 0 1 0 1 0 1 1 1 0 1 0 0 0 1 0 0 
469 25 657 0 1 1 1 0 1 0 0 0 0 0 1 1 0 0 1 0 0 0 1 1 1 1 1 0 
470 25 854 0 1 1 1 0 0 0 0 0 1 1 0 1 1 0 1 0 1 1 0 0 0 1 1 1 
471 25 883 1 0 1 1 0 1 0 0 0 1 1 0 0 1 0 1 1 1 0 0 0 1 0 0 1 
472 25 744 0 1 0 1 0 0 1 0 0 0 1 0 1 0 1 0 1 1 0 0 1 1 0 1 0 
473 25 658 0 1 1 1 0 1 0 0 0 0 0 1 1 0 1 0 1 1 0 0 0 1 0 1 0 
474 25 802 1 1 0 1 0 1 1 0 0 0 1 1 0 0 0 0 1 0 0 1 1 1 0 1 0 
475 25 818 0 0 1 0 1 1 1 0 0 1 0 1 1 1 1 1 1 0 0 0 0 1 0 1 1 
476 25 776 0 1 1 1 0 1 1 0 1 1 1 0 0 0 0 0 1 1 0 0 0 0 1 1 1 
477 25 686 1 1 1 0 0 0 0 0 0 0 0 0 1 0 1 0 1 1 0 0 1 0 1 1 0 
478 25 738 0 0 0 1 1 1 0 1 0 0 1 0 0 1 1 0 1 0 0 1 0 1 0 1 0 
479 25 662 1 1 0 1 0 0 0 0 1 0 0 0 1 1 0 1 1 1 1 1 0 0 0 0 0 
480 25 541 0 1 0 0 0 1 0 0 0 0 1 0 0 1 0 1 0 0 0 1 1 0 0 1 1 
481 25 747 1 1 0 0 0 0 1 1 1 0 1 1 1 1 0 0 0 0 1 0 0 1 1 0 0 
482 25 648 1 1 0 1 1 0 1 0 1 0 0 1 1 0 0 1 0 1 0 0 0 0 0 0 1 
483 25 730 0 1 1 1 0 1 0 1 1 0 0 1 1 0 0 1 1 1 0 1 0 0 0 0 0 
484 25 809 1 0 1 0 1 0 1 0 1 0 1 1 0 0 0 1 1 0 1 0 0 1 0 0 0 
485 25 688 0 0 1 0 0 1 1 1 0 1 0 1 0 1 1 0 0 1 0 1 1 0 1 0 1 
486 25 790 1 0 1 0 0 1 0 1 0 0 0 1 0 0 0 0 1 1 1 0 1 1 0 0 1 
487 25 737 0 0 0 1 0 0 1 0 1 0 1 0 0 0 0 1 1 1 1 0 1 0 1 0 1 
488 25 843 0 0 0 1 1 0 1 0 0 1 1 1 1 0 1 0 0 1 1 1 0 0 0 1 0 
489 25 737 1 0 0 0 0 0 1 0 0 1 0 1 1 0 1 0 1 0 1 0 1 1 1 0 1 
490 25 745 0 0 0 1 1 0 1 1 0 1 1 0 1 1 1 1 0 0 1 1 0 1 0 0 0 
491 25 714 1 0 1 1 0 1 1 0 0 0 0 1 0 0 1 1 0 0 1 1 0 1 0 1 0 
492 25 743 1 0 1 1 0 1 0 1 0 0 1 1 1 0 0 1 0 0 1 1 1 0 0 0 0 
493 25 783 0 0 1 1 1 0 0 0 1 0 0 0 1 0 0 1 0 1 1 0 1 0 1 1 1 
494 25 710 1 1 0 0 0 1 0 1 1 0 1 0 1 0 0 0 0 0 1 1 1 0 1 0 1 
495 25 722 0 1 1 0 1 1 0 0 0 1 1 0 1 0 0 0 0 0 1 0 1 1 1 0 0 
496 25 735 0 0 1 0 1 0 1 1 1 0 0 1 1 0 1 0 0 0 0 0 1 0 1 0 0 
497 25 646 0 1 0 0 0 1 1 1 1 1 0 1 0 1 0 0 0 1 1 0 0 0 0 0 0 
498 25 838 1 1 0 0 1 1 0 0 1 1 1 0 0 1 0 1 1 0 0 0 0 0 1 1 0 
499 25 741 0 0 0 0 1 1 1 1 0 1 1 0 1 1 0 0 0 0 1 0 0 1 1 0 0 
500 25 728 1 1 1 0 1 1 0 0 0 0 0 1 0 0 1 0 1 1 1 0 1 0 0 0 1 
