412
296
650
448
775
664
406
870
276
405
590
320
187
316
792
837
881
491
365
589
371
334
296
366
349
959
464
750
575
411
441
427
418
262
579
440
575
596
395
373
502
798
144
1915
499
260
1102
1168
262
1998
860
275
410
485
1259
416
217
1372
274
421
3062
877
708
313
379
292
208
1416
659
313
369
375
414
241
499
160
567
274
621
1458
300
933
450
465
222
325
306
382
574
1322
578
186
327
495
162
236
225
805
778
1062
665
240
255
295
1227
210
657
289
244
602
747
1536
2308
334
1318
322
300
554
784
790
343
318
466
747
265
984
374
492
680
505
414
465
3434
315
156
679
792
425
259
267
1725
320
1157
2295
628
764
634
826
356
199
221
330
1879
419
1737
301
921
700
202
372
447
730
917
1039
1295
676
539
1540
621
621
1394
588
884
1079
390
181
482
716
668
1047
1829
767
573
1243
794
2541
339
1566
604
514
241
447
385
237
1015
708
389
258
2332
366
1002
694
322
370
1470
1008
295
981
557
284
571
553
1420
882
1672
5402
825
933
238
270
336
1020
322
470
1360
926
353
1251
468
562
554
564
636
1010
722
292
1163
1630
295
842
315
391
403
662
591
578
356
1039
219
351
482
548
274
179
287
533
586
366
204
510
796
373
177
1099
401
325
319
668
401
500
485
1051
652
198
722
256
872
382
287
387
797
3177
1085
785
289
334
501
1130
325
1099
368
269
867
289
883
1039
359
1215
1482
234
302
1590
425
660
817
1104
4642
458
813
596
1410
1159
771
469
1291
866
794
219
424
933
672
359
469
493
806
573
1343
200
884
262
491
258
550
804
543
468
844
530
288
1081
452
296
585
189
1088
769
412
452
744
514
477
332
236
448
1311
695
212
343
689
531
461
203
734
871
353
651
807
913
501
359
222
343
522
1119
592
184
264
764
1481
421
1547
689
420
184
446
2636
1484
452
1301
1313
399
315
178
350
763
354
822
547
533
531
481
604
1561
159
276
635
334
604
350
403
728
225
638
629
2059
929
1461
495
618
350
825
363
566
664
1925
814
970
516
772
313
618
949
886
191
734
342
580
1050
428
152
577
423
859
617
379
296
754
313
652
898
1252
291
304
1139
488
726
640
207
545
984
282
255
691
593
122
1338
355
364
1107
241
714
1082
376
648
315
602
638
690
491
1673
884
1535
1149
221
1327
470
277
367
336
254
1562
1095
245
297
468
718
1713
1343
367
359
