181
143
133
144
135
149
138
145
117
132
124
126
157
137
117
136
127
133
150
134
101
221
217
127
130
147
115
74
147
155
130
106
135
198
194
117
159
138
120
121
127
124
161
128
174
140
136
141
135
158
111
136
257
100
139
168
127
146
137
126
59
159
138
112
130
135
136
85
114
133
164
126
166
179
146
103
141
125
122
141
134
137
217
235
169
127
209
236
254
204
243
292
206
113
131
124
125
141
134
131
141
130
74
139
144
152
206
213
126
109
119
134
132
122
108
125
126
132
119
163
108
126
135
134
143
126
122
126
118
126
134
126
89
130
149
96
125
75
131
134
243
257
233
124
150
107
141
130
141
157
125
127
125
144
132
232
203
136
169
314
187
243
273
214
256
288
271
275
297
217
132
129
73
125
121
113
146
140
137
152
141
123
126
138
126
136
142
154
153
116
108
146
410
371
358
332
367
190
143
129
135
79
129
95
127
148
130
107
107
135
58
162
125
134
124
142
130
163
79
78
129
134
72
127
148
144
124
83
143
138
124
128
125
75
239
125
138
142
116
137
128
159
121
113
97
139
143
83
132
103
86
139
147
166
208
128
134
125
170
125
93
120
123
152
140
143
238
117
119
133
129
140
221
148
133
123
136
138
140
91
174
247
254
201
233
144
185
183
192
222
219
185
205
182
129
146
151
124
118
134
122
60
254
86
109
201
204
103
191
195
159
206
170
140
141
141
135
135
147
190
132
112
147
145
130
147
186
153
163
138
129
203
173
69
140
120
130
192
281
252
255
262
248
275
275
266
260
251
255
175
108
177
211
142
83
122
157
132
88
96
135
151
116
188
99
152
135
149
124
120
140
143
225
169
149
189
117
138
129
112
127
142
149
140
156
134
133
138
146
112
259
258
246
291
268
137
131
194
203
149
162
108
140
139
111
129
129
135
130
140
128
129
198
187
130
135
58
127
106
125
102
148
66
102
249
118
124
210
135
128
125
136
131
130
163
143
97
110
148
127
130
130
134
136
128
251
149
131
132
134
125
142
88
127
150
152
150
126
154
139
132
138
139
129
149
123
128
118
94
169
122
142
126
125
133
164
148
139
162
113
144
140
59
133
162
121
118
127
129
121
143
134
140
286
140
146
195
137
127
96
