551
608
591
569
569
534
869
626
623
515
605
511
558
505
388
434
627
532
638
604
536
531
627
516
532
625
600
477
621
485
519
569
87
661
550
698
948
855
913
600
504
604
636
487
534
494
573
525
612
456
599
534
481
527
534
553
562
266
131
567
548
633
411
406
619
405
516
611
567
554
537
545
524
468
477
563
441
620
492
822
901
953
982
1039
976
757
1129
772
546
628
483
432
540
608
610
624
476
475
699
551
637
717
454
501
478
524
352
641
926
848
1034
892
948
768
544
642
508
483
491
583
643
86
505
1037
895
1043
1030
628
440
612
560
558
570
211
477
508
447
593
489
417
681
640
431
607
744
654
589
516
446
449
193
540
636
537
328
528
602
485
537
491
524
598
804
619
438
464
645
249
598
550
478
591
671
582
598
539
589
483
483
539
835
562
587
538
523
490
642
704
636
466
470
539
535
522
508
501
811
351
515
674
598
524
571
608
525
542
383
557
496
281
528
484
521
628
893
517
656
511
605
611
541
580
822
543
977
570
421
467
519
227
466
726
404
524
518
526
158
497
341
525
370
275
537
449
389
700
536
535
514
551
573
510
493
608
786
659
487
583
560
559
645
264
622
566
458
552
690
596
850
634
469
577
907
323
437
614
535
589
705
1054
562
689
1100
1110
1235
586
617
1054
958
1051
297
598
1107
1001
878
1158
587
721
497
633
403
396
87
621
547
609
449
563
508
656
616
521
448
547
609
333
535
680
440
694
470
536
509
600
537
627
601
507
582
495
592
598
1065
1017
1136
1149
782
546
554
619
463
453
581
1176
1014
851
947
910
637
948
1310
817
595
544
520
649
280
626
526
547
510
511
628
350
580
595
556
480
624
645
510
471
355
614
474
595
336
562
619
550
911
612
557
478
456
573
499
254
610
561
599
556
600
574
536
477
492
344
490
491
553
581
321
424
506
488
479
619
518
609
601
575
610
513
593
601
601
486
526
476
564
512
533
490
545
468
644
460
573
632
541
472
298
542
463
539
574
438
498
589
512
414
511
581
506
570
454
615
194
580
575
470
612
601
514
559
693
655
437
553
549
550
231
534
557
518
151
351
503
482
485
491
485
567
592
488
510
542
636
487
292
554
616
579
556
194
910
527
177
487
557
561
571
470
588
525
535
604
705
617
