1724
1790
1240
1172
1573
1345
1356
1175
1096
1125
962
953
1284
1097
1443
994
1186
1124
1186
1497
1310
1078
1265
1228
1015
1283
1241
1161
1263
963
1093
1167
1370
1187
1144
1051
1249
967
1077
1207
1047
1154
1134
1030
1213
1051
956
1150
1116
1088
2249
1386
1557
2826
1916
828
959
1296
1204
1149
1285
1192
1106
1142
1269
994
1140
1338
1079
461
1182
1141
1183
923
618
1316
980
1291
1110
1050
1104
661
492
1171
1066
1145
1023
1415
1026
961
1340
1234
787
1257
960
1169
1284
1277
1235
1355
1718
1095
1145
1061
1170
1081
795
1271
1016
1366
1213
1190
964
1089
1228
1207
1088
478
856
1224
1356
1247
1702
1212
846
1040
1377
1170
991
1094
1355
1222
1128
989
968
1071
1296
1182
1108
928
910
1125
1288
879
1144
1029
702
986
1186
1093
1221
327
1042
1221
953
986
929
929
1170
1255
1149
1226
1354
911
1148
1150
1146
1157
1059
1295
1439
1087
951
1061
1041
1387
1251
337
1123
892
1118
1234
1093
1052
1048
1631
1286
1365
932
1088
843
1297
1236
1021
955
1068
1112
1235
1328
1118
1021
1253
1381
599
1232
1112
1231
1141
1069
1165
1216
1116
1219
1172
1135
1093
1333
1212
922
1397
1012
1162
1666
1063
1257
913
1165
1165
1089
1220
1229
1274
998
1342
1217
1280
955
1033
1138
1151
883
312
1067
1107
1295
1159
1128
1084
1238
1328
1234
1087
1250
1265
1190
1096
928
1097
1140
1245
1095
681
1171
843
1379
1336
1152
1269
1038
1180
1359
1152
194
1107
1252
1213
1215
1152
1291
1386
1028
988
1124
1166
1297
1238
1368
1071
966
1277
959
1144
1201
1083
1245
1208
1168
1284
1018
1170
1222
1264
1073
1246
1205
1146
1068
989
1005
1160
951
1071
1209
1101
1245
713
353
1065
953
1080
1091
976
1273
1111
1061
1123
1303
1000
960
1127
1066
909
312
1144
1145
1064
1208
917
1117
1151
1251
1076
1286
969
984
1193
891
1045
1153
1205
224
1002
1077
1196
1110
1053
1051
1437
1273
1007
1140
1123
1475
1075
1194
1137
1144
1121
1180
560
1148
1178
1165
1213
1091
1307
1281
1105
1001
1102
1098
1230
913
1014
1073
489
1214
1272
232
1231
1050
1385
1243
1285
1167
1213
1325
1115
1009
1143
1207
1028
1381
1406
1338
1239
1113
1079
1081
1058
1410
1187
953
1302
2375
3331
3392
2209
1552
1284
1408
1138
1084
1868
900
1100
1226
1115
1109
1343
1103
1118
1387
1273
1063
1126
1071
1214
1095
1132
1061
1003
1062
1068
977
1024
1382
1234
1018
997
1075
1397
1238
1042
1201
1213
192
1115
1076
1035
966
1037
1240
1496
1280
1036
1196
1061
1141
1132
1389
1211
1058
1425
1304
1069
10991
1268
1226
1385
1192
1121
1257
1113
1254
1124
1009
995
1099
1131
1094
1063
1149
112
1027
705
577
1087
1177
1251
