3967
6887
1585
765
513
163
2412
1237
1577
2763
63
18390
316
133
217
4790
336
1035
67
9
5558
415
94
1937
584
81
82
84
17
672
24511
2987
6653
10361
1881
444
66
76
486
923
7168
275
223
1417
4366
1437
102
1074
9598
3688
13
3624
18152
12014
904
3300
115
4143
7988
75
199
4947
124
935
10841
1077
1081
7497
44049
9718
4159
7546
131
5563
23
4313
110
114
585
2607
3482
81
1426
65
104
83
154
141
823
507
230
118
611
2646
72
891
888
3621
4724
100
3999
86
19231
970
5940
3253
111
163
4198
16421
559
124
70
482
220
7694
583
1514
119
57
1328
6845
118
2450
654
7699
9108
2208
22
10331
238
1542
904
4920
10987
275
6159
69
129
156
949
8015
313
27
136
4803
15276
156
6589
1301
75
243
97
124
114
14
22
15670
417
3701
5614
3776
178
586
190
124
759
544
209
6266
6730
3955
4724
3285
137
1411
74
216
9906
172
451
20
25756
757
3009
67
9267
293
147
4904
270
89
44
75
930
2045
4969
150
2154
67
73
32
61
2206
176
2918
87
7930
110
8843
71
89
13937
892
1719
533
20988
3917
1418
1956
20569
722
133
100
11263
136
442
8298
2903
79
78
1529
50056
74
3422
130
15680
1554
199
263
553
182
87
3619
5061
2201
436
120
318
93
4538
160
2224
234
9110
428
164
550
9946
135
1588
439
105
1059
16006
416
1140
180
114
2008
191
1295
180
4913
4147
10203
3530
11542
1350
3234
4538
5874
99
255
5848
21
62
91
7643
3542
3680
577
1465
203
39
77
352
7387
123
90
8530
1838
7049
548
15344
85
297
341
413
153
6325
61
175
7092
2905
2805
95
68
468
435
6290
4566
4847
689
1777
1269
26
183
4535
6038
284
353
341
126
244
18
68
283
3555
282
69
188
596
4532
5862
366
81
91
548
6270
105
14796
4246
970
3422
145
1479
159
12545
67
126
972
598
5904
81
1022
1565
296
1104
11520
4045
69
1758
4477
1826
6614
3574
180
82
5835
12383
10900
1555
350
2133
27023
85
2667
1709
2608
3148
534
282
14191
190
2379
102
16
348
5619
70
117
467
85
49
81
1172
857
355
2125
4555
78
3185
203
9099
11232
119
819
79
663
11650
10348
11128
35
5648
936
1913
88
1365
288
3476
4931
162
1484
13740
218
10519
3137
2976
555
36377
156
756
406
4779
104
1590
95
92
77
1204
146
2300
15
9553
22
13354
938
239
124
12485
3271
84
1148
20389
488
99
78
251
3414
395
8462
1144
8583
79
11757
437
15257
1696
1798
52
2478
11029
688
2237
94
485
721
1975
289
176
972
4746
432
5013
201
9175
493
2610
941
