9951
438
141
434
349
24638
270
1962
59
320
90
241
171
826
988
48
27245
6298
16411
10152
3572
13886
7886
17203
1774
3192
27576
134
1453
38990
373
9176
15199
22533
1615
187
84
10009
20193
364
748
2875
117
14023
15
82
1750
49691
166
46630
158
7696
123
9920
25225
638
140
8738
3177
31590
173
71
12641
3171
232
366
2045
186
1616
317
14254
2070
40877
91
424
6318
66236
3632
191
44352
1311
9515
26041
3233
11920
133
211
774
56596
179
49624
169
30050
498
12602
12457
104
14709
40502
135
3762
506
7623
198
208
5665
1220
7742
719
56302
186
47638
5636
27955
152
3579
311
2618
138
498
317
28821
2695
309
9478
406
95091
6855
29630
33085
414
1612
56399
10723
128
290
20069
392
153
1543
2855
22
28415
56869
533
14027
30730
251
233
13515
164
770
169
427
44232
6717
3504
19737
158
2163
36595
69110
1972
80
39957
808
11887
36110
452
11148
100811
15411
376
354
20168
211
83
2117
10
8067
61
483
6969
77649
92
146
23600
14809
23144
1820
5445
19579
51537
265
104035
7499
351
3420
46351
5211
375
673
43112
6439
76449
53531
289
1518
524
6544
208
7708
269
119
118152
179983
52
46384
723
7301
8884
86040
180
21625
37982
43965
113
10244
2698
75811
30533
9022
23422
3566
295
325
50678
56135
335
3291
169
12048
1799
22668
13872
3362
19689
10088
104
4938
2618
849
17743
672
19033
18592
336
19756
223
135182
290
4247
3037
356
66946
18414
2102
29039
111
127
11111
211
179
23860
14981
4542
140
119494
18319
2833
2013
47539
18958
129
14851
231
153
775
2241
7439
8112
53286
41
3141
24217
77763
545
32890
68654
527
153
40214
3134
2707
235
116171
491
1423
219
574
790
31115
35892
526
5812
32626
1447
4964
160
18134
45653
9468
293
790
748
1430
11816
7410
5308
12097
1050
113
8213
848
8439
26170
76473
10476
1333
9079
71
5448
31865
3217
17977
29558
15682
374
11256
1550
238
7649
151
18125
18197
31517
2323
23519
5037
1936
10655
2269
996
5387
7879
323
19829
17
90
12096
874
153
154
12621
8805
14497
3432
21607
49597
271
80
1053
22
80
8867
111865
149
127
42702
243
1153
759
109
552
453
585
21285
548
12461
648
597
105
184618
112
247
458
1125
26066
388
1823
10172
11073
465
851
1780
4154
17634
8798
42981
27960
3942
7623
52215
431
1348
19340
4084
161
17687
28
2661
1090
87
128
17996
4444
4064
67294
114
198
1450
1065
36523
90201
11135
2455
15369
2778
876
6021
13315
253
159
134
6392
3401
27475
7865
1593
35953
3355
148
42870
19691
1077
27224
11
10390
37
150
4517
7139
1060
5664
14
233
258
967
7329
33928
2816
186
146
61961
127
38
22437
142
325
12351
9919
721
415
513
921
215
31335
47669
166
191
