18823
23106
24291
23134
22793
21608
19193
18360
24392
30179
24690
13747
19906
19326
23918
22165
29473
27967
20699
22631
20813
19127
22255
18932
24276
21471
19704
21040
26155
28644
25708
22899
22961
22263
20955
17203
25749
2479
20712
13749
36701
25648
22724
24368
26700
24558
25334
29780
19838
23583
22793
20642
20919
20778
27688
22230
19455
22658
22352
22724
22448
23015
19685
19099
19184
19251
20796
20085
19691
22303
21199
18677
24808
20237
20368
20056
22230
22331
17812
20084
20008
19334
21568
21170
17350
22092
21331
19389
18982
22210
20642
20982
19010
20486
11325
23310
18350
18915
17256
17316
21374
26902
23608
16657
21047
23160
21895
5349
20130
20265
19426
22561
18679
19432
19286
18842
17615
22602
2546
20648
18489
7656
19083
20401
23551
7173
20009
22052
19799
23344
19480
182
23241
21576
25363
17074
21773
26496
21575
20353
31270
18868
23071
23621
22886
25293
22773
26746
25322
24780
23804
27179
19471
22896
24838
24738
25188
26227
23681
25216
23815
19386
18844
22943
20652
20615
24263
23530
27112
25002
24605
24328
23768
22036
24023
18754
19690
23585
18838
21631
22452
16650
23494
23904
1718
25304
31774
28718
17441
18254
20476
22289
23420
21026
2626
23671
21798
7090
23816
18948
20843
20170
22416
19500
19210
20206
21640
19542
21066
18465
22057
23187
22219
20063
23012
20976
20872
22573
22779
20540
19722
20366
19832
19868
18244
24244
21921
22004
23567
19545
21557
20610
18568
18037
20988
21670
19282
20995
18096
21085
19745
21205
21074
22775
19597
22176
18299
25026
22999
25148
18292
19541
22204
18374
22199
19117
19731
17712
19800
19879
17889
20536
20563
17981
24446
14881
18531
18102
19900
18925
20645
21697
21056
20951
20411
24050
15588
22097
22945
19801
17702
20162
20976
21755
21580
21285
24361
22388
18320
18438
19212
18918
1903
19445
21305
18998
21035
21573
18654
19032
22061
17845
22264
22213
23650
18569
24246
18942
21295
19257
22794
23531
18499
18888
22541
24513
21307
22366
19679
25012
19812
19761
19410
23673
17843
24540
19909
16809
20691
19280
23189
22121
10680
22852
20509
21720
23376
19165
19937
17174
19461
19773
21850
20485
20499
4042
19296
25848
23591
21529
22008
20281
27066
21578
21206
25590
20073
22623
20451
23985
23220
24534
29799
19285
20442
29579
20997
17600
25278
25161
8347
29982
22611
22763
18208
22858
26252
31520
23887
26540
22725
22613
23718
22137
18959
22451
26144
17349
24117
22916
22382
23905
21273
21469
27049
23456
20674
20548
19295
21001
21689
21572
6998
20279
23659
21996
19023
20390
15985
22335
20766
22628
21611
22354
22624
24368
18601
22716
21302
24146
20818
19634
22988
18692
21066
21945
17713
20937
19892
14358
22237
18509
20628
24019
20506
17354
18578
19595
17870
20756
25082
21611
19224
19731
18575
22056
19047
24797
22037
21616
16643
25212
22856
18743
19646
21556
23224
24722
20429
19774
21338
19521
23262
26613
23561
25698
25815
21901
25380
19725
24131
21663
26064
19535
23355
26202
20570
24334
7719
21346
27038
22522
20731
21198
17727
20293
30409
21963
20629
22141
19877
20217
18732
20595
22848
20667
20268
23085
24670
18472
