2004
2401
2700
2365
2427
2096
2008
1964
2782
2634
2331
1506
2046
2002
2257
2266
2309
2621
2102
2311
2149
1969
2270
1912
2229
2099
1945
1981
2198
2745
2305
2447
2369
2225
2109
1687
2370
404
2015
1217
2375
2056
2098
2152
2880
2421
2333
2352
1938
2122
2130
2172
2082
2226
2500
2313
2031
2321
2341
2355
2395
2372
2258
1990
2358
2364
2445
2048
2076
2349
2148
3282
2971
2038
2093
2158
2295
2337
1878
2103
2047
1998
2240
2143
1907
2266
2178
2039
1979
2313
2052
2511
1973
2271
1267
2516
2078
1983
2082
3363
2550
2437
2462
1742
2171
2386
2357
689
2067
2096
2001
2326
1975
2008
2022
1948
1846
2644
412
2164
1977
898
1946
2197
2410
1010
2564
3031
2276
2554
1995
176
2125
2086
2300
2365
2625
2405
2059
1920
3121
1773
2022
2081
2484
2257
2022
2332
2705
2149
2435
2568
1912
2133
2285
2605
3201
2636
2546
2513
2975
2123
2299
2375
2299
2223
2604
2353
2533
2435
2643
2476
2445
2263
2794
1950
2066
1962
2042
2190
2416
1773
2394
2431
282
2371
2591
2361
1880
1868
2116
2273
2382
2113
415
2433
2469
812
2408
1960
2142
2107
2306
2070
1996
2116
2242
2032
2243
1931
2315
2265
2345
2122
2367
2538
2197
2417
2043
2140
2054
2100
2250
2052
2397
3658
2444
2275
2680
2154
2267
2152
2036
1886
2038
2211
2020
2067
1906
2227
2066
2207
2221
2362
2091
2307
1947
2576
2391
2390
2032
2032
2275
2008
2290
2052
2046
1884
2491
2114
1949
2174
2223
1866
2636
1718
2042
2036
2222
2194
2127
2451
2217
2228
2204
2485
1686
2241
2412
2068
1844
2106
2166
2105
2248
2310
2356
2341
1914
1928
2105
2076
342
2103
2278
2012
2305
2336
2166
2011
2277
1863
2318
2131
2163
2065
2509
2046
3165
3690
3805
2451
2058
1956
2482
2534
2293
2239
2072
2534
1977
2148
2011
2507
1869
2564
2011
1776
2193
1992
2410
2287
1180
2265
2141
2271
2433
1974
2133
1776
2048
2076
2307
2142
2132
590
2028
2390
3191
2061
2162
2089
2531
2126
2257
2512
1884
2130
2071
2241
2150
2412
2340
1981
2036
2518
2156
1646
2365
2419
790
2129
2122
2126
1745
2258
2291
2419
2175
2303
2470
2295
2275
2153
1913
2025
2308
1922
2419
2373
2290
2127
1990
2091
2226
2147
2094
2166
2155
2155
2623
2330
840
2141
2443
3180
3497
2183
1716
3403
2164
2833
2243
2244
2257
2612
1960
2474
2207
2322
2152
2092
2416
1968
2299
2319
1898
2098
2133
1573
2303
1995
2188
2493
2163
1895
1992
2025
1931
2154
2559
2196
2023
2050
1929
2312
1996
2555
2265
2247
1727
2576
2338
1936
2133
2223
2392
2620
2140
1956
1929
2089
2373
2495
2145
2307
2354
1936
2459
2010
2328
2032
2666
1878
2106
2233
1949
1931
883
2209
2315
2096
2034
1921
1811
2060
2351
1889
2154
2296
2081
2107
1952
2155
2317
2108
2057
2344
2512
1889
