3584
4263
4903
5356
4410
3464
4438
4614
3996
4370
4717
4489
4109
4321
4293
641
4011
3653
4537
6370
7472
4503
1253
4450
4355
4547
4838
4623
3988
4310
3865
4207
4465
4354
4350
4009
4494
3289
3985
4319
4038
4008
4924
4892
4535
3909
4513
4694
4803
5521
5900
4487
4639
4954
4016
4947
4508
3653
7601
4849
6684
4778
4433
4104
4019
4210
4582
5359
4858
5220
5068
5675
5925
5599
5406
6386
7158
6217
6041
6489
7201
5190
5144
4414
5916
7221
5441
4735
3685
4609
3857
5079
5566
4666
4207
4263
4443
5106
3618
4221
6383
6474
4595
4871
4742
5125
4181
4106
5393
4914
4610
4762
6266
4177
4672
4948
4715
4594
4392
4358
5188
5096
4041
4151
4603
3706
4357
3934
4628
4152
4127
4575
3863
3670
4358
3978
4648
4359
4635
4452
4014
4388
4195
5291
4235
3923
4081
4077
4049
4479
3948
4263
3935
4895
4874
4327
3684
4140
3806
4231
4370
4064
3140
4890
4114
3645
4057
3931
4137
4186
5798
4232
4916
4466
6193
6596
5925
4091
4124
4257
3801
3972
4008
4657
4469
2756
3966
3652
3832
4206
6205
5207
3886
3020
3897
4739
4110
4839
4234
4313
4637
2291
5222
3620
4577
4412
3971
3909
4124
4331
4225
3636
5091
3638
3968
4188
616
4512
4154
3996
4308
4525
3607
4918
5284
4738
4894
4923
6568
4453
4645
4055
4070
3607
4906
3728
4477
4071
4797
4167
4535
4433
4631
2211
4276
3577
4003
3838
4179
4151
3569
3995
5042
5718
7218
5807
3998
4116
4084
4369
3636
4268
4054
3078
4170
4525
3262
4187
4268
5233
4220
4257
4337
3927
4615
4022
2528
3878
4029
232
3729
3807
3664
3941
4141
4782
3849
5257
3981
4880
4667
3636
3885
5063
3838
3698
4455
4273
4786
3856
3587
4129
4300
4051
4538
3447
3938
4311
3555
4052
4587
4549
3899
2905
4066
4311
4622
4346
4062
4158
3961
4115
4357
4529
4360
4170
3703
3895
3851
4075
4348
4526
3963
5067
3710
2598
4535
3912
4338
4015
4485
4359
3693
4223
3987
4379
4757
4348
4155
3893
4155
4040
4130
3899
1166
3937
4040
4170
3898
4169
4340
2352
4493
3638
4099
4132
5255
5136
4176
3662
4431
5237
4671
4528
4333
3840
4781
2293
4332
3985
4051
2301
3956
3842
4126
4232
3773
3298
4097
3814
4111
4029
4107
3577
4428
3747
4047
3907
4038
4659
4277
4393
3786
4168
4116
3638
4406
5103
3677
1805
3942
4119
4005
3552
4780
5052
5499
4119
4726
4458
4373
4287
4233
4071
4742
4786
3761
3800
4387
3852
3973
3977
2673
4139
3333
4415
4435
4035
3532
3849
4328
4183
4955
4266
4926
4727
4000
4053
4426
5246
5571
5258
3803
4154
4176
5556
2444
4357
4911
5406
4871
5288
5179
4418
3548
4680
5045
5025
4457
3802
4460
4751
4867
4069
4619
4616
5532
5630
4944
4561
4388
4252
5230
5385
4597
3868
5912
4459
4937
5310
4113
3715
5430
6068
4055
5065
4437
5352
5510
4409
