^D:\SCHOOL\NI-KOP\GITLAB\TASK02\NI-KOP - TASK2 - EXAKTNI A HEURISTICKA RESENI PB\NI-KOP - TASK2 - EXAKTNI A HEURISTICKA RESENI PB\TIMER.CPP
D:\SCHOOL\NI-KOP\GITLAB\TASK02\NI-KOP - TASK2 - EXAKTNI A HEURISTICKA RESENI PB\NI-KOP - TASK2 - EXAKTNI A HEURISTICKA RESENI PB\TIMER.H
D:\SOFTWARE\VISUALSTUDIOCOMMUNITY2019\VC\TOOLS\MSVC\14.29.30133\INCLUDE\IOSTREAM
D:\SOFTWARE\VISUALSTUDIOCOMMUNITY2019\VC\TOOLS\MSVC\14.29.30133\INCLUDE\YVALS_CORE.H
D:\SOFTWARE\VISUALSTUDIOCOMMUNITY2019\VC\TOOLS\MSVC\14.29.30133\INCLUDE\VCRUNTIME.H
D:\SOFTWARE\VISUALSTUDIOCOMMUNITY2019\VC\TOOLS\MSVC\14.29.30133\INCLUDE\SAL.H
D:\SOFTWARE\VISUALSTUDIOCOMMUNITY2019\VC\TOOLS\MSVC\14.29.30133\INCLUDE\CONCURRENCYSAL.H
D:\SOFTWARE\VISUALSTUDIOCOMMUNITY2019\VC\TOOLS\MSVC\14.29.30133\INCLUDE\VADEFS.H
D:\SOFTWARE\VISUALSTUDIOCOMMUNITY2019\VC\TOOLS\MSVC\14.29.30133\INCLUDE\XKEYCHECK.H
D:\SOFTWARE\VISUALSTUDIOCOMMUNITY2019\VC\TOOLS\MSVC\14.29.30133\INCLUDE\ISTREAM
D:\SOFTWARE\VISUALSTUDIOCOMMUNITY2019\VC\TOOLS\MSVC\14.29.30133\INCLUDE\OSTREAM
D:\SOFTWARE\VISUALSTUDIOCOMMUNITY2019\VC\TOOLS\MSVC\14.29.30133\INCLUDE\IOS
D:\SOFTWARE\VISUALSTUDIOCOMMUNITY2019\VC\TOOLS\MSVC\14.29.30133\INCLUDE\XLOCNUM
D:\SOFTWARE\VISUALSTUDIOCOMMUNITY2019\VC\TOOLS\MSVC\14.29.30133\INCLUDE\CLIMITS
D:\SOFTWARE\VISUALSTUDIOCOMMUNITY2019\VC\TOOLS\MSVC\14.29.30133\INCLUDE\LIMITS.H
D:\SOFTWARE\VISUALSTUDIOCOMMUNITY2019\VC\TOOLS\MSVC\14.29.30133\INCLUDE\CMATH
D:\SOFTWARE\VISUALSTUDIOCOMMUNITY2019\VC\TOOLS\MSVC\14.29.30133\INCLUDE\YVALS.H
C:\PROGRAM FILES (X86)\WINDOWS KITS\10\INCLUDE\10.0.19041.0\UCRT\CRTDBG.H
C:\PROGRAM FILES (X86)\WINDOWS KITS\10\INCLUDE\10.0.19041.0\UCRT\CORECRT.H
D:\SOFTWARE\VISUALSTUDIOCOMMUNITY2019\VC\TOOLS\MSVC\14.29.30133\INCLUDE\VCRUNTIME_NEW_DEBUG.H
D:\SOFTWARE\VISUALSTUDIOCOMMUNITY2019\VC\TOOLS\MSVC\14.29.30133\INCLUDE\VCRUNTIME_NEW.H
D:\SOFTWARE\VISUALSTUDIOCOMMUNITY2019\VC\TOOLS\MSVC\14.29.30133\INCLUDE\CRTDEFS.H
D:\SOFTWARE\VISUALSTUDIOCOMMUNITY2019\VC\TOOLS\MSVC\14.29.30133\INCLUDE\USE_ANSI.H
D:\SOFTWARE\VISUALSTUDIOCOMMUNITY2019\VC\TOOLS\MSVC\14.29.30133\INCLUDE\CSTDLIB
C:\PROGRAM FILES (X86)\WINDOWS KITS\10\INCLUDE\10.0.19041.0\UCRT\MATH.H
C:\PROGRAM FILES (X86)\WINDOWS KITS\10\INCLUDE\10.0.19041.0\UCRT\CORECRT_MATH.H
C:\PROGRAM FILES (X86)\WINDOWS KITS\10\INCLUDE\10.0.19041.0\UCRT\STDLIB.H
C:\PROGRAM FILES (X86)\WINDOWS KITS\10\INCLUDE\10.0.19041.0\UCRT\CORECRT_MALLOC.H
C:\PROGRAM FILES (X86)\WINDOWS KITS\10\INCLUDE\10.0.19041.0\UCRT\CORECRT_SEARCH.H
C:\PROGRAM FILES (X86)\WINDOWS KITS\10\INCLUDE\10.0.19041.0\UCRT\STDDEF.H
C:\PROGRAM FILES (X86)\WINDOWS KITS\10\INCLUDE\10.0.19041.0\UCRT\CORECRT_WSTDLIB.H
D:\SOFTWARE\VISUALSTUDIOCOMMUNITY2019\VC\TOOLS\MSVC\14.29.30133\INCLUDE\XTR1COMMON
D:\SOFTWARE\VISUALSTUDIOCOMMUNITY2019\VC\TOOLS\MSVC\14.29.30133\INCLUDE\INTRIN0.H
D:\SOFTWARE\VISUALSTUDIOCOMMUNITY2019\VC\TOOLS\MSVC\14.29.30133\INCLUDE\INTRIN0.INL.H
D:\SOFTWARE\VISUALSTUDIOCOMMUNITY2019\VC\TOOLS\MSVC\14.29.30133\INCLUDE\CSTDIO
C:\PROGRAM FILES (X86)\WINDOWS KITS\10\INCLUDE\10.0.19041.0\UCRT\STDIO.H
C:\PROGRAM FILES (X86)\WINDOWS KITS\10\INCLUDE\10.0.19041.0\UCRT\CORECRT_WSTDIO.H
C:\PROGRAM FILES (X86)\WINDOWS KITS\10\INCLUDE\10.0.19041.0\UCRT\CORECRT_STDIO_CONFIG.H
D:\SOFTWARE\VISUALSTUDIOCOMMUNITY2019\VC\TOOLS\MSVC\14.29.30133\INCLUDE\ITERATOR
D:\SOFTWARE\VISUALSTUDIOCOMMUNITY2019\VC\TOOLS\MSVC\14.29.30133\INCLUDE\IOSFWD
D:\SOFTWARE\VISUALSTUDIOCOMMUNITY2019\VC\TOOLS\MSVC\14.29.30133\INCLUDE\CSTRING
C:\PROGRAM FILES (X86)\WINDOWS KITS\10\INCLUDE\10.0.19041.0\UCRT\STRING.H
C:\PROGRAM FILES (X86)\WINDOWS KITS\10\INCLUDE\10.0.19041.0\UCRT\CORECRT_MEMORY.H
C:\PROGRAM FILES (X86)\WINDOWS KITS\10\INCLUDE\10.0.19041.0\UCRT\CORECRT_MEMCPY_S.H
C:\PROGRAM FILES (X86)\WINDOWS KITS\10\INCLUDE\10.0.19041.0\UCRT\ERRNO.H
D:\SOFTWARE\VISUALSTUDIOCOMMUNITY2019\VC\TOOLS\MSVC\14.29.30133\INCLUDE\VCRUNTIME_STRING.H
C:\PROGRAM FILES (X86)\WINDOWS KITS\10\INCLUDE\10.0.19041.0\UCRT\CORECRT_WSTRING.H
D:\SOFTWARE\VISUALSTUDIOCOMMUNITY2019\VC\TOOLS\MSVC\14.29.30133\INCLUDE\CWCHAR
C:\PROGRAM FILES (X86)\WINDOWS KITS\10\INCLUDE\10.0.19041.0\UCRT\WCHAR.H
C:\PROGRAM FILES (X86)\WINDOWS KITS\10\INCLUDE\10.0.19041.0\UCRT\CORECRT_WCONIO.H
C:\PROGRAM FILES (X86)\WINDOWS KITS\10\INCLUDE\10.0.19041.0\UCRT\CORECRT_WCTYPE.H
C:\PROGRAM FILES (X86)\WINDOWS KITS\10\INCLUDE\10.0.19041.0\UCRT\CORECRT_WDIRECT.H
C:\PROGRAM FILES (X86)\WINDOWS KITS\10\INCLUDE\10.0.19041.0\UCRT\CORECRT_WIO.H
C:\PROGRAM FILES (X86)\WINDOWS KITS\10\INCLUDE\10.0.19041.0\UCRT\CORECRT_SHARE.H
C:\PROGRAM FILES (X86)\WINDOWS KITS\10\INCLUDE\10.0.19041.0\UCRT\CORECRT_WPROCESS.H
C:\PROGRAM FILES (X86)\WINDOWS KITS\10\INCLUDE\10.0.19041.0\UCRT\CORECRT_WTIME.H
C:\PROGRAM FILES (X86)\WINDOWS KITS\10\INCLUDE\10.0.19041.0\UCRT\SYS\STAT.H
C:\PROGRAM FILES (X86)\WINDOWS KITS\10\INCLUDE\10.0.19041.0\UCRT\SYS\TYPES.H
D:\SOFTWARE\VISUALSTUDIOCOMMUNITY2019\VC\TOOLS\MSVC\14.29.30133\INCLUDE\XSTDDEF
D:\SOFTWARE\VISUALSTUDIOCOMMUNITY2019\VC\TOOLS\MSVC\14.29.30133\INCLUDE\CSTDDEF
D:\SOFTWARE\VISUALSTUDIOCOMMUNITY2019\VC\TOOLS\MSVC\14.29.30133\INCLUDE\INITIALIZER_LIST
D:\SOFTWARE\VISUALSTUDIOCOMMUNITY2019\VC\TOOLS\MSVC\14.29.30133\INCLUDE\XUTILITY
D:\SOFTWARE\VISUALSTUDIOCOMMUNITY2019\VC\TOOLS\MSVC\14.29.30133\INCLUDE\UTILITY
D:\SOFTWARE\VISUALSTUDIOCOMMUNITY2019\VC\TOOLS\MSVC\14.29.30133\INCLUDE\TYPE_TRAITS
D:\SOFTWARE\VISUALSTUDIOCOMMUNITY2019\VC\TOOLS\MSVC\14.29.30133\INCLUDE\CSTDINT
D:\SOFTWARE\VISUALSTUDIOCOMMUNITY2019\VC\TOOLS\MSVC\14.29.30133\INCLUDE\STDINT.H
D:\SOFTWARE\VISUALSTUDIOCOMMUNITY2019\VC\TOOLS\MSVC\14.29.30133\INCLUDE\STREAMBUF
D:\SOFTWARE\VISUALSTUDIOCOMMUNITY2019\VC\TOOLS\MSVC\14.29.30133\INCLUDE\XIOSBASE
C:\PROGRAM FILES (X86)\WINDOWS KITS\10\INCLUDE\10.0.19041.0\UCRT\SHARE.H
D:\SOFTWARE\VISUALSTUDIOCOMMUNITY2019\VC\TOOLS\MSVC\14.29.30133\INCLUDE\SYSTEM_ERROR
D:\SOFTWARE\VISUALSTUDIOCOMMUNITY2019\VC\TOOLS\MSVC\14.29.30133\INCLUDE\__MSVC_SYSTEM_ERROR_ABI.HPP
D:\SOFTWARE\VISUALSTUDIOCOMMUNITY2019\VC\TOOLS\MSVC\14.29.30133\INCLUDE\CERRNO
D:\SOFTWARE\VISUALSTUDIOCOMMUNITY2019\VC\TOOLS\MSVC\14.29.30133\INCLUDE\STDEXCEPT
D:\SOFTWARE\VISUALSTUDIOCOMMUNITY2019\VC\TOOLS\MSVC\14.29.30133\INCLUDE\EXCEPTION
C:\PROGRAM FILES (X86)\WINDOWS KITS\10\INCLUDE\10.0.19041.0\UCRT\MALLOC.H
D:\SOFTWARE\VISUALSTUDIOCOMMUNITY2019\VC\TOOLS\MSVC\14.29.30133\INCLUDE\VCRUNTIME_EXCEPTION.H
D:\SOFTWARE\VISUALSTUDIOCOMMUNITY2019\VC\TOOLS\MSVC\14.29.30133\INCLUDE\EH.H
C:\PROGRAM FILES (X86)\WINDOWS KITS\10\INCLUDE\10.0.19041.0\UCRT\CORECRT_TERMINATE.H
D:\SOFTWARE\VISUALSTUDIOCOMMUNITY2019\VC\TOOLS\MSVC\14.29.30133\INCLUDE\XSTRING
D:\SOFTWARE\VISUALSTUDIOCOMMUNITY2019\VC\TOOLS\MSVC\14.29.30133\INCLUDE\XMEMORY
D:\SOFTWARE\VISUALSTUDIOCOMMUNITY2019\VC\TOOLS\MSVC\14.29.30133\INCLUDE\LIMITS
D:\SOFTWARE\VISUALSTUDIOCOMMUNITY2019\VC\TOOLS\MSVC\14.29.30133\INCLUDE\CFLOAT
C:\PROGRAM FILES (X86)\WINDOWS KITS\10\INCLUDE\10.0.19041.0\UCRT\FLOAT.H
D:\SOFTWARE\VISUALSTUDIOCOMMUNITY2019\VC\TOOLS\MSVC\14.29.30133\INCLUDE\ISA_AVAILABILITY.H
D:\SOFTWARE\VISUALSTUDIOCOMMUNITY2019\VC\TOOLS\MSVC\14.29.30133\INCLUDE\NEW
D:\SOFTWARE\VISUALSTUDIOCOMMUNITY2019\VC\TOOLS\MSVC\14.29.30133\INCLUDE\XATOMIC.H
D:\SOFTWARE\VISUALSTUDIOCOMMUNITY2019\VC\TOOLS\MSVC\14.29.30133\INCLUDE\XCALL_ONCE.H
D:\SOFTWARE\VISUALSTUDIOCOMMUNITY2019\VC\TOOLS\MSVC\14.29.30133\INCLUDE\XERRC.H
D:\SOFTWARE\VISUALSTUDIOCOMMUNITY2019\VC\TOOLS\MSVC\14.29.30133\INCLUDE\ATOMIC
D:\SOFTWARE\VISUALSTUDIOCOMMUNITY2019\VC\TOOLS\MSVC\14.29.30133\INCLUDE\XTHREADS.H
D:\SOFTWARE\VISUALSTUDIOCOMMUNITY2019\VC\TOOLS\MSVC\14.29.30133\INCLUDE\XTIMEC.H
D:\SOFTWARE\VISUALSTUDIOCOMMUNITY2019\VC\TOOLS\MSVC\14.29.30133\INCLUDE\CTIME
C:\PROGRAM FILES (X86)\WINDOWS KITS\10\INCLUDE\10.0.19041.0\UCRT\TIME.H
D:\SOFTWARE\VISUALSTUDIOCOMMUNITY2019\VC\TOOLS\MSVC\14.29.30133\INCLUDE\XLOCALE
D:\SOFTWARE\VISUALSTUDIOCOMMUNITY2019\VC\TOOLS\MSVC\14.29.30133\INCLUDE\MEMORY
D:\SOFTWARE\VISUALSTUDIOCOMMUNITY2019\VC\TOOLS\MSVC\14.29.30133\INCLUDE\TYPEINFO
D:\SOFTWARE\VISUALSTUDIOCOMMUNITY2019\VC\TOOLS\MSVC\14.29.30133\INCLUDE\VCRUNTIME_TYPEINFO.H
D:\SOFTWARE\VISUALSTUDIOCOMMUNITY2019\VC\TOOLS\MSVC\14.29.30133\INCLUDE\XFACET
D:\SOFTWARE\VISUALSTUDIOCOMMUNITY2019\VC\TOOLS\MSVC\14.29.30133\INCLUDE\XLOCINFO
D:\SOFTWARE\VISUALSTUDIOCOMMUNITY2019\VC\TOOLS\MSVC\14.29.30133\INCLUDE\XLOCINFO.H
D:\SOFTWARE\VISUALSTUDIOCOMMUNITY2019\VC\TOOLS\MSVC\14.29.30133\INCLUDE\CCTYPE
C:\PROGRAM FILES (X86)\WINDOWS KITS\10\INCLUDE\10.0.19041.0\UCRT\CTYPE.H
D:\SOFTWARE\VISUALSTUDIOCOMMUNITY2019\VC\TOOLS\MSVC\14.29.30133\INCLUDE\CLOCALE
C:\PROGRAM FILES (X86)\WINDOWS KITS\10\INCLUDE\10.0.19041.0\UCRT\LOCALE.H
D:\SOFTWARE\VISUALSTUDIOCOMMUNITY2019\VC\TOOLS\MSVC\14.29.30133\INCLUDE\CHRONO
D:\SOFTWARE\VISUALSTUDIOCOMMUNITY2019\VC\TOOLS\MSVC\14.29.30133\INCLUDE\RATIO
^D:\SCHOOL\NI-KOP\GITLAB\TASK02\NI-KOP - TASK2 - EXAKTNI A HEURISTICKA RESENI PB\NI-KOP - TASK2 - EXAKTNI A HEURISTICKA RESENI PB\MAIN.CPP
D:\SCHOOL\NI-KOP\GITLAB\TASK02\NI-KOP - TASK2 - EXAKTNI A HEURISTICKA RESENI PB\NI-KOP - TASK2 - EXAKTNI A HEURISTICKA RESENI PB\BAG.H
D:\SOFTWARE\VISUALSTUDIOCOMMUNITY2019\VC\TOOLS\MSVC\14.29.30133\INCLUDE\IOSTREAM
D:\SOFTWARE\VISUALSTUDIOCOMMUNITY2019\VC\TOOLS\MSVC\14.29.30133\INCLUDE\YVALS_CORE.H
D:\SOFTWARE\VISUALSTUDIOCOMMUNITY2019\VC\TOOLS\MSVC\14.29.30133\INCLUDE\VCRUNTIME.H
D:\SOFTWARE\VISUALSTUDIOCOMMUNITY2019\VC\TOOLS\MSVC\14.29.30133\INCLUDE\SAL.H
D:\SOFTWARE\VISUALSTUDIOCOMMUNITY2019\VC\TOOLS\MSVC\14.29.30133\INCLUDE\CONCURRENCYSAL.H
D:\SOFTWARE\VISUALSTUDIOCOMMUNITY2019\VC\TOOLS\MSVC\14.29.30133\INCLUDE\VADEFS.H
D:\SOFTWARE\VISUALSTUDIOCOMMUNITY2019\VC\TOOLS\MSVC\14.29.30133\INCLUDE\XKEYCHECK.H
D:\SOFTWARE\VISUALSTUDIOCOMMUNITY2019\VC\TOOLS\MSVC\14.29.30133\INCLUDE\ISTREAM
D:\SOFTWARE\VISUALSTUDIOCOMMUNITY2019\VC\TOOLS\MSVC\14.29.30133\INCLUDE\OSTREAM
D:\SOFTWARE\VISUALSTUDIOCOMMUNITY2019\VC\TOOLS\MSVC\14.29.30133\INCLUDE\IOS
D:\SOFTWARE\VISUALSTUDIOCOMMUNITY2019\VC\TOOLS\MSVC\14.29.30133\INCLUDE\XLOCNUM
D:\SOFTWARE\VISUALSTUDIOCOMMUNITY2019\VC\TOOLS\MSVC\14.29.30133\INCLUDE\CLIMITS
D:\SOFTWARE\VISUALSTUDIOCOMMUNITY2019\VC\TOOLS\MSVC\14.29.30133\INCLUDE\LIMITS.H
D:\SOFTWARE\VISUALSTUDIOCOMMUNITY2019\VC\TOOLS\MSVC\14.29.30133\INCLUDE\CMATH
D:\SOFTWARE\VISUALSTUDIOCOMMUNITY2019\VC\TOOLS\MSVC\14.29.30133\INCLUDE\YVALS.H
C:\PROGRAM FILES (X86)\WINDOWS KITS\10\INCLUDE\10.0.19041.0\UCRT\CRTDBG.H
C:\PROGRAM FILES (X86)\WINDOWS KITS\10\INCLUDE\10.0.19041.0\UCRT\CORECRT.H
D:\SOFTWARE\VISUALSTUDIOCOMMUNITY2019\VC\TOOLS\MSVC\14.29.30133\INCLUDE\VCRUNTIME_NEW_DEBUG.H
D:\SOFTWARE\VISUALSTUDIOCOMMUNITY2019\VC\TOOLS\MSVC\14.29.30133\INCLUDE\VCRUNTIME_NEW.H
D:\SOFTWARE\VISUALSTUDIOCOMMUNITY2019\VC\TOOLS\MSVC\14.29.30133\INCLUDE\CRTDEFS.H
D:\SOFTWARE\VISUALSTUDIOCOMMUNITY2019\VC\TOOLS\MSVC\14.29.30133\INCLUDE\USE_ANSI.H
D:\SOFTWARE\VISUALSTUDIOCOMMUNITY2019\VC\TOOLS\MSVC\14.29.30133\INCLUDE\CSTDLIB
C:\PROGRAM FILES (X86)\WINDOWS KITS\10\INCLUDE\10.0.19041.0\UCRT\MATH.H
C:\PROGRAM FILES (X86)\WINDOWS KITS\10\INCLUDE\10.0.19041.0\UCRT\CORECRT_MATH.H
C:\PROGRAM FILES (X86)\WINDOWS KITS\10\INCLUDE\10.0.19041.0\UCRT\STDLIB.H
C:\PROGRAM FILES (X86)\WINDOWS KITS\10\INCLUDE\10.0.19041.0\UCRT\CORECRT_MALLOC.H
C:\PROGRAM FILES (X86)\WINDOWS KITS\10\INCLUDE\10.0.19041.0\UCRT\CORECRT_SEARCH.H
C:\PROGRAM FILES (X86)\WINDOWS KITS\10\INCLUDE\10.0.19041.0\UCRT\STDDEF.H
C:\PROGRAM FILES (X86)\WINDOWS KITS\10\INCLUDE\10.0.19041.0\UCRT\CORECRT_WSTDLIB.H
D:\SOFTWARE\VISUALSTUDIOCOMMUNITY2019\VC\TOOLS\MSVC\14.29.30133\INCLUDE\XTR1COMMON
D:\SOFTWARE\VISUALSTUDIOCOMMUNITY2019\VC\TOOLS\MSVC\14.29.30133\INCLUDE\INTRIN0.H
D:\SOFTWARE\VISUALSTUDIOCOMMUNITY2019\VC\TOOLS\MSVC\14.29.30133\INCLUDE\INTRIN0.INL.H
D:\SOFTWARE\VISUALSTUDIOCOMMUNITY2019\VC\TOOLS\MSVC\14.29.30133\INCLUDE\CSTDIO
C:\PROGRAM FILES (X86)\WINDOWS KITS\10\INCLUDE\10.0.19041.0\UCRT\STDIO.H
C:\PROGRAM FILES (X86)\WINDOWS KITS\10\INCLUDE\10.0.19041.0\UCRT\CORECRT_WSTDIO.H
C:\PROGRAM FILES (X86)\WINDOWS KITS\10\INCLUDE\10.0.19041.0\UCRT\CORECRT_STDIO_CONFIG.H
D:\SOFTWARE\VISUALSTUDIOCOMMUNITY2019\VC\TOOLS\MSVC\14.29.30133\INCLUDE\ITERATOR
D:\SOFTWARE\VISUALSTUDIOCOMMUNITY2019\VC\TOOLS\MSVC\14.29.30133\INCLUDE\IOSFWD
D:\SOFTWARE\VISUALSTUDIOCOMMUNITY2019\VC\TOOLS\MSVC\14.29.30133\INCLUDE\CSTRING
C:\PROGRAM FILES (X86)\WINDOWS KITS\10\INCLUDE\10.0.19041.0\UCRT\STRING.H
C:\PROGRAM FILES (X86)\WINDOWS KITS\10\INCLUDE\10.0.19041.0\UCRT\CORECRT_MEMORY.H
C:\PROGRAM FILES (X86)\WINDOWS KITS\10\INCLUDE\10.0.19041.0\UCRT\CORECRT_MEMCPY_S.H
C:\PROGRAM FILES (X86)\WINDOWS KITS\10\INCLUDE\10.0.19041.0\UCRT\ERRNO.H
D:\SOFTWARE\VISUALSTUDIOCOMMUNITY2019\VC\TOOLS\MSVC\14.29.30133\INCLUDE\VCRUNTIME_STRING.H
C:\PROGRAM FILES (X86)\WINDOWS KITS\10\INCLUDE\10.0.19041.0\UCRT\CORECRT_WSTRING.H
D:\SOFTWARE\VISUALSTUDIOCOMMUNITY2019\VC\TOOLS\MSVC\14.29.30133\INCLUDE\CWCHAR
C:\PROGRAM FILES (X86)\WINDOWS KITS\10\INCLUDE\10.0.19041.0\UCRT\WCHAR.H
C:\PROGRAM FILES (X86)\WINDOWS KITS\10\INCLUDE\10.0.19041.0\UCRT\CORECRT_WCONIO.H
C:\PROGRAM FILES (X86)\WINDOWS KITS\10\INCLUDE\10.0.19041.0\UCRT\CORECRT_WCTYPE.H
C:\PROGRAM FILES (X86)\WINDOWS KITS\10\INCLUDE\10.0.19041.0\UCRT\CORECRT_WDIRECT.H
C:\PROGRAM FILES (X86)\WINDOWS KITS\10\INCLUDE\10.0.19041.0\UCRT\CORECRT_WIO.H
C:\PROGRAM FILES (X86)\WINDOWS KITS\10\INCLUDE\10.0.19041.0\UCRT\CORECRT_SHARE.H
C:\PROGRAM FILES (X86)\WINDOWS KITS\10\INCLUDE\10.0.19041.0\UCRT\CORECRT_WPROCESS.H
C:\PROGRAM FILES (X86)\WINDOWS KITS\10\INCLUDE\10.0.19041.0\UCRT\CORECRT_WTIME.H
C:\PROGRAM FILES (X86)\WINDOWS KITS\10\INCLUDE\10.0.19041.0\UCRT\SYS\STAT.H
C:\PROGRAM FILES (X86)\WINDOWS KITS\10\INCLUDE\10.0.19041.0\UCRT\SYS\TYPES.H
D:\SOFTWARE\VISUALSTUDIOCOMMUNITY2019\VC\TOOLS\MSVC\14.29.30133\INCLUDE\XSTDDEF
D:\SOFTWARE\VISUALSTUDIOCOMMUNITY2019\VC\TOOLS\MSVC\14.29.30133\INCLUDE\CSTDDEF
D:\SOFTWARE\VISUALSTUDIOCOMMUNITY2019\VC\TOOLS\MSVC\14.29.30133\INCLUDE\INITIALIZER_LIST
D:\SOFTWARE\VISUALSTUDIOCOMMUNITY2019\VC\TOOLS\MSVC\14.29.30133\INCLUDE\XUTILITY
D:\SOFTWARE\VISUALSTUDIOCOMMUNITY2019\VC\TOOLS\MSVC\14.29.30133\INCLUDE\UTILITY
D:\SOFTWARE\VISUALSTUDIOCOMMUNITY2019\VC\TOOLS\MSVC\14.29.30133\INCLUDE\TYPE_TRAITS
D:\SOFTWARE\VISUALSTUDIOCOMMUNITY2019\VC\TOOLS\MSVC\14.29.30133\INCLUDE\CSTDINT
D:\SOFTWARE\VISUALSTUDIOCOMMUNITY2019\VC\TOOLS\MSVC\14.29.30133\INCLUDE\STDINT.H
D:\SOFTWARE\VISUALSTUDIOCOMMUNITY2019\VC\TOOLS\MSVC\14.29.30133\INCLUDE\STREAMBUF
D:\SOFTWARE\VISUALSTUDIOCOMMUNITY2019\VC\TOOLS\MSVC\14.29.30133\INCLUDE\XIOSBASE
C:\PROGRAM FILES (X86)\WINDOWS KITS\10\INCLUDE\10.0.19041.0\UCRT\SHARE.H
D:\SOFTWARE\VISUALSTUDIOCOMMUNITY2019\VC\TOOLS\MSVC\14.29.30133\INCLUDE\SYSTEM_ERROR
D:\SOFTWARE\VISUALSTUDIOCOMMUNITY2019\VC\TOOLS\MSVC\14.29.30133\INCLUDE\__MSVC_SYSTEM_ERROR_ABI.HPP
D:\SOFTWARE\VISUALSTUDIOCOMMUNITY2019\VC\TOOLS\MSVC\14.29.30133\INCLUDE\CERRNO
D:\SOFTWARE\VISUALSTUDIOCOMMUNITY2019\VC\TOOLS\MSVC\14.29.30133\INCLUDE\STDEXCEPT
D:\SOFTWARE\VISUALSTUDIOCOMMUNITY2019\VC\TOOLS\MSVC\14.29.30133\INCLUDE\EXCEPTION
C:\PROGRAM FILES (X86)\WINDOWS KITS\10\INCLUDE\10.0.19041.0\UCRT\MALLOC.H
D:\SOFTWARE\VISUALSTUDIOCOMMUNITY2019\VC\TOOLS\MSVC\14.29.30133\INCLUDE\VCRUNTIME_EXCEPTION.H
D:\SOFTWARE\VISUALSTUDIOCOMMUNITY2019\VC\TOOLS\MSVC\14.29.30133\INCLUDE\EH.H
C:\PROGRAM FILES (X86)\WINDOWS KITS\10\INCLUDE\10.0.19041.0\UCRT\CORECRT_TERMINATE.H
D:\SOFTWARE\VISUALSTUDIOCOMMUNITY2019\VC\TOOLS\MSVC\14.29.30133\INCLUDE\XSTRING
D:\SOFTWARE\VISUALSTUDIOCOMMUNITY2019\VC\TOOLS\MSVC\14.29.30133\INCLUDE\XMEMORY
D:\SOFTWARE\VISUALSTUDIOCOMMUNITY2019\VC\TOOLS\MSVC\14.29.30133\INCLUDE\LIMITS
D:\SOFTWARE\VISUALSTUDIOCOMMUNITY2019\VC\TOOLS\MSVC\14.29.30133\INCLUDE\CFLOAT
C:\PROGRAM FILES (X86)\WINDOWS KITS\10\INCLUDE\10.0.19041.0\UCRT\FLOAT.H
D:\SOFTWARE\VISUALSTUDIOCOMMUNITY2019\VC\TOOLS\MSVC\14.29.30133\INCLUDE\ISA_AVAILABILITY.H
D:\SOFTWARE\VISUALSTUDIOCOMMUNITY2019\VC\TOOLS\MSVC\14.29.30133\INCLUDE\NEW
D:\SOFTWARE\VISUALSTUDIOCOMMUNITY2019\VC\TOOLS\MSVC\14.29.30133\INCLUDE\XATOMIC.H
D:\SOFTWARE\VISUALSTUDIOCOMMUNITY2019\VC\TOOLS\MSVC\14.29.30133\INCLUDE\XCALL_ONCE.H
D:\SOFTWARE\VISUALSTUDIOCOMMUNITY2019\VC\TOOLS\MSVC\14.29.30133\INCLUDE\XERRC.H
D:\SOFTWARE\VISUALSTUDIOCOMMUNITY2019\VC\TOOLS\MSVC\14.29.30133\INCLUDE\ATOMIC
D:\SOFTWARE\VISUALSTUDIOCOMMUNITY2019\VC\TOOLS\MSVC\14.29.30133\INCLUDE\XTHREADS.H
D:\SOFTWARE\VISUALSTUDIOCOMMUNITY2019\VC\TOOLS\MSVC\14.29.30133\INCLUDE\XTIMEC.H
D:\SOFTWARE\VISUALSTUDIOCOMMUNITY2019\VC\TOOLS\MSVC\14.29.30133\INCLUDE\CTIME
C:\PROGRAM FILES (X86)\WINDOWS KITS\10\INCLUDE\10.0.19041.0\UCRT\TIME.H
D:\SOFTWARE\VISUALSTUDIOCOMMUNITY2019\VC\TOOLS\MSVC\14.29.30133\INCLUDE\XLOCALE
D:\SOFTWARE\VISUALSTUDIOCOMMUNITY2019\VC\TOOLS\MSVC\14.29.30133\INCLUDE\MEMORY
D:\SOFTWARE\VISUALSTUDIOCOMMUNITY2019\VC\TOOLS\MSVC\14.29.30133\INCLUDE\TYPEINFO
D:\SOFTWARE\VISUALSTUDIOCOMMUNITY2019\VC\TOOLS\MSVC\14.29.30133\INCLUDE\VCRUNTIME_TYPEINFO.H
D:\SOFTWARE\VISUALSTUDIOCOMMUNITY2019\VC\TOOLS\MSVC\14.29.30133\INCLUDE\XFACET
D:\SOFTWARE\VISUALSTUDIOCOMMUNITY2019\VC\TOOLS\MSVC\14.29.30133\INCLUDE\XLOCINFO
D:\SOFTWARE\VISUALSTUDIOCOMMUNITY2019\VC\TOOLS\MSVC\14.29.30133\INCLUDE\XLOCINFO.H
D:\SOFTWARE\VISUALSTUDIOCOMMUNITY2019\VC\TOOLS\MSVC\14.29.30133\INCLUDE\CCTYPE
C:\PROGRAM FILES (X86)\WINDOWS KITS\10\INCLUDE\10.0.19041.0\UCRT\CTYPE.H
D:\SOFTWARE\VISUALSTUDIOCOMMUNITY2019\VC\TOOLS\MSVC\14.29.30133\INCLUDE\CLOCALE
C:\PROGRAM FILES (X86)\WINDOWS KITS\10\INCLUDE\10.0.19041.0\UCRT\LOCALE.H
D:\SOFTWARE\VISUALSTUDIOCOMMUNITY2019\VC\TOOLS\MSVC\14.29.30133\INCLUDE\VECTOR
D:\SOFTWARE\VISUALSTUDIOCOMMUNITY2019\VC\TOOLS\MSVC\14.29.30133\INCLUDE\STRING
D:\SOFTWARE\VISUALSTUDIOCOMMUNITY2019\VC\TOOLS\MSVC\14.29.30133\INCLUDE\FSTREAM
D:\SOFTWARE\VISUALSTUDIOCOMMUNITY2019\VC\TOOLS\MSVC\14.29.30133\INCLUDE\ALGORITHM
D:\SCHOOL\NI-KOP\GITLAB\TASK02\NI-KOP - TASK2 - EXAKTNI A HEURISTICKA RESENI PB\NI-KOP - TASK2 - EXAKTNI A HEURISTICKA RESENI PB\TIMER.H
D:\SOFTWARE\VISUALSTUDIOCOMMUNITY2019\VC\TOOLS\MSVC\14.29.30133\INCLUDE\CHRONO
D:\SOFTWARE\VISUALSTUDIOCOMMUNITY2019\VC\TOOLS\MSVC\14.29.30133\INCLUDE\RATIO
^D:\SCHOOL\NI-KOP\GITLAB\TASK02\NI-KOP - TASK2 - EXAKTNI A HEURISTICKA RESENI PB\NI-KOP - TASK2 - EXAKTNI A HEURISTICKA RESENI PB\BAG.CPP
C:\WINDOWS\GLOBALIZATION\SORTING\SORTDEFAULT.NLS
D:\SOFTWARE\VISUALSTUDIOCOMMUNITY2019\VC\TOOLS\MSVC\14.29.30133\BIN\HOSTX86\X64\1033\CLUI.DLL
C:\WINDOWS\SYSTEM32\TZRES.DLL
D:\SCHOOL\NI-KOP\GITLAB\TASK02\NI-KOP - TASK2 - EXAKTNI A HEURISTICKA RESENI PB\NI-KOP - TASK2 - EXAKTNI A HEURISTICKA RESENI PB\BAG.H
D:\SOFTWARE\VISUALSTUDIOCOMMUNITY2019\VC\TOOLS\MSVC\14.29.30133\INCLUDE\IOSTREAM
D:\SOFTWARE\VISUALSTUDIOCOMMUNITY2019\VC\TOOLS\MSVC\14.29.30133\INCLUDE\YVALS_CORE.H
D:\SOFTWARE\VISUALSTUDIOCOMMUNITY2019\VC\TOOLS\MSVC\14.29.30133\INCLUDE\VCRUNTIME.H
D:\SOFTWARE\VISUALSTUDIOCOMMUNITY2019\VC\TOOLS\MSVC\14.29.30133\INCLUDE\SAL.H
D:\SOFTWARE\VISUALSTUDIOCOMMUNITY2019\VC\TOOLS\MSVC\14.29.30133\INCLUDE\CONCURRENCYSAL.H
D:\SOFTWARE\VISUALSTUDIOCOMMUNITY2019\VC\TOOLS\MSVC\14.29.30133\INCLUDE\VADEFS.H
D:\SOFTWARE\VISUALSTUDIOCOMMUNITY2019\VC\TOOLS\MSVC\14.29.30133\INCLUDE\XKEYCHECK.H
D:\SOFTWARE\VISUALSTUDIOCOMMUNITY2019\VC\TOOLS\MSVC\14.29.30133\INCLUDE\ISTREAM
D:\SOFTWARE\VISUALSTUDIOCOMMUNITY2019\VC\TOOLS\MSVC\14.29.30133\INCLUDE\OSTREAM
D:\SOFTWARE\VISUALSTUDIOCOMMUNITY2019\VC\TOOLS\MSVC\14.29.30133\INCLUDE\IOS
D:\SOFTWARE\VISUALSTUDIOCOMMUNITY2019\VC\TOOLS\MSVC\14.29.30133\INCLUDE\XLOCNUM
D:\SOFTWARE\VISUALSTUDIOCOMMUNITY2019\VC\TOOLS\MSVC\14.29.30133\INCLUDE\CLIMITS
D:\SOFTWARE\VISUALSTUDIOCOMMUNITY2019\VC\TOOLS\MSVC\14.29.30133\INCLUDE\LIMITS.H
D:\SOFTWARE\VISUALSTUDIOCOMMUNITY2019\VC\TOOLS\MSVC\14.29.30133\INCLUDE\CMATH
D:\SOFTWARE\VISUALSTUDIOCOMMUNITY2019\VC\TOOLS\MSVC\14.29.30133\INCLUDE\YVALS.H
C:\PROGRAM FILES (X86)\WINDOWS KITS\10\INCLUDE\10.0.19041.0\UCRT\CRTDBG.H
C:\PROGRAM FILES (X86)\WINDOWS KITS\10\INCLUDE\10.0.19041.0\UCRT\CORECRT.H
D:\SOFTWARE\VISUALSTUDIOCOMMUNITY2019\VC\TOOLS\MSVC\14.29.30133\INCLUDE\VCRUNTIME_NEW_DEBUG.H
D:\SOFTWARE\VISUALSTUDIOCOMMUNITY2019\VC\TOOLS\MSVC\14.29.30133\INCLUDE\VCRUNTIME_NEW.H
D:\SOFTWARE\VISUALSTUDIOCOMMUNITY2019\VC\TOOLS\MSVC\14.29.30133\INCLUDE\CRTDEFS.H
D:\SOFTWARE\VISUALSTUDIOCOMMUNITY2019\VC\TOOLS\MSVC\14.29.30133\INCLUDE\USE_ANSI.H
D:\SOFTWARE\VISUALSTUDIOCOMMUNITY2019\VC\TOOLS\MSVC\14.29.30133\INCLUDE\CSTDLIB
C:\PROGRAM FILES (X86)\WINDOWS KITS\10\INCLUDE\10.0.19041.0\UCRT\MATH.H
C:\PROGRAM FILES (X86)\WINDOWS KITS\10\INCLUDE\10.0.19041.0\UCRT\CORECRT_MATH.H
C:\PROGRAM FILES (X86)\WINDOWS KITS\10\INCLUDE\10.0.19041.0\UCRT\STDLIB.H
C:\PROGRAM FILES (X86)\WINDOWS KITS\10\INCLUDE\10.0.19041.0\UCRT\CORECRT_MALLOC.H
C:\PROGRAM FILES (X86)\WINDOWS KITS\10\INCLUDE\10.0.19041.0\UCRT\CORECRT_SEARCH.H
C:\PROGRAM FILES (X86)\WINDOWS KITS\10\INCLUDE\10.0.19041.0\UCRT\STDDEF.H
C:\PROGRAM FILES (X86)\WINDOWS KITS\10\INCLUDE\10.0.19041.0\UCRT\CORECRT_WSTDLIB.H
D:\SOFTWARE\VISUALSTUDIOCOMMUNITY2019\VC\TOOLS\MSVC\14.29.30133\INCLUDE\XTR1COMMON
D:\SOFTWARE\VISUALSTUDIOCOMMUNITY2019\VC\TOOLS\MSVC\14.29.30133\INCLUDE\INTRIN0.H
D:\SOFTWARE\VISUALSTUDIOCOMMUNITY2019\VC\TOOLS\MSVC\14.29.30133\INCLUDE\INTRIN0.INL.H
D:\SOFTWARE\VISUALSTUDIOCOMMUNITY2019\VC\TOOLS\MSVC\14.29.30133\INCLUDE\CSTDIO
C:\PROGRAM FILES (X86)\WINDOWS KITS\10\INCLUDE\10.0.19041.0\UCRT\STDIO.H
C:\PROGRAM FILES (X86)\WINDOWS KITS\10\INCLUDE\10.0.19041.0\UCRT\CORECRT_WSTDIO.H
C:\PROGRAM FILES (X86)\WINDOWS KITS\10\INCLUDE\10.0.19041.0\UCRT\CORECRT_STDIO_CONFIG.H
D:\SOFTWARE\VISUALSTUDIOCOMMUNITY2019\VC\TOOLS\MSVC\14.29.30133\INCLUDE\ITERATOR
D:\SOFTWARE\VISUALSTUDIOCOMMUNITY2019\VC\TOOLS\MSVC\14.29.30133\INCLUDE\IOSFWD
D:\SOFTWARE\VISUALSTUDIOCOMMUNITY2019\VC\TOOLS\MSVC\14.29.30133\INCLUDE\CSTRING
C:\PROGRAM FILES (X86)\WINDOWS KITS\10\INCLUDE\10.0.19041.0\UCRT\STRING.H
C:\PROGRAM FILES (X86)\WINDOWS KITS\10\INCLUDE\10.0.19041.0\UCRT\CORECRT_MEMORY.H
C:\PROGRAM FILES (X86)\WINDOWS KITS\10\INCLUDE\10.0.19041.0\UCRT\CORECRT_MEMCPY_S.H
C:\PROGRAM FILES (X86)\WINDOWS KITS\10\INCLUDE\10.0.19041.0\UCRT\ERRNO.H
D:\SOFTWARE\VISUALSTUDIOCOMMUNITY2019\VC\TOOLS\MSVC\14.29.30133\INCLUDE\VCRUNTIME_STRING.H
C:\PROGRAM FILES (X86)\WINDOWS KITS\10\INCLUDE\10.0.19041.0\UCRT\CORECRT_WSTRING.H
D:\SOFTWARE\VISUALSTUDIOCOMMUNITY2019\VC\TOOLS\MSVC\14.29.30133\INCLUDE\CWCHAR
C:\PROGRAM FILES (X86)\WINDOWS KITS\10\INCLUDE\10.0.19041.0\UCRT\WCHAR.H
C:\PROGRAM FILES (X86)\WINDOWS KITS\10\INCLUDE\10.0.19041.0\UCRT\CORECRT_WCONIO.H
C:\PROGRAM FILES (X86)\WINDOWS KITS\10\INCLUDE\10.0.19041.0\UCRT\CORECRT_WCTYPE.H
C:\PROGRAM FILES (X86)\WINDOWS KITS\10\INCLUDE\10.0.19041.0\UCRT\CORECRT_WDIRECT.H
C:\PROGRAM FILES (X86)\WINDOWS KITS\10\INCLUDE\10.0.19041.0\UCRT\CORECRT_WIO.H
C:\PROGRAM FILES (X86)\WINDOWS KITS\10\INCLUDE\10.0.19041.0\UCRT\CORECRT_SHARE.H
C:\PROGRAM FILES (X86)\WINDOWS KITS\10\INCLUDE\10.0.19041.0\UCRT\CORECRT_WPROCESS.H
C:\PROGRAM FILES (X86)\WINDOWS KITS\10\INCLUDE\10.0.19041.0\UCRT\CORECRT_WTIME.H
C:\PROGRAM FILES (X86)\WINDOWS KITS\10\INCLUDE\10.0.19041.0\UCRT\SYS\STAT.H
C:\PROGRAM FILES (X86)\WINDOWS KITS\10\INCLUDE\10.0.19041.0\UCRT\SYS\TYPES.H
D:\SOFTWARE\VISUALSTUDIOCOMMUNITY2019\VC\TOOLS\MSVC\14.29.30133\INCLUDE\XSTDDEF
D:\SOFTWARE\VISUALSTUDIOCOMMUNITY2019\VC\TOOLS\MSVC\14.29.30133\INCLUDE\CSTDDEF
D:\SOFTWARE\VISUALSTUDIOCOMMUNITY2019\VC\TOOLS\MSVC\14.29.30133\INCLUDE\INITIALIZER_LIST
D:\SOFTWARE\VISUALSTUDIOCOMMUNITY2019\VC\TOOLS\MSVC\14.29.30133\INCLUDE\XUTILITY
D:\SOFTWARE\VISUALSTUDIOCOMMUNITY2019\VC\TOOLS\MSVC\14.29.30133\INCLUDE\UTILITY
D:\SOFTWARE\VISUALSTUDIOCOMMUNITY2019\VC\TOOLS\MSVC\14.29.30133\INCLUDE\TYPE_TRAITS
D:\SOFTWARE\VISUALSTUDIOCOMMUNITY2019\VC\TOOLS\MSVC\14.29.30133\INCLUDE\CSTDINT
D:\SOFTWARE\VISUALSTUDIOCOMMUNITY2019\VC\TOOLS\MSVC\14.29.30133\INCLUDE\STDINT.H
D:\SOFTWARE\VISUALSTUDIOCOMMUNITY2019\VC\TOOLS\MSVC\14.29.30133\INCLUDE\STREAMBUF
D:\SOFTWARE\VISUALSTUDIOCOMMUNITY2019\VC\TOOLS\MSVC\14.29.30133\INCLUDE\XIOSBASE
C:\PROGRAM FILES (X86)\WINDOWS KITS\10\INCLUDE\10.0.19041.0\UCRT\SHARE.H
D:\SOFTWARE\VISUALSTUDIOCOMMUNITY2019\VC\TOOLS\MSVC\14.29.30133\INCLUDE\SYSTEM_ERROR
D:\SOFTWARE\VISUALSTUDIOCOMMUNITY2019\VC\TOOLS\MSVC\14.29.30133\INCLUDE\__MSVC_SYSTEM_ERROR_ABI.HPP
D:\SOFTWARE\VISUALSTUDIOCOMMUNITY2019\VC\TOOLS\MSVC\14.29.30133\INCLUDE\CERRNO
D:\SOFTWARE\VISUALSTUDIOCOMMUNITY2019\VC\TOOLS\MSVC\14.29.30133\INCLUDE\STDEXCEPT
D:\SOFTWARE\VISUALSTUDIOCOMMUNITY2019\VC\TOOLS\MSVC\14.29.30133\INCLUDE\EXCEPTION
C:\PROGRAM FILES (X86)\WINDOWS KITS\10\INCLUDE\10.0.19041.0\UCRT\MALLOC.H
D:\SOFTWARE\VISUALSTUDIOCOMMUNITY2019\VC\TOOLS\MSVC\14.29.30133\INCLUDE\VCRUNTIME_EXCEPTION.H
D:\SOFTWARE\VISUALSTUDIOCOMMUNITY2019\VC\TOOLS\MSVC\14.29.30133\INCLUDE\EH.H
C:\PROGRAM FILES (X86)\WINDOWS KITS\10\INCLUDE\10.0.19041.0\UCRT\CORECRT_TERMINATE.H
D:\SOFTWARE\VISUALSTUDIOCOMMUNITY2019\VC\TOOLS\MSVC\14.29.30133\INCLUDE\XSTRING
D:\SOFTWARE\VISUALSTUDIOCOMMUNITY2019\VC\TOOLS\MSVC\14.29.30133\INCLUDE\XMEMORY
D:\SOFTWARE\VISUALSTUDIOCOMMUNITY2019\VC\TOOLS\MSVC\14.29.30133\INCLUDE\LIMITS
D:\SOFTWARE\VISUALSTUDIOCOMMUNITY2019\VC\TOOLS\MSVC\14.29.30133\INCLUDE\CFLOAT
C:\PROGRAM FILES (X86)\WINDOWS KITS\10\INCLUDE\10.0.19041.0\UCRT\FLOAT.H
D:\SOFTWARE\VISUALSTUDIOCOMMUNITY2019\VC\TOOLS\MSVC\14.29.30133\INCLUDE\ISA_AVAILABILITY.H
D:\SOFTWARE\VISUALSTUDIOCOMMUNITY2019\VC\TOOLS\MSVC\14.29.30133\INCLUDE\NEW
D:\SOFTWARE\VISUALSTUDIOCOMMUNITY2019\VC\TOOLS\MSVC\14.29.30133\INCLUDE\XATOMIC.H
D:\SOFTWARE\VISUALSTUDIOCOMMUNITY2019\VC\TOOLS\MSVC\14.29.30133\INCLUDE\XCALL_ONCE.H
D:\SOFTWARE\VISUALSTUDIOCOMMUNITY2019\VC\TOOLS\MSVC\14.29.30133\INCLUDE\XERRC.H
D:\SOFTWARE\VISUALSTUDIOCOMMUNITY2019\VC\TOOLS\MSVC\14.29.30133\INCLUDE\ATOMIC
D:\SOFTWARE\VISUALSTUDIOCOMMUNITY2019\VC\TOOLS\MSVC\14.29.30133\INCLUDE\XTHREADS.H
D:\SOFTWARE\VISUALSTUDIOCOMMUNITY2019\VC\TOOLS\MSVC\14.29.30133\INCLUDE\XTIMEC.H
D:\SOFTWARE\VISUALSTUDIOCOMMUNITY2019\VC\TOOLS\MSVC\14.29.30133\INCLUDE\CTIME
C:\PROGRAM FILES (X86)\WINDOWS KITS\10\INCLUDE\10.0.19041.0\UCRT\TIME.H
D:\SOFTWARE\VISUALSTUDIOCOMMUNITY2019\VC\TOOLS\MSVC\14.29.30133\INCLUDE\XLOCALE
D:\SOFTWARE\VISUALSTUDIOCOMMUNITY2019\VC\TOOLS\MSVC\14.29.30133\INCLUDE\MEMORY
D:\SOFTWARE\VISUALSTUDIOCOMMUNITY2019\VC\TOOLS\MSVC\14.29.30133\INCLUDE\TYPEINFO
D:\SOFTWARE\VISUALSTUDIOCOMMUNITY2019\VC\TOOLS\MSVC\14.29.30133\INCLUDE\VCRUNTIME_TYPEINFO.H
D:\SOFTWARE\VISUALSTUDIOCOMMUNITY2019\VC\TOOLS\MSVC\14.29.30133\INCLUDE\XFACET
D:\SOFTWARE\VISUALSTUDIOCOMMUNITY2019\VC\TOOLS\MSVC\14.29.30133\INCLUDE\XLOCINFO
D:\SOFTWARE\VISUALSTUDIOCOMMUNITY2019\VC\TOOLS\MSVC\14.29.30133\INCLUDE\XLOCINFO.H
D:\SOFTWARE\VISUALSTUDIOCOMMUNITY2019\VC\TOOLS\MSVC\14.29.30133\INCLUDE\CCTYPE
C:\PROGRAM FILES (X86)\WINDOWS KITS\10\INCLUDE\10.0.19041.0\UCRT\CTYPE.H
D:\SOFTWARE\VISUALSTUDIOCOMMUNITY2019\VC\TOOLS\MSVC\14.29.30133\INCLUDE\CLOCALE
C:\PROGRAM FILES (X86)\WINDOWS KITS\10\INCLUDE\10.0.19041.0\UCRT\LOCALE.H
D:\SOFTWARE\VISUALSTUDIOCOMMUNITY2019\VC\TOOLS\MSVC\14.29.30133\INCLUDE\VECTOR
D:\SOFTWARE\VISUALSTUDIOCOMMUNITY2019\VC\TOOLS\MSVC\14.29.30133\INCLUDE\STRING
D:\SOFTWARE\VISUALSTUDIOCOMMUNITY2019\VC\TOOLS\MSVC\14.29.30133\INCLUDE\FSTREAM
D:\SOFTWARE\VISUALSTUDIOCOMMUNITY2019\VC\TOOLS\MSVC\14.29.30133\INCLUDE\ALGORITHM
