^D:\SCHOOL\NI-KOP\GITLAB\TASK02\NI-KOP - TASK2 - EXAKTNI A HEURISTICKA RESENI PB\NI-KOP - TASK2 - EXAKTNI A HEURISTICKA RESENI PB\BAG.CPP|D:\SCHOOL\NI-KOP\GITLAB\TASK02\NI-KOP - TASK2 - EXAKTNI A HEURISTICKA RESENI PB\NI-KOP - TASK2 - EXAKTNI A HEURISTICKA RESENI PB\MAIN.CPP|D:\SCHOOL\NI-KOP\GITLAB\TASK02\NI-KOP - TASK2 - EXAKTNI A HEURISTICKA RESENI PB\NI-KOP - TASK2 - EXAKTNI A HEURISTICKA RESENI PB\TIMER.CPP
D:\SCHOOL\NI-KOP\GITLAB\TASK02\NI-KOP - TASK2 - EXAKTNI A HEURISTICKA RESENI PB\NI-KOP - TASK2 - EXAKTNI A HEURISTICKA RESENI PB\DEBUG\VC142.PDB
D:\SCHOOL\NI-KOP\GITLAB\TASK02\NI-KOP - TASK2 - EXAKTNI A HEURISTICKA RESENI PB\NI-KOP - TASK2 - EXAKTNI A HEURISTICKA RESENI PB\DEBUG\VC142.IDB
D:\SCHOOL\NI-KOP\GITLAB\TASK02\NI-KOP - TASK2 - EXAKTNI A HEURISTICKA RESENI PB\NI-KOP - TASK2 - EXAKTNI A HEURISTICKA RESENI PB\DEBUG\TIMER.OBJ
D:\SCHOOL\NI-KOP\GITLAB\TASK02\NI-KOP - TASK2 - EXAKTNI A HEURISTICKA RESENI PB\NI-KOP - TASK2 - EXAKTNI A HEURISTICKA RESENI PB\DEBUG\MAIN.OBJ
D:\SCHOOL\NI-KOP\GITLAB\TASK02\NI-KOP - TASK2 - EXAKTNI A HEURISTICKA RESENI PB\NI-KOP - TASK2 - EXAKTNI A HEURISTICKA RESENI PB\DEBUG\BAG.OBJ
^D:\SCHOOL\NI-KOP\GITLAB\TASK02\NI-KOP - TASK2 - EXAKTNI A HEURISTICKA RESENI PB\NI-KOP - TASK2 - EXAKTNI A HEURISTICKA RESENI PB\TIMER.CPP
D:\SCHOOL\NI-KOP\GITLAB\TASK02\NI-KOP - TASK2 - EXAKTNI A HEURISTICKA RESENI PB\NI-KOP - TASK2 - EXAKTNI A HEURISTICKA RESENI PB\DEBUG\VC142.PDB
^D:\SCHOOL\NI-KOP\GITLAB\TASK02\NI-KOP - TASK2 - EXAKTNI A HEURISTICKA RESENI PB\NI-KOP - TASK2 - EXAKTNI A HEURISTICKA RESENI PB\BAG.CPP|D:\SCHOOL\NI-KOP\GITLAB\TASK02\NI-KOP - TASK2 - EXAKTNI A HEURISTICKA RESENI PB\NI-KOP - TASK2 - EXAKTNI A HEURISTICKA RESENI PB\MAIN.CPP
D:\SCHOOL\NI-KOP\GITLAB\TASK02\NI-KOP - TASK2 - EXAKTNI A HEURISTICKA RESENI PB\NI-KOP - TASK2 - EXAKTNI A HEURISTICKA RESENI PB\DEBUG\VC142.PDB
D:\SCHOOL\NI-KOP\GITLAB\TASK02\NI-KOP - TASK2 - EXAKTNI A HEURISTICKA RESENI PB\NI-KOP - TASK2 - EXAKTNI A HEURISTICKA RESENI PB\DEBUG\VC142.IDB
D:\SCHOOL\NI-KOP\GITLAB\TASK02\NI-KOP - TASK2 - EXAKTNI A HEURISTICKA RESENI PB\NI-KOP - TASK2 - EXAKTNI A HEURISTICKA RESENI PB\DEBUG\MAIN.OBJ
D:\SCHOOL\NI-KOP\GITLAB\TASK02\NI-KOP - TASK2 - EXAKTNI A HEURISTICKA RESENI PB\NI-KOP - TASK2 - EXAKTNI A HEURISTICKA RESENI PB\DEBUG\BAG.OBJ
^D:\SCHOOL\NI-KOP\GITLAB\TASK02\NI-KOP - TASK2 - EXAKTNI A HEURISTICKA RESENI PB\NI-KOP - TASK2 - EXAKTNI A HEURISTICKA RESENI PB\BAG.CPP
D:\SCHOOL\NI-KOP\GITLAB\TASK02\NI-KOP - TASK2 - EXAKTNI A HEURISTICKA RESENI PB\NI-KOP - TASK2 - EXAKTNI A HEURISTICKA RESENI PB\DEBUG\VC142.PDB
D:\SCHOOL\NI-KOP\GITLAB\TASK02\NI-KOP - TASK2 - EXAKTNI A HEURISTICKA RESENI PB\NI-KOP - TASK2 - EXAKTNI A HEURISTICKA RESENI PB\DEBUG\VC142.IDB
D:\SCHOOL\NI-KOP\GITLAB\TASK02\NI-KOP - TASK2 - EXAKTNI A HEURISTICKA RESENI PB\NI-KOP - TASK2 - EXAKTNI A HEURISTICKA RESENI PB\DEBUG\BAG.OBJ
^D:\SCHOOL\NI-KOP\GITLAB\TASK02\NI-KOP - TASK2 - EXAKTNI A HEURISTICKA RESENI PB\NI-KOP - TASK2 - EXAKTNI A HEURISTICKA RESENI PB\MAIN.CPP
D:\SCHOOL\NI-KOP\GITLAB\TASK02\NI-KOP - TASK2 - EXAKTNI A HEURISTICKA RESENI PB\NI-KOP - TASK2 - EXAKTNI A HEURISTICKA RESENI PB\DEBUG\VC142.PDB
D:\SCHOOL\NI-KOP\GITLAB\TASK02\NI-KOP - TASK2 - EXAKTNI A HEURISTICKA RESENI PB\NI-KOP - TASK2 - EXAKTNI A HEURISTICKA RESENI PB\DEBUG\VC142.IDB
D:\SCHOOL\NI-KOP\GITLAB\TASK02\NI-KOP - TASK2 - EXAKTNI A HEURISTICKA RESENI PB\NI-KOP - TASK2 - EXAKTNI A HEURISTICKA RESENI PB\DEBUG\MAIN.OBJ
