^D:\SCHOOL\NI-KOP\GITLAB\TASK02\NI-KOP - TASK2 - EXAKTNI A HEURISTICKA RESENI PB\NI-KOP - TASK2 - EXAKTNI A HEURISTICKA RESENI PB\DEBUG\BAG.OBJ|D:\SCHOOL\NI-KOP\GITLAB\TASK02\NI-KOP - TASK2 - EXAKTNI A HEURISTICKA RESENI PB\NI-KOP - TASK2 - EXAKTNI A HEURISTICKA RESENI PB\DEBUG\MAIN.OBJ|D:\SCHOOL\NI-KOP\GITLAB\TASK02\NI-KOP - TASK2 - EXAKTNI A HEURISTICKA RESENI PB\NI-KOP - TASK2 - EXAKTNI A HEURISTICKA RESENI PB\DEBUG\TIMER.OBJ
D:\SCHOOL\NI-KOP\GITLAB\TASK02\NI-KOP - TASK2 - EXAKTNI A HEURISTICKA RESENI PB\DEBUG\NI-KOP - TASK2 - EXAKTNI A HEURISTICKA RESENI PB.EXE
D:\SCHOOL\NI-KOP\GITLAB\TASK02\NI-KOP - TASK2 - EXAKTNI A HEURISTICKA RESENI PB\NI-KOP - TASK2 - EXAKTNI A HEURISTICKA RESENI PB\DEBUG\NI-KOP - TASK2 - EXAKTNI A HEURISTICKA RESENI PB.ILK
D:\SCHOOL\NI-KOP\GITLAB\TASK02\NI-KOP - TASK2 - EXAKTNI A HEURISTICKA RESENI PB\DEBUG\NI-KOP - TASK2 - EXAKTNI A HEURISTICKA RESENI PB.PDB
