^D:\SCHOOL\NI-KOP\GITLAB\TASK02\NI-KOP - TASK2 - EXAKTNI A HEURISTICKA RESENI PB\NI-KOP - TASK2 - EXAKTNI A HEURISTICKA RESENI PB\DEBUG\BAG.OBJ|D:\SCHOOL\NI-KOP\GITLAB\TASK02\NI-KOP - TASK2 - EXAKTNI A HEURISTICKA RESENI PB\NI-KOP - TASK2 - EXAKTNI A HEURISTICKA RESENI PB\DEBUG\MAIN.OBJ|D:\SCHOOL\NI-KOP\GITLAB\TASK02\NI-KOP - TASK2 - EXAKTNI A HEURISTICKA RESENI PB\NI-KOP - TASK2 - EXAKTNI A HEURISTICKA RESENI PB\DEBUG\TIMER.OBJ
C:\PROGRAM FILES (X86)\WINDOWS KITS\10\LIB\10.0.19041.0\UM\X86\KERNEL32.LIB
C:\PROGRAM FILES (X86)\WINDOWS KITS\10\LIB\10.0.19041.0\UM\X86\USER32.LIB
C:\PROGRAM FILES (X86)\WINDOWS KITS\10\LIB\10.0.19041.0\UM\X86\GDI32.LIB
C:\PROGRAM FILES (X86)\WINDOWS KITS\10\LIB\10.0.19041.0\UM\X86\WINSPOOL.LIB
C:\PROGRAM FILES (X86)\WINDOWS KITS\10\LIB\10.0.19041.0\UM\X86\COMDLG32.LIB
C:\PROGRAM FILES (X86)\WINDOWS KITS\10\LIB\10.0.19041.0\UM\X86\ADVAPI32.LIB
C:\PROGRAM FILES (X86)\WINDOWS KITS\10\LIB\10.0.19041.0\UM\X86\SHELL32.LIB
C:\PROGRAM FILES (X86)\WINDOWS KITS\10\LIB\10.0.19041.0\UM\X86\OLE32.LIB
C:\PROGRAM FILES (X86)\WINDOWS KITS\10\LIB\10.0.19041.0\UM\X86\OLEAUT32.LIB
C:\PROGRAM FILES (X86)\WINDOWS KITS\10\LIB\10.0.19041.0\UM\X86\UUID.LIB
C:\PROGRAM FILES (X86)\WINDOWS KITS\10\LIB\10.0.19041.0\UM\X86\ODBC32.LIB
C:\PROGRAM FILES (X86)\WINDOWS KITS\10\LIB\10.0.19041.0\UM\X86\ODBCCP32.LIB
D:\SCHOOL\NI-KOP\GITLAB\TASK02\NI-KOP - TASK2 - EXAKTNI A HEURISTICKA RESENI PB\NI-KOP - TASK2 - EXAKTNI A HEURISTICKA RESENI PB\DEBUG\BAG.OBJ
D:\SCHOOL\NI-KOP\GITLAB\TASK02\NI-KOP - TASK2 - EXAKTNI A HEURISTICKA RESENI PB\NI-KOP - TASK2 - EXAKTNI A HEURISTICKA RESENI PB\DEBUG\MAIN.OBJ
D:\SCHOOL\NI-KOP\GITLAB\TASK02\NI-KOP - TASK2 - EXAKTNI A HEURISTICKA RESENI PB\NI-KOP - TASK2 - EXAKTNI A HEURISTICKA RESENI PB\DEBUG\TIMER.OBJ
D:\SCHOOL\NI-KOP\GITLAB\TASK02\NI-KOP - TASK2 - EXAKTNI A HEURISTICKA RESENI PB\NI-KOP - TASK2 - EXAKTNI A HEURISTICKA RESENI PB\DEBUG\NI-KOP - TASK2 - EXAKTNI A HEURISTICKA RESENI PB.ILK
C:\WINDOWS\SYSTEM32\TZRES.DLL
C:\WINDOWS\GLOBALIZATION\SORTING\SORTDEFAULT.NLS
D:\SOFTWARE\VISUALSTUDIOCOMMUNITY2019\VC\TOOLS\MSVC\14.29.30133\LIB\X86\MSVCPRTD.LIB
D:\SOFTWARE\VISUALSTUDIOCOMMUNITY2019\VC\TOOLS\MSVC\14.29.30133\LIB\X86\MSVCRTD.LIB
D:\SOFTWARE\VISUALSTUDIOCOMMUNITY2019\VC\TOOLS\MSVC\14.29.30133\LIB\X86\OLDNAMES.LIB
D:\SOFTWARE\VISUALSTUDIOCOMMUNITY2019\VC\TOOLS\MSVC\14.29.30133\LIB\X86\VCRUNTIMED.LIB
C:\PROGRAM FILES (X86)\WINDOWS KITS\10\LIB\10.0.19041.0\UCRT\X86\UCRTD.LIB
