172
82
43
82
511
43
537
775
83
82
91
107
628
68
600
104
53
627
538
83
81
537
554
611
554
598
90
80
164
545
516
513
560
154
542
83
144
675
82
122
523
134
578
549
527
83
533
43
535
512
501
157
84
83
543
530
83
558
509
63
82
510
547
526
505
42
539
63
561
553
83
140
84
557
515
62
521
566
84
42
501
85
83
533
549
500
559
662
524
83
591
530
524
515
72
153
534
84
627
218
113
85
122
546
554
524
526
82
80
529
142
538
516
82
519
513
546
126
529
547
143
83
550
90
83
539
535
484
164
563
745
983
146
72
748
182
750
127
83
704
101
82
157
162
623
85
553
557
575
83
531
536
43
82
525
125
635
72
161
541
81
83
540
548
124
539
515
563
201
513
539
551
511
43
82
517
596
533
525
547
82
528
63
586
238
82
517
497
86
586
539
544
82
560
542
80
809
81
82
261
83
550
82
511
122
81
546
542
521
560
152
82
162
83
552
535
542
534
540
140
517
80
539
42
737
645
631
82
83
497
82
82
578
119
72
538
138
140
498
77
510
503
558
551
82
554
552
537
82
82
533
42
508
499
553
536
63
164
83
530
570
532
532
548
563
722
573
161
524
595
228
153
143
129
143
553
80
499
514
81
523
612
43
532
82
519
491
510
163
541
83
565
526
534
82
81
82
72
79
82
83
158
520
73
512
82
82
503
73
552
82
511
561
558
82
83
79
79
490
152
157
532
540
82
544
124
563
546
547
237
531
84
82
82
533
82
533
83
42
531
82
123
705
123
121
566
122
538
82
142
529
77
81
530
81
366
527
510
82
142
80
518
530
142
81
122
508
506
83
557
559
122
521
538
142
141
200
157
222
66
80
525
491
522
537
84
152
82
42
122
82
82
82
511
533
509
82
122
42
481
142
540
508
159
506
81
72
80
77
534
82
516
62
82
547
63
80
504
82
508
143
546
513
149
231
42
553
82
535
72
82
82
152
516
543
62
77
512
143
142
142
72
498
573
558
338
524
81
143
63
520
580
528
255
54
496
82
157
189
158
559
159
73
490
82
82
85
570
572
525
562
127
77
496
159
515
139
82
82
553
81
534
83
531
81
81
156
548
82
160
506
584
77
42
516
525
152
161
87
570
