4
5
4
4
61
4
73
73
4
3
4
4
100
4
106
4
3
104
99
3
4
116
63
93
51
96
4
3
4
45
49
87
112
7
86
4
4
80
4
3
114
4
139
67
111
4
67
4
114
73
98
9
4
3
84
36
4
50
104
4
4
64
119
72
69
4
41
4
67
72
4
6
4
41
70
4
92
175
4
4
81
4
4
34
125
58
126
52
74
4
79
54
117
61
4
4
54
3
100
4
7
4
4
116
98
73
74
3
4
78
6
101
68
4
67
64
125
5
72
91
4
4
46
3
4
123
97
26
8
87
66
211
4
4
89
5
81
4
4
77
5
4
4
7
78
4
81
82
101
4
99
91
4
4
81
5
71
4
4
41
4
4
52
140
4
78
125
178
7
67
74
92
69
4
7
163
45
31
36
81
4
79
4
51
16
4
73
39
4
61
62
75
4
86
113
4
97
4
4
11
4
124
4
78
4
4
115
61
106
112
4
4
4
4
57
116
60
63
115
7
79
3
38
3
109
59
31
4
4
29
4
4
85
15
4
110
6
8
52
3
67
43
155
42
4
114
92
65
4
5
55
4
100
82
143
46
4
4
4
53
84
107
50
63
148
29
120
4
133
132
12
4
4
4
6
59
3
49
48
4
58
56
4
135
4
93
39
40
4
90
4
131
56
60
3
4
4
4
4
3
3
9
28
3
41
4
3
64
4
67
4
91
62
85
4
4
3
8
31
4
5
42
163
4
69
4
91
140
51
5
28
4
4
4
57
4
56
3
3
78
4
4
52
4
5
99
5
41
4
6
65
4
3
102
3
25
93
72
4
3
4
52
45
7
4
5
88
36
3
63
112
5
35
90
6
3
8
4
3
4
3
85
30
78
91
4
7
4
4
4
3
4
4
79
62
36
4
3
4
32
6
83
33
4
85
4
4
3
4
65
4
111
4
4
63
3
4
43
3
63
4
49
37
8
13
4
75
4
40
4
4
4
4
105
74
3
4
49
3
6
3
3
63
189
88
25
100
4
4
3
83
89
30
4
4
32
3
4
4
4
37
4
6
42
5
3
4
81
101
94
64
4
3
41
3
57
7
3
3
119
4
57
4
37
3
4
8
94
4
4
50
142
4
4
75
39
7
3
3
146
