91303
52630
88996
70822
2444377
71880
2333266
2247791
40907
20467
82550
40788
2281960
40312
2419208
80612
80127
2293212
2426830
82093
40420
2224551
2340315
2188930
2417460
2202528
40956
20042
40011
2248383
2375917
2341996
2325232
83405
2338827
40446
61794
2243363
82042
79944
2204297
41023
2316440
2274764
2410222
81506
2266565
83209
2230407
2316935
2211793
81753
82636
42264
2377486
2393851
77271
2295080
2270959
41250
41198
2328830
2272930
2301400
2219628
81557
2305482
41135
2361589
2307219
40950
61923
40257
2381200
2275131
40146
2245081
2255295
40696
80377
2370845
162857
82316
2376693
2371985
2421652
2345138
2279967
2341197
42589
2369885
2235558
2360765
2342443
40750
81608
2266825
81588
2303302
40562
83305
40930
71845
2286212
2347201
2409135
2428374
161610
41438
2256654
77737
2444978
2252020
122438
2252687
2398751
2272286
40749
2298242
2403714
80936
161377
2292966
80896
79556
2431883
2336367
2314696
41227
2182811
2250784
2258191
46733
40048
2424095
41080
2223207
76521
41192
2318229
20477
40940
39027
78723
2257396
75321
2235135
2404059
2208096
61505
2325543
2387945
42126
72385
2188401
81810
2248959
40139
81979
2308419
41208
38835
2443903
2155006
82650
2396337
2371362
2346074
81552
2340132
2154790
2180252
2237199
41180
41092
2176705
2416918
2298374
2299403
2409054
40240
2271042
157122
2353725
70403
40168
2254085
2412144
80353
2178612
2373292
2400148
80904
2442545
2234478
82209
2247473
36113
40343
40146
39795
2405132
77604
2232012
83485
80977
2373431
2274773
2291720
2152413
80343
41900
121449
79222
2299975
2252258
2319625
2408491
2178496
72018
2228452
40540
2311356
81342
2386261
2250005
2294908
40963
86291
2368179
163452
41758
2349072
83300
40569
2321774
40438
41076
2332616
40379
2328957
2238003
2334508
2417778
40913
2353641
2396446
2222273
38442
62976
2194418
82131
2336954
2462008
2302756
2171451
39919
81136
81753
2315075
2245124
2330162
2373390
2305333
2244089
2215684
2293054
40949
2356867
2179012
143846
42410
81995
83769
41339
2417862
71876
2337104
2354036
82120
2379649
2399320
40607
2238280
168336
2232433
2388892
2412223
40950
2209035
35232
2298721
2334829
2412295
60605
42411
20697
41282
77522
81896
41049
81683
2400280
81017
2403308
81379
65587
2107565
41464
2391930
160429
2331891
2369193
2153352
42980
143773
20591
82197
2395282
41054
82598
2392079
2159007
80889
2368246
41243
2388988
2274534
2293832
80384
2295560
40324
123367
80266
2364544
40951
2365519
41444
41185
2174227
80203
41256
2349329
40994
40617
2342055
82704
2332313
40898
82028
2269307
40395
40279
2299538
41384
156963
2208741
2321505
41201
157421
40671
2383272
2604949
83038
143835
42033
2363143
2307396
41351
2332761
2277476
41508
2307052
2350699
43352
81346
81409
42382
82847
78679
21262
2338036
2241265
2197828
2463408
242419
40977
41145
82280
40985
81319
19170
42422
2238445
2410231
2352809
40311
288481
82902
2366692
40810
2311695
2192921
41371
2421440
40356
84587
41454
41845
2389810
79724
2201890
80730
40733
2312605
40241
40190
2083807
41995
2376235
62561
2225292
2132634
41124
698532
76800
2249783
40983
2463382
167463
40499
41244
41748
2397448
2211954
41445
41076
2227584
81225
81542
41017
40707
2376545
2382401
2286281
80405
2430605
83617
40727
82466
2311330
2375810
2237037
74484
62230
2219910
40816
41249
41393
42143
2316794
40728
160804
2359344
40861
60529
80275
2429568
2291808
2224871
2439260
83819
40571
2314558
76802
2403848
40991
81414
40876
2180780
40953
2271920
40584
2176709
39110
81837
80273
2359950
77026
82850
2286033
2195789
41079
41311
2224390
2305381
71313
81091
40220
2362767
