663588
161557
163761
164740
19705271
121996
19337034
19504491
248610
493904
326996
326545
19442538
636906
17197958
328203
164707
19106158
19423063
644599
648415
18248813
18984092
18739774
18810684
18200811
162465
326433
334202
18880867
18983214
18314642
17945130
247028
18308320
163977
617149
17867652
304397
166024
19310650
158777
19367622
18513275
18430152
491732
19448924
327510
18942536
18886847
19208869
330026
329081
305842
19015820
18690077
307036
17834113
17635043
329551
331238
19612935
17932725
18593731
18603031
307933
18566865
124687
18544125
18975169
164449
166782
329031
17969012
17660586
318868
18030897
19669175
329027
179728
18978745
663174
327914
19266440
18413605
17969348
18371626
19251267
19303453
163409
17977496
19204925
17710665
18665358
325492
163865
17745065
329112
18974794
325307
81261
322235
328633
19118506
18747101
17996779
18680168
330867
332307
18283216
332698
19196017
18991783
286615
19472384
19157754
18231067
335493
17925757
19125690
164523
288900
18119115
331957
570973
18798370
19491608
19028957
329269
18927439
17871812
18456630
325505
162321
18917854
325515
17794197
328930
327053
17973053
327809
324786
169372
328617
18821231
331428
19247460
19306866
18001793
496387
18599765
18315879
161683
327119
17458221
628969
19291529
324776
163219
19338049
329049
163667
18099204
18923511
1232882
17896770
19397147
17509775
327274
18232738
17879163
19109082
19098712
330509
162997
18938736
17970389
18978883
18444154
18489209
82349
18512393
162634
18764899
324398
327964
18305093
19174037
164319
19253328
18771240
18579588
327996
19294852
18670929
336032
18153503
327728
325975
492363
160960
18196930
324807
19440626
643140
327555
17785195
18468590
17904322
17699635
161392
317227
330994
164364
18579311
19055560
18080223
17706532
18634938
572089
19516614
325062
18265420
165202
19597059
19531032
19068197
327219
326565
17849182
669898
161978
19023537
329106
342382
19148357
637751
652512
17889790
331355
17939026
18079443
18665715
18187728
653325
18931266
18552748
19609081
327996
330936
19433646
164343
18864280
18330798
19418203
18834987
656983
337020
331134
18463379
19578317
17717489
18914755
18386460
18666485
19836426
18397923
164546
19185927
19507027
631986
330847
494829
163534
496138
19367999
572938
18812824
17973942
329429
19068096
19071393
327905
18563610
326810
19333737
18475745
19540864
322215
19387604
82379
18891089
19060279
19189834
329301
82243
309333
652106
650409
245955
574973
321930
18399915
320417
19572967
323917
328974
19417735
164341
18699449
329641
18376111
17968914
19105749
164487
162954
330482
325065
18217319
160996
333256
19342168
18082938
163382
18601888
330040
19199389
19696415
18314995
490460
18993287
330091
327584
167090
19426541
164015
18979100
161866
329863
17918336
162341
659256
19416894
82468
165580
18764997
330705
19006617
660646
328598
18981435
165677
327161
19177802
326326
618608
18354734
18554737
326376
636018
323081
19059624
19310126
331156
243039
318320
18055143
18422236
165217
17970442
17931853
325668
17519744
18724457
654724
323421
329316
1274826
320646
330973
329998
18844478
19549743
19678082
17766423
2784725
328195
335492
164077
166779
163813
333891
331394
18188272
18771039
18122609
164804
502362
328870
18737492
324733
19686590
17952575
142703
18613828
328616
654752
289045
493902
19262827
331251
19434950
330365
289789
19120201
327384
164402
18193123
162910
18842057
329049
18440136
18535181
2049864
645548
326014
19211671
324192
18630477
325430
332060
339864
163242
19279465
18262385
327493
326369
19355191
660812
330807
330603
327527
19465815
18410981
18831155
82285
17983156
327900
81242
328524
19197626
18122753
19111667
162712
660270
18802636
161340
309862
331280
326826
18227985
327686
308858
19611007
243416
328118
321846
17724004
18328868
18687480
18877849
635163
164141
19536175
325810
19004432
328908
335673
164929
18578402
162778
19028044
168448
18996798
309101
165925
330182
18402083
329895
635551
19120538
18301395
163440
639894
19709412
18441001
331438
164941
164645
19820402
