^D:\SCHOOL\NI-KOP\GITLAB\TASK04\NI-KOP - TASK04 - ITERATIVE\NI-KOP - TASK04 - ITERATIVE\BAG.CPP
/c /Zi /nologo /W3 /WX- /diagnostics:column /sdl /O2 /Oi /Oy- /GL /D WIN32 /D NDEBUG /D _CONSOLE /D _UNICODE /D UNICODE /Gm- /EHsc /MD /GS /Gy /fp:precise /permissive- /Zc:wchar_t /Zc:forScope /Zc:inline /Fo"RELEASE\\" /Fd"RELEASE\VC142.PDB" /external:W3 /Gd /TP /analyze- /FC D:\SCHOOL\NI-KOP\GITLAB\TASK04\NI-KOP - TASK04 - ITERATIVE\NI-KOP - TASK04 - ITERATIVE\BAG.CPP
^D:\SCHOOL\NI-KOP\GITLAB\TASK04\NI-KOP - TASK04 - ITERATIVE\NI-KOP - TASK04 - ITERATIVE\MAIN.CPP
/c /Zi /nologo /W3 /WX- /diagnostics:column /sdl /O2 /Oi /Oy- /GL /D WIN32 /D NDEBUG /D _CONSOLE /D _UNICODE /D UNICODE /Gm- /EHsc /MD /GS /Gy /fp:precise /permissive- /Zc:wchar_t /Zc:forScope /Zc:inline /Fo"RELEASE\\" /Fd"RELEASE\VC142.PDB" /external:W3 /Gd /TP /analyze- /FC D:\SCHOOL\NI-KOP\GITLAB\TASK04\NI-KOP - TASK04 - ITERATIVE\NI-KOP - TASK04 - ITERATIVE\MAIN.CPP
^D:\SCHOOL\NI-KOP\GITLAB\TASK04\NI-KOP - TASK04 - ITERATIVE\NI-KOP - TASK04 - ITERATIVE\TIMER.CPP
/c /Zi /nologo /W3 /WX- /diagnostics:column /sdl /O2 /Oi /Oy- /GL /D WIN32 /D NDEBUG /D _CONSOLE /D _UNICODE /D UNICODE /Gm- /EHsc /MD /GS /Gy /fp:precise /permissive- /Zc:wchar_t /Zc:forScope /Zc:inline /Fo"RELEASE\\" /Fd"RELEASE\VC142.PDB" /external:W3 /Gd /TP /analyze- /FC D:\SCHOOL\NI-KOP\GITLAB\TASK04\NI-KOP - TASK04 - ITERATIVE\NI-KOP - TASK04 - ITERATIVE\TIMER.CPP
