^D:\SCHOOL\NI-KOP\GITLAB\TASK04\NI-KOP - TASK04 - ITERATIVE\NI-KOP - TASK04 - ITERATIVE\BAG.CPP|D:\SCHOOL\NI-KOP\GITLAB\TASK04\NI-KOP - TASK04 - ITERATIVE\NI-KOP - TASK04 - ITERATIVE\MAIN.CPP|D:\SCHOOL\NI-KOP\GITLAB\TASK04\NI-KOP - TASK04 - ITERATIVE\NI-KOP - TASK04 - ITERATIVE\TIMER.CPP
D:\SCHOOL\NI-KOP\GITLAB\TASK04\NI-KOP - TASK04 - ITERATIVE\NI-KOP - TASK04 - ITERATIVE\RELEASE\VC142.PDB
D:\SCHOOL\NI-KOP\GITLAB\TASK04\NI-KOP - TASK04 - ITERATIVE\NI-KOP - TASK04 - ITERATIVE\RELEASE\TIMER.OBJ
D:\SCHOOL\NI-KOP\GITLAB\TASK04\NI-KOP - TASK04 - ITERATIVE\NI-KOP - TASK04 - ITERATIVE\RELEASE\MAIN.OBJ
D:\SCHOOL\NI-KOP\GITLAB\TASK04\NI-KOP - TASK04 - ITERATIVE\NI-KOP - TASK04 - ITERATIVE\RELEASE\BAG.OBJ
^D:\SCHOOL\NI-KOP\GITLAB\TASK04\NI-KOP - TASK04 - ITERATIVE\NI-KOP - TASK04 - ITERATIVE\BAG.CPP
D:\SCHOOL\NI-KOP\GITLAB\TASK04\NI-KOP - TASK04 - ITERATIVE\NI-KOP - TASK04 - ITERATIVE\RELEASE\VC142.PDB
^D:\SCHOOL\NI-KOP\GITLAB\TASK04\NI-KOP - TASK04 - ITERATIVE\NI-KOP - TASK04 - ITERATIVE\MAIN.CPP
D:\SCHOOL\NI-KOP\GITLAB\TASK04\NI-KOP - TASK04 - ITERATIVE\NI-KOP - TASK04 - ITERATIVE\RELEASE\VC142.PDB
^D:\SCHOOL\NI-KOP\GITLAB\TASK04\NI-KOP - TASK04 - ITERATIVE\NI-KOP - TASK04 - ITERATIVE\TIMER.CPP
D:\SCHOOL\NI-KOP\GITLAB\TASK04\NI-KOP - TASK04 - ITERATIVE\NI-KOP - TASK04 - ITERATIVE\RELEASE\VC142.PDB
