69
63
29
38
41
33
30
30
29
29
53
35
20
23
28
24
47
31
27
31
36
120
17
11
14
15
15
16
20
20
14
13
20
24
18
10
20
28
23
17
16
13
13
27
16
9
11
16
14
16
11
12
14
20
20
36
38
32
27
19
11
16
13
11
15
16
17
7
14
13
21
13
36
12
14
15
20
15
14
16
14
13
21
29
78
58
15
13
15
13
12
15
12
13
24
11
20
16
11
28
14
27
23
16
13
17
17
17
14
10
12
13
12
18
11
13
14
22
14
24
20
17
16
11
23
20
32
23
25
24
30
21
26
23
42
29
31
27
25
15
14
26
18
15
15
21
19
16
15
22
12
27
30
11
40
33
31
22
36
20
18
20
28
33
36
24
28
24
20
38
38
31
29
30
28
24
40
16
15
17
18
13
14
26
20
18
23
12
24
18
26
29
30
23
21
23
31
20
23
29
41
22
32
41
27
20
38
23
22
31
17
14
17
15
7
16
22
14
11
16
21
17
15
16
27
22
30
25
13
24
14
23
14
14
13
16
12
23
38
16
12
11
17
14
14
19
11
19
16
21
17
17
20
20
16
24
10
11
16
19
15
20
28
15
12
11
18
14
27
14
28
17
11
12
17
15
20
13
16
16
12
16
23
15
21
21
24
24
19
10
13
16
15
21
17
15
