93
25
85
152
33
18
36
38
28
695
14
91
24
13
11
12
117
225
11
184
20
81
36
14
128
56
16
8
18
9
11
16
17
20
12
8
11
166
9
12
104
99
16
14
43
166
10
19
10
81
8
8
15
14
12
81
10
25
18
63
201
1705
145
7
114
37
37
42
109
37
39
45
8
11
46
11
11
12
27
97
22
39
13
8
11
34
28
53
51
118
350
11
116
12
61
23
508
12
107
42
12
8
17
14
34
10
53
10
10
32
50
32
62
203
79
27
95
43
15
41
10
13
14
9
221
25
16
9
8
8
32
19
78
13
28
59
10
24
42
40
13
20
25
81
33
73
43
12
25
21
56
119
3403
15
