388
102
426
135
147
68
478
212
100
201
192
235
411
213
132
190
161
429
166
121
65
232
286
132
276
294
109
292
152
183
146
181
150
130
258
85
136
84
185
217
101
140
108
88
159
496
107
70
105
143
157
338
241
80
98
206
136
248
