128
530
684
454
186
205
257
373
262
586
381
69
387
225
435
643
582
622
461
455
492
486
543
397
251
126
118
246
633
619
197
209
513
480
604
306
143
507
263
423
526
565
728
212
96
388
541
146
231
618
288
219
579
547
433
197
354
192
306
201
192
381
253
295
152
146
239
158
138
570
167
262
714
255
415
137
163
329
209
