286
182
106
160
75
209
72
126
169
60
110
98
168
237
60
91
80
62
101
131
181
258
62
68
96
134
119
118
104
125
72
108
152
162
98
68
91
153
92
117
62
189
168
95
117
73
62
140
158
91
73
85
113
57
115
38
100
105
141
122
88
103
49
147
147
65
50
155
181
54
90
113
81
83
140
135
206
