5120
4836
4900
4867
5860
5452
5598
6422
6320
6015
5881
5598
5412
5692
5204
6125
5372
6135
5325
5429
5689
5642
5944
4840
5306
4763
5630
5673
6616
5855
5905
6291
5710
6685
6203
4487
5032
6301
4933
7550
5513
9593
6612
5586
5707
6058
5603
